k-ring,1000,0.1,0.999,0.002002002002002,0.002002002
k-ring,1000,0.201,0.5,0.004004004004004,0.004004004
k-ring,1000,0.259,0.333,0.00600600600600601,0.006006006
k-ring,1000,0.301,0.25,0.00800800800800801,0.008008008
k-ring,1000,0.333,0.2,0.01001001001001,0.01001001
k-ring,1000,0.36,0.166,0.012012012012012,0.01201201
k-ring,1000,0.382,0.143,0.014014014014014,0.01401401
k-ring,1000,0.401,0.125,0.016016016016016,0.01601602
k-ring,1000,0.418,0.111,0.018018018018018,0.01801802
k-ring,1000,0.434,0.1,0.02002002002002,0.02002002
k-ring,1000,0.448,0.091,0.022022022022022,0.02202202
k-ring,1000,0.46,0.083,0.024024024024024,0.02402402
k-ring,1000,0.472,0.077,0.026026026026026,0.02602603
k-ring,1000,0.482,0.071,0.028028028028028,0.02802803
k-ring,1000,0.492,0.067,0.03003003003003,0.03003003
k-ring,1000,0.502,0.062,0.032032032032032,0.03203203
k-ring,1000,0.511,0.059,0.034034034034034,0.03403403
k-ring,1000,0.519,0.055,0.036036036036036,0.03603604
k-ring,1000,0.527,0.053,0.038038038038038,0.03803804
k-ring,1000,0.534,0.05,0.04004004004004,0.04004004
k-ring,1000,0.541,0.048,0.042042042042042,0.04204204
k-ring,1000,0.548,0.045,0.044044044044044,0.04404404
k-ring,1000,0.554,0.043,0.046046046046046,0.04604605
k-ring,1000,0.56,0.042,0.048048048048048,0.04804805
k-ring,1000,0.566,0.04,0.0500500500500501,0.05005005
k-ring,1000,0.572,0.038,0.0520520520520521,0.05205205
k-ring,1000,0.578,0.037,0.0540540540540541,0.05405405
k-ring,1000,0.583,0.036,0.0560560560560561,0.05605606
k-ring,1000,0.588,0.034,0.0580580580580581,0.05805806
k-ring,1000,0.593,0.033,0.0600600600600601,0.06006006
k-ring,1000,0.598,0.032,0.0620620620620621,0.06206206
k-ring,1000,0.602,0.031,0.0640640640640641,0.06406406
k-ring,1000,0.607,0.03,0.0660660660660661,0.06606607
k-ring,1000,0.611,0.029,0.0680680680680681,0.06806807
k-ring,1000,0.615,0.029,0.0700700700700701,0.07007007
k-ring,1000,0.619,0.028,0.0720720720720721,0.07207207
k-ring,1000,0.623,0.027,0.0740740740740741,0.07407407
k-ring,1000,0.627,0.026,0.0760760760760761,0.07607608
k-ring,1000,0.631,0.026,0.0780780780780781,0.07807808
k-ring,1000,0.634,0.025,0.0800800800800801,0.08008008
k-ring,1000,0.638,0.024,0.0820820820820821,0.08208208
k-ring,1000,0.642,0.024,0.0840840840840841,0.08408408
k-ring,1000,0.645,0.023,0.0860860860860861,0.08608609
k-ring,1000,0.648,0.023,0.0880880880880881,0.08808809
k-ring,1000,0.652,0.022,0.0900900900900901,0.09009009
k-ring,1000,0.655,0.022,0.0920920920920921,0.09209209
k-ring,1000,0.658,0.021,0.0940940940940941,0.09409409
k-ring,1000,0.661,0.021,0.0960960960960961,0.0960961
k-ring,1000,0.664,0.02,0.0980980980980981,0.0980981
k-ring,1000,0.667,0.02,0.1001001001001,0.1001001
k-ring,1000,0.67,0.02,0.102102102102102,0.1021021
k-ring,1000,0.672,0.019,0.104104104104104,0.1041041
k-ring,1000,0.675,0.019,0.106106106106106,0.1061061
k-ring,1000,0.678,0.019,0.108108108108108,0.1081081
k-ring,1000,0.681,0.018,0.11011011011011,0.1101101
k-ring,1000,0.683,0.018,0.112112112112112,0.1121121
k-ring,1000,0.686,0.018,0.114114114114114,0.1141141
k-ring,1000,0.688,0.017,0.116116116116116,0.1161161
k-ring,1000,0.691,0.017,0.118118118118118,0.1181181
k-ring,1000,0.693,0.017,0.12012012012012,0.1201201
k-ring,1000,0.696,0.016,0.122122122122122,0.1221221
k-ring,1000,0.698,0.016,0.124124124124124,0.1241241
k-ring,1000,0.7,0.016,0.126126126126126,0.1261261
k-ring,1000,0.703,0.016,0.128128128128128,0.1281281
k-ring,1000,0.705,0.015,0.13013013013013,0.1301301
k-ring,1000,0.707,0.015,0.132132132132132,0.1321321
k-ring,1000,0.709,0.015,0.134134134134134,0.1341341
k-ring,1000,0.711,0.015,0.136136136136136,0.1361361
k-ring,1000,0.713,0.014,0.138138138138138,0.1381381
k-ring,1000,0.715,0.014,0.14014014014014,0.1401401
k-ring,1000,0.718,0.014,0.142142142142142,0.1421421
k-ring,1000,0.72,0.014,0.144144144144144,0.1441441
k-ring,1000,0.722,0.014,0.146146146146146,0.1461461
k-ring,1000,0.724,0.014,0.148148148148148,0.1481481
k-ring,1000,0.725,0.013,0.15015015015015,0.1501502
k-ring,1000,0.727,0.013,0.152152152152152,0.1521522
k-ring,1000,0.729,0.013,0.154154154154154,0.1541542
k-ring,1000,0.731,0.013,0.156156156156156,0.1561562
k-ring,1000,0.733,0.013,0.158158158158158,0.1581582
k-ring,1000,0.735,0.012,0.16016016016016,0.1601602
k-ring,1000,0.737,0.012,0.162162162162162,0.1621622
k-ring,1000,0.738,0.012,0.164164164164164,0.1641642
k-ring,1000,0.74,0.012,0.166166166166166,0.1661662
k-ring,1000,0.742,0.012,0.168168168168168,0.1681682
k-ring,1000,0.744,0.012,0.17017017017017,0.1701702
k-ring,1000,0.745,0.012,0.172172172172172,0.1721722
k-ring,1000,0.747,0.011,0.174174174174174,0.1741742
k-ring,1000,0.749,0.011,0.176176176176176,0.1761762
k-ring,1000,0.75,0.011,0.178178178178178,0.1781782
k-ring,1000,0.752,0.011,0.18018018018018,0.1801802
k-ring,1000,0.753,0.011,0.182182182182182,0.1821822
k-ring,1000,0.755,0.011,0.184184184184184,0.1841842
k-ring,1000,0.757,0.011,0.186186186186186,0.1861862
k-ring,1000,0.758,0.011,0.188188188188188,0.1881882
k-ring,1000,0.76,0.011,0.19019019019019,0.1901902
k-ring,1000,0.761,0.01,0.192192192192192,0.1921922
k-ring,1000,0.763,0.01,0.194194194194194,0.1941942
k-ring,1000,0.764,0.01,0.196196196196196,0.1961962
k-ring,1000,0.766,0.01,0.198198198198198,0.1981982
k-ring,1000,0.767,0.01,0.2002002002002,0.2002002
k-ring,1000,0.769,0.01,0.202202202202202,0.2022022
k-ring,1000,0.77,0.01,0.204204204204204,0.2042042
k-ring,1000,0.771,0.01,0.206206206206206,0.2062062
k-ring,1000,0.773,0.01,0.208208208208208,0.2082082
k-ring,1000,0.774,0.01,0.21021021021021,0.2102102
k-ring,1000,0.776,0.009,0.212212212212212,0.2122122
k-ring,1000,0.777,0.009,0.214214214214214,0.2142142
k-ring,1000,0.778,0.009,0.216216216216216,0.2162162
k-ring,1000,0.78,0.009,0.218218218218218,0.2182182
k-ring,1000,0.781,0.009,0.22022022022022,0.2202202
k-ring,1000,0.782,0.009,0.222222222222222,0.2222222
k-ring,1000,0.784,0.009,0.224224224224224,0.2242242
k-ring,1000,0.785,0.009,0.226226226226226,0.2262262
k-ring,1000,0.786,0.009,0.228228228228228,0.2282282
k-ring,1000,0.787,0.009,0.23023023023023,0.2302302
k-ring,1000,0.789,0.009,0.232232232232232,0.2322322
k-ring,1000,0.79,0.009,0.234234234234234,0.2342342
k-ring,1000,0.791,0.008,0.236236236236236,0.2362362
k-ring,1000,0.792,0.008,0.238238238238238,0.2382382
k-ring,1000,0.794,0.008,0.24024024024024,0.2402402
k-ring,1000,0.795,0.008,0.242242242242242,0.2422422
k-ring,1000,0.796,0.008,0.244244244244244,0.2442442
k-ring,1000,0.797,0.008,0.246246246246246,0.2462462
k-ring,1000,0.798,0.008,0.248248248248248,0.2482482
k-ring,1000,0.799,0.008,0.25025025025025,0.2502503
k-ring,1000,0.801,0.008,0.252252252252252,0.2522523
k-ring,1000,0.802,0.008,0.254254254254254,0.2542543
k-ring,1000,0.803,0.008,0.256256256256256,0.2562563
k-ring,1000,0.804,0.008,0.258258258258258,0.2582583
k-ring,1000,0.805,0.008,0.26026026026026,0.2602603
k-ring,1000,0.806,0.008,0.262262262262262,0.2622623
k-ring,1000,0.807,0.008,0.264264264264264,0.2642643
k-ring,1000,0.808,0.008,0.266266266266266,0.2662663
k-ring,1000,0.809,0.007,0.268268268268268,0.2682683
k-ring,1000,0.811,0.007,0.27027027027027,0.2702703
k-ring,1000,0.812,0.007,0.272272272272272,0.2722723
k-ring,1000,0.813,0.007,0.274274274274274,0.2742743
k-ring,1000,0.814,0.007,0.276276276276276,0.2762763
k-ring,1000,0.815,0.007,0.278278278278278,0.2782783
k-ring,1000,0.816,0.007,0.28028028028028,0.2802803
k-ring,1000,0.817,0.007,0.282282282282282,0.2822823
k-ring,1000,0.818,0.007,0.284284284284284,0.2842843
k-ring,1000,0.819,0.007,0.286286286286286,0.2862863
k-ring,1000,0.82,0.007,0.288288288288288,0.2882883
k-ring,1000,0.821,0.007,0.29029029029029,0.2902903
k-ring,1000,0.822,0.007,0.292292292292292,0.2922923
k-ring,1000,0.823,0.007,0.294294294294294,0.2942943
k-ring,1000,0.824,0.007,0.296296296296296,0.2962963
k-ring,1000,0.825,0.007,0.298298298298298,0.2982983
k-ring,1000,0.826,0.007,0.3003003003003,0.3003003
k-ring,1000,0.827,0.007,0.302302302302302,0.3023023
k-ring,1000,0.828,0.007,0.304304304304304,0.3043043
k-ring,1000,0.829,0.007,0.306306306306306,0.3063063
k-ring,1000,0.83,0.006,0.308308308308308,0.3083083
k-ring,1000,0.831,0.006,0.31031031031031,0.3103103
k-ring,1000,0.832,0.006,0.312312312312312,0.3123123
k-ring,1000,0.832,0.006,0.314314314314314,0.3143143
k-ring,1000,0.833,0.006,0.316316316316316,0.3163163
k-ring,1000,0.834,0.006,0.318318318318318,0.3183183
k-ring,1000,0.835,0.006,0.32032032032032,0.3203203
k-ring,1000,0.836,0.006,0.322322322322322,0.3223223
k-ring,1000,0.837,0.006,0.324324324324324,0.3243243
k-ring,1000,0.838,0.006,0.326326326326326,0.3263263
k-ring,1000,0.839,0.006,0.328328328328328,0.3283283
k-ring,1000,0.84,0.006,0.33033033033033,0.3303303
k-ring,1000,0.841,0.006,0.332332332332332,0.3323323
k-ring,1000,0.841,0.006,0.334334334334334,0.3343343
k-ring,1000,0.842,0.006,0.336336336336336,0.3363363
k-ring,1000,0.843,0.006,0.338338338338338,0.3383383
k-ring,1000,0.844,0.006,0.34034034034034,0.3403403
k-ring,1000,0.845,0.006,0.342342342342342,0.3423423
k-ring,1000,0.846,0.006,0.344344344344344,0.3443443
k-ring,1000,0.846,0.006,0.346346346346346,0.3463463
k-ring,1000,0.847,0.006,0.348348348348348,0.3483483
k-ring,1000,0.848,0.006,0.35035035035035,0.3503504
k-ring,1000,0.849,0.006,0.352352352352352,0.3523524
k-ring,1000,0.85,0.006,0.354354354354354,0.3543544
k-ring,1000,0.851,0.006,0.356356356356356,0.3563564
k-ring,1000,0.851,0.006,0.358358358358358,0.3583584
k-ring,1000,0.852,0.006,0.36036036036036,0.3603604
k-ring,1000,0.853,0.006,0.362362362362362,0.3623624
k-ring,1000,0.854,0.005,0.364364364364364,0.3643644
k-ring,1000,0.855,0.005,0.366366366366366,0.3663664
k-ring,1000,0.855,0.005,0.368368368368368,0.3683684
k-ring,1000,0.856,0.005,0.37037037037037,0.3703704
k-ring,1000,0.857,0.005,0.372372372372372,0.3723724
k-ring,1000,0.858,0.005,0.374374374374374,0.3743744
k-ring,1000,0.859,0.005,0.376376376376376,0.3763764
k-ring,1000,0.859,0.005,0.378378378378378,0.3783784
k-ring,1000,0.86,0.005,0.38038038038038,0.3803804
k-ring,1000,0.861,0.005,0.382382382382382,0.3823824
k-ring,1000,0.862,0.005,0.384384384384384,0.3843844
k-ring,1000,0.862,0.005,0.386386386386386,0.3863864
k-ring,1000,0.863,0.005,0.388388388388388,0.3883884
k-ring,1000,0.864,0.005,0.39039039039039,0.3903904
k-ring,1000,0.865,0.005,0.392392392392392,0.3923924
k-ring,1000,0.865,0.005,0.394394394394394,0.3943944
k-ring,1000,0.866,0.005,0.396396396396396,0.3963964
k-ring,1000,0.867,0.005,0.398398398398398,0.3983984
k-ring,1000,0.867,0.005,0.4004004004004,0.4004004
k-ring,1000,0.868,0.005,0.402402402402402,0.4024024
k-ring,1000,0.869,0.005,0.404404404404404,0.4044044
k-ring,1000,0.87,0.005,0.406406406406406,0.4064064
k-ring,1000,0.87,0.005,0.408408408408408,0.4084084
k-ring,1000,0.871,0.005,0.41041041041041,0.4104104
k-ring,1000,0.872,0.005,0.412412412412412,0.4124124
k-ring,1000,0.872,0.005,0.414414414414414,0.4144144
k-ring,1000,0.873,0.005,0.416416416416416,0.4164164
k-ring,1000,0.874,0.005,0.418418418418418,0.4184184
k-ring,1000,0.875,0.005,0.42042042042042,0.4204204
k-ring,1000,0.875,0.005,0.422422422422422,0.4224224
k-ring,1000,0.876,0.005,0.424424424424424,0.4244244
k-ring,1000,0.877,0.005,0.426426426426426,0.4264264
k-ring,1000,0.877,0.005,0.428428428428428,0.4284284
k-ring,1000,0.878,0.005,0.43043043043043,0.4304304
k-ring,1000,0.879,0.005,0.432432432432432,0.4324324
k-ring,1000,0.879,0.005,0.434434434434434,0.4344344
k-ring,1000,0.88,0.005,0.436436436436436,0.4364364
k-ring,1000,0.881,0.005,0.438438438438438,0.4384384
k-ring,1000,0.881,0.005,0.44044044044044,0.4404404
k-ring,1000,0.882,0.005,0.442442442442442,0.4424424
k-ring,1000,0.883,0.004,0.444444444444444,0.4444444
k-ring,1000,0.883,0.004,0.446446446446446,0.4464464
k-ring,1000,0.884,0.004,0.448448448448448,0.4484484
k-ring,1000,0.885,0.004,0.45045045045045,0.4504505
k-ring,1000,0.885,0.004,0.452452452452452,0.4524525
k-ring,1000,0.886,0.004,0.454454454454454,0.4544545
k-ring,1000,0.886,0.004,0.456456456456456,0.4564565
k-ring,1000,0.887,0.004,0.458458458458458,0.4584585
k-ring,1000,0.888,0.004,0.46046046046046,0.4604605
k-ring,1000,0.888,0.004,0.462462462462462,0.4624625
k-ring,1000,0.889,0.004,0.464464464464464,0.4644645
k-ring,1000,0.89,0.004,0.466466466466466,0.4664665
k-ring,1000,0.89,0.004,0.468468468468468,0.4684685
k-ring,1000,0.891,0.004,0.47047047047047,0.4704705
k-ring,1000,0.891,0.004,0.472472472472472,0.4724725
k-ring,1000,0.892,0.004,0.474474474474474,0.4744745
k-ring,1000,0.893,0.004,0.476476476476476,0.4764765
k-ring,1000,0.893,0.004,0.478478478478478,0.4784785
k-ring,1000,0.894,0.004,0.48048048048048,0.4804805
k-ring,1000,0.894,0.004,0.482482482482482,0.4824825
k-ring,1000,0.895,0.004,0.484484484484485,0.4844845
k-ring,1000,0.896,0.004,0.486486486486487,0.4864865
k-ring,1000,0.896,0.004,0.488488488488488,0.4884885
k-ring,1000,0.897,0.004,0.49049049049049,0.4904905
k-ring,1000,0.897,0.004,0.492492492492492,0.4924925
k-ring,1000,0.898,0.004,0.494494494494495,0.4944945
k-ring,1000,0.899,0.004,0.496496496496497,0.4964965
k-ring,1000,0.899,0.004,0.498498498498498,0.4984985
k-ring,1000,0.9,0.004,0.500500500500501,0.5005005
k-ring,1000,0.9,0.004,0.502502502502503,0.5025025
k-ring,1000,0.901,0.004,0.504504504504504,0.5045045
k-ring,1000,0.902,0.004,0.506506506506507,0.5065065
k-ring,1000,0.902,0.004,0.508508508508508,0.5085085
k-ring,1000,0.903,0.004,0.510510510510511,0.5105105
k-ring,1000,0.903,0.004,0.512512512512513,0.5125125
k-ring,1000,0.904,0.004,0.514514514514514,0.5145145
k-ring,1000,0.904,0.004,0.516516516516517,0.5165165
k-ring,1000,0.905,0.004,0.518518518518518,0.5185185
k-ring,1000,0.905,0.004,0.520520520520521,0.5205205
k-ring,1000,0.906,0.004,0.522522522522523,0.5225225
k-ring,1000,0.907,0.004,0.524524524524524,0.5245245
k-ring,1000,0.907,0.004,0.526526526526527,0.5265265
k-ring,1000,0.908,0.004,0.528528528528528,0.5285285
k-ring,1000,0.908,0.004,0.530530530530531,0.5305305
k-ring,1000,0.909,0.004,0.532532532532533,0.5325325
k-ring,1000,0.909,0.004,0.534534534534535,0.5345345
k-ring,1000,0.91,0.004,0.536536536536537,0.5365365
k-ring,1000,0.91,0.004,0.538538538538539,0.5385385
k-ring,1000,0.911,0.004,0.540540540540541,0.5405405
k-ring,1000,0.911,0.004,0.542542542542543,0.5425425
k-ring,1000,0.912,0.004,0.544544544544545,0.5445445
k-ring,1000,0.913,0.004,0.546546546546547,0.5465465
k-ring,1000,0.913,0.004,0.548548548548549,0.5485485
k-ring,1000,0.914,0.004,0.550550550550551,0.5505506
k-ring,1000,0.914,0.004,0.552552552552553,0.5525526
k-ring,1000,0.915,0.004,0.554554554554555,0.5545546
k-ring,1000,0.915,0.004,0.556556556556557,0.5565566
k-ring,1000,0.916,0.004,0.558558558558559,0.5585586
k-ring,1000,0.916,0.004,0.560560560560561,0.5605606
k-ring,1000,0.917,0.004,0.562562562562563,0.5625626
k-ring,1000,0.917,0.004,0.564564564564565,0.5645646
k-ring,1000,0.918,0.004,0.566566566566567,0.5665666
k-ring,1000,0.918,0.004,0.568568568568569,0.5685686
k-ring,1000,0.919,0.004,0.570570570570571,0.5705706
k-ring,1000,0.919,0.003,0.572572572572573,0.5725726
k-ring,1000,0.92,0.003,0.574574574574575,0.5745746
k-ring,1000,0.92,0.003,0.576576576576577,0.5765766
k-ring,1000,0.921,0.003,0.578578578578579,0.5785786
k-ring,1000,0.921,0.003,0.580580580580581,0.5805806
k-ring,1000,0.922,0.003,0.582582582582583,0.5825826
k-ring,1000,0.922,0.003,0.584584584584585,0.5845846
k-ring,1000,0.923,0.003,0.586586586586587,0.5865866
k-ring,1000,0.923,0.003,0.588588588588589,0.5885886
k-ring,1000,0.924,0.003,0.590590590590591,0.5905906
k-ring,1000,0.924,0.003,0.592592592592593,0.5925926
k-ring,1000,0.925,0.003,0.594594594594595,0.5945946
k-ring,1000,0.925,0.003,0.596596596596597,0.5965966
k-ring,1000,0.926,0.003,0.598598598598599,0.5985986
k-ring,1000,0.926,0.003,0.600600600600601,0.6006006
k-ring,1000,0.927,0.003,0.602602602602603,0.6026026
k-ring,1000,0.927,0.003,0.604604604604605,0.6046046
k-ring,1000,0.928,0.003,0.606606606606607,0.6066066
k-ring,1000,0.928,0.003,0.608608608608609,0.6086086
k-ring,1000,0.929,0.003,0.610610610610611,0.6106106
k-ring,1000,0.929,0.003,0.612612612612613,0.6126126
k-ring,1000,0.93,0.003,0.614614614614615,0.6146146
k-ring,1000,0.93,0.003,0.616616616616617,0.6166166
k-ring,1000,0.93,0.003,0.618618618618619,0.6186186
k-ring,1000,0.931,0.003,0.620620620620621,0.6206206
k-ring,1000,0.931,0.003,0.622622622622623,0.6226226
k-ring,1000,0.932,0.003,0.624624624624625,0.6246246
k-ring,1000,0.932,0.003,0.626626626626627,0.6266266
k-ring,1000,0.933,0.003,0.628628628628629,0.6286286
k-ring,1000,0.933,0.003,0.630630630630631,0.6306306
k-ring,1000,0.934,0.003,0.632632632632633,0.6326326
k-ring,1000,0.934,0.003,0.634634634634635,0.6346346
k-ring,1000,0.935,0.003,0.636636636636637,0.6366366
k-ring,1000,0.935,0.003,0.638638638638639,0.6386386
k-ring,1000,0.936,0.003,0.640640640640641,0.6406406
k-ring,1000,0.936,0.003,0.642642642642643,0.6426426
k-ring,1000,0.936,0.003,0.644644644644645,0.6446446
k-ring,1000,0.937,0.003,0.646646646646647,0.6466466
k-ring,1000,0.937,0.003,0.648648648648649,0.6486486
k-ring,1000,0.938,0.003,0.650650650650651,0.6506507
k-ring,1000,0.938,0.003,0.652652652652653,0.6526527
k-ring,1000,0.939,0.003,0.654654654654655,0.6546547
k-ring,1000,0.939,0.003,0.656656656656657,0.6566567
k-ring,1000,0.94,0.003,0.658658658658659,0.6586587
k-ring,1000,0.94,0.003,0.660660660660661,0.6606607
k-ring,1000,0.94,0.003,0.662662662662663,0.6626627
k-ring,1000,0.941,0.003,0.664664664664665,0.6646647
k-ring,1000,0.941,0.003,0.666666666666667,0.6666667
k-ring,1000,0.942,0.003,0.668668668668669,0.6686687
k-ring,1000,0.942,0.003,0.670670670670671,0.6706707
k-ring,1000,0.943,0.003,0.672672672672673,0.6726727
k-ring,1000,0.943,0.003,0.674674674674675,0.6746747
k-ring,1000,0.943,0.003,0.676676676676677,0.6766767
k-ring,1000,0.944,0.003,0.678678678678679,0.6786787
k-ring,1000,0.944,0.003,0.680680680680681,0.6806807
k-ring,1000,0.945,0.003,0.682682682682683,0.6826827
k-ring,1000,0.945,0.003,0.684684684684685,0.6846847
k-ring,1000,0.946,0.003,0.686686686686687,0.6866867
k-ring,1000,0.946,0.003,0.688688688688689,0.6886887
k-ring,1000,0.946,0.003,0.690690690690691,0.6906907
k-ring,1000,0.947,0.003,0.692692692692693,0.6926927
k-ring,1000,0.947,0.003,0.694694694694695,0.6946947
k-ring,1000,0.948,0.003,0.696696696696697,0.6966967
k-ring,1000,0.948,0.003,0.698698698698699,0.6986987
k-ring,1000,0.949,0.003,0.700700700700701,0.7007007
k-ring,1000,0.949,0.003,0.702702702702703,0.7027027
k-ring,1000,0.949,0.003,0.704704704704705,0.7047047
k-ring,1000,0.95,0.003,0.706706706706707,0.7067067
k-ring,1000,0.95,0.003,0.708708708708709,0.7087087
k-ring,1000,0.951,0.003,0.710710710710711,0.7107107
k-ring,1000,0.951,0.003,0.712712712712713,0.7127127
k-ring,1000,0.951,0.003,0.714714714714715,0.7147147
k-ring,1000,0.952,0.003,0.716716716716717,0.7167167
k-ring,1000,0.952,0.003,0.718718718718719,0.7187187
k-ring,1000,0.953,0.003,0.720720720720721,0.7207207
k-ring,1000,0.953,0.003,0.722722722722723,0.7227227
k-ring,1000,0.953,0.003,0.724724724724725,0.7247247
k-ring,1000,0.954,0.003,0.726726726726727,0.7267267
k-ring,1000,0.954,0.003,0.728728728728729,0.7287287
k-ring,1000,0.955,0.003,0.730730730730731,0.7307307
k-ring,1000,0.955,0.003,0.732732732732733,0.7327327
k-ring,1000,0.955,0.003,0.734734734734735,0.7347347
k-ring,1000,0.956,0.003,0.736736736736737,0.7367367
k-ring,1000,0.956,0.003,0.738738738738739,0.7387387
k-ring,1000,0.957,0.003,0.740740740740741,0.7407407
k-ring,1000,0.957,0.003,0.742742742742743,0.7427427
k-ring,1000,0.957,0.003,0.744744744744745,0.7447447
k-ring,1000,0.958,0.003,0.746746746746747,0.7467467
k-ring,1000,0.958,0.003,0.748748748748749,0.7487487
k-ring,1000,0.958,0.003,0.750750750750751,0.7507508
k-ring,1000,0.959,0.003,0.752752752752753,0.7527528
k-ring,1000,0.959,0.003,0.754754754754755,0.7547548
k-ring,1000,0.96,0.003,0.756756756756757,0.7567568
k-ring,1000,0.96,0.003,0.758758758758759,0.7587588
k-ring,1000,0.96,0.003,0.760760760760761,0.7607608
k-ring,1000,0.961,0.003,0.762762762762763,0.7627628
k-ring,1000,0.961,0.003,0.764764764764765,0.7647648
k-ring,1000,0.962,0.003,0.766766766766767,0.7667668
k-ring,1000,0.962,0.003,0.768768768768769,0.7687688
k-ring,1000,0.962,0.003,0.770770770770771,0.7707708
k-ring,1000,0.963,0.003,0.772772772772773,0.7727728
k-ring,1000,0.963,0.003,0.774774774774775,0.7747748
k-ring,1000,0.963,0.003,0.776776776776777,0.7767768
k-ring,1000,0.964,0.003,0.778778778778779,0.7787788
k-ring,1000,0.964,0.003,0.780780780780781,0.7807808
k-ring,1000,0.965,0.003,0.782782782782783,0.7827828
k-ring,1000,0.965,0.003,0.784784784784785,0.7847848
k-ring,1000,0.965,0.003,0.786786786786787,0.7867868
k-ring,1000,0.966,0.003,0.788788788788789,0.7887888
k-ring,1000,0.966,0.003,0.790790790790791,0.7907908
k-ring,1000,0.966,0.003,0.792792792792793,0.7927928
k-ring,1000,0.967,0.003,0.794794794794795,0.7947948
k-ring,1000,0.967,0.003,0.796796796796797,0.7967968
k-ring,1000,0.967,0.003,0.798798798798799,0.7987988
k-ring,1000,0.968,0.002,0.800800800800801,0.8008008
k-ring,1000,0.968,0.002,0.802802802802803,0.8028028
k-ring,1000,0.969,0.002,0.804804804804805,0.8048048
k-ring,1000,0.969,0.002,0.806806806806807,0.8068068
k-ring,1000,0.969,0.002,0.808808808808809,0.8088088
k-ring,1000,0.97,0.002,0.810810810810811,0.8108108
k-ring,1000,0.97,0.002,0.812812812812813,0.8128128
k-ring,1000,0.97,0.002,0.814814814814815,0.8148148
k-ring,1000,0.971,0.002,0.816816816816817,0.8168168
k-ring,1000,0.971,0.002,0.818818818818819,0.8188188
k-ring,1000,0.971,0.002,0.820820820820821,0.8208208
k-ring,1000,0.972,0.002,0.822822822822823,0.8228228
k-ring,1000,0.972,0.002,0.824824824824825,0.8248248
k-ring,1000,0.972,0.002,0.826826826826827,0.8268268
k-ring,1000,0.973,0.002,0.828828828828829,0.8288288
k-ring,1000,0.973,0.002,0.830830830830831,0.8308308
k-ring,1000,0.974,0.002,0.832832832832833,0.8328328
k-ring,1000,0.974,0.002,0.834834834834835,0.8348348
k-ring,1000,0.974,0.002,0.836836836836837,0.8368368
k-ring,1000,0.975,0.002,0.838838838838839,0.8388388
k-ring,1000,0.975,0.002,0.840840840840841,0.8408408
k-ring,1000,0.975,0.002,0.842842842842843,0.8428428
k-ring,1000,0.976,0.002,0.844844844844845,0.8448448
k-ring,1000,0.976,0.002,0.846846846846847,0.8468468
k-ring,1000,0.976,0.002,0.848848848848849,0.8488488
k-ring,1000,0.977,0.002,0.850850850850851,0.8508509
k-ring,1000,0.977,0.002,0.852852852852853,0.8528529
k-ring,1000,0.977,0.002,0.854854854854855,0.8548549
k-ring,1000,0.978,0.002,0.856856856856857,0.8568569
k-ring,1000,0.978,0.002,0.858858858858859,0.8588589
k-ring,1000,0.978,0.002,0.860860860860861,0.8608609
k-ring,1000,0.979,0.002,0.862862862862863,0.8628629
k-ring,1000,0.979,0.002,0.864864864864865,0.8648649
k-ring,1000,0.979,0.002,0.866866866866867,0.8668669
k-ring,1000,0.98,0.002,0.868868868868869,0.8688689
k-ring,1000,0.98,0.002,0.870870870870871,0.8708709
k-ring,1000,0.98,0.002,0.872872872872873,0.8728729
k-ring,1000,0.981,0.002,0.874874874874875,0.8748749
k-ring,1000,0.981,0.002,0.876876876876877,0.8768769
k-ring,1000,0.981,0.002,0.878878878878879,0.8788789
k-ring,1000,0.982,0.002,0.880880880880881,0.8808809
k-ring,1000,0.982,0.002,0.882882882882883,0.8828829
k-ring,1000,0.982,0.002,0.884884884884885,0.8848849
k-ring,1000,0.983,0.002,0.886886886886887,0.8868869
k-ring,1000,0.983,0.002,0.888888888888889,0.8888889
k-ring,1000,0.983,0.002,0.890890890890891,0.8908909
k-ring,1000,0.984,0.002,0.892892892892893,0.8928929
k-ring,1000,0.984,0.002,0.894894894894895,0.8948949
k-ring,1000,0.984,0.002,0.896896896896897,0.8968969
k-ring,1000,0.985,0.002,0.898898898898899,0.8988989
k-ring,1000,0.985,0.002,0.900900900900901,0.9009009
k-ring,1000,0.985,0.002,0.902902902902903,0.9029029
k-ring,1000,0.986,0.002,0.904904904904905,0.9049049
k-ring,1000,0.986,0.002,0.906906906906907,0.9069069
k-ring,1000,0.986,0.002,0.908908908908909,0.9089089
k-ring,1000,0.986,0.002,0.910910910910911,0.9109109
k-ring,1000,0.987,0.002,0.912912912912913,0.9129129
k-ring,1000,0.987,0.002,0.914914914914915,0.9149149
k-ring,1000,0.987,0.002,0.916916916916917,0.9169169
k-ring,1000,0.988,0.002,0.918918918918919,0.9189189
k-ring,1000,0.988,0.002,0.920920920920921,0.9209209
k-ring,1000,0.988,0.002,0.922922922922923,0.9229229
k-ring,1000,0.989,0.002,0.924924924924925,0.9249249
k-ring,1000,0.989,0.002,0.926926926926927,0.9269269
k-ring,1000,0.989,0.002,0.928928928928929,0.9289289
k-ring,1000,0.99,0.002,0.930930930930931,0.9309309
k-ring,1000,0.99,0.002,0.932932932932933,0.9329329
k-ring,1000,0.99,0.002,0.934934934934935,0.9349349
k-ring,1000,0.991,0.002,0.936936936936937,0.9369369
k-ring,1000,0.991,0.002,0.938938938938939,0.9389389
k-ring,1000,0.991,0.002,0.940940940940941,0.9409409
k-ring,1000,0.991,0.002,0.942942942942943,0.9429429
k-ring,1000,0.992,0.002,0.944944944944945,0.9449449
k-ring,1000,0.992,0.002,0.946946946946947,0.9469469
k-ring,1000,0.992,0.002,0.948948948948949,0.9489489
k-ring,1000,0.993,0.002,0.950950950950951,0.950951
k-ring,1000,0.993,0.002,0.952952952952953,0.952953
k-ring,1000,0.993,0.002,0.954954954954955,0.954955
k-ring,1000,0.994,0.002,0.956956956956957,0.956957
k-ring,1000,0.994,0.002,0.958958958958959,0.958959
k-ring,1000,0.994,0.002,0.960960960960961,0.960961
k-ring,1000,0.995,0.002,0.962962962962963,0.962963
k-ring,1000,0.995,0.002,0.964964964964965,0.964965
k-ring,1000,0.995,0.002,0.966966966966967,0.966967
k-ring,1000,0.995,0.002,0.968968968968969,0.968969
k-ring,1000,0.996,0.002,0.970970970970971,0.970971
k-ring,1000,0.996,0.002,0.972972972972973,0.972973
k-ring,1000,0.996,0.002,0.974974974974975,0.974975
k-ring,1000,0.997,0.002,0.976976976976977,0.976977
k-ring,1000,0.997,0.002,0.978978978978979,0.978979
k-ring,1000,0.997,0.002,0.980980980980981,0.980981
k-ring,1000,0.998,0.002,0.982982982982983,0.982983
k-ring,1000,0.998,0.002,0.984984984984985,0.984985
k-ring,1000,0.998,0.002,0.986986986986987,0.986987
k-ring,1000,0.998,0.002,0.988988988988989,0.988989
k-ring,1000,0.999,0.002,0.990990990990991,0.990991
k-ring,1000,0.999,0.002,0.992992992992993,0.992993
k-ring,1000,0.999,0.002,0.994994994994995,0.994995
k-ring,1000,1,0.002,0.996996996996997,0.996997
k-ring,1000,1,0.002,0.998998998998999,0.998999
k-ring,1000,1,0.001,1,1
