%!PS-Adobe-3.0 EPSF-3.0
%%DocumentNeededResources: font Helvetica
%%+ font Helvetica-Bold
%%+ font Helvetica-Oblique
%%+ font Helvetica-BoldOblique
%%+ font Symbol
%%Title: R Graphics Output
%%Creator: R Software
%%Pages: (atend)
%%BoundingBox: 0 0 397 425
%%EndComments
%%BeginProlog
/bp  { gs sRGB gs } def
% begin .ps.prolog
/gs  { gsave } bind def
/gr  { grestore } bind def
/ep  { showpage gr gr } bind def
/m   { moveto } bind def
/l  { rlineto } bind def
/np  { newpath } bind def
/cp  { closepath } bind def
/f   { fill } bind def
/o   { stroke } bind def
/c   { newpath 0 360 arc } bind def
/r   { 4 2 roll moveto 1 copy 3 -1 roll exch 0 exch rlineto 0 rlineto -1 mul 0 exch rlineto closepath } bind def
/p1  { stroke } bind def
/p2  { gsave bg fill grestore newpath } bind def
/p3  { gsave bg fill grestore stroke } bind def
/p6  { gsave bg eofill grestore newpath } bind def
/p7  { gsave bg eofill grestore stroke } bind def
/t   { 5 -2 roll moveto gsave rotate
       1 index stringwidth pop
       mul neg 0 rmoveto show grestore } bind def
/ta  { 4 -2 roll moveto gsave rotate show } bind def
/tb  { 2 -1 roll 0 rmoveto show } bind def
/cl  { grestore gsave newpath 3 index 3 index moveto 1 index
       4 -1 roll lineto  exch 1 index lineto lineto
       closepath clip newpath } bind def
/rgb { setrgbcolor } bind def
/s   { scalefont setfont } bind def
% end   .ps.prolog
/sRGB { [ /CIEBasedABC
          << /DecodeLMN
               [ { dup 0.03928 le
                        {12.92321 div}
                        {0.055 add 1.055 div 2.4 exp }
                     ifelse
                 } bind dup dup
               ]
             /MatrixLMN [0.412457 0.212673 0.019334
                         0.357576 0.715152 0.119192
                         0.180437 0.072175 0.950301]
             /WhitePoint [0.9505 1.0 1.0890]
           >>
         ] setcolorspace } bind def
/srgb { setcolor } bind def
%%IncludeResource: font Helvetica
/Helvetica findfont
dup length dict begin
  {1 index /FID ne {def} {pop pop} ifelse} forall
  /Encoding ISOLatin1Encoding def
  currentdict
  end
/Font1 exch definefont pop
%%IncludeResource: font Helvetica-Bold
/Helvetica-Bold findfont
dup length dict begin
  {1 index /FID ne {def} {pop pop} ifelse} forall
  /Encoding ISOLatin1Encoding def
  currentdict
  end
/Font2 exch definefont pop
%%IncludeResource: font Helvetica-Oblique
/Helvetica-Oblique findfont
dup length dict begin
  {1 index /FID ne {def} {pop pop} ifelse} forall
  /Encoding ISOLatin1Encoding def
  currentdict
  end
/Font3 exch definefont pop
%%IncludeResource: font Helvetica-BoldOblique
/Helvetica-BoldOblique findfont
dup length dict begin
  {1 index /FID ne {def} {pop pop} ifelse} forall
  /Encoding ISOLatin1Encoding def
  currentdict
  end
/Font4 exch definefont pop
%%IncludeResource: font Symbol
/Symbol findfont
dup length dict begin
  {1 index /FID ne {def} {pop pop} ifelse} forall
  currentdict
  end
/Font5 exch definefont pop
%%EndProlog
%%Page: 1 1
bp
0.00 0.00 396.85 425.20 cl
0.00 0.00 396.85 425.20 cl
0.00 0.00 396.85 425.20 cl
0.00 0.00 396.85 425.20 cl
0.00 0.00 396.85 425.20 cl
0.00 0.00 396.85 425.20 cl
0.00 0.00 396.85 425.20 cl
0.00 0.00 396.85 425.20 cl
0.00 0.00 396.85 425.20 cl
0.00 0.00 396.85 425.20 cl
0.00 0.00 396.85 425.20 cl
0.00 0.00 396.85 425.20 cl
/bg { 1 1 1 srgb } def
1 1 1 srgb
1.07 setlinewidth
[] 0 setdash
1 setlinecap
1 setlinejoin
10.00 setmiterlimit
0.00 0.00 396.85 425.20 r p3
0.00 0.00 396.85 425.20 cl
53.09 77.73 391.37 419.72 cl
/bg { 1 1 1 srgb } def
0.4980 0.4980 0.4980 srgb
1.07 setlinewidth
[] 0 setdash
1 setlinecap
1 setlinejoin
10.00 setmiterlimit
53.09 77.73 338.28 341.98 r p3
1 1 1 srgb
0.53 setlinewidth
[] 0 setdash
0 setlinecap
np
53.09 132.14 m
338.28 0 l
o
np
53.09 209.86 m
338.28 0 l
o
np
53.09 287.59 m
338.28 0 l
o
np
53.09 365.31 m
338.28 0 l
o
np
106.90 77.73 m
0 341.99 l
o
np
183.79 77.73 m
0 341.99 l
o
np
260.67 77.73 m
0 341.99 l
o
np
337.55 77.73 m
0 341.99 l
o
1.07 setlinewidth
[] 0 setdash
np
53.09 93.28 m
338.28 0 l
o
np
53.09 171.00 m
338.28 0 l
o
np
53.09 248.72 m
338.28 0 l
o
np
53.09 326.45 m
338.28 0 l
o
np
53.09 404.17 m
338.28 0 l
o
np
68.46 77.73 m
0 341.99 l
o
np
145.35 77.73 m
0 341.99 l
o
np
222.23 77.73 m
0 341.99 l
o
np
299.11 77.73 m
0 341.99 l
o
np
375.99 77.73 m
0 341.99 l
o
0.3294 0.6235 0.5765 srgb
0.71 setlinewidth
[] 0 setdash
1 setlinecap
np
64.91 93.28 m
7.11 0 l
o
np
68.46 89.72 m
0 7.11 l
o
64.91 89.72 7.11 7.11 r p1
np
76.29 294.12 m
7.11 0 l
o
np
79.84 290.56 m
0 7.11 l
o
76.29 290.56 7.11 7.11 r p1
np
91.66 360.96 m
7.11 0 l
o
np
95.22 357.40 m
0 7.11 l
o
91.66 357.40 7.11 7.11 r p1
np
106.73 387.38 m
7.11 0 l
o
np
110.29 383.83 m
0 7.11 l
o
106.73 383.83 7.11 7.11 r p1
np
121.19 396.71 m
7.11 0 l
o
np
124.74 393.16 m
0 7.11 l
o
121.19 393.16 7.11 7.11 r p1
np
132.56 401.06 m
7.12 0 l
o
np
136.12 397.51 m
0 7.11 l
o
132.56 397.51 7.11 7.11 r p1
np
139.95 401.37 m
7.11 0 l
o
np
143.50 397.82 m
0 7.11 l
o
139.95 397.82 7.11 7.11 r p1
np
146.71 402.00 m
7.11 0 l
o
np
150.27 398.44 m
0 7.11 l
o
146.71 398.44 7.11 7.11 r p1
np
152.86 401.37 m
7.11 0 l
o
np
156.42 397.82 m
0 7.11 l
o
152.86 397.82 7.11 7.11 r p1
np
159.32 400.75 m
7.11 0 l
o
np
162.88 397.20 m
0 7.11 l
o
159.32 397.20 7.11 7.11 r p1
np
165.47 401.37 m
7.11 0 l
o
np
169.03 397.82 m
0 7.11 l
o
165.47 397.82 7.11 7.11 r p1
np
165.78 401.06 m
7.11 0 l
o
np
169.33 397.51 m
0 7.11 l
o
165.78 397.51 7.11 7.11 r p1
np
197.76 397.64 m
7.11 0 l
o
np
201.32 394.09 m
0 7.11 l
o
197.76 394.09 7.11 7.11 r p1
np
215.91 395.16 m
7.11 0 l
o
np
219.46 391.60 m
0 7.11 l
o
215.91 391.60 7.11 7.11 r p1
np
228.51 391.74 m
7.12 0 l
o
np
232.07 388.18 m
0 7.11 l
o
228.51 388.18 7.11 7.11 r p1
np
238.36 388.32 m
7.11 0 l
o
np
241.91 384.76 m
0 7.11 l
o
238.36 384.76 7.11 7.11 r p1
np
247.27 384.90 m
7.11 0 l
o
np
250.83 381.34 m
0 7.11 l
o
247.27 381.34 7.11 7.11 r p1
np
253.73 382.72 m
7.11 0 l
o
np
257.29 379.17 m
0 7.11 l
o
253.73 379.17 7.11 7.11 r p1
np
259.27 379.30 m
7.11 0 l
o
np
262.82 375.75 m
0 7.11 l
o
259.27 375.75 7.11 7.11 r p1
np
264.80 376.19 m
7.11 0 l
o
np
268.36 372.64 m
0 7.11 l
o
264.80 372.64 7.11 7.11 r p1
np
269.72 373.08 m
7.11 0 l
o
np
273.28 369.53 m
0 7.11 l
o
269.72 369.53 7.11 7.11 r p1
np
274.03 370.29 m
7.11 0 l
o
np
277.58 366.73 m
0 7.11 l
o
274.03 366.73 7.11 7.11 r p1
np
278.03 367.18 m
7.11 0 l
o
np
281.58 363.62 m
0 7.11 l
o
278.03 363.62 7.11 7.11 r p1
np
281.41 363.76 m
7.11 0 l
o
np
284.97 360.20 m
0 7.11 l
o
281.41 360.20 7.11 7.11 r p1
np
284.49 361.27 m
7.11 0 l
o
np
288.04 357.71 m
0 7.11 l
o
284.49 357.71 7.11 7.11 r p1
np
287.87 357.54 m
7.11 0 l
o
np
291.42 353.98 m
0 7.11 l
o
287.87 353.98 7.11 7.11 r p1
np
290.64 355.05 m
7.11 0 l
o
np
294.19 351.50 m
0 7.11 l
o
290.64 351.50 7.11 7.11 r p1
np
293.40 351.32 m
7.11 0 l
o
np
296.96 347.77 m
0 7.11 l
o
293.40 347.77 7.11 7.11 r p1
np
296.17 348.52 m
7.11 0 l
o
np
299.73 344.97 m
0 7.11 l
o
296.17 344.97 7.11 7.11 r p1
np
298.63 345.10 m
7.11 0 l
o
np
302.19 341.55 m
0 7.11 l
o
298.63 341.55 7.11 7.11 r p1
np
300.78 341.68 m
7.11 0 l
o
np
304.34 338.13 m
0 7.11 l
o
300.78 338.13 7.11 7.11 r p1
np
302.94 339.20 m
7.11 0 l
o
np
306.49 335.64 m
0 7.11 l
o
302.94 335.64 7.11 7.11 r p1
np
304.78 336.09 m
7.11 0 l
o
np
308.34 332.53 m
0 7.11 l
o
304.78 332.53 7.11 7.11 r p1
np
306.93 332.67 m
7.12 0 l
o
np
310.49 329.11 m
0 7.11 l
o
306.93 329.11 7.11 7.11 r p1
np
308.78 329.56 m
7.11 0 l
o
np
312.34 326.00 m
0 7.11 l
o
308.78 326.00 7.11 7.11 r p1
np
310.63 326.76 m
7.11 0 l
o
np
314.18 323.20 m
0 7.11 l
o
310.63 323.20 7.11 7.11 r p1
np
312.47 323.34 m
7.11 0 l
o
np
316.03 319.78 m
0 7.12 l
o
312.47 319.78 7.11 7.11 r p1
np
314.01 320.85 m
7.11 0 l
o
np
317.56 317.30 m
0 7.11 l
o
314.01 317.30 7.11 7.11 r p1
np
315.55 317.43 m
7.11 0 l
o
np
319.10 313.88 m
0 7.11 l
o
315.55 313.88 7.11 7.11 r p1
np
317.39 313.70 m
7.11 0 l
o
np
320.95 310.15 m
0 7.11 l
o
317.39 310.15 7.11 7.11 r p1
np
318.93 310.90 m
7.11 0 l
o
np
322.48 307.35 m
0 7.11 l
o
318.93 307.35 7.11 7.11 r p1
np
320.47 307.80 m
7.11 0 l
o
np
324.02 304.24 m
0 7.11 l
o
320.47 304.24 7.11 7.11 r p1
np
321.70 305.00 m
7.11 0 l
o
np
325.25 301.44 m
0 7.11 l
o
321.70 301.44 7.11 7.11 r p1
np
322.93 301.58 m
7.11 0 l
o
np
326.48 298.02 m
0 7.11 l
o
322.93 298.02 7.11 7.11 r p1
np
324.46 298.16 m
7.11 0 l
o
np
328.02 294.60 m
0 7.11 l
o
324.46 294.60 7.11 7.11 r p1
np
325.69 295.67 m
7.11 0 l
o
np
329.25 292.11 m
0 7.12 l
o
325.69 292.11 7.11 7.11 r p1
np
326.92 292.56 m
7.12 0 l
o
np
330.48 289.01 m
0 7.11 l
o
326.92 289.01 7.11 7.11 r p1
np
328.15 289.45 m
7.12 0 l
o
np
331.71 285.90 m
0 7.11 l
o
328.15 285.90 7.11 7.11 r p1
np
329.38 286.03 m
7.12 0 l
o
np
332.94 282.48 m
0 7.11 l
o
329.38 282.48 7.11 7.11 r p1
np
330.61 282.92 m
7.12 0 l
o
np
334.17 279.37 m
0 7.11 l
o
330.61 279.37 7.11 7.11 r p1
np
331.85 279.81 m
7.11 0 l
o
np
335.40 276.26 m
0 7.11 l
o
331.85 276.26 7.11 7.11 r p1
np
332.77 276.71 m
7.11 0 l
o
np
336.32 273.15 m
0 7.11 l
o
332.77 273.15 7.11 7.11 r p1
np
334.00 273.60 m
7.11 0 l
o
np
337.55 270.04 m
0 7.11 l
o
334.00 270.04 7.11 7.11 r p1
np
334.92 270.18 m
7.11 0 l
o
np
338.48 266.62 m
0 7.11 l
o
334.92 266.62 7.11 7.11 r p1
np
335.84 267.38 m
7.11 0 l
o
np
339.40 263.82 m
0 7.11 l
o
335.84 263.82 7.11 7.11 r p1
np
336.77 264.58 m
7.11 0 l
o
np
340.32 261.03 m
0 7.11 l
o
336.77 261.03 7.11 7.11 r p1
np
337.69 261.78 m
7.11 0 l
o
np
341.24 258.23 m
0 7.11 l
o
337.69 258.23 7.11 7.11 r p1
np
338.92 258.36 m
7.11 0 l
o
np
342.47 254.81 m
0 7.11 l
o
338.92 254.81 7.11 7.11 r p1
np
339.84 255.25 m
7.11 0 l
o
np
343.40 251.70 m
0 7.11 l
o
339.84 251.70 7.11 7.11 r p1
np
340.46 252.14 m
7.11 0 l
o
np
344.01 248.59 m
0 7.11 l
o
340.46 248.59 7.11 7.11 r p1
np
341.38 249.35 m
7.11 0 l
o
np
344.93 245.79 m
0 7.11 l
o
341.38 245.79 7.11 7.11 r p1
np
342.30 245.93 m
7.11 0 l
o
np
345.86 242.37 m
0 7.11 l
o
342.30 242.37 7.11 7.11 r p1
np
343.22 242.51 m
7.11 0 l
o
np
346.78 238.95 m
0 7.11 l
o
343.22 238.95 7.11 7.11 r p1
np
344.15 239.71 m
7.11 0 l
o
np
347.70 236.15 m
0 7.11 l
o
344.15 236.15 7.11 7.11 r p1
np
344.76 236.91 m
7.11 0 l
o
np
348.32 233.36 m
0 7.11 l
o
344.76 233.36 7.11 7.11 r p1
np
345.68 233.18 m
7.11 0 l
o
np
349.24 229.62 m
0 7.12 l
o
345.68 229.62 7.11 7.11 r p1
np
346.61 230.69 m
7.11 0 l
o
np
350.16 227.14 m
0 7.11 l
o
346.61 227.14 7.11 7.11 r p1
np
347.53 226.96 m
7.11 0 l
o
np
351.08 223.41 m
0 7.11 l
o
347.53 223.41 7.11 7.11 r p1
np
348.14 224.16 m
7.11 0 l
o
np
351.70 220.61 m
0 7.11 l
o
348.14 220.61 7.11 7.11 r p1
np
349.07 220.74 m
7.11 0 l
o
np
352.62 217.19 m
0 7.11 l
o
349.07 217.19 7.11 7.11 r p1
np
349.68 217.64 m
7.11 0 l
o
np
353.24 214.08 m
0 7.11 l
o
349.68 214.08 7.11 7.11 r p1
np
350.30 214.84 m
7.11 0 l
o
np
353.85 211.28 m
0 7.11 l
o
350.30 211.28 7.11 7.11 r p1
np
351.22 211.73 m
7.11 0 l
o
np
354.77 208.17 m
0 7.11 l
o
351.22 208.17 7.11 7.11 r p1
np
351.83 208.31 m
7.12 0 l
o
np
355.39 204.75 m
0 7.11 l
o
351.83 204.75 7.11 7.11 r p1
np
352.45 205.20 m
7.11 0 l
o
np
356.00 201.64 m
0 7.11 l
o
352.45 201.64 7.11 7.11 r p1
np
353.06 202.40 m
7.12 0 l
o
np
356.62 198.85 m
0 7.11 l
o
353.06 198.85 7.11 7.11 r p1
np
353.99 199.60 m
7.11 0 l
o
np
357.54 196.05 m
0 7.11 l
o
353.99 196.05 7.11 7.11 r p1
np
354.60 195.87 m
7.11 0 l
o
np
358.16 192.32 m
0 7.11 l
o
354.60 192.32 7.11 7.11 r p1
np
355.22 193.07 m
7.11 0 l
o
np
358.77 189.52 m
0 7.11 l
o
355.22 189.52 7.11 7.11 r p1
np
355.83 189.97 m
7.11 0 l
o
np
359.39 186.41 m
0 7.11 l
o
355.83 186.41 7.11 7.11 r p1
np
356.45 186.86 m
7.11 0 l
o
np
360.00 183.30 m
0 7.11 l
o
356.45 183.30 7.11 7.11 r p1
np
357.06 183.75 m
7.11 0 l
o
np
360.62 180.19 m
0 7.11 l
o
357.06 180.19 7.11 7.11 r p1
np
357.68 180.64 m
7.11 0 l
o
np
361.23 177.08 m
0 7.11 l
o
357.68 177.08 7.11 7.11 r p1
np
358.60 177.22 m
7.11 0 l
o
np
362.16 173.66 m
0 7.11 l
o
358.60 173.66 7.11 7.11 r p1
np
358.91 174.42 m
7.11 0 l
o
np
362.46 170.87 m
0 7.11 l
o
358.91 170.87 7.11 7.11 r p1
np
359.52 171.00 m
7.11 0 l
o
np
363.08 167.45 m
0 7.11 l
o
359.52 167.45 7.11 7.11 r p1
np
360.14 167.89 m
7.11 0 l
o
np
363.69 164.34 m
0 7.11 l
o
360.14 164.34 7.11 7.11 r p1
np
360.75 165.09 m
7.11 0 l
o
np
364.31 161.54 m
0 7.11 l
o
360.75 161.54 7.11 7.11 r p1
np
361.37 161.67 m
7.11 0 l
o
np
364.92 158.12 m
0 7.11 l
o
361.37 158.12 7.11 7.11 r p1
np
361.98 158.88 m
7.11 0 l
o
np
365.54 155.32 m
0 7.11 l
o
361.98 155.32 7.11 7.11 r p1
np
362.60 155.46 m
7.11 0 l
o
np
366.15 151.90 m
0 7.11 l
o
362.60 151.90 7.11 7.11 r p1
np
362.91 152.66 m
7.11 0 l
o
np
366.46 149.10 m
0 7.11 l
o
362.91 149.10 7.11 7.11 r p1
np
363.52 149.24 m
7.11 0 l
o
np
367.08 145.68 m
0 7.11 l
o
363.52 145.68 7.11 7.11 r p1
np
364.14 145.82 m
7.11 0 l
o
np
367.69 142.26 m
0 7.11 l
o
364.14 142.26 7.11 7.11 r p1
np
364.75 143.33 m
7.11 0 l
o
np
368.31 139.78 m
0 7.11 l
o
364.75 139.78 7.11 7.11 r p1
np
365.37 139.91 m
7.11 0 l
o
np
368.92 136.36 m
0 7.11 l
o
365.37 136.36 7.11 7.11 r p1
np
365.67 136.80 m
7.11 0 l
o
np
369.23 133.25 m
0 7.11 l
o
365.67 133.25 7.11 7.11 r p1
np
366.29 134.00 m
7.11 0 l
o
np
369.84 130.45 m
0 7.11 l
o
366.29 130.45 7.11 7.11 r p1
np
366.90 130.58 m
7.11 0 l
o
np
370.46 127.03 m
0 7.11 l
o
366.90 127.03 7.11 7.11 r p1
np
367.21 127.79 m
7.11 0 l
o
np
370.77 124.23 m
0 7.11 l
o
367.21 124.23 7.11 7.11 r p1
np
367.83 124.37 m
7.11 0 l
o
np
371.38 120.81 m
0 7.11 l
o
367.83 120.81 7.11 7.11 r p1
np
368.13 121.26 m
7.11 0 l
o
np
371.69 117.70 m
0 7.11 l
o
368.13 117.70 7.11 7.11 r p1
np
368.75 118.46 m
7.11 0 l
o
np
372.30 114.90 m
0 7.12 l
o
368.75 114.90 7.11 7.11 r p1
np
369.06 115.35 m
7.11 0 l
o
np
372.61 111.80 m
0 7.11 l
o
369.06 111.80 7.11 7.11 r p1
np
369.67 112.24 m
7.11 0 l
o
np
373.23 108.69 m
0 7.11 l
o
369.67 108.69 7.11 7.11 r p1
np
370.29 109.13 m
7.11 0 l
o
np
373.84 105.58 m
0 7.11 l
o
370.29 105.58 7.11 7.11 r p1
np
370.59 106.02 m
7.11 0 l
o
np
374.15 102.47 m
0 7.11 l
o
370.59 102.47 7.11 7.11 r p1
np
370.90 103.23 m
7.11 0 l
o
np
374.46 99.67 m
0 7.11 l
o
370.90 99.67 7.11 7.11 r p1
np
371.52 99.81 m
7.11 0 l
o
np
375.07 96.25 m
0 7.11 l
o
371.52 96.25 7.11 7.11 r p1
np
372.13 96.70 m
7.11 0 l
o
np
375.69 93.14 m
0 7.11 l
o
372.13 93.14 7.11 7.11 r p1
np
372.44 93.59 m
7.11 0 l
o
np
375.99 90.03 m
0 7.11 l
o
372.44 90.03 7.11 7.11 r p1
np
64.91 93.28 m
7.11 0 l
o
np
68.46 89.72 m
0 7.11 l
o
64.91 89.72 7.11 7.11 r p1
np
74.13 283.55 m
7.11 0 l
o
np
77.69 279.99 m
0 7.11 l
o
74.13 279.99 7.11 7.11 r p1
np
93.51 368.42 m
7.11 0 l
o
np
97.06 364.86 m
0 7.11 l
o
93.51 364.86 7.11 7.11 r p1
np
109.50 391.74 m
7.11 0 l
o
np
113.06 388.18 m
0 7.11 l
o
109.50 388.18 7.11 7.11 r p1
np
119.34 398.27 m
7.11 0 l
o
np
122.90 394.71 m
0 7.11 l
o
119.34 394.71 7.11 7.11 r p1
np
131.64 399.82 m
7.11 0 l
o
np
135.20 396.26 m
0 7.12 l
o
131.64 396.26 7.11 7.11 r p1
np
141.18 402.00 m
7.11 0 l
o
np
144.73 398.44 m
0 7.11 l
o
141.18 398.44 7.11 7.11 r p1
np
147.94 401.06 m
7.11 0 l
o
np
151.50 397.51 m
0 7.11 l
o
147.94 397.51 7.11 7.11 r p1
np
155.32 401.37 m
7.11 0 l
o
np
158.88 397.82 m
0 7.11 l
o
155.32 397.82 7.11 7.11 r p1
np
160.55 401.06 m
7.11 0 l
o
np
164.11 397.51 m
0 7.11 l
o
160.55 397.51 7.11 7.11 r p1
np
165.78 401.06 m
7.11 0 l
o
np
169.33 397.51 m
0 7.11 l
o
165.78 397.51 7.11 7.11 r p1
np
165.16 401.06 m
7.11 0 l
o
np
168.72 397.51 m
0 7.11 l
o
165.16 397.51 7.11 7.11 r p1
np
197.76 397.95 m
7.11 0 l
o
np
201.32 394.40 m
0 7.11 l
o
197.76 394.40 7.11 7.11 r p1
np
215.29 394.85 m
7.11 0 l
o
np
218.85 391.29 m
0 7.11 l
o
215.29 391.29 7.11 7.11 r p1
np
228.51 392.05 m
7.12 0 l
o
np
232.07 388.49 m
0 7.11 l
o
228.51 388.49 7.11 7.11 r p1
np
238.97 388.94 m
7.11 0 l
o
np
242.53 385.38 m
0 7.11 l
o
238.97 385.38 7.11 7.11 r p1
np
246.66 385.83 m
7.11 0 l
o
np
250.21 382.27 m
0 7.12 l
o
246.66 382.27 7.11 7.11 r p1
np
253.42 382.72 m
7.12 0 l
o
np
256.98 379.17 m
0 7.11 l
o
253.42 379.17 7.11 7.11 r p1
np
259.27 379.61 m
7.11 0 l
o
np
262.82 376.06 m
0 7.11 l
o
259.27 376.06 7.11 7.11 r p1
np
264.80 375.88 m
7.11 0 l
o
np
268.36 372.33 m
0 7.11 l
o
264.80 372.33 7.11 7.11 r p1
np
269.42 373.70 m
7.11 0 l
o
np
272.97 370.15 m
0 7.11 l
o
269.42 370.15 7.11 7.11 r p1
np
273.72 370.29 m
7.11 0 l
o
np
277.28 366.73 m
0 7.11 l
o
273.72 366.73 7.11 7.11 r p1
np
278.03 366.87 m
7.11 0 l
o
np
281.58 363.31 m
0 7.11 l
o
278.03 363.31 7.11 7.11 r p1
np
281.41 363.45 m
7.11 0 l
o
np
284.97 359.89 m
0 7.11 l
o
281.41 359.89 7.11 7.11 r p1
np
284.79 360.96 m
7.11 0 l
o
np
288.35 357.40 m
0 7.11 l
o
284.79 357.40 7.11 7.11 r p1
np
287.87 357.54 m
7.11 0 l
o
np
291.42 353.98 m
0 7.11 l
o
287.87 353.98 7.11 7.11 r p1
np
290.64 354.43 m
7.11 0 l
o
np
294.19 350.87 m
0 7.11 l
o
290.64 350.87 7.11 7.11 r p1
np
293.71 351.01 m
7.11 0 l
o
np
297.27 347.45 m
0 7.11 l
o
293.71 347.45 7.11 7.11 r p1
np
295.86 348.52 m
7.11 0 l
o
np
299.42 344.97 m
0 7.11 l
o
295.86 344.97 7.11 7.11 r p1
np
298.32 345.72 m
7.11 0 l
o
np
301.88 342.17 m
0 7.11 l
o
298.32 342.17 7.11 7.11 r p1
np
300.78 341.99 m
7.11 0 l
o
np
304.34 338.44 m
0 7.11 l
o
300.78 338.44 7.11 7.11 r p1
np
302.63 339.20 m
7.11 0 l
o
np
306.18 335.64 m
0 7.11 l
o
302.63 335.64 7.11 7.11 r p1
np
304.78 335.78 m
7.11 0 l
o
np
308.34 332.22 m
0 7.11 l
o
304.78 332.22 7.11 7.11 r p1
np
306.93 332.67 m
7.12 0 l
o
np
310.49 329.11 m
0 7.11 l
o
306.93 329.11 7.11 7.11 r p1
np
308.78 329.56 m
7.11 0 l
o
np
312.34 326.00 m
0 7.11 l
o
308.78 326.00 7.11 7.11 r p1
np
310.63 326.45 m
7.11 0 l
o
np
314.18 322.89 m
0 7.11 l
o
310.63 322.89 7.11 7.11 r p1
np
312.47 323.34 m
7.11 0 l
o
np
316.03 319.78 m
0 7.12 l
o
312.47 319.78 7.11 7.11 r p1
np
314.01 320.85 m
7.11 0 l
o
np
317.56 317.30 m
0 7.11 l
o
314.01 317.30 7.11 7.11 r p1
np
315.55 317.12 m
7.11 0 l
o
np
319.10 313.57 m
0 7.11 l
o
315.55 313.57 7.11 7.11 r p1
np
317.39 313.70 m
7.11 0 l
o
np
320.95 310.15 m
0 7.11 l
o
317.39 310.15 7.11 7.11 r p1
np
318.93 310.90 m
7.11 0 l
o
np
322.48 307.35 m
0 7.11 l
o
318.93 307.35 7.11 7.11 r p1
np
320.16 307.80 m
7.11 0 l
o
np
323.71 304.24 m
0 7.11 l
o
320.16 304.24 7.11 7.11 r p1
np
321.70 304.69 m
7.11 0 l
o
np
325.25 301.13 m
0 7.11 l
o
321.70 301.13 7.11 7.11 r p1
np
322.93 301.58 m
7.11 0 l
o
np
326.48 298.02 m
0 7.11 l
o
322.93 298.02 7.11 7.11 r p1
np
324.46 298.47 m
7.11 0 l
o
np
328.02 294.91 m
0 7.11 l
o
324.46 294.91 7.11 7.11 r p1
np
325.69 295.67 m
7.11 0 l
o
np
329.25 292.11 m
0 7.12 l
o
325.69 292.11 7.11 7.11 r p1
np
326.92 292.25 m
7.12 0 l
o
np
330.48 288.70 m
0 7.11 l
o
326.92 288.70 7.11 7.11 r p1
np
328.15 288.52 m
7.12 0 l
o
np
331.71 284.96 m
0 7.11 l
o
328.15 284.96 7.11 7.11 r p1
np
329.38 286.03 m
7.12 0 l
o
np
332.94 282.48 m
0 7.11 l
o
329.38 282.48 7.11 7.11 r p1
np
330.61 282.92 m
7.12 0 l
o
np
334.17 279.37 m
0 7.11 l
o
330.61 279.37 7.11 7.11 r p1
np
331.54 279.81 m
7.11 0 l
o
np
335.09 276.26 m
0 7.11 l
o
331.54 276.26 7.11 7.11 r p1
np
332.77 277.02 m
7.11 0 l
o
np
336.32 273.46 m
0 7.11 l
o
332.77 273.46 7.11 7.11 r p1
np
334.00 273.29 m
7.11 0 l
o
np
337.55 269.73 m
0 7.11 l
o
334.00 269.73 7.11 7.11 r p1
np
334.92 270.49 m
7.11 0 l
o
np
338.48 266.93 m
0 7.11 l
o
334.92 266.93 7.11 7.11 r p1
np
335.84 267.07 m
7.11 0 l
o
np
339.40 263.51 m
0 7.11 l
o
335.84 263.51 7.11 7.11 r p1
np
337.07 263.96 m
7.11 0 l
o
np
340.63 260.40 m
0 7.11 l
o
337.07 260.40 7.11 7.11 r p1
np
338.00 260.85 m
7.11 0 l
o
np
341.55 257.29 m
0 7.12 l
o
338.00 257.29 7.11 7.11 r p1
np
338.92 257.74 m
7.11 0 l
o
np
342.47 254.19 m
0 7.11 l
o
338.92 254.19 7.11 7.11 r p1
np
339.84 255.25 m
7.11 0 l
o
np
343.40 251.70 m
0 7.11 l
o
339.84 251.70 7.11 7.11 r p1
np
340.76 251.83 m
7.11 0 l
o
np
344.32 248.28 m
0 7.11 l
o
340.76 248.28 7.11 7.11 r p1
np
341.69 248.41 m
7.11 0 l
o
np
345.24 244.86 m
0 7.11 l
o
341.69 244.86 7.11 7.11 r p1
np
342.30 245.93 m
7.11 0 l
o
np
345.86 242.37 m
0 7.11 l
o
342.30 242.37 7.11 7.11 r p1
np
343.22 242.82 m
7.11 0 l
o
np
346.78 239.26 m
0 7.11 l
o
343.22 239.26 7.11 7.11 r p1
np
344.15 239.09 m
7.11 0 l
o
np
347.70 235.53 m
0 7.11 l
o
344.15 235.53 7.11 7.11 r p1
np
345.07 236.60 m
7.11 0 l
o
np
348.62 233.04 m
0 7.12 l
o
345.07 233.04 7.11 7.11 r p1
np
345.68 232.56 m
7.11 0 l
o
np
349.24 229.00 m
0 7.11 l
o
345.68 229.00 7.11 7.11 r p1
np
346.61 230.07 m
7.11 0 l
o
np
350.16 226.52 m
0 7.11 l
o
346.61 226.52 7.11 7.11 r p1
np
347.53 226.96 m
7.11 0 l
o
np
351.08 223.41 m
0 7.11 l
o
347.53 223.41 7.11 7.11 r p1
np
348.14 223.85 m
7.11 0 l
o
np
351.70 220.30 m
0 7.11 l
o
348.14 220.30 7.11 7.11 r p1
np
348.76 221.37 m
7.11 0 l
o
np
352.31 217.81 m
0 7.11 l
o
348.76 217.81 7.11 7.11 r p1
np
349.68 217.64 m
7.11 0 l
o
np
353.24 214.08 m
0 7.11 l
o
349.68 214.08 7.11 7.11 r p1
np
350.30 214.84 m
7.11 0 l
o
np
353.85 211.28 m
0 7.11 l
o
350.30 211.28 7.11 7.11 r p1
np
351.22 211.42 m
7.11 0 l
o
np
354.77 207.86 m
0 7.11 l
o
351.22 207.86 7.11 7.11 r p1
np
351.83 208.62 m
7.12 0 l
o
np
355.39 205.06 m
0 7.11 l
o
351.83 205.06 7.11 7.11 r p1
np
352.45 205.20 m
7.11 0 l
o
np
356.00 201.64 m
0 7.11 l
o
352.45 201.64 7.11 7.11 r p1
np
353.37 202.40 m
7.11 0 l
o
np
356.93 198.85 m
0 7.11 l
o
353.37 198.85 7.11 7.11 r p1
np
353.99 198.98 m
7.11 0 l
o
np
357.54 195.43 m
0 7.11 l
o
353.99 195.43 7.11 7.11 r p1
np
354.60 195.56 m
7.11 0 l
o
np
358.16 192.01 m
0 7.11 l
o
354.60 192.01 7.11 7.11 r p1
np
355.22 192.76 m
7.11 0 l
o
np
358.77 189.21 m
0 7.11 l
o
355.22 189.21 7.11 7.11 r p1
np
355.83 189.97 m
7.11 0 l
o
np
359.39 186.41 m
0 7.11 l
o
355.83 186.41 7.11 7.11 r p1
np
356.45 186.86 m
7.11 0 l
o
np
360.00 183.30 m
0 7.11 l
o
356.45 183.30 7.11 7.11 r p1
np
357.06 184.06 m
7.11 0 l
o
np
360.62 180.50 m
0 7.11 l
o
357.06 180.50 7.11 7.11 r p1
np
357.68 181.26 m
7.11 0 l
o
np
361.23 177.71 m
0 7.11 l
o
357.68 177.71 7.11 7.11 r p1
np
358.29 177.53 m
7.11 0 l
o
np
361.85 173.97 m
0 7.12 l
o
358.29 173.97 7.11 7.11 r p1
np
358.91 174.42 m
7.11 0 l
o
np
362.46 170.87 m
0 7.11 l
o
358.91 170.87 7.11 7.11 r p1
np
359.52 171.00 m
7.11 0 l
o
np
363.08 167.45 m
0 7.11 l
o
359.52 167.45 7.11 7.11 r p1
np
360.14 167.89 m
7.11 0 l
o
np
363.69 164.34 m
0 7.11 l
o
360.14 164.34 7.11 7.11 r p1
np
360.75 164.78 m
7.11 0 l
o
np
364.31 161.23 m
0 7.11 l
o
360.75 161.23 7.11 7.11 r p1
np
361.37 161.99 m
7.11 0 l
o
np
364.92 158.43 m
0 7.11 l
o
361.37 158.43 7.11 7.11 r p1
np
361.98 158.88 m
7.11 0 l
o
np
365.54 155.32 m
0 7.11 l
o
361.98 155.32 7.11 7.11 r p1
np
362.60 155.77 m
7.11 0 l
o
np
366.15 152.21 m
0 7.11 l
o
362.60 152.21 7.11 7.11 r p1
np
362.91 152.66 m
7.11 0 l
o
np
366.46 149.10 m
0 7.11 l
o
362.91 149.10 7.11 7.11 r p1
np
363.52 149.55 m
7.11 0 l
o
np
367.08 145.99 m
0 7.11 l
o
363.52 145.99 7.11 7.11 r p1
np
364.14 146.75 m
7.11 0 l
o
np
367.69 143.20 m
0 7.11 l
o
364.14 143.20 7.11 7.11 r p1
np
364.75 143.33 m
7.11 0 l
o
np
368.31 139.78 m
0 7.11 l
o
364.75 139.78 7.11 7.11 r p1
np
365.06 140.22 m
7.11 0 l
o
np
368.61 136.67 m
0 7.11 l
o
365.06 136.67 7.11 7.11 r p1
np
365.67 136.80 m
7.11 0 l
o
np
369.23 133.25 m
0 7.11 l
o
365.67 133.25 7.11 7.11 r p1
np
366.29 134.00 m
7.11 0 l
o
np
369.84 130.45 m
0 7.11 l
o
366.29 130.45 7.11 7.11 r p1
np
366.60 130.90 m
7.11 0 l
o
np
370.15 127.34 m
0 7.11 l
o
366.60 127.34 7.11 7.11 r p1
np
367.21 127.48 m
7.11 0 l
o
np
370.77 123.92 m
0 7.11 l
o
367.21 123.92 7.11 7.11 r p1
np
367.83 124.68 m
7.11 0 l
o
np
371.38 121.12 m
0 7.11 l
o
367.83 121.12 7.11 7.11 r p1
np
368.13 121.57 m
7.11 0 l
o
np
371.69 118.01 m
0 7.11 l
o
368.13 118.01 7.11 7.11 r p1
np
368.75 118.15 m
7.11 0 l
o
np
372.30 114.59 m
0 7.11 l
o
368.75 114.59 7.11 7.11 r p1
np
369.36 115.35 m
7.11 0 l
o
np
372.92 111.80 m
0 7.11 l
o
369.36 111.80 7.11 7.11 r p1
np
369.67 112.24 m
7.11 0 l
o
np
373.23 108.69 m
0 7.11 l
o
369.67 108.69 7.11 7.11 r p1
np
370.29 109.13 m
7.11 0 l
o
np
373.84 105.58 m
0 7.11 l
o
370.29 105.58 7.11 7.11 r p1
np
370.59 106.02 m
7.11 0 l
o
np
374.15 102.47 m
0 7.11 l
o
370.59 102.47 7.11 7.11 r p1
np
371.21 102.92 m
7.11 0 l
o
np
374.76 99.36 m
0 7.11 l
o
371.21 99.36 7.11 7.11 r p1
np
371.52 99.81 m
7.11 0 l
o
np
375.07 96.25 m
0 7.11 l
o
371.52 96.25 7.11 7.11 r p1
np
372.13 96.70 m
7.11 0 l
o
np
375.69 93.14 m
0 7.11 l
o
372.13 93.14 7.11 7.11 r p1
np
372.44 93.59 m
7.11 0 l
o
np
375.99 90.03 m
0 7.11 l
o
372.44 90.03 7.11 7.11 r p1
0.00 0.00 396.85 425.20 cl
0.00 0.00 396.85 425.20 cl
0.00 0.00 396.85 425.20 cl
0.00 0.00 396.85 425.20 cl
0.00 0.00 396.85 425.20 cl
0.00 0.00 396.85 425.20 cl
0.00 0.00 396.85 425.20 cl
0.00 0.00 396.85 425.20 cl
0.00 0.00 396.85 425.20 cl
0.00 0.00 396.85 425.20 cl
0.00 0.00 396.85 425.20 cl
0.00 0.00 396.85 425.20 cl
0.00 0.00 396.85 425.20 cl
0.8000 0.8000 0.8000 srgb
2.13 setlinewidth
[] 0 setdash
0 setlinecap
1 setlinejoin
10.00 setmiterlimit
np
53.09 77.73 m
0 341.99 l
o
0.00 0.00 396.85 425.20 cl
0.00 0.00 396.85 425.20 cl
0.00 0.00 396.85 425.20 cl
/Font1 findfont 14 s
0.3020 0.3020 0.3020 srgb
48.16 88.25 (0.00) 1 0 t
48.16 165.98 (0.25) 1 0 t
48.16 243.70 (0.50) 1 0 t
48.16 321.42 (0.75) 1 0 t
48.16 399.15 (1.00) 1 0 t
0.00 0.00 396.85 425.20 cl
0.00 0.00 396.85 425.20 cl
0.2000 0.2000 0.2000 srgb
1.07 setlinewidth
[] 0 setdash
0 setlinecap
1 setlinejoin
10.00 setmiterlimit
np
50.35 93.28 m
2.74 0 l
o
np
50.35 171.00 m
2.74 0 l
o
np
50.35 248.72 m
2.74 0 l
o
np
50.35 326.45 m
2.74 0 l
o
np
50.35 404.17 m
2.74 0 l
o
0.00 0.00 396.85 425.20 cl
0.00 0.00 396.85 425.20 cl
0.00 0.00 396.85 425.20 cl
0.00 0.00 396.85 425.20 cl
0.00 0.00 396.85 425.20 cl
0.00 0.00 396.85 425.20 cl
0.00 0.00 396.85 425.20 cl
0.8000 0.8000 0.8000 srgb
2.13 setlinewidth
[] 0 setdash
0 setlinecap
1 setlinejoin
10.00 setmiterlimit
np
53.09 77.73 m
338.28 0 l
o
0.00 0.00 396.85 425.20 cl
0.00 0.00 396.85 425.20 cl
0.00 0.00 396.85 425.20 cl
0.2000 0.2000 0.2000 srgb
1.07 setlinewidth
[] 0 setdash
0 setlinecap
1 setlinejoin
10.00 setmiterlimit
np
68.46 74.99 m
0 2.74 l
o
np
145.35 74.99 m
0 2.74 l
o
np
222.23 74.99 m
0 2.74 l
o
np
299.11 74.99 m
0 2.74 l
o
np
375.99 74.99 m
0 2.74 l
o
0.00 0.00 396.85 425.20 cl
0.00 0.00 396.85 425.20 cl
/Font1 findfont 14 s
0.3020 0.3020 0.3020 srgb
68.46 62.75 (0.00) .5 0 t
145.35 62.75 (0.25) .5 0 t
222.23 62.75 (0.50) .5 0 t
299.11 62.75 (0.75) .5 0 t
375.99 62.75 (1.00) .5 0 t
0.00 0.00 396.85 425.20 cl
0.00 0.00 396.85 425.20 cl
0.00 0.00 396.85 425.20 cl
0.00 0.00 396.85 425.20 cl
0.00 0.00 396.85 425.20 cl
0.00 0.00 396.85 425.20 cl
/Font1 findfont 14 s
0 0 0 srgb
170.49 47.32 (Netw) 0 ta
-0.140 (or) tb
0.210 (k Entrop) tb
-0.420 (y) tb gr
0.00 0.00 396.85 425.20 cl
0.00 0.00 396.85 425.20 cl
/Font1 findfont 14 s
0 0 0 srgb
15.53 163.14 (Fisher Inf) 90 ta
-0.420 (or) tb
0.350 (mation Measure) tb gr
0.00 0.00 396.85 425.20 cl
0.00 0.00 396.85 425.20 cl
0.00 0.00 396.85 425.20 cl
0.00 0.00 396.85 425.20 cl
0.00 0.00 396.85 425.20 cl
0.00 0.00 396.85 425.20 cl
0.00 0.00 396.85 425.20 cl
0.00 0.00 396.85 425.20 cl
/bg { 1 1 1 srgb } def
192.54 5.48 59.37 28.24 r p2
0.00 0.00 396.85 425.20 cl
0.00 0.00 396.85 425.20 cl
0.00 0.00 396.85 425.20 cl
0.00 0.00 396.85 425.20 cl
/bg { 0.9490 0.9490 0.9490 srgb } def
1 1 1 srgb
1.07 setlinewidth
[] 0 setdash
1 setlinecap
1 setlinejoin
10.00 setmiterlimit
198.02 10.96 17.28 17.28 r p3
0.00 0.00 396.85 425.20 cl
0.00 0.00 396.85 425.20 cl
0.3294 0.6235 0.5765 srgb
0.71 setlinewidth
[] 0 setdash
1 setlinecap
1 setlinejoin
10.00 setmiterlimit
np
203.11 19.60 m
7.11 0 l
o
np
206.66 16.04 m
0 7.11 l
o
203.11 16.04 7.11 7.11 r p1
0.00 0.00 396.85 425.20 cl
0.00 0.00 396.85 425.20 cl
0.00 0.00 396.85 425.20 cl
0.00 0.00 396.85 425.20 cl
/Font1 findfont 14 s
0 0 0 srgb
215.30 14.57 (1000) 0 0 t
0.00 0.00 396.85 425.20 cl
0.00 0.00 396.85 425.20 cl
0.00 0.00 396.85 425.20 cl
0.00 0.00 396.85 425.20 cl
0.00 0.00 396.85 425.20 cl
0.00 0.00 396.85 425.20 cl
0.00 0.00 396.85 425.20 cl
0.00 0.00 396.85 425.20 cl
0.00 0.00 396.85 425.20 cl
0.00 0.00 396.85 425.20 cl
0.00 0.00 396.85 425.20 cl
0.00 0.00 396.85 425.20 cl
0.00 0.00 396.85 425.20 cl
ep
%%Trailer
%%Pages: 1
%%EOF
