Erdos-Renyi,1000,0,0,0
Erdos-Renyi,1000,0.037,0.646,0.001
Erdos-Renyi,1000,0.087,0.861,0.002
Erdos-Renyi,1000,0.136,0.946,0.003
Erdos-Renyi,1000,0.183,0.976,0.004
Erdos-Renyi,1000,0.22,0.99,0.005
Erdos-Renyi,1000,0.244,0.991,0.006
Erdos-Renyi,1000,0.266,0.993,0.007
Erdos-Renyi,1000,0.286,0.991,0.008
Erdos-Renyi,1000,0.307,0.989,0.009
Erdos-Renyi,1000,0.327,0.991,0.01
Erdos-Renyi,1000,0.328,0.99,0.01
Erdos-Renyi,1000,0.432,0.979,0.02
Erdos-Renyi,1000,0.491,0.971,0.03
Erdos-Renyi,1000,0.532,0.96,0.04
Erdos-Renyi,1000,0.564,0.949,0.05
Erdos-Renyi,1000,0.593,0.938,0.06
Erdos-Renyi,1000,0.614,0.931,0.07
Erdos-Renyi,1000,0.632,0.92,0.08
Erdos-Renyi,1000,0.65,0.91,0.09
Erdos-Renyi,1000,0.666,0.9,0.1
Erdos-Renyi,1000,0.68,0.891,0.11
Erdos-Renyi,1000,0.693,0.881,0.12
Erdos-Renyi,1000,0.704,0.87,0.13
Erdos-Renyi,1000,0.714,0.862,0.14
Erdos-Renyi,1000,0.725,0.85,0.15
Erdos-Renyi,1000,0.734,0.842,0.16
Erdos-Renyi,1000,0.743,0.83,0.17
Erdos-Renyi,1000,0.752,0.821,0.18
Erdos-Renyi,1000,0.76,0.81,0.19
Erdos-Renyi,1000,0.767,0.799,0.2
Erdos-Renyi,1000,0.774,0.791,0.21
Erdos-Renyi,1000,0.78,0.781,0.22
Erdos-Renyi,1000,0.787,0.77,0.23
Erdos-Renyi,1000,0.793,0.76,0.24
Erdos-Renyi,1000,0.799,0.751,0.25
Erdos-Renyi,1000,0.805,0.74,0.26
Erdos-Renyi,1000,0.81,0.732,0.27
Erdos-Renyi,1000,0.815,0.721,0.28
Erdos-Renyi,1000,0.821,0.709,0.29
Erdos-Renyi,1000,0.826,0.7,0.3
Erdos-Renyi,1000,0.831,0.69,0.31
Erdos-Renyi,1000,0.835,0.681,0.32
Erdos-Renyi,1000,0.839,0.67,0.33
Erdos-Renyi,1000,0.844,0.659,0.34
Erdos-Renyi,1000,0.848,0.651,0.35
Erdos-Renyi,1000,0.852,0.641,0.36
Erdos-Renyi,1000,0.856,0.631,0.37
Erdos-Renyi,1000,0.86,0.62,0.38
Erdos-Renyi,1000,0.864,0.61,0.39
Erdos-Renyi,1000,0.868,0.6,0.4
Erdos-Renyi,1000,0.871,0.59,0.41
Erdos-Renyi,1000,0.875,0.58,0.42
Erdos-Renyi,1000,0.878,0.569,0.43
Erdos-Renyi,1000,0.881,0.56,0.44
Erdos-Renyi,1000,0.884,0.551,0.45
Erdos-Renyi,1000,0.887,0.542,0.46
Erdos-Renyi,1000,0.891,0.531,0.47
Erdos-Renyi,1000,0.894,0.521,0.48
Erdos-Renyi,1000,0.896,0.511,0.49
Erdos-Renyi,1000,0.899,0.502,0.5
Erdos-Renyi,1000,0.902,0.491,0.51
Erdos-Renyi,1000,0.905,0.48,0.52
Erdos-Renyi,1000,0.908,0.471,0.53
Erdos-Renyi,1000,0.91,0.462,0.54
Erdos-Renyi,1000,0.913,0.45,0.55
Erdos-Renyi,1000,0.916,0.442,0.56
Erdos-Renyi,1000,0.919,0.43,0.57
Erdos-Renyi,1000,0.921,0.421,0.58
Erdos-Renyi,1000,0.924,0.41,0.59
Erdos-Renyi,1000,0.926,0.4,0.6
Erdos-Renyi,1000,0.928,0.391,0.61
Erdos-Renyi,1000,0.931,0.381,0.62
Erdos-Renyi,1000,0.933,0.37,0.63
Erdos-Renyi,1000,0.935,0.36,0.64
Erdos-Renyi,1000,0.937,0.351,0.65
Erdos-Renyi,1000,0.94,0.342,0.66
Erdos-Renyi,1000,0.942,0.33,0.67
Erdos-Renyi,1000,0.944,0.321,0.68
Erdos-Renyi,1000,0.946,0.311,0.69
Erdos-Renyi,1000,0.948,0.301,0.7
Erdos-Renyi,1000,0.95,0.291,0.71
Erdos-Renyi,1000,0.952,0.281,0.72
Erdos-Renyi,1000,0.955,0.27,0.73
Erdos-Renyi,1000,0.956,0.261,0.74
Erdos-Renyi,1000,0.958,0.25,0.75
Erdos-Renyi,1000,0.96,0.24,0.76
Erdos-Renyi,1000,0.962,0.231,0.77
Erdos-Renyi,1000,0.964,0.22,0.78
Erdos-Renyi,1000,0.966,0.211,0.79
Erdos-Renyi,1000,0.968,0.2,0.8
Erdos-Renyi,1000,0.969,0.191,0.81
Erdos-Renyi,1000,0.971,0.18,0.82
Erdos-Renyi,1000,0.973,0.169,0.83
Erdos-Renyi,1000,0.975,0.161,0.84
Erdos-Renyi,1000,0.977,0.15,0.85
Erdos-Renyi,1000,0.978,0.14,0.86
Erdos-Renyi,1000,0.98,0.131,0.87
Erdos-Renyi,1000,0.982,0.12,0.88
Erdos-Renyi,1000,0.983,0.111,0.89
Erdos-Renyi,1000,0.985,0.1,0.9
Erdos-Renyi,1000,0.986,0.09,0.91
Erdos-Renyi,1000,0.988,0.081,0.92
Erdos-Renyi,1000,0.989,0.071,0.93
Erdos-Renyi,1000,0.991,0.061,0.94
Erdos-Renyi,1000,0.993,0.051,0.95
Erdos-Renyi,1000,0.994,0.041,0.96
Erdos-Renyi,1000,0.995,0.032,0.97
Erdos-Renyi,1000,0.997,0.021,0.98
Erdos-Renyi,1000,0.999,0.011,0.99
Erdos-Renyi,1000,1,0.001,1
Erdos-Renyi,1000,0,0,0
Erdos-Renyi,1000,0.03,0.612,0.001
Erdos-Renyi,1000,0.093,0.885,0.002
Erdos-Renyi,1000,0.145,0.96,0.003
Erdos-Renyi,1000,0.177,0.981,0.004
Erdos-Renyi,1000,0.217,0.986,0.005
Erdos-Renyi,1000,0.248,0.993,0.006
Erdos-Renyi,1000,0.27,0.99,0.007
Erdos-Renyi,1000,0.294,0.991,0.008
Erdos-Renyi,1000,0.311,0.99,0.009
Erdos-Renyi,1000,0.328,0.99,0.01
Erdos-Renyi,1000,0.326,0.99,0.01
Erdos-Renyi,1000,0.432,0.98,0.02
Erdos-Renyi,1000,0.489,0.97,0.03
Erdos-Renyi,1000,0.532,0.961,0.04
Erdos-Renyi,1000,0.566,0.951,0.05
Erdos-Renyi,1000,0.591,0.941,0.06
Erdos-Renyi,1000,0.613,0.931,0.07
Erdos-Renyi,1000,0.632,0.921,0.08
Erdos-Renyi,1000,0.65,0.909,0.09
Erdos-Renyi,1000,0.665,0.902,0.1
Erdos-Renyi,1000,0.679,0.891,0.11
Erdos-Renyi,1000,0.693,0.88,0.12
Erdos-Renyi,1000,0.704,0.869,0.13
Erdos-Renyi,1000,0.715,0.861,0.14
Erdos-Renyi,1000,0.725,0.85,0.15
Erdos-Renyi,1000,0.734,0.84,0.16
Erdos-Renyi,1000,0.744,0.829,0.17
Erdos-Renyi,1000,0.751,0.821,0.18
Erdos-Renyi,1000,0.759,0.812,0.19
Erdos-Renyi,1000,0.767,0.8,0.2
Erdos-Renyi,1000,0.773,0.791,0.21
Erdos-Renyi,1000,0.78,0.78,0.22
Erdos-Renyi,1000,0.787,0.77,0.23
Erdos-Renyi,1000,0.793,0.76,0.24
Erdos-Renyi,1000,0.799,0.75,0.25
Erdos-Renyi,1000,0.805,0.74,0.26
Erdos-Renyi,1000,0.81,0.732,0.27
Erdos-Renyi,1000,0.815,0.72,0.28
Erdos-Renyi,1000,0.821,0.709,0.29
Erdos-Renyi,1000,0.826,0.7,0.3
Erdos-Renyi,1000,0.83,0.69,0.31
Erdos-Renyi,1000,0.835,0.68,0.32
Erdos-Renyi,1000,0.839,0.67,0.33
Erdos-Renyi,1000,0.844,0.66,0.34
Erdos-Renyi,1000,0.848,0.651,0.35
Erdos-Renyi,1000,0.852,0.64,0.36
Erdos-Renyi,1000,0.856,0.628,0.37
Erdos-Renyi,1000,0.86,0.62,0.38
Erdos-Renyi,1000,0.864,0.61,0.39
Erdos-Renyi,1000,0.867,0.6,0.4
Erdos-Renyi,1000,0.871,0.591,0.41
Erdos-Renyi,1000,0.875,0.579,0.42
Erdos-Renyi,1000,0.878,0.57,0.43
Erdos-Renyi,1000,0.881,0.559,0.44
Erdos-Renyi,1000,0.885,0.549,0.45
Erdos-Renyi,1000,0.888,0.539,0.46
Erdos-Renyi,1000,0.891,0.529,0.47
Erdos-Renyi,1000,0.894,0.521,0.48
Erdos-Renyi,1000,0.897,0.51,0.49
Erdos-Renyi,1000,0.9,0.499,0.5
Erdos-Renyi,1000,0.902,0.491,0.51
Erdos-Renyi,1000,0.905,0.481,0.52
Erdos-Renyi,1000,0.908,0.469,0.53
Erdos-Renyi,1000,0.911,0.461,0.54
Erdos-Renyi,1000,0.913,0.448,0.55
Erdos-Renyi,1000,0.916,0.44,0.56
Erdos-Renyi,1000,0.919,0.43,0.57
Erdos-Renyi,1000,0.921,0.42,0.58
Erdos-Renyi,1000,0.923,0.412,0.59
Erdos-Renyi,1000,0.926,0.4,0.6
Erdos-Renyi,1000,0.928,0.391,0.61
Erdos-Renyi,1000,0.931,0.38,0.62
Erdos-Renyi,1000,0.933,0.371,0.63
Erdos-Renyi,1000,0.935,0.36,0.64
Erdos-Renyi,1000,0.938,0.351,0.65
Erdos-Renyi,1000,0.94,0.34,0.66
Erdos-Renyi,1000,0.942,0.329,0.67
Erdos-Renyi,1000,0.944,0.32,0.68
Erdos-Renyi,1000,0.946,0.311,0.69
Erdos-Renyi,1000,0.948,0.301,0.7
Erdos-Renyi,1000,0.95,0.292,0.71
Erdos-Renyi,1000,0.952,0.283,0.72
Erdos-Renyi,1000,0.954,0.271,0.73
Erdos-Renyi,1000,0.956,0.261,0.74
Erdos-Renyi,1000,0.958,0.25,0.75
Erdos-Renyi,1000,0.96,0.24,0.76
Erdos-Renyi,1000,0.962,0.23,0.77
Erdos-Renyi,1000,0.964,0.221,0.78
Erdos-Renyi,1000,0.966,0.211,0.79
Erdos-Renyi,1000,0.968,0.201,0.8
Erdos-Renyi,1000,0.969,0.191,0.81
Erdos-Renyi,1000,0.971,0.181,0.82
Erdos-Renyi,1000,0.973,0.172,0.83
Erdos-Renyi,1000,0.975,0.161,0.84
Erdos-Renyi,1000,0.976,0.151,0.85
Erdos-Renyi,1000,0.978,0.14,0.86
Erdos-Renyi,1000,0.98,0.131,0.87
Erdos-Renyi,1000,0.981,0.121,0.88
Erdos-Renyi,1000,0.983,0.11,0.89
Erdos-Renyi,1000,0.985,0.101,0.9
Erdos-Renyi,1000,0.986,0.091,0.91
Erdos-Renyi,1000,0.988,0.08,0.92
Erdos-Renyi,1000,0.99,0.071,0.93
Erdos-Renyi,1000,0.991,0.061,0.94
Erdos-Renyi,1000,0.993,0.051,0.95
Erdos-Renyi,1000,0.994,0.041,0.96
Erdos-Renyi,1000,0.996,0.031,0.97
Erdos-Renyi,1000,0.997,0.021,0.98
Erdos-Renyi,1000,0.999,0.011,0.99
Erdos-Renyi,1000,1,0.001,1
