%!PS-Adobe-3.0 EPSF-3.0
%%DocumentNeededResources: font Helvetica
%%+ font Helvetica-Bold
%%+ font Helvetica-Oblique
%%+ font Helvetica-BoldOblique
%%+ font Symbol
%%Title: R Graphics Output
%%Creator: R Software
%%Pages: (atend)
%%BoundingBox: 0 0 397 425
%%EndComments
%%BeginProlog
/bp  { gs sRGB gs } def
% begin .ps.prolog
/gs  { gsave } bind def
/gr  { grestore } bind def
/ep  { showpage gr gr } bind def
/m   { moveto } bind def
/l  { rlineto } bind def
/np  { newpath } bind def
/cp  { closepath } bind def
/f   { fill } bind def
/o   { stroke } bind def
/c   { newpath 0 360 arc } bind def
/r   { 4 2 roll moveto 1 copy 3 -1 roll exch 0 exch rlineto 0 rlineto -1 mul 0 exch rlineto closepath } bind def
/p1  { stroke } bind def
/p2  { gsave bg fill grestore newpath } bind def
/p3  { gsave bg fill grestore stroke } bind def
/p6  { gsave bg eofill grestore newpath } bind def
/p7  { gsave bg eofill grestore stroke } bind def
/t   { 5 -2 roll moveto gsave rotate
       1 index stringwidth pop
       mul neg 0 rmoveto show grestore } bind def
/ta  { 4 -2 roll moveto gsave rotate show } bind def
/tb  { 2 -1 roll 0 rmoveto show } bind def
/cl  { grestore gsave newpath 3 index 3 index moveto 1 index
       4 -1 roll lineto  exch 1 index lineto lineto
       closepath clip newpath } bind def
/rgb { setrgbcolor } bind def
/s   { scalefont setfont } bind def
% end   .ps.prolog
/sRGB { [ /CIEBasedABC
          << /DecodeLMN
               [ { dup 0.03928 le
                        {12.92321 div}
                        {0.055 add 1.055 div 2.4 exp }
                     ifelse
                 } bind dup dup
               ]
             /MatrixLMN [0.412457 0.212673 0.019334
                         0.357576 0.715152 0.119192
                         0.180437 0.072175 0.950301]
             /WhitePoint [0.9505 1.0 1.0890]
           >>
         ] setcolorspace } bind def
/srgb { setcolor } bind def
%%IncludeResource: font Helvetica
/Helvetica findfont
dup length dict begin
  {1 index /FID ne {def} {pop pop} ifelse} forall
  /Encoding ISOLatin1Encoding def
  currentdict
  end
/Font1 exch definefont pop
%%IncludeResource: font Helvetica-Bold
/Helvetica-Bold findfont
dup length dict begin
  {1 index /FID ne {def} {pop pop} ifelse} forall
  /Encoding ISOLatin1Encoding def
  currentdict
  end
/Font2 exch definefont pop
%%IncludeResource: font Helvetica-Oblique
/Helvetica-Oblique findfont
dup length dict begin
  {1 index /FID ne {def} {pop pop} ifelse} forall
  /Encoding ISOLatin1Encoding def
  currentdict
  end
/Font3 exch definefont pop
%%IncludeResource: font Helvetica-BoldOblique
/Helvetica-BoldOblique findfont
dup length dict begin
  {1 index /FID ne {def} {pop pop} ifelse} forall
  /Encoding ISOLatin1Encoding def
  currentdict
  end
/Font4 exch definefont pop
%%IncludeResource: font Symbol
/Symbol findfont
dup length dict begin
  {1 index /FID ne {def} {pop pop} ifelse} forall
  currentdict
  end
/Font5 exch definefont pop
%%EndProlog
%%Page: 1 1
bp
0.00 0.00 396.85 425.20 cl
0.00 0.00 396.85 425.20 cl
0.00 0.00 396.85 425.20 cl
0.00 0.00 396.85 425.20 cl
0.00 0.00 396.85 425.20 cl
0.00 0.00 396.85 425.20 cl
0.00 0.00 396.85 425.20 cl
0.00 0.00 396.85 425.20 cl
0.00 0.00 396.85 425.20 cl
0.00 0.00 396.85 425.20 cl
0.00 0.00 396.85 425.20 cl
0.00 0.00 396.85 425.20 cl
/bg { 1 1 1 srgb } def
1 1 1 srgb
1.07 setlinewidth
[] 0 setdash
1 setlinecap
1 setlinejoin
10.00 setmiterlimit
0.00 0.00 396.85 425.20 r p3
0.00 0.00 396.85 425.20 cl
53.09 77.73 391.37 419.72 cl
/bg { 1 1 1 srgb } def
0.4980 0.4980 0.4980 srgb
1.07 setlinewidth
[] 0 setdash
1 setlinecap
1 setlinejoin
10.00 setmiterlimit
53.09 77.73 338.28 341.98 r p3
1 1 1 srgb
0.53 setlinewidth
[] 0 setdash
0 setlinecap
np
53.09 132.14 m
338.28 0 l
o
np
53.09 209.86 m
338.28 0 l
o
np
53.09 287.59 m
338.28 0 l
o
np
53.09 365.31 m
338.28 0 l
o
np
106.90 77.73 m
0 341.99 l
o
np
183.79 77.73 m
0 341.99 l
o
np
260.67 77.73 m
0 341.99 l
o
np
337.55 77.73 m
0 341.99 l
o
1.07 setlinewidth
[] 0 setdash
np
53.09 93.28 m
338.28 0 l
o
np
53.09 171.00 m
338.28 0 l
o
np
53.09 248.72 m
338.28 0 l
o
np
53.09 326.45 m
338.28 0 l
o
np
53.09 404.17 m
338.28 0 l
o
np
68.46 77.73 m
0 341.99 l
o
np
145.35 77.73 m
0 341.99 l
o
np
222.23 77.73 m
0 341.99 l
o
np
299.11 77.73 m
0 341.99 l
o
np
375.99 77.73 m
0 341.99 l
o
0.3294 0.6235 0.5765 srgb
0.71 setlinewidth
[] 0 setdash
1 setlinecap
np
64.91 93.28 m
7.11 0 l
o
np
68.46 89.72 m
0 7.11 l
o
64.91 89.72 7.11 7.11 r p1
np
65.22 104.78 m
7.11 0 l
o
np
68.77 101.23 m
0 7.11 l
o
65.22 101.23 7.11 7.11 r p1
np
65.52 120.33 m
7.11 0 l
o
np
69.08 116.77 m
0 7.11 l
o
65.52 116.77 7.11 7.11 r p1
np
65.83 135.56 m
7.11 0 l
o
np
69.39 132.00 m
0 7.11 l
o
65.83 132.00 7.11 7.11 r p1
np
66.14 150.17 m
7.11 0 l
o
np
69.69 146.62 m
0 7.11 l
o
66.14 146.62 7.11 7.11 r p1
np
66.45 161.67 m
7.11 0 l
o
np
70.00 158.12 m
0 7.11 l
o
66.45 158.12 7.11 7.11 r p1
np
66.75 169.14 m
7.11 0 l
o
np
70.31 165.58 m
0 7.11 l
o
66.75 165.58 7.11 7.11 r p1
np
67.06 175.98 m
7.11 0 l
o
np
70.62 172.42 m
0 7.11 l
o
67.06 172.42 7.11 7.11 r p1
np
67.37 182.19 m
7.11 0 l
o
np
70.92 178.64 m
0 7.11 l
o
67.37 178.64 7.11 7.11 r p1
np
67.68 188.72 m
7.11 0 l
o
np
71.23 185.17 m
0 7.11 l
o
67.68 185.17 7.11 7.11 r p1
np
67.98 194.94 m
7.11 0 l
o
np
71.54 191.38 m
0 7.12 l
o
67.98 191.38 7.11 7.11 r p1
np
67.98 195.25 m
7.11 0 l
o
np
71.54 191.70 m
0 7.11 l
o
67.98 191.70 7.11 7.11 r p1
np
71.06 227.58 m
7.11 0 l
o
np
74.61 224.03 m
0 7.11 l
o
71.06 224.03 7.11 7.11 r p1
np
74.13 245.93 m
7.11 0 l
o
np
77.69 242.37 m
0 7.11 l
o
74.13 242.37 7.11 7.11 r p1
np
77.21 258.67 m
7.11 0 l
o
np
80.76 255.12 m
0 7.11 l
o
77.21 255.12 7.11 7.11 r p1
np
80.28 268.62 m
7.12 0 l
o
np
83.84 265.07 m
0 7.11 l
o
80.28 265.07 7.11 7.11 r p1
np
83.36 277.64 m
7.11 0 l
o
np
86.92 274.08 m
0 7.11 l
o
83.36 274.08 7.11 7.11 r p1
np
86.44 284.17 m
7.11 0 l
o
np
89.99 280.61 m
0 7.11 l
o
86.44 280.61 7.11 7.11 r p1
np
89.51 289.76 m
7.11 0 l
o
np
93.07 286.21 m
0 7.11 l
o
89.51 286.21 7.11 7.11 r p1
np
92.59 295.36 m
7.11 0 l
o
np
96.14 291.80 m
0 7.11 l
o
92.59 291.80 7.11 7.11 r p1
np
95.66 300.33 m
7.11 0 l
o
np
99.22 296.78 m
0 7.11 l
o
95.66 296.78 7.11 7.11 r p1
np
98.74 304.69 m
7.11 0 l
o
np
102.29 301.13 m
0 7.11 l
o
98.74 301.13 7.11 7.11 r p1
np
101.81 308.73 m
7.11 0 l
o
np
105.37 305.17 m
0 7.11 l
o
101.81 305.17 7.11 7.11 r p1
np
104.89 312.15 m
7.11 0 l
o
np
108.44 308.59 m
0 7.11 l
o
104.89 308.59 7.11 7.11 r p1
np
107.96 315.26 m
7.11 0 l
o
np
111.52 311.70 m
0 7.11 l
o
107.96 311.70 7.11 7.11 r p1
np
111.04 318.68 m
7.11 0 l
o
np
114.59 315.12 m
0 7.11 l
o
111.04 315.12 7.11 7.11 r p1
np
114.11 321.47 m
7.11 0 l
o
np
117.67 317.92 m
0 7.11 l
o
114.11 317.92 7.11 7.11 r p1
np
117.19 324.27 m
7.11 0 l
o
np
120.74 320.72 m
0 7.11 l
o
117.19 320.72 7.11 7.11 r p1
np
120.26 327.07 m
7.11 0 l
o
np
123.82 323.52 m
0 7.11 l
o
120.26 323.52 7.11 7.11 r p1
np
123.34 329.56 m
7.11 0 l
o
np
126.89 326.00 m
0 7.11 l
o
123.34 326.00 7.11 7.11 r p1
np
126.41 331.73 m
7.11 0 l
o
np
129.97 328.18 m
0 7.11 l
o
126.41 328.18 7.11 7.11 r p1
np
129.49 333.91 m
7.11 0 l
o
np
133.04 330.36 m
0 7.11 l
o
129.49 330.36 7.11 7.11 r p1
np
132.56 335.78 m
7.12 0 l
o
np
136.12 332.22 m
0 7.11 l
o
132.56 332.22 7.11 7.11 r p1
np
135.64 337.95 m
7.11 0 l
o
np
139.20 334.40 m
0 7.11 l
o
135.64 334.40 7.11 7.11 r p1
np
138.72 339.82 m
7.11 0 l
o
np
142.27 336.26 m
0 7.11 l
o
138.72 336.26 7.11 7.11 r p1
np
141.79 341.68 m
7.11 0 l
o
np
145.35 338.13 m
0 7.11 l
o
141.79 338.13 7.11 7.11 r p1
np
144.87 343.55 m
7.11 0 l
o
np
148.42 339.99 m
0 7.11 l
o
144.87 339.99 7.11 7.11 r p1
np
147.94 345.10 m
7.11 0 l
o
np
151.50 341.55 m
0 7.11 l
o
147.94 341.55 7.11 7.11 r p1
np
151.02 346.66 m
7.11 0 l
o
np
154.57 343.10 m
0 7.11 l
o
151.02 343.10 7.11 7.11 r p1
np
154.09 348.52 m
7.11 0 l
o
np
157.65 344.97 m
0 7.11 l
o
154.09 344.97 7.11 7.11 r p1
np
157.17 350.08 m
7.11 0 l
o
np
160.72 346.52 m
0 7.11 l
o
157.17 346.52 7.11 7.11 r p1
np
160.24 351.63 m
7.11 0 l
o
np
163.80 348.08 m
0 7.11 l
o
160.24 348.08 7.11 7.11 r p1
np
163.32 352.87 m
7.11 0 l
o
np
166.87 349.32 m
0 7.11 l
o
163.32 349.32 7.11 7.11 r p1
np
166.39 354.12 m
7.11 0 l
o
np
169.95 350.56 m
0 7.11 l
o
166.39 350.56 7.11 7.11 r p1
np
169.47 355.67 m
7.11 0 l
o
np
173.02 352.12 m
0 7.11 l
o
169.47 352.12 7.11 7.11 r p1
np
172.54 356.92 m
7.11 0 l
o
np
176.10 353.36 m
0 7.11 l
o
172.54 353.36 7.11 7.11 r p1
np
175.62 358.16 m
7.11 0 l
o
np
179.17 354.60 m
0 7.12 l
o
175.62 354.60 7.11 7.11 r p1
np
178.69 359.40 m
7.12 0 l
o
np
182.25 355.85 m
0 7.11 l
o
178.69 355.85 7.11 7.11 r p1
np
181.77 360.65 m
7.11 0 l
o
np
185.33 357.09 m
0 7.11 l
o
181.77 357.09 7.11 7.11 r p1
np
184.85 361.89 m
7.11 0 l
o
np
188.40 358.34 m
0 7.11 l
o
184.85 358.34 7.11 7.11 r p1
np
187.92 363.13 m
7.11 0 l
o
np
191.48 359.58 m
0 7.11 l
o
187.92 359.58 7.11 7.11 r p1
np
191.00 364.07 m
7.11 0 l
o
np
194.55 360.51 m
0 7.11 l
o
191.00 360.51 7.11 7.11 r p1
np
194.07 365.31 m
7.11 0 l
o
np
197.63 361.76 m
0 7.11 l
o
194.07 361.76 7.11 7.11 r p1
np
197.15 366.24 m
7.11 0 l
o
np
200.70 362.69 m
0 7.11 l
o
197.15 362.69 7.11 7.11 r p1
np
200.22 367.18 m
7.11 0 l
o
np
203.78 363.62 m
0 7.11 l
o
200.22 363.62 7.11 7.11 r p1
np
203.30 368.11 m
7.11 0 l
o
np
206.85 364.55 m
0 7.11 l
o
203.30 364.55 7.11 7.11 r p1
np
206.37 369.04 m
7.11 0 l
o
np
209.93 365.49 m
0 7.11 l
o
206.37 365.49 7.11 7.11 r p1
np
209.45 370.29 m
7.11 0 l
o
np
213.00 366.73 m
0 7.11 l
o
209.45 366.73 7.11 7.11 r p1
np
212.52 371.22 m
7.11 0 l
o
np
216.08 367.66 m
0 7.11 l
o
212.52 367.66 7.11 7.11 r p1
np
215.60 371.84 m
7.11 0 l
o
np
219.15 368.28 m
0 7.11 l
o
215.60 368.28 7.11 7.11 r p1
np
218.67 372.77 m
7.11 0 l
o
np
222.23 369.22 m
0 7.11 l
o
218.67 369.22 7.11 7.11 r p1
np
221.75 373.70 m
7.11 0 l
o
np
225.30 370.15 m
0 7.11 l
o
221.75 370.15 7.11 7.11 r p1
np
224.82 374.64 m
7.11 0 l
o
np
228.38 371.08 m
0 7.11 l
o
224.82 371.08 7.11 7.11 r p1
np
227.90 375.57 m
7.11 0 l
o
np
231.45 372.01 m
0 7.12 l
o
227.90 372.01 7.11 7.11 r p1
np
230.97 376.19 m
7.12 0 l
o
np
234.53 372.64 m
0 7.11 l
o
230.97 372.64 7.11 7.11 r p1
np
234.05 377.12 m
7.11 0 l
o
np
237.61 373.57 m
0 7.11 l
o
234.05 373.57 7.11 7.11 r p1
np
237.13 378.06 m
7.11 0 l
o
np
240.68 374.50 m
0 7.11 l
o
237.13 374.50 7.11 7.11 r p1
np
240.20 378.99 m
7.11 0 l
o
np
243.76 375.43 m
0 7.12 l
o
240.20 375.43 7.11 7.11 r p1
np
243.28 379.61 m
7.11 0 l
o
np
246.83 376.06 m
0 7.11 l
o
243.28 376.06 7.11 7.11 r p1
np
246.35 380.54 m
7.11 0 l
o
np
249.91 376.99 m
0 7.11 l
o
246.35 376.99 7.11 7.11 r p1
np
249.43 381.17 m
7.11 0 l
o
np
252.98 377.61 m
0 7.11 l
o
249.43 377.61 7.11 7.11 r p1
np
252.50 381.79 m
7.11 0 l
o
np
256.06 378.23 m
0 7.11 l
o
252.50 378.23 7.11 7.11 r p1
np
255.58 382.72 m
7.11 0 l
o
np
259.13 379.17 m
0 7.11 l
o
255.58 379.17 7.11 7.11 r p1
np
258.65 383.34 m
7.11 0 l
o
np
262.21 379.79 m
0 7.11 l
o
258.65 379.79 7.11 7.11 r p1
np
261.73 383.96 m
7.11 0 l
o
np
265.28 380.41 m
0 7.11 l
o
261.73 380.41 7.11 7.11 r p1
np
264.80 384.59 m
7.11 0 l
o
np
268.36 381.03 m
0 7.11 l
o
264.80 381.03 7.11 7.11 r p1
np
267.88 385.52 m
7.11 0 l
o
np
271.43 381.96 m
0 7.11 l
o
267.88 381.96 7.11 7.11 r p1
np
270.95 386.14 m
7.11 0 l
o
np
274.51 382.59 m
0 7.11 l
o
270.95 382.59 7.11 7.11 r p1
np
274.03 386.76 m
7.11 0 l
o
np
277.58 383.21 m
0 7.11 l
o
274.03 383.21 7.11 7.11 r p1
np
277.10 387.38 m
7.11 0 l
o
np
280.66 383.83 m
0 7.11 l
o
277.10 383.83 7.11 7.11 r p1
np
280.18 388.01 m
7.11 0 l
o
np
283.74 384.45 m
0 7.11 l
o
280.18 384.45 7.11 7.11 r p1
np
283.26 388.63 m
7.11 0 l
o
np
286.81 385.07 m
0 7.11 l
o
283.26 385.07 7.11 7.11 r p1
np
286.33 389.25 m
7.11 0 l
o
np
289.89 385.69 m
0 7.11 l
o
286.33 385.69 7.11 7.11 r p1
np
289.41 390.18 m
7.11 0 l
o
np
292.96 386.63 m
0 7.11 l
o
289.41 386.63 7.11 7.11 r p1
np
292.48 390.49 m
7.11 0 l
o
np
296.04 386.94 m
0 7.11 l
o
292.48 386.94 7.11 7.11 r p1
np
295.56 391.12 m
7.11 0 l
o
np
299.11 387.56 m
0 7.11 l
o
295.56 387.56 7.11 7.11 r p1
np
298.63 391.74 m
7.11 0 l
o
np
302.19 388.18 m
0 7.11 l
o
298.63 388.18 7.11 7.11 r p1
np
301.71 392.36 m
7.11 0 l
o
np
305.26 388.80 m
0 7.11 l
o
301.71 388.80 7.11 7.11 r p1
np
304.78 392.98 m
7.11 0 l
o
np
308.34 389.43 m
0 7.11 l
o
304.78 389.43 7.11 7.11 r p1
np
307.86 393.60 m
7.11 0 l
o
np
311.41 390.05 m
0 7.11 l
o
307.86 390.05 7.11 7.11 r p1
np
310.93 394.22 m
7.11 0 l
o
np
314.49 390.67 m
0 7.11 l
o
310.93 390.67 7.11 7.11 r p1
np
314.01 394.53 m
7.11 0 l
o
np
317.56 390.98 m
0 7.11 l
o
314.01 390.98 7.11 7.11 r p1
np
317.08 395.16 m
7.11 0 l
o
np
320.64 391.60 m
0 7.11 l
o
317.08 391.60 7.11 7.11 r p1
np
320.16 395.78 m
7.11 0 l
o
np
323.71 392.22 m
0 7.11 l
o
320.16 392.22 7.11 7.11 r p1
np
323.23 396.40 m
7.11 0 l
o
np
326.79 392.84 m
0 7.12 l
o
323.23 392.84 7.11 7.11 r p1
np
326.31 397.02 m
7.11 0 l
o
np
329.86 393.47 m
0 7.11 l
o
326.31 393.47 7.11 7.11 r p1
np
329.38 397.33 m
7.12 0 l
o
np
332.94 393.78 m
0 7.11 l
o
329.38 393.78 7.11 7.11 r p1
np
332.46 397.95 m
7.11 0 l
o
np
336.02 394.40 m
0 7.11 l
o
332.46 394.40 7.11 7.11 r p1
np
335.54 398.58 m
7.11 0 l
o
np
339.09 395.02 m
0 7.11 l
o
335.54 395.02 7.11 7.11 r p1
np
338.61 398.89 m
7.11 0 l
o
np
342.17 395.33 m
0 7.11 l
o
338.61 395.33 7.11 7.11 r p1
np
341.69 399.51 m
7.11 0 l
o
np
345.24 395.95 m
0 7.11 l
o
341.69 395.95 7.11 7.11 r p1
np
344.76 399.82 m
7.11 0 l
o
np
348.32 396.26 m
0 7.12 l
o
344.76 396.26 7.11 7.11 r p1
np
347.84 400.44 m
7.11 0 l
o
np
351.39 396.89 m
0 7.11 l
o
347.84 396.89 7.11 7.11 r p1
np
350.91 400.75 m
7.11 0 l
o
np
354.47 397.20 m
0 7.11 l
o
350.91 397.20 7.11 7.11 r p1
np
353.99 401.37 m
7.11 0 l
o
np
357.54 397.82 m
0 7.11 l
o
353.99 397.82 7.11 7.11 r p1
np
357.06 402.00 m
7.11 0 l
o
np
360.62 398.44 m
0 7.11 l
o
357.06 398.44 7.11 7.11 r p1
np
360.14 402.31 m
7.11 0 l
o
np
363.69 398.75 m
0 7.11 l
o
360.14 398.75 7.11 7.11 r p1
np
363.21 402.62 m
7.11 0 l
o
np
366.77 399.06 m
0 7.11 l
o
363.21 399.06 7.11 7.11 r p1
np
366.29 403.24 m
7.11 0 l
o
np
369.84 399.68 m
0 7.12 l
o
366.29 399.68 7.11 7.11 r p1
np
369.36 403.86 m
7.11 0 l
o
np
372.92 400.31 m
0 7.11 l
o
369.36 400.31 7.11 7.11 r p1
np
372.44 404.17 m
7.11 0 l
o
np
375.99 400.62 m
0 7.11 l
o
372.44 400.62 7.11 7.11 r p1
np
64.91 93.28 m
7.11 0 l
o
np
68.46 89.72 m
0 7.11 l
o
64.91 89.72 7.11 7.11 r p1
np
65.22 102.60 m
7.11 0 l
o
np
68.77 99.05 m
0 7.11 l
o
65.22 99.05 7.11 7.11 r p1
np
65.52 122.19 m
7.11 0 l
o
np
69.08 118.64 m
0 7.11 l
o
65.52 118.64 7.11 7.11 r p1
np
65.83 138.36 m
7.11 0 l
o
np
69.39 134.80 m
0 7.11 l
o
65.83 134.80 7.11 7.11 r p1
np
66.14 148.31 m
7.11 0 l
o
np
69.69 144.75 m
0 7.11 l
o
66.14 144.75 7.11 7.11 r p1
np
66.45 160.74 m
7.11 0 l
o
np
70.00 157.19 m
0 7.11 l
o
66.45 157.19 7.11 7.11 r p1
np
66.75 170.38 m
7.11 0 l
o
np
70.31 166.82 m
0 7.11 l
o
66.75 166.82 7.11 7.11 r p1
np
67.06 177.22 m
7.11 0 l
o
np
70.62 173.66 m
0 7.11 l
o
67.06 173.66 7.11 7.11 r p1
np
67.37 184.68 m
7.11 0 l
o
np
70.92 181.13 m
0 7.11 l
o
67.37 181.13 7.11 7.11 r p1
np
67.68 189.97 m
7.11 0 l
o
np
71.23 186.41 m
0 7.11 l
o
67.68 186.41 7.11 7.11 r p1
np
67.98 195.25 m
7.11 0 l
o
np
71.54 191.70 m
0 7.11 l
o
67.98 191.70 7.11 7.11 r p1
np
67.98 194.63 m
7.11 0 l
o
np
71.54 191.07 m
0 7.11 l
o
67.98 191.07 7.11 7.11 r p1
np
71.06 227.58 m
7.11 0 l
o
np
74.61 224.03 m
0 7.11 l
o
71.06 224.03 7.11 7.11 r p1
np
74.13 245.31 m
7.11 0 l
o
np
77.69 241.75 m
0 7.11 l
o
74.13 241.75 7.11 7.11 r p1
np
77.21 258.67 m
7.11 0 l
o
np
80.76 255.12 m
0 7.11 l
o
77.21 255.12 7.11 7.11 r p1
np
80.28 269.24 m
7.12 0 l
o
np
83.84 265.69 m
0 7.11 l
o
80.28 265.69 7.11 7.11 r p1
np
83.36 277.02 m
7.11 0 l
o
np
86.92 273.46 m
0 7.11 l
o
83.36 273.46 7.11 7.11 r p1
np
86.44 283.86 m
7.11 0 l
o
np
89.99 280.30 m
0 7.11 l
o
86.44 280.30 7.11 7.11 r p1
np
89.51 289.76 m
7.11 0 l
o
np
93.07 286.21 m
0 7.11 l
o
89.51 286.21 7.11 7.11 r p1
np
92.59 295.36 m
7.11 0 l
o
np
96.14 291.80 m
0 7.11 l
o
92.59 291.80 7.11 7.11 r p1
np
95.66 300.02 m
7.11 0 l
o
np
99.22 296.47 m
0 7.11 l
o
95.66 296.47 7.11 7.11 r p1
np
98.74 304.38 m
7.11 0 l
o
np
102.29 300.82 m
0 7.11 l
o
98.74 300.82 7.11 7.11 r p1
np
101.81 308.73 m
7.11 0 l
o
np
105.37 305.17 m
0 7.11 l
o
101.81 305.17 7.11 7.11 r p1
np
104.89 312.15 m
7.11 0 l
o
np
108.44 308.59 m
0 7.11 l
o
104.89 308.59 7.11 7.11 r p1
np
107.96 315.57 m
7.11 0 l
o
np
111.52 312.01 m
0 7.11 l
o
107.96 312.01 7.11 7.11 r p1
np
111.04 318.68 m
7.11 0 l
o
np
114.59 315.12 m
0 7.11 l
o
111.04 315.12 7.11 7.11 r p1
np
114.11 321.47 m
7.11 0 l
o
np
117.67 317.92 m
0 7.11 l
o
114.11 317.92 7.11 7.11 r p1
np
117.19 324.58 m
7.11 0 l
o
np
120.74 321.03 m
0 7.11 l
o
117.19 321.03 7.11 7.11 r p1
np
120.26 326.76 m
7.11 0 l
o
np
123.82 323.20 m
0 7.11 l
o
120.26 323.20 7.11 7.11 r p1
np
123.34 329.25 m
7.11 0 l
o
np
126.89 325.69 m
0 7.11 l
o
123.34 325.69 7.11 7.11 r p1
np
126.41 331.73 m
7.11 0 l
o
np
129.97 328.18 m
0 7.11 l
o
126.41 328.18 7.11 7.11 r p1
np
129.49 333.60 m
7.11 0 l
o
np
133.04 330.04 m
0 7.11 l
o
129.49 330.04 7.11 7.11 r p1
np
132.56 335.78 m
7.12 0 l
o
np
136.12 332.22 m
0 7.11 l
o
132.56 332.22 7.11 7.11 r p1
np
135.64 337.95 m
7.11 0 l
o
np
139.20 334.40 m
0 7.11 l
o
135.64 334.40 7.11 7.11 r p1
np
138.72 339.82 m
7.11 0 l
o
np
142.27 336.26 m
0 7.11 l
o
138.72 336.26 7.11 7.11 r p1
np
141.79 341.68 m
7.11 0 l
o
np
145.35 338.13 m
0 7.11 l
o
141.79 338.13 7.11 7.11 r p1
np
144.87 343.55 m
7.11 0 l
o
np
148.42 339.99 m
0 7.11 l
o
144.87 339.99 7.11 7.11 r p1
np
147.94 345.10 m
7.11 0 l
o
np
151.50 341.55 m
0 7.11 l
o
147.94 341.55 7.11 7.11 r p1
np
151.02 346.66 m
7.11 0 l
o
np
154.57 343.10 m
0 7.11 l
o
151.02 343.10 7.11 7.11 r p1
np
154.09 348.52 m
7.11 0 l
o
np
157.65 344.97 m
0 7.11 l
o
154.09 344.97 7.11 7.11 r p1
np
157.17 350.08 m
7.11 0 l
o
np
160.72 346.52 m
0 7.11 l
o
157.17 346.52 7.11 7.11 r p1
np
160.24 351.32 m
7.11 0 l
o
np
163.80 347.77 m
0 7.11 l
o
160.24 347.77 7.11 7.11 r p1
np
163.32 352.87 m
7.11 0 l
o
np
166.87 349.32 m
0 7.11 l
o
163.32 349.32 7.11 7.11 r p1
np
166.39 354.12 m
7.11 0 l
o
np
169.95 350.56 m
0 7.11 l
o
166.39 350.56 7.11 7.11 r p1
np
169.47 355.67 m
7.11 0 l
o
np
173.02 352.12 m
0 7.11 l
o
169.47 352.12 7.11 7.11 r p1
np
172.54 356.92 m
7.11 0 l
o
np
176.10 353.36 m
0 7.11 l
o
172.54 353.36 7.11 7.11 r p1
np
175.62 358.16 m
7.11 0 l
o
np
179.17 354.60 m
0 7.12 l
o
175.62 354.60 7.11 7.11 r p1
np
178.69 359.40 m
7.12 0 l
o
np
182.25 355.85 m
0 7.11 l
o
178.69 355.85 7.11 7.11 r p1
np
181.77 360.65 m
7.11 0 l
o
np
185.33 357.09 m
0 7.11 l
o
181.77 357.09 7.11 7.11 r p1
np
184.85 361.89 m
7.11 0 l
o
np
188.40 358.34 m
0 7.11 l
o
184.85 358.34 7.11 7.11 r p1
np
187.92 362.82 m
7.11 0 l
o
np
191.48 359.27 m
0 7.11 l
o
187.92 359.27 7.11 7.11 r p1
np
191.00 364.07 m
7.11 0 l
o
np
194.55 360.51 m
0 7.11 l
o
191.00 360.51 7.11 7.11 r p1
np
194.07 365.31 m
7.11 0 l
o
np
197.63 361.76 m
0 7.11 l
o
194.07 361.76 7.11 7.11 r p1
np
197.15 366.24 m
7.11 0 l
o
np
200.70 362.69 m
0 7.11 l
o
197.15 362.69 7.11 7.11 r p1
np
200.22 367.18 m
7.11 0 l
o
np
203.78 363.62 m
0 7.11 l
o
200.22 363.62 7.11 7.11 r p1
np
203.30 368.42 m
7.11 0 l
o
np
206.85 364.86 m
0 7.11 l
o
203.30 364.86 7.11 7.11 r p1
np
206.37 369.35 m
7.11 0 l
o
np
209.93 365.80 m
0 7.11 l
o
206.37 365.80 7.11 7.11 r p1
np
209.45 370.29 m
7.11 0 l
o
np
213.00 366.73 m
0 7.11 l
o
209.45 366.73 7.11 7.11 r p1
np
212.52 371.22 m
7.11 0 l
o
np
216.08 367.66 m
0 7.11 l
o
212.52 367.66 7.11 7.11 r p1
np
215.60 372.15 m
7.11 0 l
o
np
219.15 368.60 m
0 7.11 l
o
215.60 368.60 7.11 7.11 r p1
np
218.67 373.08 m
7.11 0 l
o
np
222.23 369.53 m
0 7.11 l
o
218.67 369.53 7.11 7.11 r p1
np
221.75 373.70 m
7.11 0 l
o
np
225.30 370.15 m
0 7.11 l
o
221.75 370.15 7.11 7.11 r p1
np
224.82 374.64 m
7.11 0 l
o
np
228.38 371.08 m
0 7.11 l
o
224.82 371.08 7.11 7.11 r p1
np
227.90 375.57 m
7.11 0 l
o
np
231.45 372.01 m
0 7.12 l
o
227.90 372.01 7.11 7.11 r p1
np
230.97 376.50 m
7.12 0 l
o
np
234.53 372.95 m
0 7.11 l
o
230.97 372.95 7.11 7.11 r p1
np
234.05 377.12 m
7.11 0 l
o
np
237.61 373.57 m
0 7.11 l
o
234.05 373.57 7.11 7.11 r p1
np
237.13 378.06 m
7.11 0 l
o
np
240.68 374.50 m
0 7.11 l
o
237.13 374.50 7.11 7.11 r p1
np
240.20 378.99 m
7.11 0 l
o
np
243.76 375.43 m
0 7.12 l
o
240.20 375.43 7.11 7.11 r p1
np
243.28 379.61 m
7.11 0 l
o
np
246.83 376.06 m
0 7.11 l
o
243.28 376.06 7.11 7.11 r p1
np
246.35 380.23 m
7.11 0 l
o
np
249.91 376.68 m
0 7.11 l
o
246.35 376.68 7.11 7.11 r p1
np
249.43 381.17 m
7.11 0 l
o
np
252.98 377.61 m
0 7.11 l
o
249.43 377.61 7.11 7.11 r p1
np
252.50 381.79 m
7.11 0 l
o
np
256.06 378.23 m
0 7.11 l
o
252.50 378.23 7.11 7.11 r p1
np
255.58 382.72 m
7.11 0 l
o
np
259.13 379.17 m
0 7.11 l
o
255.58 379.17 7.11 7.11 r p1
np
258.65 383.34 m
7.11 0 l
o
np
262.21 379.79 m
0 7.11 l
o
258.65 379.79 7.11 7.11 r p1
np
261.73 383.96 m
7.11 0 l
o
np
265.28 380.41 m
0 7.11 l
o
261.73 380.41 7.11 7.11 r p1
np
264.80 384.90 m
7.11 0 l
o
np
268.36 381.34 m
0 7.11 l
o
264.80 381.34 7.11 7.11 r p1
np
267.88 385.52 m
7.11 0 l
o
np
271.43 381.96 m
0 7.11 l
o
267.88 381.96 7.11 7.11 r p1
np
270.95 386.14 m
7.11 0 l
o
np
274.51 382.59 m
0 7.11 l
o
270.95 382.59 7.11 7.11 r p1
np
274.03 386.76 m
7.11 0 l
o
np
277.58 383.21 m
0 7.11 l
o
274.03 383.21 7.11 7.11 r p1
np
277.10 387.38 m
7.11 0 l
o
np
280.66 383.83 m
0 7.11 l
o
277.10 383.83 7.11 7.11 r p1
np
280.18 388.01 m
7.11 0 l
o
np
283.74 384.45 m
0 7.11 l
o
280.18 384.45 7.11 7.11 r p1
np
283.26 388.63 m
7.11 0 l
o
np
286.81 385.07 m
0 7.11 l
o
283.26 385.07 7.11 7.11 r p1
np
286.33 389.25 m
7.11 0 l
o
np
289.89 385.69 m
0 7.11 l
o
286.33 385.69 7.11 7.11 r p1
np
289.41 389.87 m
7.11 0 l
o
np
292.96 386.32 m
0 7.11 l
o
289.41 386.32 7.11 7.11 r p1
np
292.48 390.49 m
7.11 0 l
o
np
296.04 386.94 m
0 7.11 l
o
292.48 386.94 7.11 7.11 r p1
np
295.56 391.12 m
7.11 0 l
o
np
299.11 387.56 m
0 7.11 l
o
295.56 387.56 7.11 7.11 r p1
np
298.63 391.74 m
7.11 0 l
o
np
302.19 388.18 m
0 7.11 l
o
298.63 388.18 7.11 7.11 r p1
np
301.71 392.36 m
7.11 0 l
o
np
305.26 388.80 m
0 7.11 l
o
301.71 388.80 7.11 7.11 r p1
np
304.78 392.98 m
7.11 0 l
o
np
308.34 389.43 m
0 7.11 l
o
304.78 389.43 7.11 7.11 r p1
np
307.86 393.60 m
7.11 0 l
o
np
311.41 390.05 m
0 7.11 l
o
307.86 390.05 7.11 7.11 r p1
np
310.93 394.22 m
7.11 0 l
o
np
314.49 390.67 m
0 7.11 l
o
310.93 390.67 7.11 7.11 r p1
np
314.01 394.53 m
7.11 0 l
o
np
317.56 390.98 m
0 7.11 l
o
314.01 390.98 7.11 7.11 r p1
np
317.08 395.16 m
7.11 0 l
o
np
320.64 391.60 m
0 7.11 l
o
317.08 391.60 7.11 7.11 r p1
np
320.16 395.78 m
7.11 0 l
o
np
323.71 392.22 m
0 7.11 l
o
320.16 392.22 7.11 7.11 r p1
np
323.23 396.40 m
7.11 0 l
o
np
326.79 392.84 m
0 7.12 l
o
323.23 392.84 7.11 7.11 r p1
np
326.31 396.71 m
7.11 0 l
o
np
329.86 393.16 m
0 7.11 l
o
326.31 393.16 7.11 7.11 r p1
np
329.38 397.33 m
7.12 0 l
o
np
332.94 393.78 m
0 7.11 l
o
329.38 393.78 7.11 7.11 r p1
np
332.46 397.95 m
7.11 0 l
o
np
336.02 394.40 m
0 7.11 l
o
332.46 394.40 7.11 7.11 r p1
np
335.54 398.27 m
7.11 0 l
o
np
339.09 394.71 m
0 7.11 l
o
335.54 394.71 7.11 7.11 r p1
np
338.61 398.89 m
7.11 0 l
o
np
342.17 395.33 m
0 7.11 l
o
338.61 395.33 7.11 7.11 r p1
np
341.69 399.51 m
7.11 0 l
o
np
345.24 395.95 m
0 7.11 l
o
341.69 395.95 7.11 7.11 r p1
np
344.76 399.82 m
7.11 0 l
o
np
348.32 396.26 m
0 7.12 l
o
344.76 396.26 7.11 7.11 r p1
np
347.84 400.44 m
7.11 0 l
o
np
351.39 396.89 m
0 7.11 l
o
347.84 396.89 7.11 7.11 r p1
np
350.91 401.06 m
7.11 0 l
o
np
354.47 397.51 m
0 7.11 l
o
350.91 397.51 7.11 7.11 r p1
np
353.99 401.37 m
7.11 0 l
o
np
357.54 397.82 m
0 7.11 l
o
353.99 397.82 7.11 7.11 r p1
np
357.06 402.00 m
7.11 0 l
o
np
360.62 398.44 m
0 7.11 l
o
357.06 398.44 7.11 7.11 r p1
np
360.14 402.31 m
7.11 0 l
o
np
363.69 398.75 m
0 7.11 l
o
360.14 398.75 7.11 7.11 r p1
np
363.21 402.93 m
7.11 0 l
o
np
366.77 399.37 m
0 7.11 l
o
363.21 399.37 7.11 7.11 r p1
np
366.29 403.24 m
7.11 0 l
o
np
369.84 399.68 m
0 7.12 l
o
366.29 399.68 7.11 7.11 r p1
np
369.36 403.86 m
7.11 0 l
o
np
372.92 400.31 m
0 7.11 l
o
369.36 400.31 7.11 7.11 r p1
np
372.44 404.17 m
7.11 0 l
o
np
375.99 400.62 m
0 7.11 l
o
372.44 400.62 7.11 7.11 r p1
0.00 0.00 396.85 425.20 cl
0.00 0.00 396.85 425.20 cl
0.00 0.00 396.85 425.20 cl
0.00 0.00 396.85 425.20 cl
0.00 0.00 396.85 425.20 cl
0.00 0.00 396.85 425.20 cl
0.00 0.00 396.85 425.20 cl
0.00 0.00 396.85 425.20 cl
0.00 0.00 396.85 425.20 cl
0.00 0.00 396.85 425.20 cl
0.00 0.00 396.85 425.20 cl
0.00 0.00 396.85 425.20 cl
0.00 0.00 396.85 425.20 cl
0.8000 0.8000 0.8000 srgb
2.13 setlinewidth
[] 0 setdash
0 setlinecap
1 setlinejoin
10.00 setmiterlimit
np
53.09 77.73 m
0 341.99 l
o
0.00 0.00 396.85 425.20 cl
0.00 0.00 396.85 425.20 cl
0.00 0.00 396.85 425.20 cl
/Font1 findfont 14 s
0.3020 0.3020 0.3020 srgb
48.16 88.25 (0.00) 1 0 t
48.16 165.98 (0.25) 1 0 t
48.16 243.70 (0.50) 1 0 t
48.16 321.42 (0.75) 1 0 t
48.16 399.15 (1.00) 1 0 t
0.00 0.00 396.85 425.20 cl
0.00 0.00 396.85 425.20 cl
0.2000 0.2000 0.2000 srgb
1.07 setlinewidth
[] 0 setdash
0 setlinecap
1 setlinejoin
10.00 setmiterlimit
np
50.35 93.28 m
2.74 0 l
o
np
50.35 171.00 m
2.74 0 l
o
np
50.35 248.72 m
2.74 0 l
o
np
50.35 326.45 m
2.74 0 l
o
np
50.35 404.17 m
2.74 0 l
o
0.00 0.00 396.85 425.20 cl
0.00 0.00 396.85 425.20 cl
0.00 0.00 396.85 425.20 cl
0.00 0.00 396.85 425.20 cl
0.00 0.00 396.85 425.20 cl
0.00 0.00 396.85 425.20 cl
0.00 0.00 396.85 425.20 cl
0.8000 0.8000 0.8000 srgb
2.13 setlinewidth
[] 0 setdash
0 setlinecap
1 setlinejoin
10.00 setmiterlimit
np
53.09 77.73 m
338.28 0 l
o
0.00 0.00 396.85 425.20 cl
0.00 0.00 396.85 425.20 cl
0.00 0.00 396.85 425.20 cl
0.2000 0.2000 0.2000 srgb
1.07 setlinewidth
[] 0 setdash
0 setlinecap
1 setlinejoin
10.00 setmiterlimit
np
68.46 74.99 m
0 2.74 l
o
np
145.35 74.99 m
0 2.74 l
o
np
222.23 74.99 m
0 2.74 l
o
np
299.11 74.99 m
0 2.74 l
o
np
375.99 74.99 m
0 2.74 l
o
0.00 0.00 396.85 425.20 cl
0.00 0.00 396.85 425.20 cl
/Font1 findfont 14 s
0.3020 0.3020 0.3020 srgb
68.46 62.75 (0.00) .5 0 t
145.35 62.75 (0.25) .5 0 t
222.23 62.75 (0.50) .5 0 t
299.11 62.75 (0.75) .5 0 t
375.99 62.75 (1.00) .5 0 t
0.00 0.00 396.85 425.20 cl
0.00 0.00 396.85 425.20 cl
0.00 0.00 396.85 425.20 cl
0.00 0.00 396.85 425.20 cl
0.00 0.00 396.85 425.20 cl
0.00 0.00 396.85 425.20 cl
/Font1 findfont 14 s
0 0 0 srgb
222.23 47.32 (Link Density) .5 0 t
0.00 0.00 396.85 425.20 cl
0.00 0.00 396.85 425.20 cl
/Font1 findfont 14 s
0 0 0 srgb
15.53 196.99 (Netw) 90 ta
-0.140 (or) tb
0.210 (k Entrop) tb
-0.420 (y) tb gr
0.00 0.00 396.85 425.20 cl
0.00 0.00 396.85 425.20 cl
0.00 0.00 396.85 425.20 cl
0.00 0.00 396.85 425.20 cl
0.00 0.00 396.85 425.20 cl
0.00 0.00 396.85 425.20 cl
0.00 0.00 396.85 425.20 cl
0.00 0.00 396.85 425.20 cl
/bg { 1 1 1 srgb } def
192.54 5.48 59.37 28.24 r p2
0.00 0.00 396.85 425.20 cl
0.00 0.00 396.85 425.20 cl
0.00 0.00 396.85 425.20 cl
0.00 0.00 396.85 425.20 cl
/bg { 0.9490 0.9490 0.9490 srgb } def
1 1 1 srgb
1.07 setlinewidth
[] 0 setdash
1 setlinecap
1 setlinejoin
10.00 setmiterlimit
198.02 10.96 17.28 17.28 r p3
0.00 0.00 396.85 425.20 cl
0.00 0.00 396.85 425.20 cl
0.3294 0.6235 0.5765 srgb
0.71 setlinewidth
[] 0 setdash
1 setlinecap
1 setlinejoin
10.00 setmiterlimit
np
203.11 19.60 m
7.11 0 l
o
np
206.66 16.04 m
0 7.11 l
o
203.11 16.04 7.11 7.11 r p1
0.00 0.00 396.85 425.20 cl
0.00 0.00 396.85 425.20 cl
0.00 0.00 396.85 425.20 cl
0.00 0.00 396.85 425.20 cl
/Font1 findfont 14 s
0 0 0 srgb
215.30 14.57 (1000) 0 0 t
0.00 0.00 396.85 425.20 cl
0.00 0.00 396.85 425.20 cl
0.00 0.00 396.85 425.20 cl
0.00 0.00 396.85 425.20 cl
0.00 0.00 396.85 425.20 cl
0.00 0.00 396.85 425.20 cl
0.00 0.00 396.85 425.20 cl
0.00 0.00 396.85 425.20 cl
0.00 0.00 396.85 425.20 cl
0.00 0.00 396.85 425.20 cl
0.00 0.00 396.85 425.20 cl
0.00 0.00 396.85 425.20 cl
0.00 0.00 396.85 425.20 cl
ep
%%Trailer
%%Pages: 1
%%EOF
