%!PS-Adobe-3.0
%%DocumentNeededResources: font Helvetica
%%+ font Helvetica-Bold
%%+ font Helvetica-Oblique
%%+ font Helvetica-BoldOblique
%%+ font Symbol
%%DocumentMedia: a4 595 841 0 () ()
%%Title: R Graphics Output
%%Creator: R Software
%%Pages: (atend)
%%Orientation: Landscape
%%BoundingBox: 18 18 577 824
%%EndComments
%%BeginProlog
/bp  { gs sRGB 595.00 0 translate 90 rotate gs } def
% begin .ps.prolog
/gs  { gsave } bind def
/gr  { grestore } bind def
/ep  { showpage gr gr } bind def
/m   { moveto } bind def
/l  { rlineto } bind def
/np  { newpath } bind def
/cp  { closepath } bind def
/f   { fill } bind def
/o   { stroke } bind def
/c   { newpath 0 360 arc } bind def
/r   { 4 2 roll moveto 1 copy 3 -1 roll exch 0 exch rlineto 0 rlineto -1 mul 0 exch rlineto closepath } bind def
/p1  { stroke } bind def
/p2  { gsave bg fill grestore newpath } bind def
/p3  { gsave bg fill grestore stroke } bind def
/p6  { gsave bg eofill grestore newpath } bind def
/p7  { gsave bg eofill grestore stroke } bind def
/t   { 5 -2 roll moveto gsave rotate
       1 index stringwidth pop
       mul neg 0 rmoveto show grestore } bind def
/ta  { 4 -2 roll moveto gsave rotate show } bind def
/tb  { 2 -1 roll 0 rmoveto show } bind def
/cl  { grestore gsave newpath 3 index 3 index moveto 1 index
       4 -1 roll lineto  exch 1 index lineto lineto
       closepath clip newpath } bind def
/rgb { setrgbcolor } bind def
/s   { scalefont setfont } bind def
% end   .ps.prolog
/sRGB { [ /CIEBasedABC
          << /DecodeLMN
               [ { dup 0.03928 le
                        {12.92321 div}
                        {0.055 add 1.055 div 2.4 exp }
                     ifelse
                 } bind dup dup
               ]
             /MatrixLMN [0.412457 0.212673 0.019334
                         0.357576 0.715152 0.119192
                         0.180437 0.072175 0.950301]
             /WhitePoint [0.9505 1.0 1.0890]
           >>
         ] setcolorspace } bind def
/srgb { setcolor } bind def
%%IncludeResource: font Helvetica
/Helvetica findfont
dup length dict begin
  {1 index /FID ne {def} {pop pop} ifelse} forall
  /Encoding ISOLatin1Encoding def
  currentdict
  end
/Font1 exch definefont pop
%%IncludeResource: font Helvetica-Bold
/Helvetica-Bold findfont
dup length dict begin
  {1 index /FID ne {def} {pop pop} ifelse} forall
  /Encoding ISOLatin1Encoding def
  currentdict
  end
/Font2 exch definefont pop
%%IncludeResource: font Helvetica-Oblique
/Helvetica-Oblique findfont
dup length dict begin
  {1 index /FID ne {def} {pop pop} ifelse} forall
  /Encoding ISOLatin1Encoding def
  currentdict
  end
/Font3 exch definefont pop
%%IncludeResource: font Helvetica-BoldOblique
/Helvetica-BoldOblique findfont
dup length dict begin
  {1 index /FID ne {def} {pop pop} ifelse} forall
  /Encoding ISOLatin1Encoding def
  currentdict
  end
/Font4 exch definefont pop
%%IncludeResource: font Symbol
/Symbol findfont
dup length dict begin
  {1 index /FID ne {def} {pop pop} ifelse} forall
  currentdict
  end
/Font5 exch definefont pop
%%EndProlog
ep
%%Trailer
%%Pages: 0
%%EOF
.89 577.28 cl
77.04 91.44 793.65 518.24 cl
0.6627 0.6627 0.6627 srgb
0.75 setlinewidth
[] 0 setdash
1 setlinecap
1 setlinejoin
10.00 setmiterlimit
np
268.53 260.75 m
222.46 -104.05 l
o
np
614.12 342.56 m
-295.00 -6.88 l
o
/bg { 1 0.6471 0 srgb } def
1 1 1 srgb
434.19 307.55 9.41 c p3
421.68 361.40 9.41 c p3
357.32 311.78 9.41 c p3
384.35 228.30 9.41 c p3
472.32 207.56 9.41 c p3
544.26 265.43 9.41 c p3
551.03 358.97 9.41 c p3
491.03 431.91 9.41 c p3
397.48 447.31 9.41 c p3
314.74 399.83 9.41 c p3
277.43 311.28 9.41 c p3
298.98 217.25 9.41 c p3
370.21 152.15 9.41 c p3
465.66 137.81 9.41 c p3
553.71 178.00 9.41 c p3
606.98 259.34 9.41 c p3
609.94 356.83 9.41 c p3
562.32 441.98 9.41 c p3
478.04 490.87 9.41 c p3
380.61 490.33 9.41 c p3
296.42 440.85 9.41 c p3
247.73 355.80 9.41 c p3
247.16 257.57 9.41 c p3
294.78 171.69 9.41 c p3
378.27 120.30 9.41 c p3
476.18 116.66 9.41 c p3
563.35 161.80 9.41 c p3
617.19 244.27 9.41 c p3
623.53 342.78 9.41 c p3
580.34 431.52 9.41 c p3
498.73 486.72 9.41 c p3
400.49 493.02 9.41 c p3
312.71 448.06 9.41 c p3
260.57 363.94 9.41 c p3
260.00 264.74 9.41 c p3
312.15 180.41 9.41 c p3
401.60 138.02 9.41 c p3
499.51 152.72 9.41 c p3
571.77 220.92 9.41 c p3
590.60 318.88 9.41 c p3
546.53 408.47 9.41 c p3
456.07 450.42 9.41 c p3
360.18 422.41 9.41 c p3
309.71 335.46 9.41 c p3
338.44 238.62 9.41 c p3
432.10 200.49 9.41 c p3
514.74 260.26 9.41 c p3
490.11 360.74 9.41 c p3
388.28 338.01 9.41 c p3
434.19 307.55 9.41 c p3
18.00 18.00 823.89 577.28 cl
ep
%%Trailer
%%Pages: 1
%%EOF
