%!PS-Adobe-3.0
%%DocumentNeededResources: font Helvetica
%%+ font Helvetica-Bold
%%+ font Helvetica-Oblique
%%+ font Helvetica-BoldOblique
%%+ font Symbol
%%DocumentMedia: a4 595 841 0 () ()
%%Title: R Graphics Output
%%Creator: R Software
%%Pages: (atend)
%%Orientation: Landscape
%%BoundingBox: 18 18 577 824
%%EndComments
%%BeginProlog
/bp  { gs sRGB 595.00 0 translate 90 rotate gs } def
% begin .ps.prolog
/gs  { gsave } bind def
/gr  { grestore } bind def
/ep  { showpage gr gr } bind def
/m   { moveto } bind def
/l  { rlineto } bind def
/np  { newpath } bind def
/cp  { closepath } bind def
/f   { fill } bind def
/o   { stroke } bind def
/c   { newpath 0 360 arc } bind def
/r   { 4 2 roll moveto 1 copy 3 -1 roll exch 0 exch rlineto 0 rlineto -1 mul 0 exch rlineto closepath } bind def
/p1  { stroke } bind def
/p2  { gsave bg fill grestore newpath } bind def
/p3  { gsave bg fill grestore stroke } bind def
/p6  { gsave bg eofill grestore newpath } bind def
/p7  { gsave bg eofill grestore stroke } bind def
/t   { 5 -2 roll moveto gsave rotate
       1 index stringwidth pop
       mul neg 0 rmoveto show grestore } bind def
/ta  { 4 -2 roll moveto gsave rotate show } bind def
/tb  { 2 -1 roll 0 rmoveto show } bind def
/cl  { grestore gsave newpath 3 index 3 index moveto 1 index
       4 -1 roll lineto  exch 1 index lineto lineto
       closepath clip newpath } bind def
/rgb { setrgbcolor } bind def
/s   { scalefont setfont } bind def
% end   .ps.prolog
/sRGB { [ /CIEBasedABC
          << /DecodeLMN
               [ { dup 0.03928 le
                        {12.92321 div}
                        {0.055 add 1.055 div 2.4 exp }
                     ifelse
                 } bind dup dup
               ]
             /MatrixLMN [0.412457 0.212673 0.019334
                         0.357576 0.715152 0.119192
                         0.180437 0.072175 0.950301]
             /WhitePoint [0.9505 1.0 1.0890]
           >>
         ] setcolorspace } bind def
/srgb { setcolor } bind def
%%IncludeResource: font Helvetica
/Helvetica findfont
dup length dict begin
  {1 index /FID ne {def} {pop pop} ifelse} forall
  /Encoding ISOLatin1Encoding def
  currentdict
  end
/Font1 exch definefont pop
%%IncludeResource: font Helvetica-Bold
/Helvetica-Bold findfont
dup length dict begin
  {1 index /FID ne {def} {pop pop} ifelse} forall
  /Encoding ISOLatin1Encoding def
  currentdict
  end
/Font2 exch definefont pop
%%IncludeResource: font Helvetica-Oblique
/Helvetica-Oblique findfont
dup length dict begin
  {1 index /FID ne {def} {pop pop} ifelse} forall
  /Encoding ISOLatin1Encoding def
  currentdict
  end
/Font3 exch definefont pop
%%IncludeResource: font Helvetica-BoldOblique
/Helvetica-BoldOblique findfont
dup length dict begin
  {1 index /FID ne {def} {pop pop} ifelse} forall
  /Encoding ISOLatin1Encoding def
  currentdict
  end
/Font4 exch definefont pop
%%IncludeResource: font Symbol
/Symbol findfont
dup length dict begin
  {1 index /FID ne {def} {pop pop} ifelse} forall
  currentdict
  end
/Font5 exch definefont pop
%%EndProlog
ep
%%Trailer
%%Pages: 0
%%EOF
.89 577.28 cl
77.04 91.44 793.65 518.24 cl
0.6627 0.6627 0.6627 srgb
0.75 setlinewidth
[] 0 setdash
1 setlinecap
1 setlinejoin
10.00 setmiterlimit
np
432.06 316.72 m
-8.25 35.51 l
o
np
424.80 308.07 m
-58.08 3.19 l
o
np
429.19 299.59 m
-39.83 -63.33 l
o
np
437.55 298.76 m
31.42 -82.41 l
o
np
442.98 304.19 m
92.50 -35.40 l
o
np
442.81 311.34 m
99.61 43.84 l
o
np
438.11 316.11 m
49.00 107.24 l
o
np
431.80 316.65 m
-31.93 121.56 l
o
np
426.75 313.30 m
-104.57 80.78 l
o
np
424.79 307.77 m
-137.96 3.28 l
o
np
426.37 302.33 m
-119.57 -79.86 l
o
np
430.61 298.85 m
-56.82 -138.00 l
o
np
435.91 298.30 m
28.03 -151.24 l
o
np
440.57 300.63 m
106.76 -115.71 l
o
np
443.26 305.02 m
154.66 -43.15 l
o
np
443.25 310.09 m
157.63 44.20 l
o
np
440.69 314.36 m
115.13 120.80 l
o
np
436.38 316.70 m
39.47 165.01 l
o
np
431.55 316.58 m
-48.29 164.73 l
o
np
427.43 314.09 m
-124.25 120.22 l
o
np
425.09 309.91 m
-168.26 43.53 l
o
np
425.10 305.12 m
-168.85 -45.12 l
o
np
427.46 300.98 m
-125.94 -122.72 l
o
np
431.50 298.54 m
-50.54 -169.22 l
o
np
436.22 298.36 m
37.94 -172.51 l
o
np
440.43 300.51 m
116.67 -131.66 l
o
np
443.09 304.48 m
165.21 -57.14 l
o
np
443.44 309.27 m
170.84 31.79 l
o
np
441.37 313.64 m
131.79 111.79 l
o
np
437.38 316.40 m
58.17 161.47 l
o
np
432.51 316.81 m
-30.33 166.95 l
o
np
428.04 314.67 m
-109.18 126.27 l
o
np
425.25 310.46 m
-155.73 50.57 l
o
np
425.06 305.31 m
-155.92 -38.33 l
o
np
427.68 300.76 m
-109.01 -113.57 l
o
np
432.42 298.31 m
-29.05 -151.05 l
o
np
437.85 298.88 m
58.00 -137.49 l
o
np
442.16 302.54 m
121.65 -76.61 l
o
np
443.58 308.23 m
137.64 9.97 l
o
np
441.19 313.84 m
98.34 88.34 l
o
np
435.62 316.85 m
19.03 124.27 l
o
np
429.10 315.46 m
-63.82 99.05 l
o
np
425.01 309.61 m
-106.12 23.80 l
o
np
426.56 302.05 m
-80.49 -57.93 l
o
np
434.01 298.14 m
-1.72 -88.24 l
o
np
442.31 302.79 m
64.32 -37.76 l
o
np
441.01 314.04 m
42.28 40.22 l
o
np
426.35 312.75 m
-30.23 20.06 l
o
np
424.79 307.55 m
18.81 0 l
o
np
414.22 355.65 m
-49.45 -38.12 l
o
np
419.13 352.34 m
-32.24 -114.98 l
o
np
424.62 352.46 m
44.76 -135.96 l
o
np
429.08 355.60 m
107.77 -84.37 l
o
np
431.08 361.22 m
110.54 -2.07 l
o
np
428.27 368.10 m
56.16 57.10 l
o
np
419.12 370.45 m
-19.09 67.80 l
o
np
412.82 364.58 m
-89.23 32.07 l
o
np
412.79 358.31 m
-126.48 -43.94 l
o
np
415.58 354.23 m
-110.51 -129.82 l
o
np
419.43 352.26 m
-46.97 -190.97 l
o
np
423.49 352.16 m
40.35 -205.12 l
o
np
427.17 353.76 m
121.04 -168.12 l
o
np
429.92 356.86 m
168.82 -92.98 l
o
np
431.08 361.17 m
169.46 -4.11 l
o
np
429.84 366.07 m
124.31 71.23 l
o
np
425.43 370.02 m
48.85 112.22 l
o
np
418.82 370.36 m
-35.35 111.01 l
o
np
413.73 366.44 m
-109.37 69.37 l
o
np
412.27 361.09 m
-155.14 -4.99 l
o
np
413.59 356.59 m
-158.34 -94.21 l
o
np
416.44 353.58 m
-116.43 -174.07 l
o
np
420.01 352.14 m
-40.07 -222.58 l
o
np
423.72 352.21 m
50.41 -226.37 l
o
np
427.12 353.72 m
130.78 -184.24 l
o
np
429.75 356.56 m
179.37 -107.46 l
o
np
431.04 360.53 m
183.12 -16.89 l
o
np
430.28 365.20 m
141.45 62.52 l
o
np
426.60 369.41 m
67.21 109.30 l
o
np
420.18 370.69 m
-18.19 113.04 l
o
np
414.31 367.25 m
-94.24 74.96 l
o
np
412.27 361.54 m
-142.29 2.25 l
o
np
413.60 356.57 m
-145.52 -87.00 l
o
np
416.80 353.35 m
-99.78 -164.89 l
o
np
420.83 352.03 m
-18.39 -204.63 l
o
np
424.96 352.58 m
71.26 -191.05 l
o
np
428.54 354.97 m
136.36 -127.62 l
o
np
430.80 359.10 m
150.68 -37.92 l
o
np
430.48 364.72 m
107.24 40.43 l
o
np
425.07 370.17 m
27.61 71.47 l
o
np
415.00 368.02 m
-48.14 47.77 l
o
np
412.51 359.27 m
-93.63 -21.68 l
o
np
416.40 353.61 m
-72.68 -107.20 l
o
np
422.28 352.01 m
9.22 -142.13 l
o
np
428.05 354.47 m
80.32 -87.28 l
o
np
431.08 361.31 m
49.62 -0.48 l
o
np
413.97 356.00 m
-17.99 -12.60 l
o
np
423.81 352.23 m
8.25 -35.51 l
o
np
360.22 302.83 m
21.24 -65.58 l
o
np
364.30 305.46 m
101.05 -91.58 l
o
np
366.46 309.52 m
168.67 -41.83 l
o
np
366.46 314.01 m
175.43 42.74 l
o
np
364.32 318.07 m
119.71 107.55 l
o
np
360.00 320.80 m
34.81 117.49 l
o
np
353.23 320.25 m
-34.40 71.11 l
o
np
347.91 311.72 m
-61.08 -0.38 l
o
np
352.38 303.77 m
-48.46 -78.52 l
o
np
358.08 302.40 m
11.38 -140.87 l
o
np
362.30 303.79 m
98.38 -158.00 l
o
np
365.10 306.48 m
180.83 -123.18 l
o
np
366.53 309.85 m
231.24 -48.58 l
o
np
366.59 313.43 m
234.09 41.75 l
o
np
365.27 316.82 m
189.10 120.11 l
o
np
362.58 319.58 m
110.20 163.48 l
o
np
358.54 321.11 m
20.86 159.89 l
o
np
353.31 320.29 m
-52.88 112.05 l
o
np
348.59 315.29 m
-92.13 37.00 l
o
np
348.88 307.63 m
-93.27 -45.90 l
o
np
353.49 303.19 m
-54.87 -122.91 l
o
np
358.35 302.43 m
18.90 -172.77 l
o
np
362.22 303.74 m
109.06 -179.05 l
o
np
364.93 306.24 m
190.81 -138.90 l
o
np
366.43 309.41 m
241.66 -62.78 l
o
np
366.67 312.87 m
247.51 28.82 l
o
np
365.61 316.23 m
206.44 110.84 l
o
np
363.24 319.10 m
129.58 160.30 l
o
np
359.50 320.93 m
38.81 162.94 l
o
np
354.40 320.72 m
-38.76 118.40 l
o
np
349.04 316.25 m
-80.19 43.22 l
o
np
348.85 307.69 m
-80.38 -38.86 l
o
np
354.26 302.88 m
-39.05 -113.58 l
o
np
359.65 302.66 m
39.62 -155.52 l
o
np
363.59 304.77 m
129.65 -145.04 l
o
np
365.99 308.11 m
197.12 -83.52 l
o
np
366.73 312.07 m
214.47 6.53 l
o
np
365.70 316.06 m
172.45 88.13 l
o
np
362.78 319.44 m
87.83 123.31 l
o
np
357.57 321.19 m
2.37 91.82 l
o
np
348.90 315.97 m
-30.77 15.30 l
o
np
354.97 302.67 m
-14.18 -54.93 l
o
np
362.57 303.97 m
64.29 -95.67 l
o
np
366.27 308.85 m
139.53 -45.66 l
o
np
366.15 315.04 m
115.13 42.45 l
o
np
364.50 317.86 m
16.60 14.06 l
o
np
366.72 311.26 m
58.08 -3.19 l
o
np
393.51 226.14 m
69.66 -16.42 l
o
np
393.52 230.42 m
141.58 32.88 l
o
np
391.76 234.10 m
151.86 119.07 l
o
np
388.72 236.63 m
97.94 186.95 l
o
np
384.92 237.69 m
12.00 200.23 l
o
np
380.82 237.01 m
-62.55 154.10 l
o
np
376.92 234.06 m
-92.06 71.45 l
o
np
375.02 227.09 m
-66.71 -8.64 l
o
np
382.64 219.04 m
-10.71 -57.64 l
o
np
390.64 221.30 m
68.73 -76.49 l
o
np
393.37 225.62 m
151.32 -44.94 l
o
np
393.67 229.60 m
203.99 28.44 l
o
np
392.53 232.95 m
209.24 119.22 l
o
np
390.38 235.53 m
165.91 199.22 l
o
np
387.52 237.16 m
87.35 244.84 l
o
np
384.22 237.70 m
-3.47 243.23 l
o
np
380.76 236.99 m
-80.74 195.17 l
o
np
377.48 234.72 m
-122.88 114.66 l
o
np
375.15 230.26 m
-118.78 25.35 l
o
np
376.40 223.27 m
-73.66 -46.55 l
o
np
383.83 218.90 m
-5.03 -89.20 l
o
np
390.33 221.03 m
79.87 -97.11 l
o
np
393.17 225.02 m
161.35 -59.94 l
o
np
393.74 228.94 m
214.07 14.68 l
o
np
392.84 232.36 m
222.20 106.35 l
o
np
390.89 235.07 m
182.92 189.68 l
o
np
388.16 236.90 m
106.77 241.22 l
o
np
384.93 237.69 m
14.99 245.94 l
o
np
381.44 237.24 m
-65.81 201.88 l
o
np
378.01 235.25 m
-111.10 121.74 l
o
np
375.33 230.94 m
-106.30 31.15 l
o
np
376.51 223.10 m
-56.52 -37.49 l
o
np
386.12 219.05 m
13.71 -71.78 l
o
np
392.22 223.13 m
99.43 -65.25 l
o
np
393.76 227.93 m
168.61 -6.64 l
o
np
392.97 232.08 m
189.02 83.02 l
o
np
390.65 235.29 m
149.58 166.18 l
o
np
387.25 237.25 m
65.93 204.21 l
o
np
383.19 237.63 m
-21.85 175.45 l
o
np
378.98 236.02 m
-63.89 91.72 l
o
np
375.17 230.36 m
-27.55 6.20 l
o
np
392.49 223.56 m
31.48 -18.34 l
o
np
393.49 230.54 m
112.11 27.48 l
o
np
390.23 235.65 m
94.01 117.74 l
o
np
384.69 237.70 m
3.25 90.90 l
o
np
389.36 236.26 m
39.83 63.33 l
o
np
479.66 213.46 m
57.27 46.07 l
o
np
476.66 215.91 m
70.03 134.72 l
o
np
473.11 216.94 m
17.13 205.59 l
o
np
469.52 216.54 m
-69.23 221.79 l
o
np
466.36 214.84 m
-145.66 177.71 l
o
np
464.02 211.98 m
-178.29 94.88 l
o
np
462.93 208.09 m
-154.56 8.63 l
o
np
464.05 203.08 m
-85.57 -46.44 l
o
np
471.43 198.20 m
-4.88 -51.03 l
o
np
481.17 204.35 m
63.69 -23.14 l
o
np
481.11 210.94 m
117.09 45.02 l
o
np
478.70 214.48 m
124.87 135.43 l
o
np
475.70 216.35 m
83.24 216.84 l
o
np
472.51 216.97 m
5.34 264.49 l
o
np
469.42 216.51 m
-85.90 264.87 l
o
np
466.66 215.08 m
-164.58 218.26 l
o
np
464.47 212.75 m
-208.89 137.86 l
o
np
463.14 209.60 m
-206.79 45.93 l
o
np
463.10 205.70 m
-159.10 -32.14 l
o
np
465.43 201.16 m
-80.26 -74.46 l
o
np
472.72 198.16 m
3.06 -72.10 l
o
np
480.73 203.34 m
74.21 -37.31 l
o
np
481.44 209.87 m
126.63 32.09 l
o
np
479.34 213.83 m
137.17 122.67 l
o
np
476.41 216.04 m
99.84 207.01 l
o
np
473.21 216.93 m
24.64 260.42 l
o
np
470.03 216.69 m
-67.24 267.20 l
o
np
467.12 215.40 m
-149.21 224.82 l
o
np
464.75 213.15 m
-196.61 145.20 l
o
np
463.24 210.01 m
-194.15 52.28 l
o
np
463.05 205.99 m
-141.62 -24.01 l
o
np
465.61 200.97 m
-57.30 -56.35 l
o
np
476.50 199.13 m
18.83 -37.98 l
o
np
481.65 208.81 m
80.80 10.86 l
o
np
479.18 214.01 m
104.57 98.42 l
o
np
475.58 216.39 m
67.69 183.25 l
o
np
471.70 216.95 m
-15.00 224.08 l
o
np
467.97 215.90 m
-103.44 198.17 l
o
np
464.93 213.38 m
-147.82 116.27 l
o
np
463.16 209.69 m
-115.56 26.81 l
o
np
463.06 205.93 m
-21.69 -3.81 l
o
np
478.22 214.89 m
30.62 38.04 l
o
np
473.41 216.91 m
15.61 134.49 l
o
np
467.23 215.47 m
-73.86 114.63 l
o
np
468.97 216.35 m
-31.42 82.41 l
o
np
544.94 274.81 m
5.41 74.78 l
o
np
541.40 274.39 m
-47.51 148.56 l
o
np
538.35 272.75 m
-134.96 167.24 l
o
np
536.14 270.18 m
-213.28 124.90 l
o
np
534.99 267.02 m
-248.29 42.66 l
o
np
535.03 263.61 m
-226.82 -44.55 l
o
np
536.38 260.29 m
-158.28 -103.00 l
o
np
539.33 257.41 m
-68.74 -111.59 l
o
np
545.27 256.07 m
7.43 -68.72 l
o
np
553.63 264.52 m
43.99 -4.27 l
o
np
549.75 273.07 m
54.70 76.12 l
o
np
545.22 274.79 m
16.14 157.82 l
o
np
541.61 274.45 m
-60.92 207.39 l
o
np
538.73 273.03 m
-152.58 209.70 l
o
np
536.58 270.86 m
-232.48 164.56 l
o
np
535.26 268.17 m
-278.53 84.88 l
o
np
534.86 265.18 m
-278.29 -7.36 l
o
np
535.45 262.12 m
-231.86 -87.12 l
o
np
537.18 259.23 m
-151.83 -132.73 l
o
np
540.35 256.87 m
-60.25 -131.66 l
o
np
545.97 256.17 m
15.67 -85.11 l
o
np
553.30 262.80 m
54.86 -15.91 l
o
np
551.00 272.00 m
65.79 64.21 l
o
np
546.26 274.62 m
32.08 147.71 l
o
np
542.37 274.64 m
-41.74 202.87 l
o
np
539.24 273.38 m
-133.72 211.68 l
o
np
536.88 271.25 m
-216.78 170.99 l
o
np
535.37 268.51 m
-265.91 92.34 l
o
np
534.85 265.40 m
-265.44 -0.64 l
o
np
535.43 262.19 m
-214.44 -78.55 l
o
np
537.24 259.16 m
-128.62 -114.87 l
o
np
540.79 256.68 m
-37.81 -95.22 l
o
np
549.21 257.42 m
17.61 -28.50 l
o
np
550.43 272.53 m
34.01 39.24 l
o
np
544.41 274.83 m
1.97 124.23 l
o
np
540.21 273.92 m
-80.09 168.00 l
o
np
537.10 271.53 m
-169.76 144.78 l
o
np
535.25 268.12 m
-216.52 64.65 l
o
np
534.93 264.21 m
-187.16 -24.37 l
o
np
536.12 260.71 m
-95.87 -55.51 l
o
np
534.99 263.80 m
-10.98 -1.92 l
o
np
539.61 273.61 m
-44.85 78.95 l
o
np
535.73 269.39 m
-138.92 64.65 l
o
np
535.48 268.79 m
-92.50 35.40 l
o
np
545.05 366.24 m
-48.05 58.40 l
o
np
542.87 363.67 m
-137.23 78.95 l
o
np
541.76 360.58 m
-217.75 37.65 l
o
np
541.76 357.36 m
-255.07 -44.47 l
o
np
542.83 354.36 m
-235.65 -132.50 l
o
np
544.83 351.89 m
-168.42 -192.65 l
o
np
547.64 350.20 m
-78.60 -203.61 l
o
np
551.17 349.57 m
2.40 -162.16 l
o
np
555.64 350.77 m
46.74 -83.23 l
o
np
560.43 358.63 m
40.11 -1.46 l
o
np
552.30 368.30 m
8.75 64.35 l
o
np
546.47 367.21 m
-63.88 115.42 l
o
np
543.58 364.72 m
-155.51 119.87 l
o
np
542.07 361.86 m
-236.69 76.11 l
o
np
541.62 358.88 m
-284.49 -2.98 l
o
np
542.10 356.00 m
-286.01 -95.45 l
o
np
543.43 353.42 m
-241.05 -176.18 l
o
np
545.51 351.35 m
-161.72 -223.42 l
o
np
548.25 349.98 m
-69.29 -224.33 l
o
np
551.61 349.58 m
11.15 -178.39 l
o
np
555.73 350.82 m
56.76 -98.40 l
o
np
560.21 356.92 m
54.13 -12.09 l
o
np
554.55 367.70 m
22.27 55.10 l
o
np
547.46 367.68 m
-45.16 110.33 l
o
np
544.00 365.23 m
-136.48 121.53 l
o
np
542.21 362.27 m
-220.69 82.50 l
o
np
541.62 359.14 m
-271.64 4.64 l
o
np
542.08 356.08 m
-273.13 -88.44 l
o
np
543.49 353.34 m
-223.80 -167.30 l
o
np
545.76 351.18 m
-138.89 -205.36 l
o
np
548.75 349.85 m
-46.96 -188.00 l
o
np
552.43 349.67 m
17.94 -119.45 l
o
np
557.64 352.28 m
26.35 -26.70 l
o
np
550.18 368.35 m
-2.80 30.75 l
o
np
544.25 365.50 m
-81.40 78.39 l
o
np
542.10 361.94 m
-172.99 57.51 l
o
np
541.66 358.06 m
-222.58 -21.68 l
o
np
542.84 354.34 m
-196.21 -111.08 l
o
np
545.38 351.45 m
-107.63 -143.43 l
o
np
547.78 350.14 m
-29.79 -81.04 l
o
np
541.62 359.25 m
-42.11 1.22 l
o
np
541.70 357.77 m
-144.09 -18.56 l
o
np
542.42 355.18 m
-99.61 -43.84 l
o
np
481.74 433.44 m
-74.97 12.34 l
o
np
481.77 430.23 m
-157.78 -28.71 l
o
np
482.83 427.28 m
-197.21 -111.38 l
o
np
484.75 424.90 m
-179.50 -200.64 l
o
np
487.30 423.27 m
-113.36 -262.48 l
o
np
490.22 422.54 m
-23.75 -275.36 l
o
np
493.28 422.78 m
58.17 -235.64 l
o
np
496.27 424.10 m
105.47 -156.95 l
o
np
498.98 426.89 m
103.01 -65.04 l
o
np
500.34 433.23 m
52.66 7.43 l
o
np
489.00 441.10 m
-8.94 40.58 l
o
np
482.71 436.31 m
-93.78 49.62 l
o
np
481.63 432.34 m
-175.81 8.08 l
o
np
482.05 429.10 m
-225.35 -70.49 l
o
np
483.37 426.44 m
-228.55 -163.40 l
o
np
485.36 424.40 m
-184.91 -245.20 l
o
np
487.82 423.06 m
-106.35 -293.91 l
o
np
490.58 422.51 m
-13.96 -296.46 l
o
np
493.46 422.82 m
67.45 -251.93 l
o
np
496.28 424.10 m
115.66 -172.03 l
o
np
498.83 426.66 m
116.89 -78.63 l
o
np
500.43 431.87 m
70.50 -0.31 l
o
np
492.34 441.23 m
5.08 36.17 l
o
np
483.23 437.18 m
-74.94 50.58 l
o
np
481.65 432.76 m
-159.57 14.45 l
o
np
482.00 429.25 m
-212.40 -62.65 l
o
np
483.40 426.40 m
-215.77 -156.15 l
o
np
485.57 424.24 m
-167.97 -236.17 l
o
np
488.29 422.91 m
-83.95 -275.88 l
o
np
491.31 422.51 m
7.92 -260.39 l
o
np
494.39 423.12 m
74.02 -193.41 l
o
np
497.25 424.85 m
87.13 -98.91 l
o
np
499.69 428.25 m
38.17 -16.12 l
o
np
482.71 436.31 m
-18.32 9.71 l
o
np
481.64 431.23 m
-112.08 -8.13 l
o
np
482.72 427.49 m
-164.70 -87.61 l
o
np
485.20 424.53 m
-140.93 -178.52 l
o
np
488.70 422.79 m
-54.27 -213.18 l
o
np
492.31 422.59 m
21.14 -153.01 l
o
np
490.90 422.50 m
-0.67 -52.35 l
o
np
484.08 425.56 m
-88.86 -81.21 l
o
np
487.11 423.35 m
-49.00 -107.24 l
o
np
389.32 442.63 m
-66.42 -38.12 l
o
np
391.26 440.26 m
-107.61 -121.93 l
o
np
393.78 438.66 m
-91.10 -212.76 l
o
np
396.62 437.94 m
-25.54 -276.42 l
o
np
399.51 438.12 m
64.12 -291.12 l
o
np
402.20 439.17 m
146.79 -253.03 l
o
np
404.49 441.03 m
195.49 -175.41 l
o
np
406.14 443.62 m
195.15 -83.10 l
o
np
406.89 447.01 m
146.02 -4.73 l
o
np
405.76 451.79 m
64.00 34.60 l
o
np
394.05 456.07 m
-10.00 25.51 l
o
np
388.09 446.71 m
-82.28 -5.26 l
o
np
389.45 442.40 m
-133.70 -81.70 l
o
np
391.64 439.94 m
-138.63 -174.99 l
o
np
394.20 438.49 m
-96.13 -257.98 l
o
np
396.93 437.92 m
-18.11 -308.22 l
o
np
399.66 438.16 m
74.34 -312.35 l
o
np
402.21 439.17 m
156.41 -269.23 l
o
np
404.39 440.92 m
205.89 -190.27 l
o
np
406.02 443.36 m
208.97 -96.63 l
o
np
406.86 446.50 m
164.11 -14.17 l
o
np
406.25 450.72 m
83.72 32.59 l
o
np
398.10 456.70 m
1.77 26.93 l
o
np
388.07 447.39 m
-65.95 0.59 l
o
np
389.45 442.42 m
-120.84 -73.59 l
o
np
391.82 439.79 m
-126.16 -167.53 l
o
np
394.62 438.35 m
-79.60 -248.98 l
o
np
397.61 437.90 m
3.86 -290.47 l
o
np
400.56 438.42 m
95.87 -276.81 l
o
np
403.22 439.86 m
162.81 -211.49 l
o
np
405.32 442.10 m
177.45 -118.01 l
o
np
406.59 444.94 m
130.83 -34.10 l
o
np
406.88 447.81 m
39.79 2.11 l
o
np
389.66 442.09 m
-21.65 -14.45 l
o
np
391.67 439.91 m
-76.15 -97.04 l
o
np
394.92 438.26 m
-53.92 -190.58 l
o
np
398.79 437.99 m
32.01 -228.18 l
o
np
402.48 439.34 m
107.26 -171.10 l
o
np
404.36 440.89 m
78.87 -73.72 l
o
np
396.69 437.93 m
-7.62 -90.55 l
o
np
399.87 438.21 m
31.93 -121.56 l
o
np
311.08 391.16 m
-30.00 -71.21 l
o
np
313.93 390.46 m
-14.15 -163.84 l
o
np
316.79 390.65 m
51.37 -229.31 l
o
np
319.43 391.68 m
141.53 -245.72 l
o
np
321.63 393.43 m
225.18 -209.03 l
o
np
323.22 395.75 m
275.28 -132.34 l
o
np
324.05 398.47 m
276.58 -40.28 l
o
np
324.01 401.41 m
229.03 38.99 l
o
np
322.95 404.41 m
146.87 81.87 l
o
np
320.27 407.44 m
54.81 75.29 l
o
np
310.90 408.42 m
-10.65 23.84 l
o
np
306.87 394.66 m
-51.28 -33.70 l
o
np
310.70 391.33 m
-59.50 -125.26 l
o
np
313.92 390.46 m
-18.32 -209.39 l
o
np
316.82 390.66 m
59.36 -261.18 l
o
np
319.40 391.66 m
152.12 -266.83 l
o
np
321.53 393.32 m
235.02 -225.01 l
o
np
323.10 395.53 m
285.73 -146.96 l
o
np
323.99 398.12 m
290.28 -53.63 l
o
np
324.08 400.95 m
246.92 29.46 l
o
np
323.24 403.85 m
166.99 78.85 l
o
np
321.11 406.75 m
73.01 79.35 l
o
np
314.34 409.23 m
-1.24 29.43 l
o
np
306.89 394.63 m
-38.47 -25.49 l
o
np
311.20 391.11 m
-47.66 -117.65 l
o
np
314.63 390.42 m
-2.37 -200.61 l
o
np
317.70 390.90 m
80.94 -243.95 l
o
np
320.37 392.30 m
173.51 -232.05 l
o
np
322.46 394.46 m
241.59 -168.17 l
o
np
323.76 397.18 m
257.81 -75.65 l
o
np
324.14 400.18 m
212.99 7.94 l
o
np
323.60 403.00 m
123.61 44.25 l
o
np
323.16 404.02 m
28.59 14.21 l
o
np
314.00 390.45 m
-3.56 -45.61 l
o
np
316.11 390.52 m
20.96 -142.59 l
o
np
319.51 391.72 m
107.82 -183.12 l
o
np
322.45 394.45 m
184.58 -128.80 l
o
np
323.92 397.78 m
157.00 -34.99 l
o
np
321.94 393.78 m
59.14 -49.72 l
o
np
322.18 394.08 m
104.57 -80.78 l
o
np
279.53 302.11 m
17.34 -75.69 l
o
np
282.16 303.15 m
83.31 -142.87 l
o
np
284.34 304.90 m
174.40 -160.72 l
o
np
285.90 307.19 m
259.33 -125.10 l
o
np
286.72 309.81 m
310.97 -49.01 l
o
np
286.75 312.55 m
313.87 43.00 l
o
np
285.98 315.20 m
267.78 122.85 l
o
np
284.44 317.55 m
186.59 167.04 l
o
np
282.12 319.43 m
93.80 162.75 l
o
np
278.79 320.59 m
16.26 110.95 l
o
np
272.20 319.10 m
-19.25 28.87 l
o
np
272.81 303.08 m
-21.03 -37.31 l
o
np
278.59 301.94 m
15.03 -120.91 l
o
np
281.82 302.96 m
92.05 -174.34 l
o
np
284.15 304.69 m
185.31 -181.45 l
o
np
285.76 306.92 m
269.25 -140.76 l
o
np
286.66 309.46 m
321.30 -63.37 l
o
np
286.80 312.13 m
327.36 29.79 l
o
np
286.17 314.75 m
285.42 113.30 l
o
np
284.80 317.12 m
206.56 163.76 l
o
np
282.70 319.07 m
112.52 166.16 l
o
np
279.78 320.39 m
30.58 118.56 l
o
np
274.56 320.24 m
-11.12 34.74 l
o
np
274.13 302.47 m
-10.83 -28.92 l
o
np
279.84 302.18 m
29.90 -112.68 l
o
np
282.91 303.63 m
113.21 -157.96 l
o
np
285.08 305.81 m
206.77 -147.63 l
o
np
286.42 308.52 m
276.36 -84.84 l
o
np
286.83 311.51 m
294.37 7.14 l
o
np
286.27 314.47 m
251.41 90.80 l
o
np
284.85 317.06 m
163.80 127.58 l
o
np
283.04 318.82 m
71.52 96.05 l
o
np
284.96 316.92 m
17.22 12.90 l
o
np
283.48 304.07 m
48.91 -58.24 l
o
np
285.07 305.80 m
139.38 -99.83 l
o
np
286.62 309.30 m
218.92 -47.06 l
o
np
286.59 313.41 m
194.35 45.20 l
o
np
286.57 313.48 m
92.56 22.32 l
o
np
286.83 311.05 m
137.96 -3.28 l
o
np
305.92 210.90 m
57.35 -52.40 l
o
np
307.47 213.20 m
149.69 -71.34 l
o
np
308.27 215.81 m
236.14 -36.38 l
o
np
308.30 218.52 m
289.36 39.54 l
o
np
307.56 221.10 m
293.80 131.88 l
o
np
306.13 223.35 m
249.03 212.52 l
o
np
304.13 225.12 m
168.75 257.87 l
o
np
301.67 226.26 m
76.25 255.06 l
o
np
298.87 226.65 m
-2.34 204.79 l
o
np
295.71 226.07 m
-44.72 120.90 l
o
np
291.55 223.02 m
-36.96 28.77 l
o
np
298.11 207.88 m
-2.47 -26.82 l
o
np
304.93 209.96 m
67.38 -82.37 l
o
np
307.16 212.60 m
160.84 -91.30 l
o
np
308.18 215.31 m
245.96 -51.58 l
o
np
308.35 218.04 m
299.47 25.43 l
o
np
307.75 220.64 m
307.00 118.74 l
o
np
306.46 222.95 m
266.39 202.87 l
o
np
304.58 224.80 m
188.55 254.36 l
o
np
302.23 226.08 m
95.01 258.11 l
o
np
299.53 226.64 m
12.62 212.03 l
o
np
296.59 226.35 m
-33.63 128.49 l
o
np
293.01 224.52 m
-27.04 32.95 l
o
np
302.14 208.39 m
6.84 -19.12 l
o
np
306.42 211.50 m
87.73 -67.73 l
o
np
307.93 214.36 m
182.63 -58.76 l
o
np
308.38 217.37 m
253.98 3.42 l
o
np
307.86 220.34 m
273.86 95.45 l
o
np
306.42 223.00 m
232.66 179.71 l
o
np
304.23 225.05 m
146.58 217.56 l
o
np
301.67 226.26 m
55.82 187.14 l
o
np
299.83 226.62 m
9.03 99.47 l
o
np
307.25 221.73 m
22.92 12.41 l
o
np
308.31 216.07 m
114.46 -14.41 l
o
np
308.20 219.09 m
197.32 39.33 l
o
np
306.50 222.90 m
176.08 132.19 l
o
np
304.57 224.81 m
78.11 105.63 l
o
np
306.80 222.47 m
119.57 79.86 l
o
np
379.52 150.76 m
76.83 -11.55 l
o
np
379.53 153.47 m
164.86 23.22 l
o
np
378.78 156.03 m
219.63 99.43 l
o
np
377.37 158.26 m
225.42 192.46 l
o
np
375.41 160.00 m
181.71 274.13 l
o
np
373.07 161.12 m
102.11 320.78 l
o
np
370.50 161.56 m
9.82 319.37 l
o
np
367.88 161.27 m
-69.13 270.47 l
o
np
365.36 160.22 m
-112.79 187.51 l
o
np
363.07 158.28 m
-108.76 93.17 l
o
np
361.10 154.51 m
-57.21 14.82 l
o
np
372.52 143.03 m
3.44 -13.60 l
o
np
379.13 149.17 m
88.13 -29.52 l
o
np
379.61 152.62 m
174.34 8.71 l
o
np
379.03 155.44 m
229.35 85.54 l
o
np
377.73 157.81 m
238.28 179.31 l
o
np
375.87 159.67 m
198.81 264.33 l
o
np
373.59 160.94 m
121.77 317.00 l
o
np
371.05 161.53 m
28.61 322.12 l
o
np
368.42 161.39 m
-53.92 277.44 l
o
np
365.89 160.51 m
-100.99 195.07 l
o
np
363.63 158.88 m
-97.04 99.14 l
o
np
361.75 156.27 m
-41.14 20.02 l
o
np
378.79 148.29 m
14.23 -6.40 l
o
np
379.62 152.20 m
110.48 0.48 l
o
np
379.12 155.19 m
183.75 62.69 l
o
np
377.72 157.83 m
205.38 155.38 l
o
np
375.55 159.91 m
165.65 240.80 l
o
np
372.82 161.20 m
80.65 280.18 l
o
np
369.86 161.56 m
-9.33 251.45 l
o
np
367.26 161.09 m
-54.60 165.44 l
o
np
366.97 160.99 m
-25.29 68.80 l
o
np
377.63 157.95 m
47.06 36.75 l
o
np
377.75 157.79 m
129.46 96.84 l
o
np
374.90 160.31 m
110.52 192.28 l
o
np
371.12 161.52 m
16.25 167.12 l
o
np
373.79 160.85 m
56.82 138.00 l
o
np
474.22 141.71 m
70.93 32.38 l
o
np
472.79 143.94 m
127.06 109.26 l
o
np
470.83 145.66 m
133.94 203.31 l
o
np
468.51 146.77 m
90.96 286.24 l
o
np
465.99 147.21 m
11.72 334.25 l
o
np
463.45 146.95 m
-80.63 334.24 l
o
np
461.07 146.02 m
-160.06 286.62 l
o
np
459.00 144.46 m
-204.62 204.68 l
o
np
457.41 142.33 m
-202.00 110.72 l
o
np
456.43 139.64 m
-152.42 30.22 l
o
np
456.43 135.96 m
-68.94 -13.81 l
o
np
469.85 129.38 m
2.14 -4.30 l
o
np
474.79 140.05 m
79.42 19.51 l
o
np
473.36 143.22 m
136.14 95.64 l
o
np
471.40 145.26 m
146.38 190.06 l
o
np
469.08 146.57 m
107.84 276.19 l
o
np
466.54 147.17 m
31.31 330.18 l
o
np
463.96 147.06 m
-61.77 336.70 l
o
np
461.50 146.25 m
-144.63 293.37 l
o
np
459.34 144.78 m
-192.45 212.19 l
o
np
457.65 142.75 m
-189.64 117.05 l
o
np
456.59 140.32 m
-135.37 37.57 l
o
np
456.25 137.84 m
-45.24 0.15 l
o
np
474.27 141.60 m
16.63 7.32 l
o
np
473.06 143.61 m
91.30 71.51 l
o
np
471.00 145.55 m
114.26 165.59 l
o
np
468.35 146.82 m
75.48 252.63 l
o
np
465.37 147.21 m
-9.01 293.80 l
o
np
462.39 146.63 m
-98.94 266.96 l
o
np
459.83 145.19 m
-144.29 182.89 l
o
np
458.28 143.65 m
-112.47 89.13 l
o
np
461.22 146.10 m
-24.68 46.09 l
o
np
469.16 146.54 m
42.08 104.99 l
o
np
466.68 147.16 m
22.40 204.23 l
o
np
462.26 146.58 m
-70.59 182.65 l
o
np
463.94 147.06 m
-28.03 151.24 l
o
np
558.86 185.87 m
42.97 65.60 l
o
np
556.53 186.98 m
50.59 160.88 l
o
np
554.02 187.40 m
7.99 245.17 l
o
np
551.50 187.15 m
-71.25 294.57 l
o
np
549.15 186.23 m
-163.98 295.88 l
o
np
547.13 184.72 m
-244.13 249.41 l
o
np
545.57 182.73 m
-289.71 168.34 l
o
np
544.60 180.36 m
-288.33 74.85 l
o
np
544.30 177.77 m
-240.11 -5.85 l
o
np
544.77 175.06 m
-157.56 -51.82 l
o
np
546.33 172.16 m
-62.77 -49.67 l
o
np
558.52 169.91 m
0.01 -0.02 l
o
np
560.22 184.79 m
50.47 52.68 l
o
np
557.38 186.66 m
62.48 147.45 l
o
np
554.69 187.36 m
24.67 234.80 l
o
np
552.06 187.26 m
-51.68 290.20 l
o
np
549.59 186.46 m
-144.98 298.10 l
o
np
547.44 185.02 m
-228.47 256.02 l
o
np
545.76 183.04 m
-277.24 175.86 l
o
np
544.68 180.67 m
-275.65 81.40 l
o
np
544.30 178.09 m
-222.74 2.22 l
o
np
544.61 175.61 m
-133.91 -35.19 l
o
np
545.18 174.02 m
-37.14 -17.33 l
o
np
557.36 186.67 m
10.76 25.58 l
o
np
556.09 187.10 m
32.13 122.68 l
o
np
553.42 187.40 m
-6.60 211.66 l
o
np
550.53 186.86 m
-91.28 254.70 l
o
np
547.87 185.38 m
-181.85 229.66 l
o
np
545.80 183.10 m
-228.18 147.26 l
o
np
544.65 180.55 m
-197.15 55.52 l
o
np
544.46 179.71 m
-103.10 19.07 l
o
np
549.68 186.50 m
-30.91 65.26 l
o
np
550.62 186.89 m
-57.42 164.97 l
o
np
546.95 184.54 m
-151.91 146.93 l
o
np
547.33 184.92 m
-106.76 115.71 l
o
np
607.27 268.74 m
2.39 78.69 l
o
np
604.75 268.48 m
-40.20 164.36 l
o
np
602.40 267.56 m
-119.79 215.08 l
o
np
600.40 266.06 m
-213.20 217.55 l
o
np
598.86 264.09 m
-294.32 172.02 l
o
np
597.90 261.78 m
-341.09 91.58 l
o
np
597.57 259.29 m
-341.00 -1.67 l
o
np
597.92 256.79 m
-294.08 -82.56 l
o
np
598.94 254.45 m
-212.63 -129.26 l
o
np
600.62 252.40 m
-118.08 -128.81 l
o
np
603.14 250.75 m
-35.95 -80.36 l
o
np
612.26 251.55 m
-0.34 0.51 l
o
np
608.81 268.57 m
12.89 64.98 l
o
np
605.54 268.64 m
-23.76 153.58 l
o
np
602.94 267.83 m
-100.16 210.40 l
o
np
600.75 266.39 m
-194.03 219.58 l
o
np
599.06 264.42 m
-278.43 178.56 l
o
np
597.98 262.06 m
-328.40 99.16 l
o
np
597.58 259.48 m
-328.17 5.11 l
o
np
597.89 256.90 m
-276.65 -74.06 l
o
np
598.88 254.55 m
-189.18 -111.74 l
o
np
600.30 252.71 m
-94.11 -93.37 l
o
np
600.63 252.40 m
-22.50 -24.54 l
o
np
604.49 268.41 m
-11.39 41.40 l
o
np
603.45 268.06 m
-53.39 131.69 l
o
np
601.15 266.72 m
-139.25 176.31 l
o
np
599.13 264.52 m
-231.10 152.71 l
o
np
597.87 261.67 m
-279.04 71.46 l
o
np
597.60 258.61 m
-249.78 -19.26 l
o
np
598.07 256.34 m
-157.05 -52.85 l
o
np
597.57 259.43 m
-73.42 0.74 l
o
np
599.88 265.50 m
-102.67 89.08 l
o
np
598.13 262.52 m
-201.00 72.30 l
o
np
597.92 261.87 m
-154.66 43.15 l
o
np
605.35 365.04 m
-38.44 68.72 l
o
np
603.34 363.54 m
-118.70 120.62 l
o
np
601.81 361.56 m
-213.06 124.04 l
o
np
600.86 359.27 m
-295.35 79.15 l
o
np
600.53 356.80 m
-343.40 -0.98 l
o
np
600.87 354.35 m
-344.63 -94.30 l
o
np
601.83 352.07 m
-298.94 -175.61 l
o
np
603.36 350.11 m
-218.51 -223.08 l
o
np
605.37 348.61 m
-124.61 -223.73 l
o
np
607.76 347.68 m
-42.23 -176.73 l
o
np
610.55 347.44 m
6.04 -93.78 l
o
np
616.48 350.07 m
0.51 -0.53 l
o
np
606.48 365.58 m
-22.67 57.19 l
o
np
603.82 363.98 m
-98.97 115.59 l
o
np
602.06 361.96 m
-193.68 125.93 l
o
np
600.95 359.59 m
-279.25 85.71 l
o
np
600.54 357.02 m
-330.56 6.73 l
o
np
600.84 354.44 m
-331.74 -87.31 l
o
np
601.85 352.04 m
-281.60 -166.84 l
o
np
603.46 350.02 m
-195.37 -205.18 l
o
np
605.47 348.56 m
-101.48 -187.57 l
o
np
607.40 347.77 m
-33.08 -117.79 l
o
np
605.67 348.45 m
-10.80 -21.18 l
o
np
602.65 362.77 m
-48.83 39.76 l
o
np
601.90 361.72 m
-137.79 83.81 l
o
np
600.84 359.22 m
-231.56 60.81 l
o
np
600.56 356.16 m
-281.46 -20.03 l
o
np
601.32 353.07 m
-254.25 -110.69 l
o
np
602.88 350.62 m
-163.71 -143.92 l
o
np
603.34 350.13 m
-81.99 -83.17 l
o
np
600.54 357.14 m
-101.03 3.30 l
o
np
600.57 356.03 m
-202.92 -17.23 l
o
np
600.88 354.29 m
-157.63 -44.20 l
o
np
554.18 446.70 m
-68.00 39.44 l
o
np
553.22 444.40 m
-163.51 43.51 l
o
np
552.91 441.94 m
-247.08 -1.05 l
o
np
553.24 439.49 m
-296.44 -81.21 l
o
np
554.19 437.22 m
-298.91 -174.90 l
o
np
555.70 435.29 m
-254.30 -256.91 l
o
np
557.64 433.81 m
-174.70 -305.34 l
o
np
559.91 432.88 m
-81.32 -307.13 l
o
np
562.35 432.57 m
0.96 -261.36 l
o
np
564.83 432.91 m
49.85 -179.58 l
o
np
567.26 433.97 m
51.33 -83.19 l
o
np
570.45 437.25 m
1.75 -1.01 l
o
np
554.62 447.39 m
-48.19 33.92 l
o
np
553.34 444.81 m
-143.87 45.38 l
o
np
552.91 442.20 m
-230.79 5.63 l
o
np
553.21 439.62 m
-283.53 -73.33 l
o
np
554.20 437.22 m
-286.08 -167.72 l
o
np
555.81 435.18 m
-237.16 -247.97 l
o
np
557.92 433.66 m
-151.92 -287.32 l
o
np
560.32 432.78 m
-58.81 -270.87 l
o
np
562.72 432.57 m
8.65 -202.25 l
o
np
564.42 432.81 m
24.07 -104.76 l
o
np
558.31 433.46 m
-7.77 -16.48 l
o
np
552.94 442.72 m
-87.49 6.95 l
o
np
552.95 441.07 m
-183.41 -17.75 l
o
np
553.65 438.32 m
-235.27 -99.20 l
o
np
555.35 435.65 m
-209.95 -190.70 l
o
np
557.85 433.69 m
-121.28 -224.92 l
o
np
559.93 432.87 m
-42.80 -163.50 l
o
np
556.06 434.94 m
-59.70 -67.16 l
o
np
554.24 437.15 m
-157.89 -94.32 l
o
np
555.82 435.16 m
-115.13 -120.80 l
o
np
468.63 490.81 m
-78.61 -0.42 l
o
np
468.97 488.37 m
-163.48 -45.02 l
o
np
469.92 486.11 m
-214.08 -125.55 l
o
np
471.42 484.18 m
-217.64 -219.92 l
o
np
473.35 482.71 m
-173.88 -302.86 l
o
np
475.59 481.78 m
-94.88 -352.39 l
o
np
477.99 481.46 m
-1.76 -355.39 l
o
np
480.40 481.76 m
80.58 -310.85 l
o
np
482.66 482.67 m
129.91 -230.21 l
o
np
484.63 484.15 m
132.30 -134.66 l
o
np
486.18 486.14 m
86.02 -49.90 l
o
np
487.26 489.02 m
2.25 -0.45 l
o
np
468.63 491.13 m
-58.73 1.63 l
o
np
468.93 488.51 m
-147.11 -38.09 l
o
np
469.91 486.12 m
-201.21 -117.44 l
o
np
471.51 484.09 m
-204.98 -212.58 l
o
np
473.60 482.57 m
-157.02 -293.87 l
o
np
476.04 481.67 m
-72.45 -334.45 l
o
np
478.63 481.47 m
20.29 -319.36 l
o
np
481.12 481.98 m
87.56 -252.17 l
o
np
483.19 482.99 m
102.26 -156.24 l
o
np
484.05 483.63 m
56.46 -67.93 l
o
np
473.55 482.60 m
-12.99 -23.91 l
o
np
469.90 486.14 m
-101.58 -59.00 l
o
np
471.12 484.48 m
-154.50 -142.63 l
o
np
473.48 482.63 m
-130.49 -235.77 l
o
np
476.57 481.57 m
-43.00 -271.79 l
o
np
479.52 481.57 m
33.74 -212.01 l
o
np
478.91 481.50 m
10.33 -111.39 l
o
np
473.27 482.75 m
-80.23 -136.63 l
o
np
475.85 481.71 m
-39.47 -165.01 l
o
np
372.50 485.57 m
-67.97 -39.95 l
o
np
374.00 483.64 m
-119.66 -121.15 l
o
np
375.93 482.17 m
-124.09 -216.44 l
o
np
378.17 481.25 m
-80.94 -300.47 l
o
np
380.55 480.93 m
-2.22 -351.22 l
o
np
382.95 481.22 m
90.90 -355.45 l
o
np
385.19 482.11 m
173.58 -312.08 l
o
np
387.14 483.55 m
223.53 -232.50 l
o
np
388.66 485.45 m
226.82 -137.79 l
o
np
389.64 487.68 m
181.67 -53.50 l
o
np
390.02 490.05 m
99.31 -3.04 l
o
np
389.94 491.59 m
1.23 0.17 l
o
np
372.63 485.36 m
-51.93 -32.33 l
o
np
374.13 483.51 m
-107.08 -112.75 l
o
np
376.18 482.04 m
-111.74 -209.00 l
o
np
378.58 481.15 m
-64.40 -291.56 l
o
np
381.17 480.94 m
19.87 -333.52 l
o
np
383.74 481.46 m
112.65 -319.87 l
o
np
386.06 482.66 m
180.27 -254.07 l
o
np
387.90 484.38 m
195.41 -159.55 l
o
np
389.05 486.17 m
149.04 -73.54 l
o
np
388.93 485.94 m
58.82 -31.12 l
o
np
377.90 481.32 m
-15.01 -49.90 l
o
np
376.70 481.78 m
-63.07 -137.76 l
o
np
379.06 481.06 m
-39.07 -233.16 l
o
np
382.26 481.07 m
48.20 -271.32 l
o
np
385.35 482.21 m
124.65 -213.82 l
o
np
386.69 483.15 m
97.35 -115.22 l
o
np
381.09 480.94 m
6.71 -133.54 l
o
np
383.26 481.31 m
48.29 -164.73 l
o
np
291.74 432.69 m
-39.34 -68.73 l
o
np
293.98 431.77 m
-44.37 -165.11 l
o
np
296.36 431.44 m
-1.52 -250.34 l
o
np
298.75 431.74 m
77.19 -302.32 l
o
np
300.98 432.62 m
170.64 -307.73 l
o
np
302.92 434.05 m
253.92 -265.45 l
o
np
304.44 435.94 m
304.73 -186.76 l
o
np
305.43 438.15 m
309.08 -92.67 l
o
np
305.82 440.54 m
265.12 -8.71 l
o
np
305.59 442.93 m
183.97 41.71 l
o
np
304.83 445.07 m
87.25 43.73 l
o
np
305.02 444.66 m
-0.91 -0.41 l
o
np
292.44 432.32 m
-27.89 -59.85 l
o
np
294.51 431.64 m
-32.60 -157.69 l
o
np
296.99 431.46 m
14.59 -241.66 l
o
np
299.51 431.96 m
99.00 -285.05 l
o
np
301.84 433.16 m
192.25 -272.75 l
o
np
303.77 434.98 m
260.65 -208.19 l
o
np
305.11 437.25 m
276.80 -114.76 l
o
np
305.75 439.64 m
231.45 -29.97 l
o
np
305.81 441.42 m
140.87 8.44 l
o
np
305.46 438.24 m
45.68 -13.21 l
o
np
297.60 431.52 m
10.93 -86.72 l
o
np
298.33 431.64 m
38.19 -183.80 l
o
np
301.04 432.66 m
126.44 -223.98 l
o
np
303.67 434.86 m
203.82 -168.60 l
o
np
305.11 437.26 m
176.30 -72.92 l
o
np
302.69 433.84 m
79.32 -88.82 l
o
np
303.18 434.31 m
124.25 -120.22 l
o
np
247.67 346.39 m
-0.45 -79.41 l
o
np
250.06 346.68 m
42.39 -165.87 l
o
np
252.29 347.57 m
121.42 -219.04 l
o
np
254.22 348.99 m
215.46 -225.53 l
o
np
255.74 350.87 m
299.59 -184.14 l
o
np
256.73 353.08 m
351.46 -106.09 l
o
np
257.13 355.47 m
356.99 -12.37 l
o
np
256.90 357.89 m
314.27 71.54 l
o
np
256.07 360.15 m
234.32 122.22 l
o
np
254.72 362.08 m
138.77 124.65 l
o
np
253.14 363.49 m
54.15 76.88 l
o
np
255.67 360.83 m
-3.05 -1.93 l
o
np
248.98 346.47 m
9.77 -72.41 l
o
np
250.97 346.96 m
57.94 -157.72 l
o
np
253.15 348.11 m
143.02 -202.40 l
o
np
255.05 349.89 m
237.14 -191.27 l
o
np
256.41 352.18 m
306.67 -127.65 l
o
np
257.08 354.79 m
324.17 -34.90 l
o
np
256.99 357.43 m
280.27 49.40 l
o
np
256.29 359.69 m
191.21 86.84 l
o
np
255.82 360.59 m
96.26 57.03 l
o
np
256.67 352.86 m
44.10 -14.46 l
o
np
253.49 348.36 m
79.19 -102.30 l
o
np
254.92 349.74 m
169.99 -143.19 l
o
np
256.58 352.63 m
249.30 -89.20 l
o
np
257.13 355.99 m
223.57 4.56 l
o
np
257.06 354.62 m
121.88 -15.43 l
o
np
256.83 353.44 m
168.26 -43.53 l
o
np
251.73 249.34 m
38.49 -69.42 l
o
np
253.66 250.77 m
118.11 -123.66 l
o
np
255.18 252.64 m
212.99 -131.05 l
o
np
256.17 254.84 m
298.17 -90.31 l
o
np
256.57 257.23 m
351.22 -12.63 l
o
np
256.34 259.65 m
358.01 81.05 l
o
np
255.50 261.93 m
316.50 165.24 l
o
np
254.12 263.91 m
237.66 216.48 l
o
np
252.30 265.46 m
143.06 219.67 l
o
np
250.22 266.47 m
59.43 172.69 l
o
np
248.34 266.91 m
11.06 87.69 l
o
np
255.38 262.16 m
-3.59 -2.01 l
o
np
253.22 250.37 m
52.87 -62.77 l
o
np
254.60 251.81 m
139.56 -108.03 l
o
np
255.85 253.96 m
234.97 -97.63 l
o
np
256.51 256.52 m
305.91 -34.55 l
o
np
256.43 259.22 m
324.91 58.01 l
o
np
255.57 261.81 m
282.56 142.42 l
o
np
254.08 263.95 m
195.08 180.09 l
o
np
252.48 265.33 m
102.38 149.32 l
o
np
253.05 264.91 m
50.77 63.22 l
o
np
256.38 255.66 m
72.85 -15.12 l
o
np
256.15 254.80 m
166.96 -51.54 l
o
np
256.57 257.67 m
248.76 2.50 l
o
np
255.82 261.25 m
225.63 95.82 l
o
np
255.34 262.23 m
124.76 71.12 l
o
np
256.25 260.00 m
168.85 45.12 l
o
np
302.79 166.76 m
67.47 -41.52 l
o
np
303.78 168.96 m
163.40 -49.57 l
o
np
304.18 171.35 m
249.76 -9.20 l
o
np
303.96 173.76 m
304.06 68.44 l
o
np
303.13 176.04 m
312.05 162.39 l
o
np
301.74 178.02 m
271.64 247.17 l
o
np
299.89 179.59 m
193.73 299.23 l
o
np
297.72 180.63 m
99.83 303.45 l
o
np
295.39 181.08 m
16.71 257.59 l
o
np
293.13 180.96 m
-30.91 173.71 l
o
np
291.49 180.51 m
-28.19 75.42 l
o
np
303.19 175.91 m
0.55 0.28 l
o
np
303.75 168.86 m
88.87 -28.01 l
o
np
304.15 170.82 m
185.99 -17.24 l
o
np
304.04 173.34 m
258.47 45.93 l
o
np
303.20 175.88 m
278.98 138.81 l
o
np
301.63 178.14 m
238.04 223.88 l
o
np
299.49 179.84 m
151.87 262.43 l
o
np
297.16 180.80 m
60.64 232.51 l
o
np
295.64 181.06 m
13.22 145.03 l
o
np
299.92 179.57 m
33.38 51.17 l
o
np
303.99 173.62 m
118.91 24.94 l
o
np
303.51 175.21 m
202.50 81.54 l
o
np
301.54 178.24 m
181.81 175.96 l
o
np
299.39 179.89 m
84.28 149.92 l
o
np
301.52 178.26 m
125.94 122.72 l
o
np
387.67 119.95 m
79.11 -2.94 l
o
np
387.45 122.36 m
166.71 37.38 l
o
np
386.62 124.64 m
222.22 115.29 l
o
np
385.24 126.62 m
231.32 209.83 l
o
np
383.39 128.19 m
191.83 295.44 l
o
np
381.21 129.24 m
114.59 348.54 l
o
np
378.83 129.70 m
21.10 353.93 l
o
np
376.42 129.53 m
-61.87 309.31 l
o
np
374.18 128.78 m
-109.51 226.69 l
o
np
372.31 127.58 m
-106.35 129.88 l
o
np
371.31 126.63 m
-52.20 47.45 l
o
np
385.76 125.99 m
8.35 6.34 l
o
np
387.36 122.73 m
103.06 27.56 l
o
np
386.62 124.64 m
176.80 91.94 l
o
np
385.14 126.73 m
198.59 185.73 l
o
np
383.01 128.43 m
158.77 271.91 l
o
np
380.43 129.46 m
73.48 311.80 l
o
np
377.71 129.70 m
-16.97 283.32 l
o
np
375.41 129.27 m
-62.84 197.23 l
o
np
375.27 129.22 m
-33.83 100.49 l
o
np
383.51 128.12 m
43.35 64.56 l
o
np
384.84 127.04 m
123.33 126.49 l
o
np
382.24 128.83 m
103.90 223.38 l
o
np
378.70 129.70 m
9.15 198.91 l
o
np
380.96 129.32 m
50.54 169.22 l
o
np
484.53 120.98 m
70.46 36.50 l
o
np
483.16 122.97 m
127.06 114.98 l
o
np
481.32 124.54 m
137.07 210.35 l
o
np
479.13 125.59 m
98.25 297.00 l
o
np
476.75 126.05 m
21.41 351.28 l
o
np
474.32 125.88 m
-71.97 357.91 l
o
np
472.02 125.09 m
-155.15 314.53 l
o
np
470.00 123.75 m
-203.24 233.10 l
o
np
468.42 121.97 m
-200.65 137.45 l
o
np
467.41 120.06 m
-146.49 56.94 l
o
np
467.13 119.25 m
-56.49 16.18 l
o
np
481.29 124.56 m
13.11 20.26 l
o
np
482.54 123.59 m
82.87 90.39 l
o
np
480.81 124.85 m
105.16 185.84 l
o
np
478.38 125.80 m
65.94 273.52 l
o
np
475.61 126.05 m
-18.97 314.98 l
o
np
472.84 125.45 m
-109.32 288.17 l
o
np
470.48 124.14 m
-155.07 203.84 l
o
np
469.14 122.89 m
-123.66 109.50 l
o
np
471.80 124.98 m
-35.32 67.18 l
o
np
478.62 125.74 m
33.68 125.44 l
o
np
476.72 126.05 m
12.85 225.30 l
o
np
472.71 125.40 m
-80.96 203.86 l
o
np
474.16 125.85 m
-37.94 172.51 l
o
np
568.49 169.68 m
43.56 66.71 l
o
np
566.31 170.73 m
54.25 163.12 l
o
np
563.94 171.19 m
15.81 250.94 l
o
np
561.51 171.03 m
-60.94 306.46 l
o
np
559.19 170.25 m
-154.55 314.33 l
o
np
557.15 168.88 m
-238.24 272.10 l
o
np
555.52 167.03 m
-287.12 191.68 l
o
np
554.44 164.83 m
-285.53 96.89 l
o
np
553.96 162.50 m
-232.43 17.21 l
o
np
554.04 160.43 m
-143.13 -21.04 l
o
np
554.03 160.48 m
-45.20 -6.44 l
o
np
564.67 171.12 m
5.77 40.48 l
o
np
564.95 171.07 m
24.04 138.54 l
o
np
562.71 171.19 m
-15.54 227.89 l
o
np
560.07 170.62 m
-100.72 270.98 l
o
np
557.56 169.22 m
-191.60 245.77 l
o
np
555.58 167.12 m
-238.11 163.03 l
o
np
554.44 164.84 m
-207.10 70.74 l
o
np
554.32 164.46 m
-113.19 33.37 l
o
np
559.18 170.24 m
-40.27 81.59 l
o
np
560.09 170.63 m
-66.73 181.28 l
o
np
556.71 168.48 m
-161.80 162.85 l
o
np
557.10 168.85 m
-116.67 131.66 l
o
np
617.80 253.66 m
5.12 79.73 l
o
np
615.38 253.50 m
-33.22 168.79 l
o
np
613.06 252.72 m
-110.19 225.55 l
o
np
611.01 251.36 m
-204.34 234.56 l
o
np
609.38 249.50 m
-288.85 193.33 l
o
np
608.27 247.26 m
-338.78 113.68 l
o
np
607.80 244.80 m
-338.40 19.40 l
o
np
607.99 242.34 m
-286.63 -60.01 l
o
np
608.75 240.11 m
-198.71 -97.93 l
o
np
609.77 238.49 m
-102.83 -80.00 l
o
np
608.83 239.96 m
-28.69 -14.74 l
o
np
614.04 253.13 m
-20.28 56.89 l
o
np
613.47 252.91 m
-63.22 146.91 l
o
np
611.40 251.68 m
-149.54 191.32 l
o
np
609.46 249.63 m
-241.55 167.42 l
o
np
608.17 246.94 m
-289.44 85.85 l
o
np
607.79 244.08 m
-259.94 -5.26 l
o
np
608.04 242.10 m
-166.78 -39.44 l
o
np
607.90 245.72 m
-83.86 13.09 l
o
np
610.26 250.62 m
-113.22 103.77 l
o
np
608.49 247.83 m
-211.51 86.61 l
o
np
608.30 247.34 m
-165.21 57.14 l
o
np
619.41 351.24 m
-34.95 71.82 l
o
np
617.36 349.89 m
-112.46 129.72 l
o
np
615.72 348.03 m
-207.42 139.73 l
o
np
614.61 345.80 m
-292.99 99.24 l
o
np
614.13 343.32 m
-344.16 20.07 l
o
np
614.33 340.80 m
-345.13 -74.09 l
o
np
615.18 338.43 m
-294.69 -153.67 l
o
np
616.61 336.40 m
-208.10 -192.00 l
o
np
618.38 334.90 m
-113.73 -174.30 l
o
np
619.85 334.12 m
-44.40 -104.54 l
o
np
615.91 337.25 m
-17.69 -12.84 l
o
np
616.37 348.88 m
-62.68 53.48 l
o
np
615.61 347.86 m
-151.62 97.47 l
o
np
614.52 345.50 m
-245.33 74.19 l
o
np
614.12 342.56 m
-295.00 -6.88 l
o
np
614.69 339.55 m
-267.41 -97.70 l
o
np
615.97 337.16 m
-176.31 -131.06 l
o
np
616.03 337.09 m
-93.79 -71.14 l
o
np
614.20 344.03 m
-114.77 15.46 l
o
np
614.12 342.59 m
-216.44 -4.39 l
o
np
614.28 341.06 m
-170.84 -31.79 l
o
np
572.55 436.79 m
-66.02 44.66 l
o
np
571.44 434.57 m
-162.04 55.40 l
o
np
570.95 432.10 m
-248.85 15.38 l
o
np
571.13 429.58 m
-301.35 -63.70 l
o
np
571.99 427.18 m
-303.64 -158.10 l
o
np
573.47 425.09 m
-254.45 -238.25 l
o
np
575.45 423.49 m
-168.96 -277.43 l
o
np
577.72 422.48 m
-75.59 -260.73 l
o
np
579.96 422.12 m
-7.81 -191.80 l
o
np
581.19 422.15 m
8.56 -93.90 l
o
np
572.57 426.22 m
-18.27 -12.45 l
o
np
571.04 432.94 m
-105.67 16.06 l
o
np
570.94 431.13 m
-201.36 -8.33 l
o
np
571.47 428.37 m
-252.89 -89.76 l
o
np
572.98 425.66 m
-227.19 -181.17 l
o
np
575.26 423.60 m
-138.07 -215.19 l
o
np
576.97 422.73 m
-58.86 -153.68 l
o
np
572.94 425.71 m
-75.43 -59.16 l
o
np
571.88 427.40 m
-175.14 -85.27 l
o
np
573.16 425.43 m
-131.79 -111.79 l
o
np
489.34 487.32 m
-79.46 5.10 l
o
np
489.52 484.81 m
-167.60 -34.83 l
o
np
490.37 482.41 m
-221.43 -114.16 l
o
np
491.84 480.31 m
-224.95 -209.16 l
o
np
493.84 478.69 m
-176.80 -290.25 l
o
np
496.21 477.66 m
-92.09 -330.57 l
o
np
498.76 477.31 m
0.73 -315.18 l
o
np
501.23 477.65 m
68.05 -247.66 l
o
np
503.25 478.47 m
82.83 -151.33 l
o
np
503.64 478.69 m
37.98 -62.19 l
o
np
491.57 480.62 m
-28.33 -24.10 l
o
np
490.20 482.76 m
-121.49 -56.38 l
o
np
491.39 480.84 m
-174.33 -139.50 l
o
np
493.63 478.82 m
-150.09 -232.29 l
o
np
496.60 477.56 m
-62.36 -267.91 l
o
np
499.40 477.34 m
14.68 -207.69 l
o
np
498.09 477.33 m
-7.34 -107.20 l
o
np
493.12 479.17 m
-99.23 -133.61 l
o
np
495.55 477.87 m
-58.17 -161.47 l
o
np
392.12 488.73 m
-71.04 -36.38 l
o
np
393.58 486.64 m
-126.09 -116.32 l
o
np
395.56 485.01 m
-130.63 -212.26 l
o
np
397.93 483.96 m
-83.22 -294.50 l
o
np
400.52 483.61 m
1.05 -336.18 l
o
np
403.12 483.98 m
93.76 -322.23 l
o
np
405.51 485.06 m
161.25 -256.18 l
o
np
407.43 486.66 m
176.23 -161.42 l
o
np
408.64 488.30 m
129.75 -75.12 l
o
np
407.96 487.30 m
40.64 -31.16 l
o
np
395.83 484.85 m
-30.99 -54.26 l
o
np
395.80 484.87 m
-81.39 -141.25 l
o
np
398.26 483.88 m
-57.59 -236.11 l
o
np
401.50 483.66 m
29.59 -273.82 l
o
np
404.64 484.57 m
105.96 -215.86 l
o
np
405.77 485.23 m
79.06 -116.70 l
o
np
399.75 483.64 m
-10.73 -136.25 l
o
np
402.18 483.76 m
30.33 -166.95 l
o
np
307.75 440.06 m
-42.22 -68.12 l
o
np
310.11 439.02 m
-47.51 -165.24 l
o
np
312.69 438.65 m
-0.52 -248.84 l
o
np
315.30 439.02 m
83.70 -291.95 l
o
np
317.74 440.11 m
176.74 -279.44 l
o
np
319.78 441.86 m
244.92 -214.74 l
o
np
321.24 444.10 m
260.83 -121.25 l
o
np
321.99 446.49 m
215.26 -36.45 l
o
np
322.12 448.22 m
124.54 2.04 l
o
np
320.99 443.59 m
30.91 -16.70 l
o
np
312.46 438.66 m
-2.50 -93.79 l
o
np
313.86 438.72 m
23.43 -190.76 l
o
np
316.80 439.59 m
111.22 -230.63 l
o
np
319.60 441.66 m
188.25 -174.99 l
o
np
321.15 443.91 m
160.52 -79.01 l
o
np
318.04 440.31 m
64.91 -94.55 l
o
np
318.86 440.94 m
109.18 -126.27 l
o
np
260.52 354.53 m
-0.46 -80.38 l
o
np
263.12 354.88 m
46.48 -165.42 l
o
np
265.55 355.96 m
131.07 -209.95 l
o
np
267.62 357.71 m
224.84 -198.76 l
o
np
269.12 360.01 m
294.10 -135.16 l
o
np
269.90 362.67 m
311.38 -42.51 l
o
np
269.87 365.39 m
267.36 41.63 l
o
np
269.18 367.74 m
178.29 78.87 l
o
np
268.69 368.70 m
83.37 48.95 l
o
np
268.71 359.22 m
32.86 -19.04 l
o
np
265.54 355.95 m
67.93 -109.33 l
o
np
267.38 357.45 m
157.91 -150.47 l
o
np
269.28 360.38 m
236.75 -96.56 l
o
np
269.98 363.81 m
210.72 -2.94 l
o
np
269.79 362.07 m
109.27 -22.19 l
o
np
269.52 361.03 m
155.73 -50.57 l
o
np
264.95 256.74 m
42.25 -68.33 l
o
np
267.01 258.46 m
127.58 -114.16 l
o
np
268.53 260.75 m
222.46 -104.05 l
o
np
269.32 263.43 m
293.13 -41.20 l
o
np
269.29 266.26 m
312.03 51.10 l
o
np
268.41 268.96 m
269.71 135.29 l
o
np
266.84 271.21 m
182.40 172.74 l
o
np
265.05 272.68 m
90.08 141.79 l
o
np
265.41 272.44 m
38.89 55.33 l
o
np
268.93 261.77 m
60.58 -20.17 l
o
np
268.82 261.45 m
154.47 -57.67 l
o
np
269.41 264.57 m
235.92 -4.14 l
o
np
268.69 268.36 m
212.73 88.76 l
o
np
268.17 269.41 m
111.94 63.93 l
o
np
269.14 266.98 m
155.92 38.33 l
o
np
320.65 176.38 m
72.45 -34.33 l
o
np
321.46 179.03 m
168.74 -24.94 l
o
np
321.45 181.86 m
241.02 37.61 l
o
np
320.57 184.60 m
261.61 130.09 l
o
np
318.89 186.97 m
220.89 214.93 l
o
np
316.58 188.71 m
135.06 253.40 l
o
np
313.98 189.63 m
44.37 223.56 l
o
np
312.00 189.81 m
-2.14 136.25 l
o
np
316.02 188.98 m
18.55 41.07 l
o
np
321.43 181.96 m
101.39 16.98 l
o
np
320.90 183.86 m
185.09 72.95 l
o
np
318.76 187.10 m
164.74 166.95 l
o
np
316.24 188.88 m
67.94 140.65 l
o
np
318.67 187.19 m
109.01 113.57 l
o
np
410.90 139.42 m
79.31 11.90 l
o
np
410.06 142.14 m
153.25 74.66 l
o
np
408.40 144.53 m
175.40 167.85 l
o
np
406.04 146.32 m
136.04 253.85 l
o
np
403.21 147.29 m
51.24 293.86 l
o
np
400.24 147.33 m
-38.71 265.77 l
o
np
397.63 146.55 m
-83.95 180.38 l
o
np
396.59 145.99 m
-53.15 84.67 l
o
np
405.73 146.48 m
22.25 45.55 l
o
np
407.99 144.93 m
100.36 108.43 l
o
np
405.07 146.77 m
81.56 205.23 l
o
np
400.97 147.41 m
-12.07 181.21 l
o
np
403.37 147.26 m
29.05 151.05 l
o
np
506.35 159.17 m
58.58 55.29 l
o
np
504.03 160.97 m
82.05 149.66 l
o
np
501.21 161.97 m
43.62 237.24 l
o
np
498.15 162.03 m
-40.72 279.08 l
o
np
495.19 161.08 m
-130.69 252.98 l
o
np
492.73 159.24 m
-176.24 169.70 l
o
np
491.21 157.14 m
-144.47 77.06 l
o
np
491.84 158.16 m
-52.06 36.89 l
o
np
500.83 162.03 m
12.59 88.92 l
o
np
499.09 162.12 m
-8.56 189.22 l
o
np
494.67 160.78 m
-101.55 169.16 l
o
np
495.85 161.39 m
-58.00 137.49 l
o
np
573.55 230.16 m
15.28 79.48 l
o
np
570.52 230.24 m
-22.74 168.90 l
o
np
567.54 229.32 m
-107.23 212.70 l
o
np
564.96 227.41 m
-197.97 188.52 l
o
np
563.15 224.69 m
-244.82 107.01 l
o
np
562.39 221.63 m
-214.57 16.28 l
o
np
562.46 219.56 m
-121.05 -17.71 l
o
np
564.03 226.26 m
-41.54 28.66 l
o
np
567.03 229.04 m
-72.18 123.58 l
o
np
563.84 225.98 m
-167.63 106.97 l
o
np
563.81 225.93 m
-121.65 76.61 l
o
np
586.45 327.32 m
-35.77 72.70 l
o
np
583.87 325.46 m
-121.07 118.38 l
o
np
582.02 322.74 m
-213.26 95.82 l
o
np
581.21 319.44 m
-262.11 15.47 l
o
np
581.64 316.03 m
-234.24 -74.55 l
o
np
583.06 313.25 m
-143.42 -107.13 l
o
np
583.16 313.13 m
-60.97 -47.11 l
o
np
581.92 322.50 m
-83.13 34.63 l
o
np
581.23 319.77 m
-183.59 17.35 l
o
np
581.22 318.20 m
-137.64 -9.97 l
o
np
537.99 412.43 m
-73.38 34.03 l
o
np
537.15 409.17 m
-167.59 12.54 l
o
np
537.54 405.69 m
-218.84 -67.45 l
o
np
539.24 402.52 m
-193.51 -157.95 l
o
np
541.99 400.22 m
-105.35 -191.49 l
o
np
544.55 399.27 m
-27.83 -129.81 l
o
np
539.34 402.39 m
-42.05 -35.57 l
o
np
537.93 404.64 m
-141.06 -62.81 l
o
np
539.53 402.18 m
-98.34 -88.34 l
o
np
447.04 447.78 m
-77.83 -22.73 l
o
np
448.67 444.61 m
-131.56 -103.33 l
o
np
451.50 442.19 m
-108.49 -195.34 l
o
np
455.17 441.05 m
-22.17 -231.19 l
o
np
458.84 441.43 m
53.13 -172.18 l
o
np
459.41 441.62 m
27.36 -72.08 l
o
np
451.21 442.36 m
-58.07 -96.30 l
o
np
454.65 441.12 m
-19.03 -124.27 l
o
np
355.46 414.28 m
-41.03 -70.68 l
o
np
359.07 413.07 m
-19.53 -165.10 l
o
np
363.08 413.46 m
66.12 -204.02 l
o
np
366.67 415.60 m
141.58 -148.53 l
o
np
368.68 418.38 m
112.93 -53.60 l
o
np
363.15 413.49 m
22.16 -66.56 l
o
np
365.28 414.51 m
63.82 -99.05 l
o
np
312.39 326.44 m
23.37 -78.79 l
o
np
316.03 328.49 m
109.75 -121.03 l
o
np
318.54 332.22 m
187.37 -68.72 l
o
np
319.03 336.77 m
161.76 22.67 l
o
np
319.11 335.77 m
59.76 1.93 l
o
np
318.89 333.41 m
106.12 -23.80 l
o
np
347.15 235.08 m
76.24 -31.04 l
o
np
347.78 239.77 m
157.62 19.35 l
o
np
345.77 244.53 m
137.01 110.31 l
o
np
342.66 247.04 m
41.40 82.56 l
o
np
346.07 244.12 m
80.49 57.93 l
o
np
439.73 206.00 m
67.39 48.75 l
o
np
435.31 209.34 m
51.60 142.56 l
o
np
429.25 209.45 m
-38.12 119.59 l
o
np
432.29 209.90 m
1.72 88.24 l
o
np
512.50 269.40 m
-20.15 82.21 l
o
np
506.73 265.19 m
-110.44 67.89 l
o
np
506.63 265.03 m
-64.32 37.76 l
o
np
480.92 358.69 m
-83.46 -18.63 l
o
np
483.29 354.26 m
-42.28 -40.22 l
o
np
396.12 332.81 m
30.23 -20.06 l
o
/bg { 1 0.6471 0 srgb } def
1 1 1 srgb
434.19 307.55 9.41 c p3
421.68 361.40 9.41 c p3
357.32 311.78 9.41 c p3
384.35 228.30 9.41 c p3
472.32 207.56 9.41 c p3
544.26 265.43 9.41 c p3
551.03 358.97 9.41 c p3
491.03 431.91 9.41 c p3
397.48 447.31 9.41 c p3
314.74 399.83 9.41 c p3
277.43 311.28 9.41 c p3
298.98 217.25 9.41 c p3
370.21 152.15 9.41 c p3
465.66 137.81 9.41 c p3
553.71 178.00 9.41 c p3
606.98 259.34 9.41 c p3
609.94 356.83 9.41 c p3
562.32 441.98 9.41 c p3
478.04 490.87 9.41 c p3
380.61 490.33 9.41 c p3
296.42 440.85 9.41 c p3
247.73 355.80 9.41 c p3
247.16 257.57 9.41 c p3
294.78 171.69 9.41 c p3
378.27 120.30 9.41 c p3
476.18 116.66 9.41 c p3
563.35 161.80 9.41 c p3
617.19 244.27 9.41 c p3
623.53 342.78 9.41 c p3
580.34 431.52 9.41 c p3
498.73 486.72 9.41 c p3
400.49 493.02 9.41 c p3
312.71 448.06 9.41 c p3
260.57 363.94 9.41 c p3
260.00 264.74 9.41 c p3
312.15 180.41 9.41 c p3
401.60 138.02 9.41 c p3
499.51 152.72 9.41 c p3
571.77 220.92 9.41 c p3
590.60 318.88 9.41 c p3
546.53 408.47 9.41 c p3
456.07 450.42 9.41 c p3
360.18 422.41 9.41 c p3
309.71 335.46 9.41 c p3
338.44 238.62 9.41 c p3
432.10 200.49 9.41 c p3
514.74 260.26 9.41 c p3
490.11 360.74 9.41 c p3
388.28 338.01 9.41 c p3
434.19 307.55 9.41 c p3
18.00 18.00 823.89 577.28 cl
ep
%%Trailer
%%Pages: 1
%%EOF
