%!PS-Adobe-3.0
%%DocumentNeededResources: font Helvetica
%%+ font Helvetica-Bold
%%+ font Helvetica-Oblique
%%+ font Helvetica-BoldOblique
%%+ font Symbol
%%DocumentMedia: a4 595 841 0 () ()
%%Title: R Graphics Output
%%Creator: R Software
%%Pages: (atend)
%%Orientation: Landscape
%%BoundingBox: 18 18 577 824
%%EndComments
%%BeginProlog
/bp  { gs sRGB 595.00 0 translate 90 rotate gs } def
% begin .ps.prolog
/gs  { gsave } bind def
/gr  { grestore } bind def
/ep  { showpage gr gr } bind def
/m   { moveto } bind def
/l  { rlineto } bind def
/np  { newpath } bind def
/cp  { closepath } bind def
/f   { fill } bind def
/o   { stroke } bind def
/c   { newpath 0 360 arc } bind def
/r   { 4 2 roll moveto 1 copy 3 -1 roll exch 0 exch rlineto 0 rlineto -1 mul 0 exch rlineto closepath } bind def
/p1  { stroke } bind def
/p2  { gsave bg fill grestore newpath } bind def
/p3  { gsave bg fill grestore stroke } bind def
/p6  { gsave bg eofill grestore newpath } bind def
/p7  { gsave bg eofill grestore stroke } bind def
/t   { 5 -2 roll moveto gsave rotate
       1 index stringwidth pop
       mul neg 0 rmoveto show grestore } bind def
/ta  { 4 -2 roll moveto gsave rotate show } bind def
/tb  { 2 -1 roll 0 rmoveto show } bind def
/cl  { grestore gsave newpath 3 index 3 index moveto 1 index
       4 -1 roll lineto  exch 1 index lineto lineto
       closepath clip newpath } bind def
/rgb { setrgbcolor } bind def
/s   { scalefont setfont } bind def
% end   .ps.prolog
/sRGB { [ /CIEBasedABC
          << /DecodeLMN
               [ { dup 0.03928 le
                        {12.92321 div}
                        {0.055 add 1.055 div 2.4 exp }
                     ifelse
                 } bind dup dup
               ]
             /MatrixLMN [0.412457 0.212673 0.019334
                         0.357576 0.715152 0.119192
                         0.180437 0.072175 0.950301]
             /WhitePoint [0.9505 1.0 1.0890]
           >>
         ] setcolorspace } bind def
/srgb { setcolor } bind def
%%IncludeResource: font Helvetica
/Helvetica findfont
dup length dict begin
  {1 index /FID ne {def} {pop pop} ifelse} forall
  /Encoding ISOLatin1Encoding def
  currentdict
  end
/Font1 exch definefont pop
%%IncludeResource: font Helvetica-Bold
/Helvetica-Bold findfont
dup length dict begin
  {1 index /FID ne {def} {pop pop} ifelse} forall
  /Encoding ISOLatin1Encoding def
  currentdict
  end
/Font2 exch definefont pop
%%IncludeResource: font Helvetica-Oblique
/Helvetica-Oblique findfont
dup length dict begin
  {1 index /FID ne {def} {pop pop} ifelse} forall
  /Encoding ISOLatin1Encoding def
  currentdict
  end
/Font3 exch definefont pop
%%IncludeResource: font Helvetica-BoldOblique
/Helvetica-BoldOblique findfont
dup length dict begin
  {1 index /FID ne {def} {pop pop} ifelse} forall
  /Encoding ISOLatin1Encoding def
  currentdict
  end
/Font4 exch definefont pop
%%IncludeResource: font Symbol
/Symbol findfont
dup length dict begin
  {1 index /FID ne {def} {pop pop} ifelse} forall
  currentdict
  end
/Font5 exch definefont pop
%%EndProlog
ep
%%Trailer
%%Pages: 0
%%EOF
.89 577.28 cl
77.04 91.44 793.65 518.24 cl
0.6627 0.6627 0.6627 srgb
0.75 setlinewidth
[] 0 setdash
1 setlinecap
1 setlinejoin
10.00 setmiterlimit
np
334.32 254.62 m
19.32 56.59 l
o
np
451.34 306.71 m
-85.34 12.09 l
o
np
341.82 304.21 m
8.44 9.03 l
o
np
387.37 345.84 m
-23.48 -19.68 l
o
np
522.55 322.00 m
-52.81 -14.17 l
o
np
299.95 311.45 m
47.43 7.25 l
o
np
372.98 323.53 m
-7.09 -1.49 l
o
np
316.99 327.89 m
30.46 -5.96 l
o
np
315.85 191.95 m
12.83 44.72 l
o
np
336.52 386.02 m
17.41 -56.90 l
o
np
285.69 151.23 m
21.39 24.58 l
o
np
368.09 310.00 m
-4.37 3.88 l
o
np
308.05 236.36 m
14.50 5.84 l
o
np
334.80 337.55 m
14.52 -11.57 l
o
np
341.02 231.76 m
-4.36 6.24 l
o
np
324.07 154.91 m
-7.42 19.22 l
o
np
575.87 334.23 m
-35.05 -7.76 l
o
np
512.99 274.20 m
-44.25 26.38 l
o
np
546.93 337.56 m
-8.15 -7.00 l
o
np
321.94 450.47 m
9.87 -46.25 l
o
np
277.06 336.38 m
21.50 -4.68 l
o
np
561.73 257.20 m
-31.64 9.48 l
o
np
298.29 476.99 m
14.34 -11.44 l
o
np
263.10 300.05 m
18.71 6.78 l
o
np
477.11 302.32 m
-7.20 1.34 l
o
np
256.57 311.06 m
24.68 -0.75 l
o
np
323.26 230.67 m
3.59 6.74 l
o
np
555.92 323.10 m
-14.89 0.82 l
o
np
309.80 403.29 m
15.07 -5.21 l
o
np
333.03 127.58 m
-2.87 9.55 l
o
np
597.56 246.06 m
-17.84 5.62 l
o
np
325.65 483.86 m
-3.52 -15.02 l
o
np
340.52 474.79 m
-12.96 -9.54 l
o
np
307.98 170.69 m
1.55 3.58 l
o
np
322.22 286.50 m
5.91 4.86 l
o
np
307.28 354.71 m
11.96 -6.70 l
o
np
420.13 373.34 m
-18.35 -15.41 l
o
np
537.35 245.19 m
-11.02 16.39 l
o
np
293.56 467.31 m
17.38 -5.02 l
o
np
444.93 394.28 m
-10.41 -8.81 l
o
np
310.67 480.92 m
5.53 -12.63 l
o
np
324.17 471.69 m
-1.09 -3.13 l
o
np
555.92 221.40 m
-7.30 8.75 l
o
np
325.06 408.91 m
3.71 -5.92 l
o
np
540.00 265.02 m
-9.76 2.25 l
o
np
257.84 130.57 m
13.70 8.57 l
o
np
343.07 408.28 m
-3.90 -5.56 l
o
np
273.32 125.58 m
3.21 9.63 l
o
np
614.32 342.38 m
-20.05 -4.19 l
o
/bg { 1 0.6471 0 srgb } def
1 1 1 srgb
356.68 320.12 9.41 c p3
331.28 245.71 9.41 c p3
460.66 305.39 9.41 c p3
335.40 297.33 9.41 c p3
394.58 351.88 9.41 c p3
531.63 324.43 9.41 c p3
290.65 310.03 9.41 c p3
382.19 325.45 9.41 c p3
307.75 329.70 9.41 c p3
313.26 182.91 9.41 c p3
333.77 395.01 9.41 c p3
279.51 144.14 9.41 c p3
375.13 303.76 9.41 c p3
299.32 232.85 9.41 c p3
327.44 343.41 9.41 c p3
346.40 224.04 9.41 c p3
327.46 146.14 9.41 c p3
585.06 336.26 9.41 c p3
521.08 269.38 9.41 c p3
554.07 343.69 9.41 c p3
319.98 459.68 9.41 c p3
267.87 338.38 9.41 c p3
570.75 254.50 9.41 c p3
290.94 482.86 9.41 c p3
254.25 296.85 9.41 c p3
486.36 300.59 9.41 c p3
247.16 311.35 9.41 c p3
318.83 222.37 9.41 c p3
565.32 322.59 9.41 c p3
300.91 406.36 9.41 c p3
335.73 118.57 9.41 c p3
606.53 243.24 9.41 c p3
327.80 493.02 9.41 c p3
348.10 480.37 9.41 c p3
304.26 162.05 9.41 c p3
314.96 280.53 9.41 c p3
299.08 359.31 9.41 c p3
427.34 379.39 9.41 c p3
542.60 237.38 9.41 c p3
284.52 469.92 9.41 c p3
452.12 400.35 9.41 c p3
306.89 489.54 9.41 c p3
327.26 480.57 9.41 c p3
561.95 214.17 9.41 c p3
320.06 416.89 9.41 c p3
549.17 262.91 9.41 c p3
249.86 125.57 9.41 c p3
348.47 415.98 9.41 c p3
270.34 116.66 9.41 c p3
623.53 344.31 9.41 c p3
18.00 18.00 823.89 577.28 cl
ep
%%Trailer
%%Pages: 1
%%EOF
