%!PS-Adobe-3.0
%%DocumentNeededResources: font Helvetica
%%+ font Helvetica-Bold
%%+ font Helvetica-Oblique
%%+ font Helvetica-BoldOblique
%%+ font Symbol
%%DocumentMedia: a4 595 841 0 () ()
%%Title: R Graphics Output
%%Creator: R Software
%%Pages: (atend)
%%Orientation: Landscape
%%BoundingBox: 18 18 577 824
%%EndComments
%%BeginProlog
/bp  { gs sRGB 595.00 0 translate 90 rotate gs } def
% begin .ps.prolog
/gs  { gsave } bind def
/gr  { grestore } bind def
/ep  { showpage gr gr } bind def
/m   { moveto } bind def
/l  { rlineto } bind def
/np  { newpath } bind def
/cp  { closepath } bind def
/f   { fill } bind def
/o   { stroke } bind def
/c   { newpath 0 360 arc } bind def
/r   { 4 2 roll moveto 1 copy 3 -1 roll exch 0 exch rlineto 0 rlineto -1 mul 0 exch rlineto closepath } bind def
/p1  { stroke } bind def
/p2  { gsave bg fill grestore newpath } bind def
/p3  { gsave bg fill grestore stroke } bind def
/p6  { gsave bg eofill grestore newpath } bind def
/p7  { gsave bg eofill grestore stroke } bind def
/t   { 5 -2 roll moveto gsave rotate
       1 index stringwidth pop
       mul neg 0 rmoveto show grestore } bind def
/ta  { 4 -2 roll moveto gsave rotate show } bind def
/tb  { 2 -1 roll 0 rmoveto show } bind def
/cl  { grestore gsave newpath 3 index 3 index moveto 1 index
       4 -1 roll lineto  exch 1 index lineto lineto
       closepath clip newpath } bind def
/rgb { setrgbcolor } bind def
/s   { scalefont setfont } bind def
% end   .ps.prolog
/sRGB { [ /CIEBasedABC
          << /DecodeLMN
               [ { dup 0.03928 le
                        {12.92321 div}
                        {0.055 add 1.055 div 2.4 exp }
                     ifelse
                 } bind dup dup
               ]
             /MatrixLMN [0.412457 0.212673 0.019334
                         0.357576 0.715152 0.119192
                         0.180437 0.072175 0.950301]
             /WhitePoint [0.9505 1.0 1.0890]
           >>
         ] setcolorspace } bind def
/srgb { setcolor } bind def
%%IncludeResource: font Helvetica
/Helvetica findfont
dup length dict begin
  {1 index /FID ne {def} {pop pop} ifelse} forall
  /Encoding ISOLatin1Encoding def
  currentdict
  end
/Font1 exch definefont pop
%%IncludeResource: font Helvetica-Bold
/Helvetica-Bold findfont
dup length dict begin
  {1 index /FID ne {def} {pop pop} ifelse} forall
  /Encoding ISOLatin1Encoding def
  currentdict
  end
/Font2 exch definefont pop
%%IncludeResource: font Helvetica-Oblique
/Helvetica-Oblique findfont
dup length dict begin
  {1 index /FID ne {def} {pop pop} ifelse} forall
  /Encoding ISOLatin1Encoding def
  currentdict
  end
/Font3 exch definefont pop
%%IncludeResource: font Helvetica-BoldOblique
/Helvetica-BoldOblique findfont
dup length dict begin
  {1 index /FID ne {def} {pop pop} ifelse} forall
  /Encoding ISOLatin1Encoding def
  currentdict
  end
/Font4 exch definefont pop
%%IncludeResource: font Symbol
/Symbol findfont
dup length dict begin
  {1 index /FID ne {def} {pop pop} ifelse} forall
  currentdict
  end
/Font5 exch definefont pop
%%EndProlog
ep
%%Trailer
%%Pages: 0
%%EOF
.89 577.28 cl
77.04 91.44 793.65 518.24 cl
0.6627 0.6627 0.6627 srgb
0.75 setlinewidth
[] 0 setdash
1 setlinecap
1 setlinejoin
10.00 setmiterlimit
np
380.34 267.87 m
46.44 44.66 l
o
np
489.70 362.76 m
-48.71 -37.93 l
o
np
326.11 270.29 m
38.20 -7.20 l
o
np
414.79 342.59 m
12.91 -16.18 l
o
np
545.60 362.02 m
-39.15 5.26 l
o
np
364.27 203.29 m
7.80 48.77 l
o
np
514.27 420.83 m
-14.22 -43.35 l
o
np
506.79 438.61 m
3.24 -2.75 l
o
np
364.56 153.87 m
-1.36 30.73 l
o
np
393.76 368.86 m
9.28 -11.57 l
o
np
569.13 359.23 m
-4.85 0.53 l
o
np
453.31 301.80 m
-12.66 11.06 l
o
np
285.25 275.05 m
22.24 -2.12 l
o
np
528.30 439.55 m
-4.04 -3.56 l
o
np
377.75 388.64 m
4.18 -5.14 l
o
np
517.48 441.57 m
-0.06 -2.39 l
o
np
383.25 255.34 m
-1.70 1.05 l
o
np
585.87 355.91 m
-21.65 3.40 l
o
np
362.61 265.20 m
2.07 -0.73 l
o
np
535.23 454.68 m
-12.52 -17.29 l
o
np
371.62 269.95 m
-0.13 0.58 l
o
np
352.24 250.49 m
12.94 6.59 l
o
np
374.13 184.83 m
-4.02 3.25 l
o
np
374.71 130.04 m
-4.47 6.62 l
o
np
365.56 126.06 m
-0.28 9.00 l
o
np
353.77 187.34 m
1.45 1.07 l
o
np
569.86 369.18 m
-6.73 -3.79 l
o
np
442.71 321.16 m
0.02 0 l
o
np
551.41 477.45 m
-5.25 -7.45 l
o
np
303.77 282.10 m
5.63 -4.33 l
o
np
512.26 457.49 m
3.29 -18.46 l
o
np
373.32 251.20 m
0.02 0.75 l
o
np
341.49 174.93 m
14.29 12.79 l
o
np
614.19 352.09 m
-9.68 1.20 l
o
np
301.52 269.36 m
6.07 1.06 l
o
np
473.55 290.90 m
-4.30 1.54 l
o
np
509.68 375.97 m
-4.46 -2.64 l
o
np
356.00 128.82 m
4.30 7.48 l
o
np
527.73 386.19 m
-1.70 -0.92 l
o
np
329.36 238.97 m
6.08 3.04 l
o
np
533.24 432.42 m
-6.76 -1.12 l
o
np
364.11 181.26 m
-0.35 3.38 l
o
np
424.44 320.59 m
-0.16 0.02 l
o
np
507.93 483.72 m
1.21 -7.68 l
o
np
467.04 283.59 m
-2.09 3.78 l
o
np
320.62 156.50 m
6.79 5.95 l
o
np
256.55 277.41 m
9.96 -0.75 l
o
np
434.08 328.95 m
-0.03 -0.50 l
o
np
564.60 349.90 m
-3.41 3.84 l
o
/bg { 1 0.6471 0 srgb } def
1 1 1 srgb
433.56 319.05 9.41 c p3
373.56 261.35 9.41 c p3
497.12 368.54 9.41 c p3
316.86 272.03 9.41 c p3
408.93 349.94 9.41 c p3
554.93 360.77 9.41 c p3
362.79 194.00 9.41 c p3
517.20 429.77 9.41 c p3
499.62 444.70 9.41 c p3
364.98 144.47 9.41 c p3
387.87 376.20 9.41 c p3
578.49 358.22 9.41 c p3
460.39 295.61 9.41 c p3
275.89 275.94 9.41 c p3
535.36 445.77 9.41 c p3
371.82 395.94 9.41 c p3
517.70 450.98 9.41 c p3
391.25 250.38 9.41 c p3
595.17 354.45 9.41 c p3
353.73 268.32 9.41 c p3
540.74 462.31 9.41 c p3
369.55 279.12 9.41 c p3
343.86 246.21 9.41 c p3
381.45 178.92 9.41 c p3
379.97 122.24 9.41 c p3
365.86 116.66 9.41 c p3
346.21 181.74 9.41 c p3
578.06 373.80 9.41 c p3
451.87 323.27 9.41 c p3
556.83 485.14 9.41 c p3
296.31 287.84 9.41 c p3
510.60 466.75 9.41 c p3
373.11 241.79 9.41 c p3
334.49 168.65 9.41 c p3
623.53 350.93 9.41 c p3
292.25 267.74 9.41 c p3
482.41 287.73 9.41 c p3
517.78 380.76 9.41 c p3
351.32 120.66 9.41 c p3
535.98 390.70 9.41 c p3
320.94 234.77 9.41 c p3
542.53 433.96 9.41 c p3
365.08 171.90 9.41 c p3
415.16 322.15 9.41 c p3
506.47 493.02 9.41 c p3
471.59 275.36 9.41 c p3
313.54 150.29 9.41 c p3
247.16 278.13 9.41 c p3
434.57 338.34 9.41 c p3
570.86 342.88 9.41 c p3
18.00 18.00 823.89 577.28 cl
ep
%%Trailer
%%Pages: 1
%%EOF
