%!PS-Adobe-3.0
%%DocumentNeededResources: font Helvetica
%%+ font Helvetica-Bold
%%+ font Helvetica-Oblique
%%+ font Helvetica-BoldOblique
%%+ font Symbol
%%DocumentMedia: a4 595 841 0 () ()
%%Title: R Graphics Output
%%Creator: R Software
%%Pages: (atend)
%%Orientation: Landscape
%%BoundingBox: 18 18 577 824
%%EndComments
%%BeginProlog
/bp  { gs sRGB 595.00 0 translate 90 rotate gs } def
% begin .ps.prolog
/gs  { gsave } bind def
/gr  { grestore } bind def
/ep  { showpage gr gr } bind def
/m   { moveto } bind def
/l  { rlineto } bind def
/np  { newpath } bind def
/cp  { closepath } bind def
/f   { fill } bind def
/o   { stroke } bind def
/c   { newpath 0 360 arc } bind def
/r   { 4 2 roll moveto 1 copy 3 -1 roll exch 0 exch rlineto 0 rlineto -1 mul 0 exch rlineto closepath } bind def
/p1  { stroke } bind def
/p2  { gsave bg fill grestore newpath } bind def
/p3  { gsave bg fill grestore stroke } bind def
/p6  { gsave bg eofill grestore newpath } bind def
/p7  { gsave bg eofill grestore stroke } bind def
/t   { 5 -2 roll moveto gsave rotate
       1 index stringwidth pop
       mul neg 0 rmoveto show grestore } bind def
/ta  { 4 -2 roll moveto gsave rotate show } bind def
/tb  { 2 -1 roll 0 rmoveto show } bind def
/cl  { grestore gsave newpath 3 index 3 index moveto 1 index
       4 -1 roll lineto  exch 1 index lineto lineto
       closepath clip newpath } bind def
/rgb { setrgbcolor } bind def
/s   { scalefont setfont } bind def
% end   .ps.prolog
/sRGB { [ /CIEBasedABC
          << /DecodeLMN
               [ { dup 0.03928 le
                        {12.92321 div}
                        {0.055 add 1.055 div 2.4 exp }
                     ifelse
                 } bind dup dup
               ]
             /MatrixLMN [0.412457 0.212673 0.019334
                         0.357576 0.715152 0.119192
                         0.180437 0.072175 0.950301]
             /WhitePoint [0.9505 1.0 1.0890]
           >>
         ] setcolorspace } bind def
/srgb { setcolor } bind def
%%IncludeResource: font Helvetica
/Helvetica findfont
dup length dict begin
  {1 index /FID ne {def} {pop pop} ifelse} forall
  /Encoding ISOLatin1Encoding def
  currentdict
  end
/Font1 exch definefont pop
%%IncludeResource: font Helvetica-Bold
/Helvetica-Bold findfont
dup length dict begin
  {1 index /FID ne {def} {pop pop} ifelse} forall
  /Encoding ISOLatin1Encoding def
  currentdict
  end
/Font2 exch definefont pop
%%IncludeResource: font Helvetica-Oblique
/Helvetica-Oblique findfont
dup length dict begin
  {1 index /FID ne {def} {pop pop} ifelse} forall
  /Encoding ISOLatin1Encoding def
  currentdict
  end
/Font3 exch definefont pop
%%IncludeResource: font Helvetica-BoldOblique
/Helvetica-BoldOblique findfont
dup length dict begin
  {1 index /FID ne {def} {pop pop} ifelse} forall
  /Encoding ISOLatin1Encoding def
  currentdict
  end
/Font4 exch definefont pop
%%IncludeResource: font Symbol
/Symbol findfont
dup length dict begin
  {1 index /FID ne {def} {pop pop} ifelse} forall
  currentdict
  end
/Font5 exch definefont pop
%%EndProlog
ep
%%Trailer
%%Pages: 0
%%EOF
.89 577.28 cl
77.04 91.44 793.65 518.24 cl
0.6627 0.6627 0.6627 srgb
0.75 setlinewidth
[] 0 setdash
1 setlinecap
1 setlinejoin
10.00 setmiterlimit
np
467.30 220.62 m
-28.55 75.44 l
o
np
548.55 163.27 m
-107.26 134.24 l
o
np
355.65 460.06 m
75.46 -146.83 l
o
np
427.04 126.06 m
7.94 169.41 l
o
np
494.06 434.98 m
-54.78 -121.54 l
o
np
387.55 131.96 m
45.36 163.84 l
o
np
344.50 146.28 m
86.24 150.42 l
o
np
260.73 272.37 m
165.44 30.77 l
o
np
313.85 214.79 m
114.01 84.47 l
o
np
508.47 287.20 m
-63.91 15.45 l
o
np
289.51 309.12 m
136.50 -3.98 l
o
np
433.31 483.61 m
2.00 -169.34 l
o
np
522.08 465.49 m
-82.20 -152.35 l
o
np
533.90 345.09 m
-89.77 -36.67 l
o
np
461.78 144.55 m
-24.84 151.03 l
o
np
355.43 307.44 m
70.58 -2.27 l
o
np
566.73 307.12 m
-121.91 -2.09 l
o
np
614.13 312.15 m
-169.31 -6.90 l
o
np
594.82 350.04 m
-150.35 -42.61 l
o
np
369.02 180.55 m
61.96 116.01 l
o
np
594.84 390.67 m
-151.14 -81.35 l
o
np
394.42 430.45 m
38.08 -116.64 l
o
np
355.37 238.85 m
72.79 60.03 l
o
np
558.67 438.15 m
-116.87 -126.38 l
o
np
321.61 440.61 m
107.76 -128.54 l
o
np
505.27 388.47 m
-63.82 -76.39 l
o
np
596.83 226.05 m
-152.96 74.69 l
o
np
392.06 481.92 m
41.12 -167.92 l
o
np
505.07 170.29 m
-65.33 126.22 l
o
np
319.26 350.98 m
107.41 -42.64 l
o
np
443.50 434.94 m
-7.50 -120.69 l
o
np
273.04 226.83 m
153.90 73.96 l
o
np
554.72 254.92 m
-110.62 46.31 l
o
np
474.96 480.75 m
-37.48 -166.71 l
o
np
448.91 378.78 m
-11.80 -64.66 l
o
np
518.31 217.90 m
-76.40 80.15 l
o
np
404.75 226.27 m
27.25 69.83 l
o
np
292.96 410.31 m
134.89 -99.85 l
o
np
604.33 269.28 m
-159.71 33.64 l
o
np
553.95 395.81 m
-111.07 -85.22 l
o
np
256.46 332.40 m
169.66 -26.10 l
o
np
308.67 175.27 m
120.17 122.87 l
o
np
384.84 373.44 m
44.99 -61.00 l
o
np
427.00 178.73 m
7.79 116.75 l
o
np
498.53 128.33 m
-59.95 167.67 l
o
np
341.82 397.15 m
86.90 -85.68 l
o
np
566.60 200.08 m
-123.83 98.91 l
o
np
275.63 372.25 m
151.12 -63.73 l
o
np
312.47 268.72 m
113.92 33.49 l
o
/bg { 1 0.6471 0 srgb } def
1 1 1 srgb
435.42 304.86 9.41 c p3
470.63 211.82 9.41 c p3
554.42 155.91 9.41 c p3
351.35 468.43 9.41 c p3
426.60 116.66 9.41 c p3
497.92 443.56 9.41 c p3
385.04 122.90 9.41 c p3
339.82 138.12 9.41 c p3
251.48 270.64 9.41 c p3
306.29 209.19 9.41 c p3
517.61 284.98 9.41 c p3
280.10 309.39 9.41 c p3
433.20 493.02 9.41 c p3
526.55 473.77 9.41 c p3
542.61 348.64 9.41 c p3
463.31 135.27 9.41 c p3
346.02 307.74 9.41 c p3
576.14 307.29 9.41 c p3
623.53 312.54 9.41 c p3
603.88 352.61 9.41 c p3
364.59 172.25 9.41 c p3
603.13 395.13 9.41 c p3
391.50 439.40 9.41 c p3
348.11 232.86 9.41 c p3
565.06 445.05 9.41 c p3
315.57 447.82 9.41 c p3
511.30 395.69 9.41 c p3
605.29 221.92 9.41 c p3
389.82 491.06 9.41 c p3
509.40 161.94 9.41 c p3
310.52 354.46 9.41 c p3
444.08 444.33 9.41 c p3
264.56 222.75 9.41 c p3
563.40 251.29 9.41 c p3
477.03 489.93 9.41 c p3
450.60 388.04 9.41 c p3
524.80 211.08 9.41 c p3
401.33 217.51 9.41 c p3
285.40 415.91 9.41 c p3
613.54 267.34 9.41 c p3
561.42 401.53 9.41 c p3
247.16 333.83 9.41 c p3
302.09 168.55 9.41 c p3
379.25 381.02 9.41 c p3
426.37 169.34 9.41 c p3
501.70 119.47 9.41 c p3
335.12 403.76 9.41 c p3
573.96 194.20 9.41 c p3
266.96 375.91 9.41 c p3
303.44 266.07 9.41 c p3
18.00 18.00 823.89 577.28 cl
ep
%%Trailer
%%Pages: 1
%%EOF
