%!PS-Adobe-3.0
%%DocumentNeededResources: font Helvetica
%%+ font Helvetica-Bold
%%+ font Helvetica-Oblique
%%+ font Helvetica-BoldOblique
%%+ font Symbol
%%DocumentMedia: a4 595 841 0 () ()
%%Title: R Graphics Output
%%Creator: R Software
%%Pages: (atend)
%%Orientation: Landscape
%%BoundingBox: 18 18 577 824
%%EndComments
%%BeginProlog
/bp  { gs sRGB 595.00 0 translate 90 rotate gs } def
% begin .ps.prolog
/gs  { gsave } bind def
/gr  { grestore } bind def
/ep  { showpage gr gr } bind def
/m   { moveto } bind def
/l  { rlineto } bind def
/np  { newpath } bind def
/cp  { closepath } bind def
/f   { fill } bind def
/o   { stroke } bind def
/c   { newpath 0 360 arc } bind def
/r   { 4 2 roll moveto 1 copy 3 -1 roll exch 0 exch rlineto 0 rlineto -1 mul 0 exch rlineto closepath } bind def
/p1  { stroke } bind def
/p2  { gsave bg fill grestore newpath } bind def
/p3  { gsave bg fill grestore stroke } bind def
/p6  { gsave bg eofill grestore newpath } bind def
/p7  { gsave bg eofill grestore stroke } bind def
/t   { 5 -2 roll moveto gsave rotate
       1 index stringwidth pop
       mul neg 0 rmoveto show grestore } bind def
/ta  { 4 -2 roll moveto gsave rotate show } bind def
/tb  { 2 -1 roll 0 rmoveto show } bind def
/cl  { grestore gsave newpath 3 index 3 index moveto 1 index
       4 -1 roll lineto  exch 1 index lineto lineto
       closepath clip newpath } bind def
/rgb { setrgbcolor } bind def
/s   { scalefont setfont } bind def
% end   .ps.prolog
/sRGB { [ /CIEBasedABC
          << /DecodeLMN
               [ { dup 0.03928 le
                        {12.92321 div}
                        {0.055 add 1.055 div 2.4 exp }
                     ifelse
                 } bind dup dup
               ]
             /MatrixLMN [0.412457 0.212673 0.019334
                         0.357576 0.715152 0.119192
                         0.180437 0.072175 0.950301]
             /WhitePoint [0.9505 1.0 1.0890]
           >>
         ] setcolorspace } bind def
/srgb { setcolor } bind def
%%IncludeResource: font Helvetica
/Helvetica findfont
dup length dict begin
  {1 index /FID ne {def} {pop pop} ifelse} forall
  /Encoding ISOLatin1Encoding def
  currentdict
  end
/Font1 exch definefont pop
%%IncludeResource: font Helvetica-Bold
/Helvetica-Bold findfont
dup length dict begin
  {1 index /FID ne {def} {pop pop} ifelse} forall
  /Encoding ISOLatin1Encoding def
  currentdict
  end
/Font2 exch definefont pop
%%IncludeResource: font Helvetica-Oblique
/Helvetica-Oblique findfont
dup length dict begin
  {1 index /FID ne {def} {pop pop} ifelse} forall
  /Encoding ISOLatin1Encoding def
  currentdict
  end
/Font3 exch definefont pop
%%IncludeResource: font Helvetica-BoldOblique
/Helvetica-BoldOblique findfont
dup length dict begin
  {1 index /FID ne {def} {pop pop} ifelse} forall
  /Encoding ISOLatin1Encoding def
  currentdict
  end
/Font4 exch definefont pop
%%IncludeResource: font Symbol
/Symbol findfont
dup length dict begin
  {1 index /FID ne {def} {pop pop} ifelse} forall
  currentdict
  end
/Font5 exch definefont pop
%%EndProlog
ep
%%Trailer
%%Pages: 0
%%EOF
.89 577.28 cl
77.04 91.44 793.65 518.24 cl
0.6627 0.6627 0.6627 srgb
0.75 setlinewidth
[] 0 setdash
1 setlinecap
1 setlinejoin
10.00 setmiterlimit
np
492.91 474.77 m
-21.71 -345.76 l
o
np
612.71 329.65 m
-343.00 43.42 l
o
np
614.71 360.68 m
-1.50 4.62 l
o
np
253.60 297.97 m
163.49 -174.45 l
o
np
595.22 403.62 m
-2.60 4.10 l
o
np
343.85 146.82 m
219.34 27.76 l
o
np
565.67 440.36 m
-3.52 3.31 l
o
np
617.01 336.42 m
-75.80 119.67 l
o
np
446.57 483.63 m
-22.45 -357.58 l
o
np
616.05 335.73 m
-116.56 141.18 l
o
np
603.46 380.70 m
-103.11 97.02 l
o
np
463.00 484.51 m
-206.75 -150.50 l
o
np
437.75 493.02 m
-4.81 0 l
o
np
390.97 487.71 m
-4.66 -1.20 l
o
np
619.14 319.52 m
-43.71 -134.81 l
o
np
315.98 440.73 m
17.94 -285.70 l
o
np
364.61 133.64 m
119.50 -7.54 l
o
np
601.36 377.16 m
-257.90 83.97 l
o
np
608.67 354.64 m
-284.33 92.57 l
o
np
292.18 426.66 m
-3.09 -3.74 l
o
np
563.13 433.32 m
-270.64 -17.06 l
o
np
266.44 387.16 m
-2.06 -4.39 l
o
np
542.61 152.50 m
51.21 54.64 l
o
np
251.32 342.49 m
-0.91 -4.78 l
o
np
255.91 301.37 m
307.87 -122.14 l
o
np
417.54 485.76 m
-162.90 -197.30 l
o
np
395.05 482.10 m
-136.94 -216.20 l
o
np
256.53 249.20 m
10.45 -26.45 l
o
np
264.38 226.91 m
2.06 -4.39 l
o
np
256.89 323.93 m
290.16 -159.84 l
o
np
283.10 406.26 m
0 -202.84 l
o
np
305.02 169.32 m
3.52 -3.32 l
o
np
323.00 154.02 m
3.91 -2.85 l
o
np
556.47 440.79 m
29.94 -237.45 l
o
np
292.44 192.83 m
253.52 -32.09 l
o
np
531.65 455.79 m
-171.90 -313.31 l
o
np
431.77 121.20 m
160.24 88.26 l
o
np
254.02 298.39 m
186.29 -175.29 l
o
np
255.08 321.60 m
185.65 -198.08 l
o
np
259.93 345.28 m
226.71 -213.32 l
o
np
502.24 128.98 m
4.48 1.78 l
o
np
597.91 386.56 m
-59.40 -231.81 l
o
np
502.01 129.53 m
25.66 12.09 l
o
np
555.89 440.73 m
16.04 -255.58 l
o
np
578.51 183.02 m
3.09 3.73 l
o
np
284.28 406.33 m
29.94 -237.44 l
o
np
451.69 484.77 m
144.03 -262.52 l
o
np
385.44 130.05 m
223.93 123.36 l
o
np
618.20 342.34 m
3.25 -51.74 l
o
np
540.18 455.52 m
77.86 -165.80 l
o
/bg { 1 0.6471 0 srgb } def
1 1 1 srgb
623.53 304.84 9.41 c p3
622.04 328.47 9.41 c p3
617.61 351.73 9.41 c p3
610.31 374.25 9.41 c p3
600.25 395.67 9.41 c p3
587.59 415.67 9.41 c p3
572.52 433.91 9.41 c p3
555.30 450.12 9.41 c p3
536.18 464.04 9.41 c p3
515.47 475.45 9.41 c p3
493.50 484.16 9.41 c p3
470.61 490.05 9.41 c p3
447.16 493.02 9.41 c p3
423.53 493.02 9.41 c p3
400.08 490.05 9.41 c p3
377.19 484.16 9.41 c p3
355.22 475.45 9.41 c p3
334.51 464.04 9.41 c p3
315.39 450.12 9.41 c p3
298.17 433.91 9.41 c p3
283.10 415.67 9.41 c p3
270.44 395.67 9.41 c p3
260.38 374.25 9.41 c p3
253.08 351.73 9.41 c p3
248.65 328.47 9.41 c p3
247.16 304.84 9.41 c p3
248.65 281.21 9.41 c p3
253.08 257.95 9.41 c p3
260.38 235.43 9.41 c p3
270.44 214.00 9.41 c p3
283.10 194.01 9.41 c p3
298.17 175.76 9.41 c p3
315.39 159.55 9.41 c p3
334.51 145.64 9.41 c p3
355.22 134.23 9.41 c p3
377.19 125.51 9.41 c p3
400.08 119.62 9.41 c p3
423.53 116.66 9.41 c p3
447.16 116.66 9.41 c p3
470.61 119.62 9.41 c p3
493.50 125.51 9.41 c p3
515.47 134.23 9.41 c p3
536.18 145.64 9.41 c p3
555.30 159.55 9.41 c p3
572.52 175.76 9.41 c p3
587.59 194.01 9.41 c p3
600.25 214.00 9.41 c p3
610.31 235.43 9.41 c p3
617.61 257.95 9.41 c p3
622.04 281.21 9.41 c p3
18.00 18.00 823.89 577.28 cl
ep
%%Trailer
%%Pages: 1
%%EOF
