%!PS-Adobe-3.0
%%DocumentNeededResources: font Helvetica
%%+ font Helvetica-Bold
%%+ font Helvetica-Oblique
%%+ font Helvetica-BoldOblique
%%+ font Symbol
%%DocumentMedia: a4 595 841 0 () ()
%%Title: R Graphics Output
%%Creator: R Software
%%Pages: (atend)
%%Orientation: Landscape
%%BoundingBox: 18 18 577 824
%%EndComments
%%BeginProlog
/bp  { gs sRGB 595.00 0 translate 90 rotate gs } def
% begin .ps.prolog
/gs  { gsave } bind def
/gr  { grestore } bind def
/ep  { showpage gr gr } bind def
/m   { moveto } bind def
/l  { rlineto } bind def
/np  { newpath } bind def
/cp  { closepath } bind def
/f   { fill } bind def
/o   { stroke } bind def
/c   { newpath 0 360 arc } bind def
/r   { 4 2 roll moveto 1 copy 3 -1 roll exch 0 exch rlineto 0 rlineto -1 mul 0 exch rlineto closepath } bind def
/p1  { stroke } bind def
/p2  { gsave bg fill grestore newpath } bind def
/p3  { gsave bg fill grestore stroke } bind def
/p6  { gsave bg eofill grestore newpath } bind def
/p7  { gsave bg eofill grestore stroke } bind def
/t   { 5 -2 roll moveto gsave rotate
       1 index stringwidth pop
       mul neg 0 rmoveto show grestore } bind def
/ta  { 4 -2 roll moveto gsave rotate show } bind def
/tb  { 2 -1 roll 0 rmoveto show } bind def
/cl  { grestore gsave newpath 3 index 3 index moveto 1 index
       4 -1 roll lineto  exch 1 index lineto lineto
       closepath clip newpath } bind def
/rgb { setrgbcolor } bind def
/s   { scalefont setfont } bind def
% end   .ps.prolog
/sRGB { [ /CIEBasedABC
          << /DecodeLMN
               [ { dup 0.03928 le
                        {12.92321 div}
                        {0.055 add 1.055 div 2.4 exp }
                     ifelse
                 } bind dup dup
               ]
             /MatrixLMN [0.412457 0.212673 0.019334
                         0.357576 0.715152 0.119192
                         0.180437 0.072175 0.950301]
             /WhitePoint [0.9505 1.0 1.0890]
           >>
         ] setcolorspace } bind def
/srgb { setcolor } bind def
%%IncludeResource: font Helvetica
/Helvetica findfont
dup length dict begin
  {1 index /FID ne {def} {pop pop} ifelse} forall
  /Encoding ISOLatin1Encoding def
  currentdict
  end
/Font1 exch definefont pop
%%IncludeResource: font Helvetica-Bold
/Helvetica-Bold findfont
dup length dict begin
  {1 index /FID ne {def} {pop pop} ifelse} forall
  /Encoding ISOLatin1Encoding def
  currentdict
  end
/Font2 exch definefont pop
%%IncludeResource: font Helvetica-Oblique
/Helvetica-Oblique findfont
dup length dict begin
  {1 index /FID ne {def} {pop pop} ifelse} forall
  /Encoding ISOLatin1Encoding def
  currentdict
  end
/Font3 exch definefont pop
%%IncludeResource: font Helvetica-BoldOblique
/Helvetica-BoldOblique findfont
dup length dict begin
  {1 index /FID ne {def} {pop pop} ifelse} forall
  /Encoding ISOLatin1Encoding def
  currentdict
  end
/Font4 exch definefont pop
%%IncludeResource: font Symbol
/Symbol findfont
dup length dict begin
  {1 index /FID ne {def} {pop pop} ifelse} forall
  currentdict
  end
/Font5 exch definefont pop
%%EndProlog
ep
%%Trailer
%%Pages: 0
%%EOF
.89 577.28 cl
77.04 91.44 793.65 518.24 cl
0.6627 0.6627 0.6627 srgb
0.75 setlinewidth
[] 0 setdash
1 setlinecap
1 setlinejoin
10.00 setmiterlimit
np
402.42 480.94 m
88.74 -346.31 l
o
np
560.33 167.50 m
52.25 82.50 l
o
np
586.41 406.33 m
-29.94 -237.44 l
o
np
296.41 424.67 m
-34.27 -180.00 l
o
np
509.48 468.19 m
-220.39 -266.93 l
o
np
280.77 406.55 m
-29.79 -116.23 l
o
np
530.19 456.78 m
-226.03 -273.76 l
o
np
347.28 470.40 m
-23.95 -15.23 l
o
np
520.99 141.85 m
95.53 131.74 l
o
np
580.73 409.22 m
-258.48 -243.22 l
o
np
611.62 344.47 m
-182.10 -220.56 l
o
np
509.03 468.58 m
-232.16 -247.71 l
o
np
575.43 424.96 m
43.71 -134.80 l
o
np
606.85 365.50 m
-87.92 -222.52 l
o
np
484.38 481.82 m
-177.10 -45.56 l
o
np
558.75 441.37 m
59.83 -151.41 l
o
np
485.25 479.62 m
-223.93 -123.35 l
o
np
292.51 194.01 m
285.67 0 l
o
np
357.56 466.33 m
87.27 -340.56 l
o
np
514.88 466.06 m
-20.79 -331.16 l
o
np
257.98 327.29 m
354.73 -44.90 l
o
np
381.72 475.91 m
169.05 -308.11 l
o
np
290.35 409.66 m
274.93 -227.89 l
o
np
421.77 483.78 m
-64.79 -340.31 l
o
np
613.61 360.25 m
-22.02 46.90 l
o
np
360.26 467.50 m
190.00 -300.00 l
o
np
531.14 456.09 m
-191.59 -302.50 l
o
np
407.69 125.16 m
206.75 150.51 l
o
np
254.17 320.85 m
140.39 -193.61 l
o
np
589.92 406.55 m
29.79 -116.23 l
o
np
250.62 296.09 m
44.09 -111.58 l
o
np
305.77 428.37 m
286.87 -208.83 l
o
np
500.74 131.52 m
92.27 76.48 l
o
np
256.25 322.93 m
251.61 -183.16 l
o
np
583.59 407.15 m
-132.43 -281.98 l
o
np
599.66 386.28 m
-11.48 -182.88 l
o
np
618.04 336.99 m
-41.52 88.40 l
o
np
493.50 474.75 m
0 -339.83 l
o
np
448.34 483.68 m
43.98 -348.83 l
o
np
364.17 137.14 m
227.13 73.95 l
o
np
596.79 386.92 m
-99.84 -252.66 l
o
np
259.51 251.08 m
111.25 -118.70 l
o
np
292.22 191.66 m
214.14 -55.09 l
o
np
370.34 477.72 m
-103.11 -97.02 l
o
np
258.06 281.21 m
354.57 0 l
o
np
618.20 342.34 m
3.25 -51.74 l
o
np
614.44 322.93 m
-251.61 -183.16 l
o
np
508.22 469.44 m
-247.90 -205.49 l
o
np
320.43 442.17 m
190.00 -299.99 l
o
np
484.99 480.15 m
-216.10 -101.89 l
o
/bg { 1 0.6471 0 srgb } def
1 1 1 srgb
623.53 304.84 9.41 c p3
622.04 328.47 9.41 c p3
617.61 351.73 9.41 c p3
610.31 374.25 9.41 c p3
600.25 395.67 9.41 c p3
587.59 415.67 9.41 c p3
572.52 433.91 9.41 c p3
555.30 450.12 9.41 c p3
536.18 464.04 9.41 c p3
515.47 475.45 9.41 c p3
493.50 484.16 9.41 c p3
470.61 490.05 9.41 c p3
447.16 493.02 9.41 c p3
423.53 493.02 9.41 c p3
400.08 490.05 9.41 c p3
377.19 484.16 9.41 c p3
355.22 475.45 9.41 c p3
334.51 464.04 9.41 c p3
315.39 450.12 9.41 c p3
298.17 433.91 9.41 c p3
283.10 415.67 9.41 c p3
270.44 395.67 9.41 c p3
260.38 374.25 9.41 c p3
253.08 351.73 9.41 c p3
248.65 328.47 9.41 c p3
247.16 304.84 9.41 c p3
248.65 281.21 9.41 c p3
253.08 257.95 9.41 c p3
260.38 235.43 9.41 c p3
270.44 214.00 9.41 c p3
283.10 194.01 9.41 c p3
298.17 175.76 9.41 c p3
315.39 159.55 9.41 c p3
334.51 145.64 9.41 c p3
355.22 134.23 9.41 c p3
377.19 125.51 9.41 c p3
400.08 119.62 9.41 c p3
423.53 116.66 9.41 c p3
447.16 116.66 9.41 c p3
470.61 119.62 9.41 c p3
493.50 125.51 9.41 c p3
515.47 134.23 9.41 c p3
536.18 145.64 9.41 c p3
555.30 159.55 9.41 c p3
572.52 175.76 9.41 c p3
587.59 194.01 9.41 c p3
600.25 214.00 9.41 c p3
610.31 235.43 9.41 c p3
617.61 257.95 9.41 c p3
622.04 281.21 9.41 c p3
18.00 18.00 823.89 577.28 cl
ep
%%Trailer
%%Pages: 1
%%EOF
