%!PS-Adobe-3.0
%%DocumentNeededResources: font Helvetica
%%+ font Helvetica-Bold
%%+ font Helvetica-Oblique
%%+ font Helvetica-BoldOblique
%%+ font Symbol
%%DocumentMedia: a4 595 841 0 () ()
%%Title: R Graphics Output
%%Creator: R Software
%%Pages: (atend)
%%Orientation: Landscape
%%BoundingBox: 18 18 577 824
%%EndComments
%%BeginProlog
/bp  { gs sRGB 595.00 0 translate 90 rotate gs } def
% begin .ps.prolog
/gs  { gsave } bind def
/gr  { grestore } bind def
/ep  { showpage gr gr } bind def
/m   { moveto } bind def
/l  { rlineto } bind def
/np  { newpath } bind def
/cp  { closepath } bind def
/f   { fill } bind def
/o   { stroke } bind def
/c   { newpath 0 360 arc } bind def
/r   { 4 2 roll moveto 1 copy 3 -1 roll exch 0 exch rlineto 0 rlineto -1 mul 0 exch rlineto closepath } bind def
/p1  { stroke } bind def
/p2  { gsave bg fill grestore newpath } bind def
/p3  { gsave bg fill grestore stroke } bind def
/p6  { gsave bg eofill grestore newpath } bind def
/p7  { gsave bg eofill grestore stroke } bind def
/t   { 5 -2 roll moveto gsave rotate
       1 index stringwidth pop
       mul neg 0 rmoveto show grestore } bind def
/ta  { 4 -2 roll moveto gsave rotate show } bind def
/tb  { 2 -1 roll 0 rmoveto show } bind def
/cl  { grestore gsave newpath 3 index 3 index moveto 1 index
       4 -1 roll lineto  exch 1 index lineto lineto
       closepath clip newpath } bind def
/rgb { setrgbcolor } bind def
/s   { scalefont setfont } bind def
% end   .ps.prolog
/sRGB { [ /CIEBasedABC
          << /DecodeLMN
               [ { dup 0.03928 le
                        {12.92321 div}
                        {0.055 add 1.055 div 2.4 exp }
                     ifelse
                 } bind dup dup
               ]
             /MatrixLMN [0.412457 0.212673 0.019334
                         0.357576 0.715152 0.119192
                         0.180437 0.072175 0.950301]
             /WhitePoint [0.9505 1.0 1.0890]
           >>
         ] setcolorspace } bind def
/srgb { setcolor } bind def
%%IncludeResource: font Helvetica
/Helvetica findfont
dup length dict begin
  {1 index /FID ne {def} {pop pop} ifelse} forall
  /Encoding ISOLatin1Encoding def
  currentdict
  end
/Font1 exch definefont pop
%%IncludeResource: font Helvetica-Bold
/Helvetica-Bold findfont
dup length dict begin
  {1 index /FID ne {def} {pop pop} ifelse} forall
  /Encoding ISOLatin1Encoding def
  currentdict
  end
/Font2 exch definefont pop
%%IncludeResource: font Helvetica-Oblique
/Helvetica-Oblique findfont
dup length dict begin
  {1 index /FID ne {def} {pop pop} ifelse} forall
  /Encoding ISOLatin1Encoding def
  currentdict
  end
/Font3 exch definefont pop
%%IncludeResource: font Helvetica-BoldOblique
/Helvetica-BoldOblique findfont
dup length dict begin
  {1 index /FID ne {def} {pop pop} ifelse} forall
  /Encoding ISOLatin1Encoding def
  currentdict
  end
/Font4 exch definefont pop
%%IncludeResource: font Symbol
/Symbol findfont
dup length dict begin
  {1 index /FID ne {def} {pop pop} ifelse} forall
  currentdict
  end
/Font5 exch definefont pop
%%EndProlog
ep
%%Trailer
%%Pages: 0
%%EOF
.89 577.28 cl
77.04 91.44 793.65 518.24 cl
0.6627 0.6627 0.6627 srgb
0.75 setlinewidth
[] 0 setdash
1 setlinecap
1 setlinejoin
10.00 setmiterlimit
np
361.66 468.58 m
232.16 -247.71 l
o
np
359.22 466.93 m
152.25 -324.18 l
o
np
252.69 297.22 m
118.98 -164.09 l
o
np
278.38 208.95 m
137.21 -87.24 l
o
np
618.49 296.89 m
-97.99 -154.71 l
o
np
269.71 234.25 m
308.54 -39.06 l
o
np
526.94 462.27 m
-234.60 -44.84 l
o
np
292.34 192.24 m
234.60 -44.84 l
o
np
613.30 325.00 m
-321.45 -127.52 l
o
np
603.71 222.75 m
10.45 26.45 l
o
np
506.72 471.98 m
-237.60 -94.26 l
o
np
619.00 313.09 m
-78.30 142.70 l
o
np
432.48 119.57 m
113.87 37.07 l
o
np
292.22 196.35 m
320.71 82.51 l
o
np
531.14 456.09 m
-191.59 -302.50 l
o
np
302.17 425.39 m
140.99 -300.22 l
o
np
431.14 122.19 m
178.87 130.22 l
o
np
622.04 319.06 m
0 -28.45 l
o
np
527.67 460.03 m
-270.51 -127.55 l
o
np
408.32 124.16 m
193.75 106.73 l
o
np
280.20 406.72 m
-30.13 -92.93 l
o
np
380.10 475.21 m
110.49 -340.75 l
o
np
254.02 298.39 m
186.29 -175.29 l
o
np
429.96 486.15 m
185.65 -198.08 l
o
np
380.65 475.41 m
131.36 -332.43 l
o
np
568.00 425.66 m
-163.39 -297.79 l
o
np
484.75 480.69 m
-205.56 -81.55 l
o
np
291.04 410.62 m
301.27 -191.57 l
o
np
501.44 130.56 m
63.14 40.16 l
o
np
288.14 407.72 m
177.43 -280.15 l
o
np
599.07 386.34 m
-25.37 -201.24 l
o
np
417.09 486.15 m
-163.49 -174.45 l
o
np
484.38 481.82 m
-177.10 -45.56 l
o
np
523.71 138.77 m
4.23 2.33 l
o
np
513.13 466.33 m
-87.27 -340.56 l
o
np
421.19 483.90 m
-84.34 -329.15 l
o
np
610.01 357.27 m
-178.87 130.21 l
o
np
580.73 422.11 m
-37.70 35.48 l
o
np
290.35 409.66 m
274.93 -227.89 l
o
np
291.85 412.20 m
321.45 -127.52 l
o
np
323.00 154.02 m
3.91 -2.85 l
o
np
592.64 390.14 m
-286.87 -208.84 l
o
np
506.08 474.85 m
-162.18 -10.22 l
o
np
533.84 454.92 m
-84.34 -329.15 l
o
np
567.49 425.96 m
-185.26 -292.50 l
o
np
616.44 342.39 m
-15.01 -119.05 l
o
np
289.09 408.41 m
220.39 -266.92 l
o
np
304.16 426.66 m
226.03 -273.77 l
o
np
248.06 319.08 m
-0.31 -4.85 l
o
np
564.28 438.45 m
-85.43 47.06 l
o
np
558.20 441.17 m
56.51 -174.27 l
o
np
405.61 482.43 m
189.12 -260.81 l
o
np
568.52 425.39 m
-140.99 -300.22 l
o
np
614.44 322.93 m
-251.61 -183.16 l
o
np
545.96 448.94 m
-253.52 -32.09 l
o
np
250.62 296.09 m
44.09 -111.58 l
o
np
327.27 458.03 m
-21.86 -18.11 l
o
np
281.34 406.42 m
-26.50 -139.23 l
o
np
255.89 275.20 m
184.03 -152.54 l
o
np
257.76 278.86 m
320.71 -82.51 l
o
np
580.73 409.22 m
-258.48 -243.22 l
o
np
296.99 424.58 m
-25.37 -201.24 l
o
np
408.83 123.09 m
170.01 67.45 l
o
np
257.60 343.48 m
115.07 -209.72 l
o
np
602.70 379.79 m
-147.93 107.69 l
o
np
311.39 441.60 m
-60.23 -128.25 l
o
np
333.92 454.65 m
-17.94 -285.70 l
o
np
292.51 194.01 m
285.67 0 l
o
np
578.64 412.75 m
-322.53 -105.00 l
o
np
614.10 333.52 m
-228.97 145.59 l
o
np
254.84 342.49 m
26.50 -139.24 l
o
np
456.50 117.84 m
4.77 0.60 l
o
np
618.49 312.79 m
-97.99 154.71 l
o
np
586.41 406.33 m
-29.94 -237.44 l
o
np
377.19 474.75 m
0 -339.83 l
o
np
323.33 154.51 m
23.95 -15.23 l
o
np
620.28 337.71 m
-0.91 4.78 l
o
np
560.82 167.17 m
43.97 60.64 l
o
np
348.79 468.58 m
-81.98 -87.47 l
o
np
408.02 124.67 m
201.65 128.23 l
o
np
422.35 483.68 m
-43.98 -348.83 l
o
np
507.23 470.91 m
-250.34 -137.90 l
o
np
382.23 476.21 m
185.26 -292.50 l
o
np
622.94 314.23 m
-0.31 4.85 l
o
np
425.86 483.90 m
87.27 -340.56 l
o
np
564.58 438.96 m
-63.14 40.15 l
o
np
608.50 349.38 m
-346.31 -89.09 l
o
np
255.40 300.30 m
272.54 -150.12 l
o
np
278.68 209.46 m
160.24 -88.26 l
o
np
348.37 469.00 m
-71.08 -66.88 l
o
np
292.22 191.66 m
214.14 -55.09 l
o
np
614.44 334.01 m
-206.75 150.50 l
o
np
328.08 457.17 m
-51.21 -54.63 l
o
np
579.35 411.13 m
-310.73 -171.16 l
o
np
339.04 455.79 m
171.90 -313.31 l
o
np
290.35 188.00 m
57.63 -47.77 l
o
np
254.25 342.39 m
15.01 -119.05 l
o
np
613.30 331.94 m
-289.16 114.71 l
o
np
610.37 357.73 m
-155.97 129.28 l
o
np
406.07 482.80 m
198.25 -240.12 l
o
/bg { 1 0.6471 0 srgb } def
1 1 1 srgb
623.53 304.84 9.41 c p3
622.04 328.47 9.41 c p3
617.61 351.73 9.41 c p3
610.31 374.25 9.41 c p3
600.25 395.67 9.41 c p3
587.59 415.67 9.41 c p3
572.52 433.91 9.41 c p3
555.30 450.12 9.41 c p3
536.18 464.04 9.41 c p3
515.47 475.45 9.41 c p3
493.50 484.16 9.41 c p3
470.61 490.05 9.41 c p3
447.16 493.02 9.41 c p3
423.53 493.02 9.41 c p3
400.08 490.05 9.41 c p3
377.19 484.16 9.41 c p3
355.22 475.45 9.41 c p3
334.51 464.04 9.41 c p3
315.39 450.12 9.41 c p3
298.17 433.91 9.41 c p3
283.10 415.67 9.41 c p3
270.44 395.67 9.41 c p3
260.38 374.25 9.41 c p3
253.08 351.73 9.41 c p3
248.65 328.47 9.41 c p3
247.16 304.84 9.41 c p3
248.65 281.21 9.41 c p3
253.08 257.95 9.41 c p3
260.38 235.43 9.41 c p3
270.44 214.00 9.41 c p3
283.10 194.01 9.41 c p3
298.17 175.76 9.41 c p3
315.39 159.55 9.41 c p3
334.51 145.64 9.41 c p3
355.22 134.23 9.41 c p3
377.19 125.51 9.41 c p3
400.08 119.62 9.41 c p3
423.53 116.66 9.41 c p3
447.16 116.66 9.41 c p3
470.61 119.62 9.41 c p3
493.50 125.51 9.41 c p3
515.47 134.23 9.41 c p3
536.18 145.64 9.41 c p3
555.30 159.55 9.41 c p3
572.52 175.76 9.41 c p3
587.59 194.01 9.41 c p3
600.25 214.00 9.41 c p3
610.31 235.43 9.41 c p3
617.61 257.95 9.41 c p3
622.04 281.21 9.41 c p3
18.00 18.00 823.89 577.28 cl
ep
%%Trailer
%%Pages: 1
%%EOF
