%!PS-Adobe-3.0 EPSF-3.0
%%DocumentNeededResources: font Helvetica
%%+ font Helvetica-Bold
%%+ font Helvetica-Oblique
%%+ font Helvetica-BoldOblique
%%+ font Symbol
%%Title: R Graphics Output
%%Creator: R Software
%%Pages: (atend)
%%BoundingBox: 0 0 397 283
%%EndComments
%%BeginProlog
/bp  { gs sRGB gs } def
% begin .ps.prolog
/gs  { gsave } bind def
/gr  { grestore } bind def
/ep  { showpage gr gr } bind def
/m   { moveto } bind def
/l  { rlineto } bind def
/np  { newpath } bind def
/cp  { closepath } bind def
/f   { fill } bind def
/o   { stroke } bind def
/c   { newpath 0 360 arc } bind def
/r   { 4 2 roll moveto 1 copy 3 -1 roll exch 0 exch rlineto 0 rlineto -1 mul 0 exch rlineto closepath } bind def
/p1  { stroke } bind def
/p2  { gsave bg fill grestore newpath } bind def
/p3  { gsave bg fill grestore stroke } bind def
/p6  { gsave bg eofill grestore newpath } bind def
/p7  { gsave bg eofill grestore stroke } bind def
/t   { 5 -2 roll moveto gsave rotate
       1 index stringwidth pop
       mul neg 0 rmoveto show grestore } bind def
/ta  { 4 -2 roll moveto gsave rotate show } bind def
/tb  { 2 -1 roll 0 rmoveto show } bind def
/cl  { grestore gsave newpath 3 index 3 index moveto 1 index
       4 -1 roll lineto  exch 1 index lineto lineto
       closepath clip newpath } bind def
/rgb { setrgbcolor } bind def
/s   { scalefont setfont } bind def
% end   .ps.prolog
/sRGB { [ /CIEBasedABC
          << /DecodeLMN
               [ { dup 0.03928 le
                        {12.92321 div}
                        {0.055 add 1.055 div 2.4 exp }
                     ifelse
                 } bind dup dup
               ]
             /MatrixLMN [0.412457 0.212673 0.019334
                         0.357576 0.715152 0.119192
                         0.180437 0.072175 0.950301]
             /WhitePoint [0.9505 1.0 1.0890]
           >>
         ] setcolorspace } bind def
/srgb { setcolor } bind def
%%IncludeResource: font Helvetica
/Helvetica findfont
dup length dict begin
  {1 index /FID ne {def} {pop pop} ifelse} forall
  /Encoding ISOLatin1Encoding def
  currentdict
  end
/Font1 exch definefont pop
%%IncludeResource: font Helvetica-Bold
/Helvetica-Bold findfont
dup length dict begin
  {1 index /FID ne {def} {pop pop} ifelse} forall
  /Encoding ISOLatin1Encoding def
  currentdict
  end
/Font2 exch definefont pop
%%IncludeResource: font Helvetica-Oblique
/Helvetica-Oblique findfont
dup length dict begin
  {1 index /FID ne {def} {pop pop} ifelse} forall
  /Encoding ISOLatin1Encoding def
  currentdict
  end
/Font3 exch definefont pop
%%IncludeResource: font Helvetica-BoldOblique
/Helvetica-BoldOblique findfont
dup length dict begin
  {1 index /FID ne {def} {pop pop} ifelse} forall
  /Encoding ISOLatin1Encoding def
  currentdict
  end
/Font4 exch definefont pop
%%IncludeResource: font Symbol
/Symbol findfont
dup length dict begin
  {1 index /FID ne {def} {pop pop} ifelse} forall
  currentdict
  end
/Font5 exch definefont pop
%%EndProlog
%%Page: 1 1
bp
0.00 0.00 396.85 283.46 cl
0.00 0.00 396.85 283.46 cl
0.00 0.00 396.85 283.46 cl
0.00 0.00 396.85 283.46 cl
0.00 0.00 396.85 283.46 cl
0.00 0.00 396.85 283.46 cl
0.00 0.00 396.85 283.46 cl
0.00 0.00 396.85 283.46 cl
0.00 0.00 396.85 283.46 cl
0.00 0.00 396.85 283.46 cl
/bg { 1 1 1 srgb } def
1 1 1 srgb
1.07 setlinewidth
[] 0 setdash
1 setlinecap
1 setlinejoin
10.00 setmiterlimit
0.00 0.00 396.85 283.46 r p3
0.00 0.00 396.85 283.46 cl
53.53 39.41 391.37 277.99 cl
/bg { 1 1 1 srgb } def
0.4980 0.4980 0.4980 srgb
1.07 setlinewidth
[] 0 setdash
1 setlinecap
1 setlinejoin
10.00 setmiterlimit
53.53 39.41 337.84 238.57 r p3
1 1 1 srgb
0.53 setlinewidth
[] 0 setdash
0 setlinecap
np
53.53 77.37 m
337.84 0 l
o
np
53.53 131.59 m
337.84 0 l
o
np
53.53 185.81 m
337.84 0 l
o
np
53.53 240.03 m
337.84 0 l
o
np
120.07 39.41 m
0 238.58 l
o
np
222.45 39.41 m
0 238.58 l
o
np
324.83 39.41 m
0 238.58 l
o
1.07 setlinewidth
[] 0 setdash
np
53.53 50.26 m
337.84 0 l
o
np
53.53 104.48 m
337.84 0 l
o
np
53.53 158.70 m
337.84 0 l
o
np
53.53 212.92 m
337.84 0 l
o
np
53.53 267.14 m
337.84 0 l
o
np
68.88 39.41 m
0 238.58 l
o
np
171.26 39.41 m
0 238.58 l
o
np
273.64 39.41 m
0 238.58 l
o
np
376.01 39.41 m
0 238.58 l
o
/bg { 0 0 0 srgb } def
0 0 0 srgb
0.71 setlinewidth
[] 0 setdash
1 setlinecap
68.88 65.87 3.56 c p3
69.91 66.09 3.56 c p3
70.93 66.31 3.56 c p3
71.95 66.09 3.56 c p3
72.98 66.31 3.56 c p3
74.00 66.31 3.56 c p3
75.03 66.09 3.56 c p3
76.05 66.09 3.56 c p3
77.07 66.31 3.56 c p3
78.10 66.09 3.56 c p3
79.12 66.52 3.56 c p3
80.14 66.09 3.56 c p3
81.17 66.09 3.56 c p3
82.19 66.09 3.56 c p3
83.22 66.09 3.56 c p3
84.24 65.87 3.56 c p3
85.26 65.87 3.56 c p3
86.29 66.09 3.56 c p3
87.31 65.87 3.56 c p3
88.33 66.09 3.56 c p3
89.36 66.09 3.56 c p3
90.38 65.87 3.56 c p3
91.41 65.87 3.56 c p3
92.43 66.09 3.56 c p3
93.45 65.87 3.56 c p3
94.48 65.87 3.56 c p3
95.50 65.87 3.56 c p3
96.53 65.87 3.56 c p3
97.55 65.87 3.56 c p3
98.57 65.87 3.56 c p3
99.60 66.09 3.56 c p3
100.62 65.87 3.56 c p3
101.64 65.66 3.56 c p3
102.67 65.87 3.56 c p3
103.69 65.44 3.56 c p3
104.72 65.66 3.56 c p3
105.74 65.66 3.56 c p3
106.76 65.66 3.56 c p3
107.79 65.44 3.56 c p3
108.81 65.66 3.56 c p3
109.83 65.66 3.56 c p3
110.86 65.44 3.56 c p3
111.88 65.66 3.56 c p3
112.91 65.44 3.56 c p3
113.93 65.44 3.56 c p3
114.95 65.44 3.56 c p3
115.98 65.44 3.56 c p3
117.00 65.66 3.56 c p3
118.02 65.66 3.56 c p3
119.05 65.44 3.56 c p3
120.07 65.44 3.56 c p3
121.10 65.44 3.56 c p3
122.12 65.44 3.56 c p3
123.14 65.22 3.56 c p3
124.17 65.22 3.56 c p3
125.19 65.01 3.56 c p3
126.21 65.22 3.56 c p3
127.24 65.22 3.56 c p3
128.26 65.44 3.56 c p3
129.29 65.22 3.56 c p3
130.31 65.22 3.56 c p3
131.33 65.22 3.56 c p3
132.36 65.01 3.56 c p3
133.38 65.01 3.56 c p3
134.40 65.01 3.56 c p3
135.43 65.22 3.56 c p3
136.45 65.01 3.56 c p3
137.48 64.79 3.56 c p3
138.50 65.01 3.56 c p3
139.52 65.01 3.56 c p3
140.55 65.01 3.56 c p3
141.57 64.79 3.56 c p3
142.59 64.79 3.56 c p3
143.62 65.01 3.56 c p3
144.64 65.01 3.56 c p3
145.67 64.79 3.56 c p3
146.69 64.79 3.56 c p3
147.71 64.79 3.56 c p3
148.74 64.79 3.56 c p3
149.76 64.36 3.56 c p3
150.78 64.79 3.56 c p3
151.81 64.57 3.56 c p3
152.83 64.79 3.56 c p3
153.86 64.36 3.56 c p3
154.88 64.57 3.56 c p3
155.90 64.57 3.56 c p3
156.93 64.57 3.56 c p3
157.95 64.57 3.56 c p3
158.98 64.36 3.56 c p3
160.00 64.57 3.56 c p3
161.02 64.36 3.56 c p3
162.05 64.57 3.56 c p3
163.07 64.14 3.56 c p3
164.09 63.92 3.56 c p3
165.12 64.57 3.56 c p3
166.14 64.14 3.56 c p3
167.17 64.14 3.56 c p3
168.19 63.71 3.56 c p3
169.21 63.92 3.56 c p3
170.24 63.92 3.56 c p3
171.26 63.92 3.56 c p3
172.28 63.92 3.56 c p3
173.31 64.14 3.56 c p3
174.33 63.92 3.56 c p3
175.36 63.71 3.56 c p3
176.38 63.92 3.56 c p3
177.40 63.49 3.56 c p3
178.43 63.27 3.56 c p3
179.45 63.49 3.56 c p3
180.47 63.49 3.56 c p3
181.50 63.71 3.56 c p3
182.52 63.27 3.56 c p3
183.55 63.49 3.56 c p3
184.57 63.05 3.56 c p3
185.59 63.05 3.56 c p3
186.62 62.84 3.56 c p3
187.64 62.84 3.56 c p3
188.66 62.62 3.56 c p3
189.69 62.84 3.56 c p3
190.71 62.40 3.56 c p3
191.74 62.40 3.56 c p3
192.76 62.40 3.56 c p3
193.78 61.75 3.56 c p3
194.81 62.40 3.56 c p3
195.83 62.84 3.56 c p3
196.85 62.19 3.56 c p3
197.88 61.10 3.56 c p3
198.90 61.75 3.56 c p3
199.93 61.54 3.56 c p3
200.95 60.45 3.56 c p3
201.97 61.32 3.56 c p3
203.00 61.75 3.56 c p3
204.02 61.32 3.56 c p3
205.04 60.45 3.56 c p3
206.07 61.75 3.56 c p3
207.09 58.93 3.56 c p3
208.12 60.45 3.56 c p3
209.14 61.10 3.56 c p3
210.16 59.15 3.56 c p3
211.19 57.63 3.56 c p3
212.21 59.58 3.56 c p3
213.23 56.55 3.56 c p3
214.26 58.72 3.56 c p3
215.28 55.25 3.56 c p3
216.31 58.50 3.56 c p3
217.33 55.68 3.56 c p3
218.35 57.42 3.56 c p3
219.38 55.03 3.56 c p3
220.40 55.03 3.56 c p3
221.43 55.68 3.56 c p3
222.45 56.55 3.56 c p3
223.47 55.68 3.56 c p3
224.50 53.73 3.56 c p3
225.52 56.11 3.56 c p3
226.54 54.16 3.56 c p3
227.57 53.51 3.56 c p3
228.59 52.86 3.56 c p3
229.62 54.38 3.56 c p3
230.64 54.38 3.56 c p3
231.66 53.30 3.56 c p3
232.69 53.30 3.56 c p3
233.71 53.51 3.56 c p3
234.73 54.81 3.56 c p3
235.76 52.43 3.56 c p3
236.78 54.16 3.56 c p3
237.81 52.64 3.56 c p3
238.83 52.43 3.56 c p3
239.85 53.51 3.56 c p3
240.88 52.43 3.56 c p3
241.90 51.99 3.56 c p3
242.92 52.21 3.56 c p3
243.95 51.78 3.56 c p3
244.97 51.78 3.56 c p3
246.00 51.99 3.56 c p3
247.02 51.56 3.56 c p3
248.04 51.34 3.56 c p3
249.07 51.34 3.56 c p3
250.09 51.34 3.56 c p3
251.11 51.56 3.56 c p3
252.14 51.13 3.56 c p3
253.16 51.34 3.56 c p3
254.19 51.34 3.56 c p3
255.21 51.56 3.56 c p3
256.23 51.56 3.56 c p3
257.26 51.56 3.56 c p3
258.28 51.13 3.56 c p3
259.30 51.13 3.56 c p3
260.33 51.34 3.56 c p3
261.35 50.91 3.56 c p3
262.38 51.13 3.56 c p3
263.40 51.13 3.56 c p3
264.42 50.91 3.56 c p3
265.45 50.91 3.56 c p3
266.47 50.91 3.56 c p3
267.49 50.69 3.56 c p3
268.52 50.91 3.56 c p3
269.54 50.91 3.56 c p3
270.57 51.13 3.56 c p3
271.59 50.91 3.56 c p3
272.61 50.69 3.56 c p3
273.64 51.13 3.56 c p3
274.66 51.13 3.56 c p3
275.68 50.69 3.56 c p3
276.71 50.91 3.56 c p3
277.73 50.91 3.56 c p3
278.76 51.13 3.56 c p3
279.78 50.69 3.56 c p3
280.80 50.69 3.56 c p3
281.83 50.69 3.56 c p3
282.85 50.69 3.56 c p3
283.88 50.91 3.56 c p3
284.90 50.48 3.56 c p3
285.92 50.91 3.56 c p3
286.95 50.91 3.56 c p3
287.97 50.69 3.56 c p3
288.99 50.91 3.56 c p3
290.02 50.91 3.56 c p3
291.04 50.69 3.56 c p3
292.07 50.69 3.56 c p3
293.09 50.69 3.56 c p3
294.11 50.48 3.56 c p3
295.14 50.69 3.56 c p3
296.16 50.69 3.56 c p3
297.18 50.69 3.56 c p3
298.21 50.91 3.56 c p3
299.23 50.91 3.56 c p3
300.26 50.69 3.56 c p3
301.28 50.91 3.56 c p3
302.30 50.69 3.56 c p3
303.33 50.69 3.56 c p3
304.35 50.69 3.56 c p3
305.37 50.48 3.56 c p3
306.40 50.69 3.56 c p3
307.42 50.48 3.56 c p3
308.45 50.48 3.56 c p3
309.47 50.48 3.56 c p3
310.49 50.48 3.56 c p3
311.52 50.69 3.56 c p3
312.54 50.69 3.56 c p3
313.56 50.48 3.56 c p3
314.59 50.69 3.56 c p3
315.61 50.48 3.56 c p3
316.64 50.69 3.56 c p3
317.66 50.69 3.56 c p3
318.68 50.69 3.56 c p3
319.71 50.48 3.56 c p3
320.73 50.48 3.56 c p3
321.75 50.48 3.56 c p3
322.78 50.69 3.56 c p3
323.80 50.48 3.56 c p3
324.83 50.69 3.56 c p3
325.85 50.69 3.56 c p3
326.87 50.48 3.56 c p3
327.90 50.48 3.56 c p3
328.92 50.48 3.56 c p3
329.94 50.48 3.56 c p3
330.97 50.69 3.56 c p3
331.99 50.48 3.56 c p3
333.02 50.48 3.56 c p3
334.04 50.48 3.56 c p3
335.06 50.48 3.56 c p3
336.09 50.48 3.56 c p3
337.11 50.48 3.56 c p3
338.13 50.69 3.56 c p3
339.16 50.48 3.56 c p3
340.18 50.48 3.56 c p3
341.21 50.48 3.56 c p3
342.23 50.69 3.56 c p3
343.25 50.69 3.56 c p3
344.28 50.69 3.56 c p3
345.30 50.48 3.56 c p3
346.33 50.48 3.56 c p3
347.35 50.48 3.56 c p3
348.37 50.48 3.56 c p3
349.40 50.69 3.56 c p3
350.42 50.48 3.56 c p3
351.44 50.69 3.56 c p3
352.47 50.48 3.56 c p3
353.49 50.48 3.56 c p3
354.52 50.48 3.56 c p3
355.54 50.48 3.56 c p3
356.56 50.48 3.56 c p3
357.59 50.48 3.56 c p3
358.61 50.69 3.56 c p3
359.63 50.48 3.56 c p3
360.66 50.48 3.56 c p3
361.68 50.48 3.56 c p3
362.71 50.48 3.56 c p3
363.73 50.48 3.56 c p3
364.75 50.48 3.56 c p3
365.78 50.69 3.56 c p3
366.80 50.48 3.56 c p3
367.82 50.48 3.56 c p3
368.85 50.48 3.56 c p3
369.87 50.48 3.56 c p3
370.90 50.48 3.56 c p3
371.92 50.48 3.56 c p3
372.94 50.48 3.56 c p3
373.97 50.48 3.56 c p3
374.99 50.48 3.56 c p3
376.01 50.48 3.56 c p3
0.00 0.00 396.85 283.46 cl
0.00 0.00 396.85 283.46 cl
0.00 0.00 396.85 283.46 cl
0.00 0.00 396.85 283.46 cl
0.00 0.00 396.85 283.46 cl
0.00 0.00 396.85 283.46 cl
0.00 0.00 396.85 283.46 cl
0.00 0.00 396.85 283.46 cl
0.00 0.00 396.85 283.46 cl
0.00 0.00 396.85 283.46 cl
0.00 0.00 396.85 283.46 cl
0.00 0.00 396.85 283.46 cl
0.00 0.00 396.85 283.46 cl
0.8000 0.8000 0.8000 srgb
2.13 setlinewidth
[] 0 setdash
0 setlinecap
1 setlinejoin
10.00 setmiterlimit
np
53.53 39.41 m
0 238.58 l
o
0.00 0.00 396.85 283.46 cl
0.00 0.00 396.85 283.46 cl
0.00 0.00 396.85 283.46 cl
/Font1 findfont 14 s
0.3020 0.3020 0.3020 srgb
48.60 45.23 (0.00) 1 0 t
48.60 99.45 (0.25) 1 0 t
48.60 153.67 (0.50) 1 0 t
48.60 207.89 (0.75) 1 0 t
48.60 262.12 (1.00) 1 0 t
0.00 0.00 396.85 283.46 cl
0.00 0.00 396.85 283.46 cl
0.2000 0.2000 0.2000 srgb
1.07 setlinewidth
[] 0 setdash
0 setlinecap
1 setlinejoin
10.00 setmiterlimit
np
50.79 50.26 m
2.74 0 l
o
np
50.79 104.48 m
2.74 0 l
o
np
50.79 158.70 m
2.74 0 l
o
np
50.79 212.92 m
2.74 0 l
o
np
50.79 267.14 m
2.74 0 l
o
0.00 0.00 396.85 283.46 cl
0.00 0.00 396.85 283.46 cl
0.00 0.00 396.85 283.46 cl
0.00 0.00 396.85 283.46 cl
0.00 0.00 396.85 283.46 cl
0.00 0.00 396.85 283.46 cl
0.00 0.00 396.85 283.46 cl
0.8000 0.8000 0.8000 srgb
2.13 setlinewidth
[] 0 setdash
0 setlinecap
1 setlinejoin
10.00 setmiterlimit
np
53.53 39.41 m
337.84 0 l
o
0.00 0.00 396.85 283.46 cl
0.00 0.00 396.85 283.46 cl
0.00 0.00 396.85 283.46 cl
0.2000 0.2000 0.2000 srgb
1.07 setlinewidth
[] 0 setdash
0 setlinecap
1 setlinejoin
10.00 setmiterlimit
np
68.88 36.67 m
0 2.74 l
o
np
171.26 36.67 m
0 2.74 l
o
np
273.64 36.67 m
0 2.74 l
o
np
376.01 36.67 m
0 2.74 l
o
0.00 0.00 396.85 283.46 cl
0.00 0.00 396.85 283.46 cl
/Font1 findfont 14 s
0.3020 0.3020 0.3020 srgb
68.88 24.43 (0) .5 0 t
171.26 24.43 (1) .5 0 t
273.64 24.43 (2) .5 0 t
376.01 24.43 (3) .5 0 t
0.00 0.00 396.85 283.46 cl
0.00 0.00 396.85 283.46 cl
0.00 0.00 396.85 283.46 cl
0.00 0.00 396.85 283.46 cl
0.00 0.00 396.85 283.46 cl
0.00 0.00 396.85 283.46 cl
/Font1 findfont 14 s
0 0 0 srgb
117.78 8.56 (Pref) 0 ta
-0.420 (erential Attachment Exponent) tb gr
0.00 0.00 396.85 283.46 cl
0.00 0.00 396.85 283.46 cl
/Font1 findfont 14 s
0 0 0 srgb
15.53 106.96 (Netw) 90 ta
-0.140 (or) tb
0.210 (k Entrop) tb
-0.420 (y) tb gr
0.00 0.00 396.85 283.46 cl
0.00 0.00 396.85 283.46 cl
0.00 0.00 396.85 283.46 cl
0.00 0.00 396.85 283.46 cl
0.00 0.00 396.85 283.46 cl
0.00 0.00 396.85 283.46 cl
0.00 0.00 396.85 283.46 cl
0.00 0.00 396.85 283.46 cl
0.00 0.00 396.85 283.46 cl
0.00 0.00 396.85 283.46 cl
0.00 0.00 396.85 283.46 cl
0.00 0.00 396.85 283.46 cl
ep
%%Trailer
%%Pages: 1
%%EOF
