%!PS-Adobe-3.0 EPSF-3.0
%%DocumentNeededResources: font Helvetica
%%+ font Helvetica-Bold
%%+ font Helvetica-Oblique
%%+ font Helvetica-BoldOblique
%%+ font Symbol
%%Title: R Graphics Output
%%Creator: R Software
%%Pages: (atend)
%%BoundingBox: 0 0 397 397
%%EndComments
%%BeginProlog
/bp  { gs sRGB gs } def
% begin .ps.prolog
/gs  { gsave } bind def
/gr  { grestore } bind def
/ep  { showpage gr gr } bind def
/m   { moveto } bind def
/l  { rlineto } bind def
/np  { newpath } bind def
/cp  { closepath } bind def
/f   { fill } bind def
/o   { stroke } bind def
/c   { newpath 0 360 arc } bind def
/r   { 4 2 roll moveto 1 copy 3 -1 roll exch 0 exch rlineto 0 rlineto -1 mul 0 exch rlineto closepath } bind def
/p1  { stroke } bind def
/p2  { gsave bg fill grestore newpath } bind def
/p3  { gsave bg fill grestore stroke } bind def
/p6  { gsave bg eofill grestore newpath } bind def
/p7  { gsave bg eofill grestore stroke } bind def
/t   { 5 -2 roll moveto gsave rotate
       1 index stringwidth pop
       mul neg 0 rmoveto show grestore } bind def
/ta  { 4 -2 roll moveto gsave rotate show } bind def
/tb  { 2 -1 roll 0 rmoveto show } bind def
/cl  { grestore gsave newpath 3 index 3 index moveto 1 index
       4 -1 roll lineto  exch 1 index lineto lineto
       closepath clip newpath } bind def
/rgb { setrgbcolor } bind def
/s   { scalefont setfont } bind def
% end   .ps.prolog
/sRGB { [ /CIEBasedABC
          << /DecodeLMN
               [ { dup 0.03928 le
                        {12.92321 div}
                        {0.055 add 1.055 div 2.4 exp }
                     ifelse
                 } bind dup dup
               ]
             /MatrixLMN [0.412457 0.212673 0.019334
                         0.357576 0.715152 0.119192
                         0.180437 0.072175 0.950301]
             /WhitePoint [0.9505 1.0 1.0890]
           >>
         ] setcolorspace } bind def
/srgb { setcolor } bind def
%%IncludeResource: font Helvetica
/Helvetica findfont
dup length dict begin
  {1 index /FID ne {def} {pop pop} ifelse} forall
  /Encoding ISOLatin1Encoding def
  currentdict
  end
/Font1 exch definefont pop
%%IncludeResource: font Helvetica-Bold
/Helvetica-Bold findfont
dup length dict begin
  {1 index /FID ne {def} {pop pop} ifelse} forall
  /Encoding ISOLatin1Encoding def
  currentdict
  end
/Font2 exch definefont pop
%%IncludeResource: font Helvetica-Oblique
/Helvetica-Oblique findfont
dup length dict begin
  {1 index /FID ne {def} {pop pop} ifelse} forall
  /Encoding ISOLatin1Encoding def
  currentdict
  end
/Font3 exch definefont pop
%%IncludeResource: font Helvetica-BoldOblique
/Helvetica-BoldOblique findfont
dup length dict begin
  {1 index /FID ne {def} {pop pop} ifelse} forall
  /Encoding ISOLatin1Encoding def
  currentdict
  end
/Font4 exch definefont pop
%%IncludeResource: font Symbol
/Symbol findfont
dup length dict begin
  {1 index /FID ne {def} {pop pop} ifelse} forall
  currentdict
  end
/Font5 exch definefont pop
%%EndProlog
%%Page: 1 1
bp
0.00 0.00 396.85 396.85 cl
0.00 0.00 396.85 396.85 cl
0.00 0.00 396.85 396.85 cl
0.00 0.00 396.85 396.85 cl
0.00 0.00 396.85 396.85 cl
0.00 0.00 396.85 396.85 cl
0.00 0.00 396.85 396.85 cl
0.00 0.00 396.85 396.85 cl
0.00 0.00 396.85 396.85 cl
0.00 0.00 396.85 396.85 cl
/bg { 1 1 1 srgb } def
1 1 1 srgb
1.07 setlinewidth
[] 0 setdash
1 setlinecap
1 setlinejoin
10.00 setmiterlimit
0.00 0.00 396.85 396.85 r p3
0.00 0.00 396.85 396.85 cl
65.06 46.92 391.37 391.37 cl
/bg { 1 1 1 srgb } def
0.4980 0.4980 0.4980 srgb
1.07 setlinewidth
[] 0 setdash
1 setlinecap
1 setlinejoin
10.00 setmiterlimit
65.06 46.92 326.31 344.45 r p3
1 1 1 srgb
0.53 setlinewidth
[] 0 setdash
0 setlinecap
np
65.06 101.72 m
326.31 0 l
o
np
65.06 180.00 m
326.31 0 l
o
np
65.06 258.29 m
326.31 0 l
o
np
65.06 336.57 m
326.31 0 l
o
np
116.98 46.92 m
0 344.45 l
o
np
191.14 46.92 m
0 344.45 l
o
np
265.30 46.92 m
0 344.45 l
o
np
339.46 46.92 m
0 344.45 l
o
1.07 setlinewidth
[] 0 setdash
np
65.06 62.58 m
326.31 0 l
o
np
65.06 140.86 m
326.31 0 l
o
np
65.06 219.14 m
326.31 0 l
o
np
65.06 297.43 m
326.31 0 l
o
np
65.06 375.71 m
326.31 0 l
o
np
79.89 46.92 m
0 344.45 l
o
np
154.06 46.92 m
0 344.45 l
o
np
228.22 46.92 m
0 344.45 l
o
np
302.38 46.92 m
0 344.45 l
o
np
376.54 46.92 m
0 344.45 l
o
1 0 0 srgb
0.71 setlinewidth
[] 0 setdash
1 setlinecap
np
80.49 91.68 m
1.91 3.31 l
-3.83 0 l
1.92 -3.31 l
o
np
81.08 123.31 m
1.92 3.31 l
-3.83 0 l
1.91 -3.31 l
o
np
81.68 141.47 m
1.91 3.31 l
-3.83 0 l
1.92 -3.31 l
o
np
82.27 154.62 m
1.91 3.32 l
-3.82 0 l
1.91 -3.32 l
o
np
82.86 164.64 m
1.92 3.32 l
-3.83 0 l
1.91 -3.32 l
o
np
83.46 173.10 m
1.91 3.31 l
-3.83 0 l
1.92 -3.31 l
o
np
84.05 179.98 m
1.92 3.32 l
-3.83 0 l
1.91 -3.32 l
o
np
84.65 185.93 m
1.91 3.32 l
-3.83 0 l
1.92 -3.32 l
o
np
85.24 191.26 m
1.91 3.31 l
-3.82 0 l
1.91 -3.31 l
o
np
85.83 196.27 m
1.92 3.31 l
-3.83 0 l
1.91 -3.31 l
o
np
86.43 200.65 m
1.91 3.32 l
-3.83 0 l
1.92 -3.32 l
o
np
87.02 204.41 m
1.92 3.31 l
-3.83 0 l
1.91 -3.31 l
o
np
87.62 208.17 m
1.91 3.31 l
-3.83 0 l
1.92 -3.31 l
o
np
88.21 211.30 m
1.91 3.31 l
-3.82 0 l
1.91 -3.31 l
o
np
88.80 214.43 m
1.92 3.31 l
-3.83 0 l
1.91 -3.31 l
o
np
89.40 217.56 m
1.91 3.32 l
-3.83 0 l
1.92 -3.32 l
o
np
89.99 220.38 m
1.92 3.31 l
-3.83 0 l
1.91 -3.31 l
o
np
90.58 222.88 m
1.92 3.32 l
-3.83 0 l
1.91 -3.32 l
o
np
91.18 225.39 m
1.91 3.31 l
-3.83 0 l
1.92 -3.31 l
o
np
91.77 227.58 m
1.92 3.32 l
-3.83 0 l
1.91 -3.32 l
o
np
92.37 229.77 m
1.91 3.32 l
-3.83 0 l
1.92 -3.32 l
o
np
92.96 231.97 m
1.91 3.31 l
-3.82 0 l
1.91 -3.31 l
o
np
93.55 233.84 m
1.92 3.32 l
-3.83 0 l
1.91 -3.32 l
o
np
94.15 235.72 m
1.91 3.32 l
-3.83 0 l
1.92 -3.32 l
o
np
94.74 237.60 m
1.92 3.32 l
-3.83 0 l
1.91 -3.32 l
o
np
95.34 239.48 m
1.91 3.32 l
-3.83 0 l
1.92 -3.32 l
o
np
95.93 241.36 m
1.91 3.31 l
-3.82 0 l
1.91 -3.31 l
o
np
96.52 242.92 m
1.92 3.32 l
-3.83 0 l
1.91 -3.32 l
o
np
97.12 244.49 m
1.91 3.32 l
-3.83 0 l
1.92 -3.32 l
o
np
97.71 246.06 m
1.92 3.31 l
-3.83 0 l
1.91 -3.31 l
o
np
98.31 247.62 m
1.91 3.32 l
-3.83 0 l
1.92 -3.32 l
o
np
98.90 248.87 m
1.91 3.32 l
-3.83 0 l
1.92 -3.32 l
o
np
99.49 250.44 m
1.92 3.32 l
-3.83 0 l
1.91 -3.32 l
o
np
100.09 251.69 m
1.91 3.32 l
-3.83 0 l
1.92 -3.32 l
o
np
100.68 252.95 m
1.91 3.31 l
-3.82 0 l
1.91 -3.31 l
o
np
101.27 254.20 m
1.92 3.31 l
-3.83 0 l
1.91 -3.31 l
o
np
101.87 255.45 m
1.91 3.32 l
-3.83 0 l
1.92 -3.32 l
o
np
102.46 256.70 m
1.92 3.32 l
-3.83 0 l
1.91 -3.32 l
o
np
103.06 257.96 m
1.91 3.31 l
-3.83 0 l
1.92 -3.31 l
o
np
103.65 258.90 m
1.91 3.31 l
-3.82 0 l
1.91 -3.31 l
o
np
104.24 260.15 m
1.92 3.31 l
-3.83 0 l
1.91 -3.31 l
o
np
104.84 261.40 m
1.91 3.32 l
-3.83 0 l
1.92 -3.32 l
o
np
105.43 262.34 m
1.92 3.32 l
-3.83 0 l
1.91 -3.32 l
o
np
106.03 263.28 m
1.91 3.31 l
-3.83 0 l
1.92 -3.31 l
o
np
106.62 264.53 m
1.91 3.32 l
-3.82 0 l
1.91 -3.32 l
o
np
107.21 265.47 m
1.92 3.32 l
-3.83 0 l
1.91 -3.32 l
o
np
107.81 266.41 m
1.91 3.32 l
-3.83 0 l
1.92 -3.32 l
o
np
108.40 267.35 m
1.92 3.32 l
-3.83 0 l
1.91 -3.32 l
o
np
109.00 268.29 m
1.91 3.31 l
-3.83 0 l
1.92 -3.31 l
o
np
109.59 269.23 m
1.91 3.31 l
-3.83 0 l
1.92 -3.31 l
o
np
110.18 270.17 m
1.92 3.31 l
-3.83 0 l
1.91 -3.31 l
o
np
110.78 270.79 m
1.91 3.32 l
-3.83 0 l
1.92 -3.32 l
o
np
111.37 271.73 m
1.91 3.32 l
-3.82 0 l
1.91 -3.32 l
o
np
111.96 272.67 m
1.92 3.32 l
-3.83 0 l
1.91 -3.32 l
o
np
112.56 273.61 m
1.91 3.32 l
-3.83 0 l
1.92 -3.32 l
o
np
113.15 274.24 m
1.92 3.31 l
-3.83 0 l
1.91 -3.31 l
o
np
113.75 275.18 m
1.91 3.31 l
-3.83 0 l
1.92 -3.31 l
o
np
114.34 275.80 m
1.91 3.32 l
-3.82 0 l
1.91 -3.32 l
o
np
114.93 276.74 m
1.92 3.32 l
-3.83 0 l
1.91 -3.32 l
o
np
115.53 277.37 m
1.91 3.32 l
-3.83 0 l
1.92 -3.32 l
o
np
116.12 278.31 m
1.92 3.32 l
-3.83 0 l
1.91 -3.32 l
o
np
116.72 278.94 m
1.91 3.31 l
-3.83 0 l
1.92 -3.31 l
o
np
117.31 279.56 m
1.91 3.32 l
-3.82 0 l
1.91 -3.32 l
o
np
117.90 280.50 m
1.92 3.32 l
-3.83 0 l
1.91 -3.32 l
o
np
118.50 281.13 m
1.91 3.31 l
-3.83 0 l
1.92 -3.31 l
o
np
119.09 281.75 m
1.92 3.32 l
-3.83 0 l
1.91 -3.32 l
o
np
119.68 282.38 m
1.92 3.32 l
-3.83 0 l
1.91 -3.32 l
o
np
120.28 283.01 m
1.91 3.31 l
-3.83 0 l
1.92 -3.31 l
o
np
120.87 283.63 m
1.92 3.32 l
-3.83 0 l
1.91 -3.32 l
o
np
121.47 284.26 m
1.91 3.31 l
-3.83 0 l
1.92 -3.31 l
o
np
122.06 285.20 m
1.91 3.31 l
-3.82 0 l
1.91 -3.31 l
o
np
122.65 285.82 m
1.92 3.32 l
-3.83 0 l
1.91 -3.32 l
o
np
123.25 286.45 m
1.91 3.32 l
-3.83 0 l
1.92 -3.32 l
o
np
123.84 287.08 m
1.92 3.31 l
-3.83 0 l
1.91 -3.31 l
o
np
124.44 287.39 m
1.91 3.32 l
-3.83 0 l
1.92 -3.32 l
o
np
125.03 288.02 m
1.91 3.31 l
-3.82 0 l
1.91 -3.31 l
o
np
125.62 288.64 m
1.92 3.32 l
-3.83 0 l
1.91 -3.32 l
o
np
126.22 289.27 m
1.91 3.31 l
-3.83 0 l
1.92 -3.31 l
o
np
126.81 289.90 m
1.92 3.31 l
-3.83 0 l
1.91 -3.31 l
o
np
127.41 290.52 m
1.91 3.32 l
-3.83 0 l
1.92 -3.32 l
o
np
128.00 291.15 m
1.91 3.31 l
-3.82 0 l
1.91 -3.31 l
o
np
128.59 291.46 m
1.92 3.32 l
-3.83 0 l
1.91 -3.32 l
o
np
129.19 292.09 m
1.91 3.31 l
-3.83 0 l
1.92 -3.31 l
o
np
129.78 292.71 m
1.92 3.32 l
-3.83 0 l
1.91 -3.32 l
o
np
130.37 293.34 m
1.92 3.32 l
-3.83 0 l
1.91 -3.32 l
o
np
130.97 293.65 m
1.91 3.32 l
-3.83 0 l
1.92 -3.32 l
o
np
131.56 294.28 m
1.92 3.32 l
-3.83 0 l
1.91 -3.32 l
o
np
132.16 294.91 m
1.91 3.31 l
-3.83 0 l
1.92 -3.31 l
o
np
132.75 295.22 m
1.91 3.31 l
-3.82 0 l
1.91 -3.31 l
o
np
133.34 295.85 m
1.92 3.31 l
-3.83 0 l
1.91 -3.31 l
o
np
133.94 296.16 m
1.91 3.31 l
-3.83 0 l
1.92 -3.31 l
o
np
134.53 296.78 m
1.92 3.32 l
-3.83 0 l
1.91 -3.32 l
o
np
135.13 297.41 m
1.91 3.32 l
-3.83 0 l
1.92 -3.32 l
o
np
135.72 297.72 m
1.91 3.32 l
-3.82 0 l
1.91 -3.32 l
o
np
136.31 298.35 m
1.92 3.32 l
-3.83 0 l
1.91 -3.32 l
o
np
136.91 298.66 m
1.91 3.32 l
-3.83 0 l
1.92 -3.32 l
o
np
137.50 299.29 m
1.92 3.32 l
-3.83 0 l
1.91 -3.32 l
o
np
138.10 299.60 m
1.91 3.32 l
-3.83 0 l
1.92 -3.32 l
o
np
138.69 300.23 m
1.91 3.31 l
-3.83 0 l
1.92 -3.31 l
o
np
139.28 300.54 m
1.92 3.32 l
-3.83 0 l
1.91 -3.32 l
o
np
139.88 301.17 m
1.91 3.31 l
-3.83 0 l
1.92 -3.31 l
o
np
140.47 301.48 m
1.91 3.32 l
-3.82 0 l
1.91 -3.32 l
o
np
141.06 301.80 m
1.92 3.31 l
-3.83 0 l
1.91 -3.31 l
o
np
141.66 302.42 m
1.91 3.32 l
-3.83 0 l
1.92 -3.32 l
o
np
142.25 302.73 m
1.92 3.32 l
-3.83 0 l
1.91 -3.32 l
o
np
142.85 303.36 m
1.91 3.32 l
-3.83 0 l
1.92 -3.32 l
o
np
143.44 303.67 m
1.91 3.32 l
-3.82 0 l
1.91 -3.32 l
o
np
144.03 303.99 m
1.92 3.31 l
-3.83 0 l
1.91 -3.31 l
o
np
144.63 304.61 m
1.91 3.32 l
-3.83 0 l
1.92 -3.32 l
o
np
145.22 304.93 m
1.92 3.31 l
-3.83 0 l
1.91 -3.31 l
o
np
145.82 305.24 m
1.91 3.31 l
-3.83 0 l
1.92 -3.31 l
o
np
146.41 305.87 m
1.91 3.31 l
-3.82 0 l
1.91 -3.31 l
o
np
147.00 306.18 m
1.92 3.31 l
-3.83 0 l
1.91 -3.31 l
o
np
147.60 306.49 m
1.91 3.32 l
-3.83 0 l
1.92 -3.32 l
o
np
148.19 306.81 m
1.92 3.31 l
-3.83 0 l
1.91 -3.31 l
o
np
148.79 307.43 m
1.91 3.32 l
-3.83 0 l
1.92 -3.32 l
o
np
149.38 307.74 m
1.91 3.32 l
-3.83 0 l
1.92 -3.32 l
o
np
149.97 308.06 m
1.92 3.31 l
-3.83 0 l
1.91 -3.31 l
o
np
150.57 308.37 m
1.91 3.32 l
-3.83 0 l
1.92 -3.32 l
o
np
151.16 309.00 m
1.91 3.31 l
-3.82 0 l
1.91 -3.31 l
o
np
151.75 309.31 m
1.92 3.32 l
-3.83 0 l
1.91 -3.32 l
o
np
152.35 309.62 m
1.91 3.32 l
-3.83 0 l
1.92 -3.32 l
o
np
152.94 309.94 m
1.92 3.31 l
-3.83 0 l
1.91 -3.31 l
o
np
153.54 310.25 m
1.91 3.32 l
-3.83 0 l
1.92 -3.32 l
o
np
154.13 310.56 m
1.91 3.32 l
-3.82 0 l
1.91 -3.32 l
o
np
154.72 311.19 m
1.92 3.31 l
-3.83 0 l
1.91 -3.31 l
o
np
155.32 311.50 m
1.91 3.32 l
-3.83 0 l
1.92 -3.32 l
o
np
155.91 311.82 m
1.92 3.31 l
-3.83 0 l
1.91 -3.31 l
o
np
156.51 312.13 m
1.91 3.31 l
-3.83 0 l
1.92 -3.31 l
o
np
157.10 312.44 m
1.91 3.32 l
-3.82 0 l
1.91 -3.32 l
o
np
157.69 312.75 m
1.92 3.32 l
-3.83 0 l
1.91 -3.32 l
o
np
158.29 313.07 m
1.91 3.31 l
-3.83 0 l
1.92 -3.31 l
o
np
158.88 313.38 m
1.92 3.32 l
-3.83 0 l
1.91 -3.32 l
o
np
159.48 313.69 m
1.91 3.32 l
-3.83 0 l
1.92 -3.32 l
o
np
160.07 314.32 m
1.91 3.32 l
-3.83 0 l
1.92 -3.32 l
o
np
160.66 314.63 m
1.92 3.32 l
-3.83 0 l
1.91 -3.32 l
o
np
161.26 314.95 m
1.91 3.31 l
-3.83 0 l
1.92 -3.31 l
o
np
161.85 315.26 m
1.91 3.32 l
-3.82 0 l
1.91 -3.32 l
o
np
162.44 315.57 m
1.92 3.32 l
-3.83 0 l
1.91 -3.32 l
o
np
163.04 315.89 m
1.91 3.31 l
-3.83 0 l
1.92 -3.31 l
o
np
163.63 316.20 m
1.92 3.31 l
-3.83 0 l
1.91 -3.31 l
o
np
164.23 316.51 m
1.91 3.32 l
-3.83 0 l
1.92 -3.32 l
o
np
164.82 316.83 m
1.91 3.31 l
-3.82 0 l
1.91 -3.31 l
o
np
165.41 317.14 m
1.92 3.31 l
-3.83 0 l
1.91 -3.31 l
o
np
166.01 317.45 m
1.91 3.32 l
-3.83 0 l
1.92 -3.32 l
o
np
166.60 317.77 m
1.92 3.31 l
-3.83 0 l
1.91 -3.31 l
o
np
167.20 318.08 m
1.91 3.31 l
-3.83 0 l
1.92 -3.31 l
o
np
167.79 318.39 m
1.91 3.32 l
-3.82 0 l
1.91 -3.32 l
o
np
168.38 318.70 m
1.92 3.32 l
-3.83 0 l
1.91 -3.32 l
o
np
168.98 319.02 m
1.91 3.31 l
-3.83 0 l
1.92 -3.31 l
o
np
169.57 319.33 m
1.92 3.32 l
-3.83 0 l
1.91 -3.32 l
o
np
170.16 319.64 m
1.92 3.32 l
-3.83 0 l
1.91 -3.32 l
o
np
170.76 319.96 m
1.91 3.31 l
-3.83 0 l
1.92 -3.31 l
o
np
171.35 320.27 m
1.92 3.32 l
-3.83 0 l
1.91 -3.32 l
o
np
171.95 320.58 m
1.91 3.32 l
-3.83 0 l
1.92 -3.32 l
o
np
172.54 320.90 m
1.91 3.31 l
-3.82 0 l
1.91 -3.31 l
o
np
173.13 320.90 m
1.92 3.31 l
-3.83 0 l
1.91 -3.31 l
o
np
173.73 321.21 m
1.91 3.32 l
-3.83 0 l
1.92 -3.32 l
o
np
174.32 321.52 m
1.92 3.32 l
-3.83 0 l
1.91 -3.32 l
o
np
174.92 321.84 m
1.91 3.31 l
-3.83 0 l
1.92 -3.31 l
o
np
175.51 322.15 m
1.91 3.31 l
-3.82 0 l
1.91 -3.31 l
o
np
176.10 322.46 m
1.92 3.32 l
-3.83 0 l
1.91 -3.32 l
o
np
176.70 322.78 m
1.91 3.31 l
-3.83 0 l
1.92 -3.31 l
o
np
177.29 323.09 m
1.92 3.31 l
-3.83 0 l
1.91 -3.31 l
o
np
177.89 323.40 m
1.91 3.32 l
-3.83 0 l
1.92 -3.32 l
o
np
178.48 323.71 m
1.91 3.32 l
-3.82 0 l
1.91 -3.32 l
o
np
179.07 323.71 m
1.92 3.32 l
-3.83 0 l
1.91 -3.32 l
o
np
179.67 324.03 m
1.91 3.31 l
-3.83 0 l
1.92 -3.31 l
o
np
180.26 324.34 m
1.92 3.32 l
-3.83 0 l
1.91 -3.32 l
o
np
180.85 324.65 m
1.92 3.32 l
-3.83 0 l
1.91 -3.32 l
o
np
181.45 324.97 m
1.91 3.31 l
-3.83 0 l
1.92 -3.31 l
o
np
182.04 325.28 m
1.92 3.32 l
-3.83 0 l
1.91 -3.32 l
o
np
182.64 325.28 m
1.91 3.32 l
-3.83 0 l
1.92 -3.32 l
o
np
183.23 325.59 m
1.91 3.32 l
-3.82 0 l
1.91 -3.32 l
o
np
183.82 325.91 m
1.92 3.31 l
-3.83 0 l
1.91 -3.31 l
o
np
184.42 326.22 m
1.91 3.32 l
-3.83 0 l
1.92 -3.32 l
o
np
185.01 326.53 m
1.92 3.32 l
-3.83 0 l
1.91 -3.32 l
o
np
185.61 326.85 m
1.91 3.31 l
-3.83 0 l
1.92 -3.31 l
o
np
186.20 326.85 m
1.91 3.31 l
-3.82 0 l
1.91 -3.31 l
o
np
186.79 327.16 m
1.92 3.31 l
-3.83 0 l
1.91 -3.31 l
o
np
187.39 327.47 m
1.91 3.32 l
-3.83 0 l
1.92 -3.32 l
o
np
187.98 327.79 m
1.92 3.31 l
-3.83 0 l
1.91 -3.31 l
o
np
188.58 328.10 m
1.91 3.31 l
-3.83 0 l
1.92 -3.31 l
o
np
189.17 328.10 m
1.91 3.31 l
-3.83 0 l
1.92 -3.31 l
o
np
189.76 328.41 m
1.92 3.32 l
-3.83 0 l
1.91 -3.32 l
o
np
190.36 328.72 m
1.91 3.32 l
-3.83 0 l
1.92 -3.32 l
o
np
190.95 329.04 m
1.91 3.31 l
-3.82 0 l
1.91 -3.31 l
o
np
191.54 329.35 m
1.92 3.32 l
-3.83 0 l
1.91 -3.32 l
o
np
192.14 329.35 m
1.91 3.32 l
-3.83 0 l
1.92 -3.32 l
o
np
192.73 329.66 m
1.92 3.32 l
-3.83 0 l
1.91 -3.32 l
o
np
193.33 329.98 m
1.91 3.31 l
-3.83 0 l
1.92 -3.31 l
o
np
193.92 330.29 m
1.91 3.32 l
-3.82 0 l
1.91 -3.32 l
o
np
194.51 330.29 m
1.92 3.32 l
-3.83 0 l
1.91 -3.32 l
o
np
195.11 330.60 m
1.91 3.32 l
-3.83 0 l
1.92 -3.32 l
o
np
195.70 330.92 m
1.92 3.31 l
-3.83 0 l
1.91 -3.31 l
o
np
196.30 331.23 m
1.91 3.32 l
-3.83 0 l
1.92 -3.32 l
o
np
196.89 331.23 m
1.91 3.32 l
-3.82 0 l
1.91 -3.32 l
o
np
197.48 331.54 m
1.92 3.32 l
-3.83 0 l
1.91 -3.32 l
o
np
198.08 331.86 m
1.91 3.31 l
-3.83 0 l
1.92 -3.31 l
o
np
198.67 331.86 m
1.92 3.31 l
-3.83 0 l
1.91 -3.31 l
o
np
199.27 332.17 m
1.91 3.31 l
-3.83 0 l
1.92 -3.31 l
o
np
199.86 332.48 m
1.91 3.32 l
-3.83 0 l
1.92 -3.32 l
o
np
200.45 332.80 m
1.92 3.31 l
-3.83 0 l
1.91 -3.31 l
o
np
201.05 332.80 m
1.91 3.31 l
-3.83 0 l
1.92 -3.31 l
o
np
201.64 333.11 m
1.91 3.31 l
-3.82 0 l
1.91 -3.31 l
o
np
202.23 333.42 m
1.92 3.32 l
-3.83 0 l
1.91 -3.32 l
o
np
202.83 333.42 m
1.91 3.32 l
-3.83 0 l
1.92 -3.32 l
o
np
203.42 333.74 m
1.92 3.31 l
-3.83 0 l
1.91 -3.31 l
o
np
204.02 334.05 m
1.91 3.31 l
-3.83 0 l
1.92 -3.31 l
o
np
204.61 334.36 m
1.91 3.32 l
-3.82 0 l
1.91 -3.32 l
o
np
205.20 334.36 m
1.92 3.32 l
-3.83 0 l
1.91 -3.32 l
o
np
205.80 334.67 m
1.91 3.32 l
-3.83 0 l
1.92 -3.32 l
o
np
206.39 334.99 m
1.92 3.31 l
-3.83 0 l
1.91 -3.31 l
o
np
206.99 334.99 m
1.91 3.31 l
-3.83 0 l
1.92 -3.31 l
o
np
207.58 335.30 m
1.91 3.32 l
-3.82 0 l
1.91 -3.32 l
o
np
208.17 335.61 m
1.92 3.32 l
-3.83 0 l
1.91 -3.32 l
o
np
208.77 335.61 m
1.91 3.32 l
-3.83 0 l
1.92 -3.32 l
o
np
209.36 335.93 m
1.92 3.31 l
-3.83 0 l
1.91 -3.31 l
o
np
209.95 336.24 m
1.92 3.32 l
-3.83 0 l
1.91 -3.32 l
o
np
210.55 336.24 m
1.91 3.32 l
-3.83 0 l
1.92 -3.32 l
o
np
211.14 336.55 m
1.92 3.32 l
-3.83 0 l
1.91 -3.32 l
o
np
211.74 336.87 m
1.91 3.31 l
-3.83 0 l
1.92 -3.31 l
o
np
212.33 336.87 m
1.91 3.31 l
-3.82 0 l
1.91 -3.31 l
o
np
212.92 337.18 m
1.92 3.32 l
-3.83 0 l
1.91 -3.32 l
o
np
213.52 337.49 m
1.91 3.32 l
-3.83 0 l
1.92 -3.32 l
o
np
214.11 337.49 m
1.92 3.32 l
-3.83 0 l
1.91 -3.32 l
o
np
214.71 337.81 m
1.91 3.31 l
-3.83 0 l
1.92 -3.31 l
o
np
215.30 337.81 m
1.91 3.31 l
-3.82 0 l
1.91 -3.31 l
o
np
215.89 338.12 m
1.92 3.31 l
-3.83 0 l
1.91 -3.31 l
o
np
216.49 338.43 m
1.91 3.32 l
-3.83 0 l
1.92 -3.32 l
o
np
217.08 338.43 m
1.92 3.32 l
-3.83 0 l
1.91 -3.32 l
o
np
217.68 338.75 m
1.91 3.31 l
-3.83 0 l
1.92 -3.31 l
o
np
218.27 339.06 m
1.91 3.31 l
-3.82 0 l
1.91 -3.31 l
o
np
218.86 339.06 m
1.92 3.31 l
-3.83 0 l
1.91 -3.31 l
o
np
219.46 339.37 m
1.91 3.32 l
-3.83 0 l
1.92 -3.32 l
o
np
220.05 339.37 m
1.92 3.32 l
-3.83 0 l
1.91 -3.32 l
o
np
220.64 339.68 m
1.92 3.32 l
-3.83 0 l
1.91 -3.32 l
o
np
221.24 340.00 m
1.91 3.31 l
-3.83 0 l
1.92 -3.31 l
o
np
221.83 340.00 m
1.92 3.31 l
-3.83 0 l
1.91 -3.31 l
o
np
222.43 340.31 m
1.91 3.32 l
-3.83 0 l
1.92 -3.32 l
o
np
223.02 340.31 m
1.91 3.32 l
-3.82 0 l
1.91 -3.32 l
o
np
223.61 340.62 m
1.92 3.32 l
-3.83 0 l
1.91 -3.32 l
o
np
224.21 340.94 m
1.91 3.31 l
-3.83 0 l
1.92 -3.31 l
o
np
224.80 340.94 m
1.92 3.31 l
-3.83 0 l
1.91 -3.31 l
o
np
225.40 341.25 m
1.91 3.32 l
-3.83 0 l
1.92 -3.32 l
o
np
225.99 341.25 m
1.91 3.32 l
-3.82 0 l
1.91 -3.32 l
o
np
226.58 341.56 m
1.92 3.32 l
-3.83 0 l
1.91 -3.32 l
o
np
227.18 341.88 m
1.91 3.31 l
-3.83 0 l
1.92 -3.31 l
o
np
227.77 341.88 m
1.92 3.31 l
-3.83 0 l
1.91 -3.31 l
o
np
228.37 342.19 m
1.91 3.32 l
-3.83 0 l
1.92 -3.32 l
o
np
228.96 342.19 m
1.91 3.32 l
-3.83 0 l
1.92 -3.32 l
o
np
229.55 342.50 m
1.92 3.32 l
-3.83 0 l
1.91 -3.32 l
o
np
230.15 342.82 m
1.91 3.31 l
-3.83 0 l
1.92 -3.31 l
o
np
230.74 342.82 m
1.91 3.31 l
-3.82 0 l
1.91 -3.31 l
o
np
231.33 343.13 m
1.92 3.31 l
-3.83 0 l
1.91 -3.31 l
o
np
231.93 343.13 m
1.91 3.31 l
-3.83 0 l
1.92 -3.31 l
o
np
232.52 343.44 m
1.92 3.32 l
-3.83 0 l
1.91 -3.32 l
o
np
233.12 343.44 m
1.91 3.32 l
-3.83 0 l
1.92 -3.32 l
o
np
233.71 343.76 m
1.91 3.31 l
-3.82 0 l
1.91 -3.31 l
o
np
234.30 343.76 m
1.92 3.31 l
-3.83 0 l
1.91 -3.31 l
o
np
234.90 344.07 m
1.91 3.31 l
-3.83 0 l
1.92 -3.31 l
o
np
235.49 344.38 m
1.92 3.32 l
-3.83 0 l
1.91 -3.32 l
o
np
236.09 344.38 m
1.91 3.32 l
-3.83 0 l
1.92 -3.32 l
o
np
236.68 344.69 m
1.91 3.32 l
-3.82 0 l
1.91 -3.32 l
o
np
237.27 344.69 m
1.92 3.32 l
-3.83 0 l
1.91 -3.32 l
o
np
237.87 345.01 m
1.91 3.31 l
-3.83 0 l
1.92 -3.31 l
o
np
238.46 345.01 m
1.92 3.31 l
-3.83 0 l
1.91 -3.31 l
o
np
239.06 345.32 m
1.91 3.32 l
-3.83 0 l
1.92 -3.32 l
o
np
239.65 345.32 m
1.91 3.32 l
-3.83 0 l
1.92 -3.32 l
o
np
240.24 345.63 m
1.92 3.32 l
-3.83 0 l
1.91 -3.32 l
o
np
240.84 345.63 m
1.91 3.32 l
-3.83 0 l
1.92 -3.32 l
o
np
241.43 345.95 m
1.91 3.31 l
-3.82 0 l
1.91 -3.31 l
o
np
242.02 346.26 m
1.92 3.32 l
-3.83 0 l
1.91 -3.32 l
o
np
242.62 346.26 m
1.91 3.32 l
-3.83 0 l
1.92 -3.32 l
o
np
243.21 346.57 m
1.92 3.32 l
-3.83 0 l
1.91 -3.32 l
o
np
243.81 346.57 m
1.91 3.32 l
-3.83 0 l
1.92 -3.32 l
o
np
244.40 346.89 m
1.91 3.31 l
-3.82 0 l
1.91 -3.31 l
o
np
244.99 346.89 m
1.92 3.31 l
-3.83 0 l
1.91 -3.31 l
o
np
245.59 347.20 m
1.91 3.32 l
-3.83 0 l
1.92 -3.32 l
o
np
246.18 347.20 m
1.92 3.32 l
-3.83 0 l
1.91 -3.32 l
o
np
246.78 347.51 m
1.91 3.32 l
-3.83 0 l
1.92 -3.32 l
o
np
247.37 347.51 m
1.91 3.32 l
-3.82 0 l
1.91 -3.32 l
o
np
247.96 347.83 m
1.92 3.31 l
-3.83 0 l
1.91 -3.31 l
o
np
248.56 347.83 m
1.91 3.31 l
-3.83 0 l
1.92 -3.31 l
o
np
249.15 348.14 m
1.92 3.31 l
-3.83 0 l
1.91 -3.31 l
o
np
249.75 348.14 m
1.91 3.31 l
-3.83 0 l
1.92 -3.31 l
o
np
250.34 348.45 m
1.91 3.32 l
-3.83 0 l
1.92 -3.32 l
o
np
250.93 348.45 m
1.92 3.32 l
-3.83 0 l
1.91 -3.32 l
o
np
251.53 348.77 m
1.91 3.31 l
-3.83 0 l
1.92 -3.31 l
o
np
252.12 348.77 m
1.91 3.31 l
-3.82 0 l
1.91 -3.31 l
o
np
252.71 349.08 m
1.92 3.31 l
-3.83 0 l
1.91 -3.31 l
o
np
253.31 349.08 m
1.91 3.31 l
-3.83 0 l
1.92 -3.31 l
o
np
253.90 349.39 m
1.92 3.32 l
-3.83 0 l
1.91 -3.32 l
o
np
254.50 349.39 m
1.91 3.32 l
-3.83 0 l
1.92 -3.32 l
o
np
255.09 349.71 m
1.91 3.31 l
-3.82 0 l
1.91 -3.31 l
o
np
255.68 349.71 m
1.92 3.31 l
-3.83 0 l
1.91 -3.31 l
o
np
256.28 350.02 m
1.91 3.31 l
-3.83 0 l
1.92 -3.31 l
o
np
256.87 350.02 m
1.92 3.31 l
-3.83 0 l
1.91 -3.31 l
o
np
257.47 350.33 m
1.91 3.32 l
-3.83 0 l
1.92 -3.32 l
o
np
258.06 350.33 m
1.91 3.32 l
-3.82 0 l
1.91 -3.32 l
o
np
258.65 350.64 m
1.92 3.32 l
-3.83 0 l
1.91 -3.32 l
o
np
259.25 350.64 m
1.91 3.32 l
-3.83 0 l
1.92 -3.32 l
o
np
259.84 350.96 m
1.92 3.31 l
-3.83 0 l
1.91 -3.31 l
o
np
260.43 350.96 m
1.92 3.31 l
-3.83 0 l
1.91 -3.31 l
o
np
261.03 351.27 m
1.91 3.32 l
-3.83 0 l
1.92 -3.32 l
o
np
261.62 351.27 m
1.92 3.32 l
-3.83 0 l
1.91 -3.32 l
o
np
262.22 351.58 m
1.91 3.32 l
-3.83 0 l
1.92 -3.32 l
o
np
262.81 351.58 m
1.91 3.32 l
-3.82 0 l
1.91 -3.32 l
o
np
263.40 351.58 m
1.92 3.32 l
-3.83 0 l
1.91 -3.32 l
o
np
264.00 351.90 m
1.91 3.31 l
-3.83 0 l
1.92 -3.31 l
o
np
264.59 351.90 m
1.92 3.31 l
-3.83 0 l
1.91 -3.31 l
o
np
265.19 352.21 m
1.91 3.32 l
-3.83 0 l
1.92 -3.32 l
o
np
265.78 352.21 m
1.91 3.32 l
-3.82 0 l
1.91 -3.32 l
o
np
266.37 352.52 m
1.92 3.32 l
-3.83 0 l
1.91 -3.32 l
o
np
266.97 352.52 m
1.91 3.32 l
-3.83 0 l
1.92 -3.32 l
o
np
267.56 352.84 m
1.92 3.31 l
-3.83 0 l
1.91 -3.31 l
o
np
268.16 352.84 m
1.91 3.31 l
-3.83 0 l
1.92 -3.31 l
o
np
268.75 353.15 m
1.91 3.32 l
-3.82 0 l
1.91 -3.32 l
o
np
269.34 353.15 m
1.92 3.32 l
-3.83 0 l
1.91 -3.32 l
o
np
269.94 353.46 m
1.91 3.32 l
-3.83 0 l
1.92 -3.32 l
o
np
270.53 353.46 m
1.92 3.32 l
-3.83 0 l
1.91 -3.32 l
o
np
271.12 353.46 m
1.92 3.32 l
-3.83 0 l
1.91 -3.32 l
o
np
271.72 353.78 m
1.91 3.31 l
-3.83 0 l
1.92 -3.31 l
o
np
272.31 353.78 m
1.92 3.31 l
-3.83 0 l
1.91 -3.31 l
o
np
272.91 354.09 m
1.91 3.31 l
-3.83 0 l
1.92 -3.31 l
o
np
273.50 354.09 m
1.91 3.31 l
-3.82 0 l
1.91 -3.31 l
o
np
274.09 354.40 m
1.92 3.32 l
-3.83 0 l
1.91 -3.32 l
o
np
274.69 354.40 m
1.91 3.32 l
-3.83 0 l
1.92 -3.32 l
o
np
275.28 354.72 m
1.92 3.31 l
-3.83 0 l
1.91 -3.31 l
o
np
275.88 354.72 m
1.91 3.31 l
-3.83 0 l
1.92 -3.31 l
o
np
276.47 354.72 m
1.91 3.31 l
-3.82 0 l
1.91 -3.31 l
o
np
277.06 355.03 m
1.92 3.31 l
-3.83 0 l
1.91 -3.31 l
o
np
277.66 355.03 m
1.91 3.31 l
-3.83 0 l
1.92 -3.31 l
o
np
278.25 355.34 m
1.92 3.32 l
-3.83 0 l
1.91 -3.32 l
o
np
278.85 355.34 m
1.91 3.32 l
-3.83 0 l
1.92 -3.32 l
o
np
279.44 355.65 m
1.91 3.32 l
-3.83 0 l
1.92 -3.32 l
o
np
280.03 355.65 m
1.92 3.32 l
-3.83 0 l
1.91 -3.32 l
o
np
280.63 355.65 m
1.91 3.32 l
-3.83 0 l
1.92 -3.32 l
o
np
281.22 355.97 m
1.91 3.31 l
-3.82 0 l
1.91 -3.31 l
o
np
281.81 355.97 m
1.92 3.31 l
-3.83 0 l
1.91 -3.31 l
o
np
282.41 356.28 m
1.91 3.32 l
-3.83 0 l
1.92 -3.32 l
o
np
283.00 356.28 m
1.92 3.32 l
-3.83 0 l
1.91 -3.32 l
o
np
283.60 356.59 m
1.91 3.32 l
-3.83 0 l
1.92 -3.32 l
o
np
284.19 356.59 m
1.91 3.32 l
-3.82 0 l
1.91 -3.32 l
o
np
284.78 356.59 m
1.92 3.32 l
-3.83 0 l
1.91 -3.32 l
o
np
285.38 356.91 m
1.91 3.31 l
-3.83 0 l
1.92 -3.31 l
o
np
285.97 356.91 m
1.92 3.31 l
-3.83 0 l
1.91 -3.31 l
o
np
286.57 357.22 m
1.91 3.32 l
-3.83 0 l
1.92 -3.32 l
o
np
287.16 357.22 m
1.91 3.32 l
-3.82 0 l
1.91 -3.32 l
o
np
287.75 357.53 m
1.92 3.32 l
-3.83 0 l
1.91 -3.32 l
o
np
288.35 357.53 m
1.91 3.32 l
-3.83 0 l
1.92 -3.32 l
o
np
288.94 357.53 m
1.92 3.32 l
-3.83 0 l
1.91 -3.32 l
o
np
289.54 357.85 m
1.91 3.31 l
-3.83 0 l
1.92 -3.31 l
o
np
290.13 357.85 m
1.91 3.31 l
-3.83 0 l
1.92 -3.31 l
o
np
290.72 358.16 m
1.92 3.32 l
-3.83 0 l
1.91 -3.32 l
o
np
291.32 358.16 m
1.91 3.32 l
-3.83 0 l
1.92 -3.32 l
o
np
291.91 358.16 m
1.91 3.32 l
-3.82 0 l
1.91 -3.32 l
o
np
292.50 358.47 m
1.92 3.32 l
-3.83 0 l
1.91 -3.32 l
o
np
293.10 358.47 m
1.91 3.32 l
-3.83 0 l
1.92 -3.32 l
o
np
293.69 358.79 m
1.92 3.31 l
-3.83 0 l
1.91 -3.31 l
o
np
294.29 358.79 m
1.91 3.31 l
-3.83 0 l
1.92 -3.31 l
o
np
294.88 358.79 m
1.91 3.31 l
-3.82 0 l
1.91 -3.31 l
o
np
295.47 359.10 m
1.92 3.31 l
-3.83 0 l
1.91 -3.31 l
o
np
296.07 359.10 m
1.91 3.31 l
-3.83 0 l
1.92 -3.31 l
o
np
296.66 359.41 m
1.92 3.32 l
-3.83 0 l
1.91 -3.32 l
o
np
297.26 359.41 m
1.91 3.32 l
-3.83 0 l
1.92 -3.32 l
o
np
297.85 359.41 m
1.91 3.32 l
-3.82 0 l
1.91 -3.32 l
o
np
298.44 359.73 m
1.92 3.31 l
-3.83 0 l
1.91 -3.31 l
o
np
299.04 359.73 m
1.91 3.31 l
-3.83 0 l
1.92 -3.31 l
o
np
299.63 360.04 m
1.92 3.31 l
-3.83 0 l
1.91 -3.31 l
o
np
300.22 360.04 m
1.92 3.31 l
-3.83 0 l
1.91 -3.31 l
o
np
300.82 360.04 m
1.91 3.31 l
-3.83 0 l
1.92 -3.31 l
o
np
301.41 360.35 m
1.92 3.32 l
-3.83 0 l
1.91 -3.32 l
o
np
302.01 360.35 m
1.91 3.32 l
-3.83 0 l
1.92 -3.32 l
o
np
302.60 360.35 m
1.91 3.32 l
-3.82 0 l
1.91 -3.32 l
o
np
303.19 360.67 m
1.92 3.31 l
-3.83 0 l
1.91 -3.31 l
o
np
303.79 360.67 m
1.91 3.31 l
-3.83 0 l
1.92 -3.31 l
o
np
304.38 360.98 m
1.92 3.31 l
-3.83 0 l
1.91 -3.31 l
o
np
304.98 360.98 m
1.91 3.31 l
-3.83 0 l
1.92 -3.31 l
o
np
305.57 360.98 m
1.91 3.31 l
-3.82 0 l
1.91 -3.31 l
o
np
306.16 361.29 m
1.92 3.32 l
-3.83 0 l
1.91 -3.32 l
o
np
306.76 361.29 m
1.91 3.32 l
-3.83 0 l
1.92 -3.32 l
o
np
307.35 361.60 m
1.92 3.32 l
-3.83 0 l
1.91 -3.32 l
o
np
307.95 361.60 m
1.91 3.32 l
-3.83 0 l
1.92 -3.32 l
o
np
308.54 361.60 m
1.91 3.32 l
-3.82 0 l
1.91 -3.32 l
o
np
309.13 361.92 m
1.92 3.31 l
-3.83 0 l
1.91 -3.31 l
o
np
309.73 361.92 m
1.91 3.31 l
-3.83 0 l
1.92 -3.31 l
o
np
310.32 361.92 m
1.92 3.31 l
-3.83 0 l
1.91 -3.31 l
o
np
310.91 362.23 m
1.92 3.32 l
-3.83 0 l
1.91 -3.32 l
o
np
311.51 362.23 m
1.91 3.32 l
-3.83 0 l
1.92 -3.32 l
o
np
312.10 362.54 m
1.92 3.32 l
-3.83 0 l
1.91 -3.32 l
o
np
312.70 362.54 m
1.91 3.32 l
-3.83 0 l
1.92 -3.32 l
o
np
313.29 362.54 m
1.91 3.32 l
-3.82 0 l
1.91 -3.32 l
o
np
313.88 362.86 m
1.92 3.31 l
-3.83 0 l
1.91 -3.31 l
o
np
314.48 362.86 m
1.91 3.31 l
-3.83 0 l
1.92 -3.31 l
o
np
315.07 362.86 m
1.92 3.31 l
-3.83 0 l
1.91 -3.31 l
o
np
315.67 363.17 m
1.91 3.32 l
-3.83 0 l
1.92 -3.32 l
o
np
316.26 363.17 m
1.91 3.32 l
-3.82 0 l
1.91 -3.32 l
o
np
316.85 363.17 m
1.92 3.32 l
-3.83 0 l
1.91 -3.32 l
o
np
317.45 363.48 m
1.91 3.32 l
-3.83 0 l
1.92 -3.32 l
o
np
318.04 363.48 m
1.92 3.32 l
-3.83 0 l
1.91 -3.32 l
o
np
318.64 363.80 m
1.91 3.31 l
-3.83 0 l
1.92 -3.31 l
o
np
319.23 363.80 m
1.91 3.31 l
-3.83 0 l
1.92 -3.31 l
o
np
319.82 363.80 m
1.92 3.31 l
-3.83 0 l
1.91 -3.31 l
o
np
320.42 364.11 m
1.91 3.32 l
-3.83 0 l
1.92 -3.32 l
o
np
321.01 364.11 m
1.91 3.32 l
-3.82 0 l
1.91 -3.32 l
o
np
321.60 364.11 m
1.92 3.32 l
-3.83 0 l
1.91 -3.32 l
o
np
322.20 364.42 m
1.91 3.32 l
-3.83 0 l
1.92 -3.32 l
o
np
322.79 364.42 m
1.92 3.32 l
-3.83 0 l
1.91 -3.32 l
o
np
323.39 364.42 m
1.91 3.32 l
-3.83 0 l
1.92 -3.32 l
o
np
323.98 364.74 m
1.91 3.31 l
-3.82 0 l
1.91 -3.31 l
o
np
324.57 364.74 m
1.92 3.31 l
-3.83 0 l
1.91 -3.31 l
o
np
325.17 364.74 m
1.91 3.31 l
-3.83 0 l
1.92 -3.31 l
o
np
325.76 365.05 m
1.92 3.31 l
-3.83 0 l
1.91 -3.31 l
o
np
326.36 365.05 m
1.91 3.31 l
-3.83 0 l
1.92 -3.31 l
o
np
326.95 365.36 m
1.91 3.32 l
-3.82 0 l
1.91 -3.32 l
o
np
327.54 365.36 m
1.92 3.32 l
-3.83 0 l
1.91 -3.32 l
o
np
328.14 365.36 m
1.91 3.32 l
-3.83 0 l
1.92 -3.32 l
o
np
328.73 365.68 m
1.92 3.31 l
-3.83 0 l
1.91 -3.31 l
o
np
329.33 365.68 m
1.91 3.31 l
-3.83 0 l
1.92 -3.31 l
o
np
329.92 365.68 m
1.91 3.31 l
-3.83 0 l
1.92 -3.31 l
o
np
330.51 365.99 m
1.92 3.31 l
-3.83 0 l
1.91 -3.31 l
o
np
331.11 365.99 m
1.91 3.31 l
-3.83 0 l
1.92 -3.31 l
o
np
331.70 365.99 m
1.91 3.31 l
-3.82 0 l
1.91 -3.31 l
o
np
332.29 366.30 m
1.92 3.32 l
-3.83 0 l
1.91 -3.32 l
o
np
332.89 366.30 m
1.91 3.32 l
-3.83 0 l
1.92 -3.32 l
o
np
333.48 366.30 m
1.92 3.32 l
-3.83 0 l
1.91 -3.32 l
o
np
334.08 366.61 m
1.91 3.32 l
-3.83 0 l
1.92 -3.32 l
o
np
334.67 366.61 m
1.91 3.32 l
-3.82 0 l
1.91 -3.32 l
o
np
335.26 366.61 m
1.92 3.32 l
-3.83 0 l
1.91 -3.32 l
o
np
335.86 366.93 m
1.91 3.31 l
-3.83 0 l
1.92 -3.31 l
o
np
336.45 366.93 m
1.92 3.31 l
-3.83 0 l
1.91 -3.31 l
o
np
337.05 366.93 m
1.91 3.31 l
-3.83 0 l
1.92 -3.31 l
o
np
337.64 367.24 m
1.91 3.32 l
-3.82 0 l
1.91 -3.32 l
o
np
338.23 367.24 m
1.92 3.32 l
-3.83 0 l
1.91 -3.32 l
o
np
338.83 367.24 m
1.91 3.32 l
-3.83 0 l
1.92 -3.32 l
o
np
339.42 367.55 m
1.92 3.32 l
-3.83 0 l
1.91 -3.32 l
o
np
340.02 367.55 m
1.91 3.32 l
-3.83 0 l
1.92 -3.32 l
o
np
340.61 367.55 m
1.91 3.32 l
-3.83 0 l
1.92 -3.32 l
o
np
341.20 367.87 m
1.92 3.31 l
-3.83 0 l
1.91 -3.31 l
o
np
341.80 367.87 m
1.91 3.31 l
-3.83 0 l
1.92 -3.31 l
o
np
342.39 367.87 m
1.91 3.31 l
-3.82 0 l
1.91 -3.31 l
o
np
342.98 368.18 m
1.92 3.32 l
-3.83 0 l
1.91 -3.32 l
o
np
343.58 368.18 m
1.91 3.32 l
-3.83 0 l
1.92 -3.32 l
o
np
344.17 368.18 m
1.92 3.32 l
-3.83 0 l
1.91 -3.32 l
o
np
344.77 368.49 m
1.91 3.32 l
-3.83 0 l
1.92 -3.32 l
o
np
345.36 368.49 m
1.91 3.32 l
-3.82 0 l
1.91 -3.32 l
o
np
345.95 368.49 m
1.92 3.32 l
-3.83 0 l
1.91 -3.32 l
o
np
346.55 368.81 m
1.91 3.31 l
-3.83 0 l
1.92 -3.31 l
o
np
347.14 368.81 m
1.92 3.31 l
-3.83 0 l
1.91 -3.31 l
o
np
347.74 368.81 m
1.91 3.31 l
-3.83 0 l
1.92 -3.31 l
o
np
348.33 369.12 m
1.91 3.32 l
-3.82 0 l
1.91 -3.32 l
o
np
348.92 369.12 m
1.92 3.32 l
-3.83 0 l
1.91 -3.32 l
o
np
349.52 369.12 m
1.91 3.32 l
-3.83 0 l
1.92 -3.32 l
o
np
350.11 369.12 m
1.92 3.32 l
-3.83 0 l
1.91 -3.32 l
o
np
350.70 369.43 m
1.92 3.32 l
-3.83 0 l
1.91 -3.32 l
o
np
351.30 369.43 m
1.91 3.32 l
-3.83 0 l
1.92 -3.32 l
o
np
351.89 369.43 m
1.92 3.32 l
-3.83 0 l
1.91 -3.32 l
o
np
352.49 369.75 m
1.91 3.31 l
-3.83 0 l
1.92 -3.31 l
o
np
353.08 369.75 m
1.91 3.31 l
-3.82 0 l
1.91 -3.31 l
o
np
353.67 369.75 m
1.92 3.31 l
-3.83 0 l
1.91 -3.31 l
o
np
354.27 370.06 m
1.91 3.31 l
-3.83 0 l
1.92 -3.31 l
o
np
354.86 370.06 m
1.92 3.31 l
-3.83 0 l
1.91 -3.31 l
o
np
355.46 370.06 m
1.91 3.31 l
-3.83 0 l
1.92 -3.31 l
o
np
356.05 370.37 m
1.91 3.32 l
-3.82 0 l
1.91 -3.32 l
o
np
356.64 370.37 m
1.92 3.32 l
-3.83 0 l
1.91 -3.32 l
o
np
357.24 370.37 m
1.91 3.32 l
-3.83 0 l
1.92 -3.32 l
o
np
357.83 370.69 m
1.92 3.31 l
-3.83 0 l
1.91 -3.31 l
o
np
358.43 370.69 m
1.91 3.31 l
-3.83 0 l
1.92 -3.31 l
o
np
359.02 370.69 m
1.91 3.31 l
-3.82 0 l
1.91 -3.31 l
o
np
359.61 370.69 m
1.92 3.31 l
-3.83 0 l
1.91 -3.31 l
o
np
360.21 371.00 m
1.91 3.31 l
-3.83 0 l
1.92 -3.31 l
o
np
360.80 371.00 m
1.92 3.31 l
-3.83 0 l
1.91 -3.31 l
o
np
361.39 371.00 m
1.92 3.31 l
-3.83 0 l
1.91 -3.31 l
o
np
361.99 371.31 m
1.91 3.32 l
-3.83 0 l
1.92 -3.32 l
o
np
362.58 371.31 m
1.92 3.32 l
-3.83 0 l
1.91 -3.32 l
o
np
363.18 371.31 m
1.91 3.32 l
-3.83 0 l
1.92 -3.32 l
o
np
363.77 371.62 m
1.91 3.32 l
-3.82 0 l
1.91 -3.32 l
o
np
364.36 371.62 m
1.92 3.32 l
-3.83 0 l
1.91 -3.32 l
o
np
364.96 371.62 m
1.91 3.32 l
-3.83 0 l
1.92 -3.32 l
o
np
365.55 371.94 m
1.92 3.31 l
-3.83 0 l
1.91 -3.31 l
o
np
366.15 371.94 m
1.91 3.31 l
-3.83 0 l
1.92 -3.31 l
o
np
366.74 371.94 m
1.91 3.31 l
-3.82 0 l
1.91 -3.31 l
o
np
367.33 371.94 m
1.92 3.31 l
-3.83 0 l
1.91 -3.31 l
o
np
367.93 372.25 m
1.91 3.32 l
-3.83 0 l
1.92 -3.32 l
o
np
368.52 372.25 m
1.92 3.32 l
-3.83 0 l
1.91 -3.32 l
o
np
369.12 372.25 m
1.91 3.32 l
-3.83 0 l
1.92 -3.32 l
o
np
369.71 372.56 m
1.91 3.32 l
-3.83 0 l
1.92 -3.32 l
o
np
370.30 372.56 m
1.92 3.32 l
-3.83 0 l
1.91 -3.32 l
o
np
370.90 372.56 m
1.91 3.32 l
-3.83 0 l
1.92 -3.32 l
o
np
371.49 372.88 m
1.91 3.31 l
-3.82 0 l
1.91 -3.31 l
o
np
372.08 372.88 m
1.92 3.31 l
-3.83 0 l
1.91 -3.31 l
o
np
372.68 372.88 m
1.91 3.31 l
-3.83 0 l
1.92 -3.31 l
o
np
373.27 372.88 m
1.92 3.31 l
-3.83 0 l
1.91 -3.31 l
o
np
373.87 373.19 m
1.91 3.32 l
-3.83 0 l
1.92 -3.32 l
o
np
374.46 373.19 m
1.91 3.32 l
-3.82 0 l
1.91 -3.32 l
o
np
375.05 373.19 m
1.92 3.32 l
-3.83 0 l
1.91 -3.32 l
o
np
375.65 373.50 m
1.91 3.32 l
-3.83 0 l
1.92 -3.32 l
o
np
376.24 373.50 m
1.92 3.32 l
-3.83 0 l
1.91 -3.32 l
o
np
376.54 373.50 m
1.91 3.32 l
-3.83 0 l
1.92 -3.32 l
o
0 0 1 srgb
np
80.49 91.72 m
1.91 -3.32 l
-3.83 0 l
1.92 3.32 l
o
np
81.08 121.15 m
1.92 -3.31 l
-3.83 0 l
1.91 3.31 l
o
np
81.68 142.13 m
1.91 -3.31 l
-3.83 0 l
1.92 3.31 l
o
np
82.27 155.91 m
1.91 -3.32 l
-3.82 0 l
1.91 3.32 l
o
np
82.86 166.87 m
1.92 -3.32 l
-3.83 0 l
1.91 3.32 l
o
np
83.46 175.32 m
1.91 -3.31 l
-3.83 0 l
1.92 3.31 l
o
np
84.05 182.84 m
1.92 -3.32 l
-3.83 0 l
1.91 3.32 l
o
np
84.65 189.10 m
1.91 -3.31 l
-3.83 0 l
1.92 3.31 l
o
np
85.24 194.43 m
1.91 -3.32 l
-3.82 0 l
1.91 3.32 l
o
np
85.83 199.44 m
1.92 -3.32 l
-3.83 0 l
1.91 3.32 l
o
np
86.43 203.82 m
1.91 -3.32 l
-3.83 0 l
1.92 3.32 l
o
np
87.02 207.89 m
1.92 -3.32 l
-3.83 0 l
1.91 3.32 l
o
np
87.62 211.65 m
1.91 -3.32 l
-3.83 0 l
1.92 3.32 l
o
np
88.21 215.09 m
1.91 -3.31 l
-3.82 0 l
1.91 3.31 l
o
np
88.80 218.22 m
1.92 -3.31 l
-3.83 0 l
1.91 3.31 l
o
np
89.40 221.04 m
1.91 -3.31 l
-3.83 0 l
1.92 3.31 l
o
np
89.99 223.86 m
1.92 -3.32 l
-3.83 0 l
1.91 3.32 l
o
np
90.58 226.68 m
1.92 -3.32 l
-3.83 0 l
1.91 3.32 l
o
np
91.18 229.18 m
1.91 -3.31 l
-3.83 0 l
1.92 3.31 l
o
np
91.77 231.38 m
1.92 -3.32 l
-3.83 0 l
1.91 3.32 l
o
np
92.37 233.57 m
1.91 -3.32 l
-3.83 0 l
1.92 3.32 l
o
np
92.96 235.76 m
1.91 -3.32 l
-3.82 0 l
1.91 3.32 l
o
np
93.55 237.95 m
1.92 -3.31 l
-3.83 0 l
1.91 3.31 l
o
np
94.15 239.83 m
1.91 -3.32 l
-3.83 0 l
1.92 3.32 l
o
np
94.74 241.71 m
1.92 -3.32 l
-3.83 0 l
1.91 3.32 l
o
np
95.34 243.59 m
1.91 -3.32 l
-3.83 0 l
1.92 3.32 l
o
np
95.93 245.15 m
1.91 -3.31 l
-3.82 0 l
1.91 3.31 l
o
np
96.52 247.03 m
1.92 -3.31 l
-3.83 0 l
1.91 3.31 l
o
np
97.12 248.60 m
1.91 -3.32 l
-3.83 0 l
1.92 3.32 l
o
np
97.71 250.16 m
1.92 -3.31 l
-3.83 0 l
1.91 3.31 l
o
np
98.31 251.42 m
1.91 -3.32 l
-3.83 0 l
1.92 3.32 l
o
np
98.90 252.98 m
1.91 -3.31 l
-3.83 0 l
1.92 3.31 l
o
np
99.49 254.55 m
1.92 -3.32 l
-3.83 0 l
1.91 3.32 l
o
np
100.09 255.80 m
1.91 -3.32 l
-3.83 0 l
1.92 3.32 l
o
np
100.68 257.05 m
1.91 -3.31 l
-3.82 0 l
1.91 3.31 l
o
np
101.27 258.31 m
1.92 -3.32 l
-3.83 0 l
1.91 3.32 l
o
np
101.87 259.56 m
1.91 -3.32 l
-3.83 0 l
1.92 3.32 l
o
np
102.46 260.81 m
1.92 -3.31 l
-3.83 0 l
1.91 3.31 l
o
np
103.06 262.06 m
1.91 -3.31 l
-3.83 0 l
1.92 3.31 l
o
np
103.65 263.32 m
1.91 -3.32 l
-3.82 0 l
1.91 3.32 l
o
np
104.24 264.26 m
1.92 -3.32 l
-3.83 0 l
1.91 3.32 l
o
np
104.84 265.51 m
1.91 -3.32 l
-3.83 0 l
1.92 3.32 l
o
np
105.43 266.45 m
1.92 -3.32 l
-3.83 0 l
1.91 3.32 l
o
np
106.03 267.39 m
1.91 -3.32 l
-3.83 0 l
1.92 3.32 l
o
np
106.62 268.64 m
1.91 -3.32 l
-3.82 0 l
1.91 3.32 l
o
np
107.21 269.58 m
1.92 -3.32 l
-3.83 0 l
1.91 3.32 l
o
np
107.81 270.52 m
1.91 -3.32 l
-3.83 0 l
1.92 3.32 l
o
np
108.40 271.46 m
1.92 -3.32 l
-3.83 0 l
1.91 3.32 l
o
np
109.00 272.40 m
1.91 -3.32 l
-3.83 0 l
1.92 3.32 l
o
np
109.59 273.34 m
1.91 -3.32 l
-3.83 0 l
1.92 3.32 l
o
np
110.18 274.28 m
1.92 -3.32 l
-3.83 0 l
1.91 3.32 l
o
np
110.78 275.21 m
1.91 -3.31 l
-3.83 0 l
1.92 3.31 l
o
np
111.37 276.15 m
1.91 -3.31 l
-3.82 0 l
1.91 3.31 l
o
np
111.96 276.78 m
1.92 -3.31 l
-3.83 0 l
1.91 3.31 l
o
np
112.56 277.72 m
1.91 -3.32 l
-3.83 0 l
1.92 3.32 l
o
np
113.15 278.66 m
1.92 -3.32 l
-3.83 0 l
1.91 3.32 l
o
np
113.75 279.29 m
1.91 -3.32 l
-3.83 0 l
1.92 3.32 l
o
np
114.34 280.23 m
1.91 -3.32 l
-3.82 0 l
1.91 3.32 l
o
np
114.93 280.85 m
1.92 -3.31 l
-3.83 0 l
1.91 3.31 l
o
np
115.53 281.79 m
1.91 -3.31 l
-3.83 0 l
1.92 3.31 l
o
np
116.12 282.42 m
1.92 -3.32 l
-3.83 0 l
1.91 3.32 l
o
np
116.72 283.04 m
1.91 -3.31 l
-3.83 0 l
1.92 3.31 l
o
np
117.31 283.98 m
1.91 -3.31 l
-3.82 0 l
1.91 3.31 l
o
np
117.90 284.61 m
1.92 -3.32 l
-3.83 0 l
1.91 3.32 l
o
np
118.50 285.24 m
1.91 -3.32 l
-3.83 0 l
1.92 3.32 l
o
np
119.09 285.86 m
1.92 -3.31 l
-3.83 0 l
1.91 3.31 l
o
np
119.68 286.80 m
1.92 -3.31 l
-3.83 0 l
1.91 3.31 l
o
np
120.28 287.43 m
1.91 -3.32 l
-3.83 0 l
1.92 3.32 l
o
np
120.87 288.05 m
1.92 -3.31 l
-3.83 0 l
1.91 3.31 l
o
np
121.47 288.68 m
1.91 -3.32 l
-3.83 0 l
1.92 3.32 l
o
np
122.06 289.31 m
1.91 -3.32 l
-3.82 0 l
1.91 3.32 l
o
np
122.65 289.93 m
1.92 -3.31 l
-3.83 0 l
1.91 3.31 l
o
np
123.25 290.56 m
1.91 -3.32 l
-3.83 0 l
1.92 3.32 l
o
np
123.84 291.18 m
1.92 -3.31 l
-3.83 0 l
1.91 3.31 l
o
np
124.44 291.81 m
1.91 -3.31 l
-3.83 0 l
1.92 3.31 l
o
np
125.03 292.44 m
1.91 -3.32 l
-3.82 0 l
1.91 3.32 l
o
np
125.62 293.06 m
1.92 -3.31 l
-3.83 0 l
1.91 3.31 l
o
np
126.22 293.69 m
1.91 -3.32 l
-3.83 0 l
1.92 3.32 l
o
np
126.81 294.32 m
1.92 -3.32 l
-3.83 0 l
1.91 3.32 l
o
np
127.41 294.63 m
1.91 -3.32 l
-3.83 0 l
1.92 3.32 l
o
np
128.00 295.26 m
1.91 -3.32 l
-3.82 0 l
1.91 3.32 l
o
np
128.59 295.88 m
1.92 -3.31 l
-3.83 0 l
1.91 3.31 l
o
np
129.19 296.51 m
1.91 -3.32 l
-3.83 0 l
1.92 3.32 l
o
np
129.78 296.82 m
1.92 -3.31 l
-3.83 0 l
1.91 3.31 l
o
np
130.37 297.45 m
1.92 -3.32 l
-3.83 0 l
1.91 3.32 l
o
np
130.97 298.07 m
1.91 -3.31 l
-3.83 0 l
1.92 3.31 l
o
np
131.56 298.70 m
1.92 -3.32 l
-3.83 0 l
1.91 3.32 l
o
np
132.16 299.01 m
1.91 -3.31 l
-3.83 0 l
1.92 3.31 l
o
np
132.75 299.64 m
1.91 -3.32 l
-3.82 0 l
1.91 3.32 l
o
np
133.34 299.95 m
1.92 -3.31 l
-3.83 0 l
1.91 3.31 l
o
np
133.94 300.58 m
1.91 -3.32 l
-3.83 0 l
1.92 3.32 l
o
np
134.53 301.21 m
1.92 -3.32 l
-3.83 0 l
1.91 3.32 l
o
np
135.13 301.52 m
1.91 -3.32 l
-3.83 0 l
1.92 3.32 l
o
np
135.72 302.14 m
1.91 -3.31 l
-3.82 0 l
1.91 3.31 l
o
np
136.31 302.46 m
1.92 -3.32 l
-3.83 0 l
1.91 3.32 l
o
np
136.91 303.08 m
1.91 -3.31 l
-3.83 0 l
1.92 3.31 l
o
np
137.50 303.40 m
1.92 -3.32 l
-3.83 0 l
1.91 3.32 l
o
np
138.10 304.02 m
1.91 -3.31 l
-3.83 0 l
1.92 3.31 l
o
np
138.69 304.34 m
1.91 -3.32 l
-3.83 0 l
1.92 3.32 l
o
np
139.28 304.96 m
1.92 -3.31 l
-3.83 0 l
1.91 3.31 l
o
np
139.88 305.28 m
1.91 -3.32 l
-3.83 0 l
1.92 3.32 l
o
np
140.47 305.90 m
1.91 -3.31 l
-3.82 0 l
1.91 3.31 l
o
np
141.06 306.22 m
1.92 -3.32 l
-3.83 0 l
1.91 3.32 l
o
np
141.66 306.53 m
1.91 -3.32 l
-3.83 0 l
1.92 3.32 l
o
np
142.25 307.16 m
1.92 -3.32 l
-3.83 0 l
1.91 3.32 l
o
np
142.85 307.47 m
1.91 -3.32 l
-3.83 0 l
1.92 3.32 l
o
np
143.44 308.09 m
1.91 -3.31 l
-3.82 0 l
1.91 3.31 l
o
np
144.03 308.41 m
1.92 -3.32 l
-3.83 0 l
1.91 3.32 l
o
np
144.63 308.72 m
1.91 -3.31 l
-3.83 0 l
1.92 3.31 l
o
np
145.22 309.03 m
1.92 -3.31 l
-3.83 0 l
1.91 3.31 l
o
np
145.82 309.66 m
1.91 -3.32 l
-3.83 0 l
1.92 3.32 l
o
np
146.41 309.97 m
1.91 -3.31 l
-3.82 0 l
1.91 3.31 l
o
np
147.00 310.29 m
1.92 -3.32 l
-3.83 0 l
1.91 3.32 l
o
np
147.60 310.91 m
1.91 -3.31 l
-3.83 0 l
1.92 3.31 l
o
np
148.19 311.23 m
1.92 -3.32 l
-3.83 0 l
1.91 3.32 l
o
np
148.79 311.54 m
1.91 -3.32 l
-3.83 0 l
1.92 3.32 l
o
np
149.38 311.85 m
1.91 -3.31 l
-3.83 0 l
1.92 3.31 l
o
np
149.97 312.48 m
1.92 -3.32 l
-3.83 0 l
1.91 3.32 l
o
np
150.57 312.79 m
1.91 -3.31 l
-3.83 0 l
1.92 3.31 l
o
np
151.16 313.10 m
1.91 -3.31 l
-3.82 0 l
1.91 3.31 l
o
np
151.75 313.42 m
1.92 -3.32 l
-3.83 0 l
1.91 3.32 l
o
np
152.35 313.73 m
1.91 -3.31 l
-3.83 0 l
1.92 3.31 l
o
np
152.94 314.36 m
1.92 -3.32 l
-3.83 0 l
1.91 3.32 l
o
np
153.54 314.67 m
1.91 -3.32 l
-3.83 0 l
1.92 3.32 l
o
np
154.13 314.98 m
1.91 -3.31 l
-3.82 0 l
1.91 3.31 l
o
np
154.72 315.30 m
1.92 -3.32 l
-3.83 0 l
1.91 3.32 l
o
np
155.32 315.61 m
1.91 -3.32 l
-3.83 0 l
1.92 3.32 l
o
np
155.91 315.92 m
1.92 -3.31 l
-3.83 0 l
1.91 3.31 l
o
np
156.51 316.55 m
1.91 -3.32 l
-3.83 0 l
1.92 3.32 l
o
np
157.10 316.86 m
1.91 -3.31 l
-3.82 0 l
1.91 3.31 l
o
np
157.69 317.18 m
1.92 -3.32 l
-3.83 0 l
1.91 3.32 l
o
np
158.29 317.49 m
1.91 -3.32 l
-3.83 0 l
1.92 3.32 l
o
np
158.88 317.80 m
1.92 -3.31 l
-3.83 0 l
1.91 3.31 l
o
np
159.48 318.11 m
1.91 -3.31 l
-3.83 0 l
1.92 3.31 l
o
np
160.07 318.43 m
1.91 -3.32 l
-3.83 0 l
1.92 3.32 l
o
np
160.66 318.74 m
1.92 -3.31 l
-3.83 0 l
1.91 3.31 l
o
np
161.26 319.05 m
1.91 -3.31 l
-3.83 0 l
1.92 3.31 l
o
np
161.85 319.37 m
1.91 -3.32 l
-3.82 0 l
1.91 3.32 l
o
np
162.44 319.68 m
1.92 -3.31 l
-3.83 0 l
1.91 3.31 l
o
np
163.04 319.99 m
1.91 -3.31 l
-3.83 0 l
1.92 3.31 l
o
np
163.63 320.31 m
1.92 -3.32 l
-3.83 0 l
1.91 3.32 l
o
np
164.23 320.62 m
1.91 -3.32 l
-3.83 0 l
1.92 3.32 l
o
np
164.82 320.93 m
1.91 -3.31 l
-3.82 0 l
1.91 3.31 l
o
np
165.41 321.25 m
1.92 -3.32 l
-3.83 0 l
1.91 3.32 l
o
np
166.01 321.56 m
1.91 -3.32 l
-3.83 0 l
1.92 3.32 l
o
np
166.60 321.87 m
1.92 -3.31 l
-3.83 0 l
1.91 3.31 l
o
np
167.20 322.19 m
1.91 -3.32 l
-3.83 0 l
1.92 3.32 l
o
np
167.79 322.50 m
1.91 -3.32 l
-3.82 0 l
1.91 3.32 l
o
np
168.38 322.81 m
1.92 -3.31 l
-3.83 0 l
1.91 3.31 l
o
np
168.98 323.13 m
1.91 -3.32 l
-3.83 0 l
1.92 3.32 l
o
np
169.57 323.44 m
1.92 -3.32 l
-3.83 0 l
1.91 3.32 l
o
np
170.16 323.75 m
1.92 -3.31 l
-3.83 0 l
1.91 3.31 l
o
np
170.76 324.06 m
1.91 -3.31 l
-3.83 0 l
1.92 3.31 l
o
np
171.35 324.38 m
1.92 -3.32 l
-3.83 0 l
1.91 3.32 l
o
np
171.95 324.69 m
1.91 -3.31 l
-3.83 0 l
1.92 3.31 l
o
np
172.54 325.00 m
1.91 -3.31 l
-3.82 0 l
1.91 3.31 l
o
np
173.13 325.32 m
1.92 -3.32 l
-3.83 0 l
1.91 3.32 l
o
np
173.73 325.63 m
1.91 -3.32 l
-3.83 0 l
1.92 3.32 l
o
np
174.32 325.94 m
1.92 -3.31 l
-3.83 0 l
1.91 3.31 l
o
np
174.92 326.26 m
1.91 -3.32 l
-3.83 0 l
1.92 3.32 l
o
np
175.51 326.26 m
1.91 -3.32 l
-3.82 0 l
1.91 3.32 l
o
np
176.10 326.57 m
1.92 -3.32 l
-3.83 0 l
1.91 3.32 l
o
np
176.70 326.88 m
1.91 -3.31 l
-3.83 0 l
1.92 3.31 l
o
np
177.29 327.20 m
1.92 -3.32 l
-3.83 0 l
1.91 3.32 l
o
np
177.89 327.51 m
1.91 -3.32 l
-3.83 0 l
1.92 3.32 l
o
np
178.48 327.82 m
1.91 -3.31 l
-3.82 0 l
1.91 3.31 l
o
np
179.07 328.14 m
1.92 -3.32 l
-3.83 0 l
1.91 3.32 l
o
np
179.67 328.45 m
1.91 -3.32 l
-3.83 0 l
1.92 3.32 l
o
np
180.26 328.45 m
1.92 -3.32 l
-3.83 0 l
1.91 3.32 l
o
np
180.85 328.76 m
1.92 -3.31 l
-3.83 0 l
1.91 3.31 l
o
np
181.45 329.07 m
1.91 -3.31 l
-3.83 0 l
1.92 3.31 l
o
np
182.04 329.39 m
1.92 -3.32 l
-3.83 0 l
1.91 3.32 l
o
np
182.64 329.70 m
1.91 -3.31 l
-3.83 0 l
1.92 3.31 l
o
np
183.23 330.01 m
1.91 -3.31 l
-3.82 0 l
1.91 3.31 l
o
np
183.82 330.01 m
1.92 -3.31 l
-3.83 0 l
1.91 3.31 l
o
np
184.42 330.33 m
1.91 -3.32 l
-3.83 0 l
1.92 3.32 l
o
np
185.01 330.64 m
1.92 -3.32 l
-3.83 0 l
1.91 3.32 l
o
np
185.61 330.95 m
1.91 -3.31 l
-3.83 0 l
1.92 3.31 l
o
np
186.20 331.27 m
1.91 -3.32 l
-3.82 0 l
1.91 3.32 l
o
np
186.79 331.58 m
1.92 -3.32 l
-3.83 0 l
1.91 3.32 l
o
np
187.39 331.58 m
1.91 -3.32 l
-3.83 0 l
1.92 3.32 l
o
np
187.98 331.89 m
1.92 -3.31 l
-3.83 0 l
1.91 3.31 l
o
np
188.58 332.21 m
1.91 -3.32 l
-3.83 0 l
1.92 3.32 l
o
np
189.17 332.52 m
1.91 -3.32 l
-3.83 0 l
1.92 3.32 l
o
np
189.76 332.52 m
1.92 -3.32 l
-3.83 0 l
1.91 3.32 l
o
np
190.36 332.83 m
1.91 -3.31 l
-3.83 0 l
1.92 3.31 l
o
np
190.95 333.15 m
1.91 -3.32 l
-3.82 0 l
1.91 3.32 l
o
np
191.54 333.46 m
1.92 -3.32 l
-3.83 0 l
1.91 3.32 l
o
np
192.14 333.46 m
1.91 -3.32 l
-3.83 0 l
1.92 3.32 l
o
np
192.73 333.77 m
1.92 -3.31 l
-3.83 0 l
1.91 3.31 l
o
np
193.33 334.08 m
1.91 -3.31 l
-3.83 0 l
1.92 3.31 l
o
np
193.92 334.40 m
1.91 -3.32 l
-3.82 0 l
1.91 3.32 l
o
np
194.51 334.40 m
1.92 -3.32 l
-3.83 0 l
1.91 3.32 l
o
np
195.11 334.71 m
1.91 -3.31 l
-3.83 0 l
1.92 3.31 l
o
np
195.70 335.02 m
1.92 -3.31 l
-3.83 0 l
1.91 3.31 l
o
np
196.30 335.34 m
1.91 -3.32 l
-3.83 0 l
1.92 3.32 l
o
np
196.89 335.34 m
1.91 -3.32 l
-3.82 0 l
1.91 3.32 l
o
np
197.48 335.65 m
1.92 -3.31 l
-3.83 0 l
1.91 3.31 l
o
np
198.08 335.96 m
1.91 -3.31 l
-3.83 0 l
1.92 3.31 l
o
np
198.67 336.28 m
1.92 -3.32 l
-3.83 0 l
1.91 3.32 l
o
np
199.27 336.28 m
1.91 -3.32 l
-3.83 0 l
1.92 3.32 l
o
np
199.86 336.59 m
1.91 -3.32 l
-3.83 0 l
1.92 3.32 l
o
np
200.45 336.90 m
1.92 -3.31 l
-3.83 0 l
1.91 3.31 l
o
np
201.05 336.90 m
1.91 -3.31 l
-3.83 0 l
1.92 3.31 l
o
np
201.64 337.22 m
1.91 -3.32 l
-3.82 0 l
1.91 3.32 l
o
np
202.23 337.53 m
1.92 -3.32 l
-3.83 0 l
1.91 3.32 l
o
np
202.83 337.53 m
1.91 -3.32 l
-3.83 0 l
1.92 3.32 l
o
np
203.42 337.84 m
1.92 -3.31 l
-3.83 0 l
1.91 3.31 l
o
np
204.02 338.16 m
1.91 -3.32 l
-3.83 0 l
1.92 3.32 l
o
np
204.61 338.47 m
1.91 -3.32 l
-3.82 0 l
1.91 3.32 l
o
np
205.20 338.47 m
1.92 -3.32 l
-3.83 0 l
1.91 3.32 l
o
np
205.80 338.78 m
1.91 -3.31 l
-3.83 0 l
1.92 3.31 l
o
np
206.39 339.10 m
1.92 -3.32 l
-3.83 0 l
1.91 3.32 l
o
np
206.99 339.10 m
1.91 -3.32 l
-3.83 0 l
1.92 3.32 l
o
np
207.58 339.41 m
1.91 -3.32 l
-3.82 0 l
1.91 3.32 l
o
np
208.17 339.72 m
1.92 -3.31 l
-3.83 0 l
1.91 3.31 l
o
np
208.77 339.72 m
1.91 -3.31 l
-3.83 0 l
1.92 3.31 l
o
np
209.36 340.03 m
1.92 -3.31 l
-3.83 0 l
1.91 3.31 l
o
np
209.95 340.35 m
1.92 -3.32 l
-3.83 0 l
1.91 3.32 l
o
np
210.55 340.35 m
1.91 -3.32 l
-3.83 0 l
1.92 3.32 l
o
np
211.14 340.66 m
1.92 -3.31 l
-3.83 0 l
1.91 3.31 l
o
np
211.74 340.66 m
1.91 -3.31 l
-3.83 0 l
1.92 3.31 l
o
np
212.33 340.97 m
1.91 -3.31 l
-3.82 0 l
1.91 3.31 l
o
np
212.92 341.29 m
1.92 -3.32 l
-3.83 0 l
1.91 3.32 l
o
np
213.52 341.29 m
1.91 -3.32 l
-3.83 0 l
1.92 3.32 l
o
np
214.11 341.60 m
1.92 -3.32 l
-3.83 0 l
1.91 3.32 l
o
np
214.71 341.91 m
1.91 -3.31 l
-3.83 0 l
1.92 3.31 l
o
np
215.30 341.91 m
1.91 -3.31 l
-3.82 0 l
1.91 3.31 l
o
np
215.89 342.23 m
1.92 -3.32 l
-3.83 0 l
1.91 3.32 l
o
np
216.49 342.23 m
1.91 -3.32 l
-3.83 0 l
1.92 3.32 l
o
np
217.08 342.54 m
1.92 -3.32 l
-3.83 0 l
1.91 3.32 l
o
np
217.68 342.85 m
1.91 -3.31 l
-3.83 0 l
1.92 3.31 l
o
np
218.27 342.85 m
1.91 -3.31 l
-3.82 0 l
1.91 3.31 l
o
np
218.86 343.17 m
1.92 -3.32 l
-3.83 0 l
1.91 3.32 l
o
np
219.46 343.48 m
1.91 -3.32 l
-3.83 0 l
1.92 3.32 l
o
np
220.05 343.48 m
1.92 -3.32 l
-3.83 0 l
1.91 3.32 l
o
np
220.64 343.79 m
1.92 -3.31 l
-3.83 0 l
1.91 3.31 l
o
np
221.24 343.79 m
1.91 -3.31 l
-3.83 0 l
1.92 3.31 l
o
np
221.83 344.11 m
1.92 -3.32 l
-3.83 0 l
1.91 3.32 l
o
np
222.43 344.42 m
1.91 -3.32 l
-3.83 0 l
1.92 3.32 l
o
np
223.02 344.42 m
1.91 -3.32 l
-3.82 0 l
1.91 3.32 l
o
np
223.61 344.73 m
1.92 -3.31 l
-3.83 0 l
1.91 3.31 l
o
np
224.21 344.73 m
1.91 -3.31 l
-3.83 0 l
1.92 3.31 l
o
np
224.80 345.04 m
1.92 -3.31 l
-3.83 0 l
1.91 3.31 l
o
np
225.40 345.04 m
1.91 -3.31 l
-3.83 0 l
1.92 3.31 l
o
np
225.99 345.36 m
1.91 -3.32 l
-3.82 0 l
1.91 3.32 l
o
np
226.58 345.67 m
1.92 -3.31 l
-3.83 0 l
1.91 3.31 l
o
np
227.18 345.67 m
1.91 -3.31 l
-3.83 0 l
1.92 3.31 l
o
np
227.77 345.98 m
1.92 -3.31 l
-3.83 0 l
1.91 3.31 l
o
np
228.37 345.98 m
1.91 -3.31 l
-3.83 0 l
1.92 3.31 l
o
np
228.96 346.30 m
1.91 -3.32 l
-3.83 0 l
1.92 3.32 l
o
np
229.55 346.30 m
1.92 -3.32 l
-3.83 0 l
1.91 3.32 l
o
np
230.15 346.61 m
1.91 -3.31 l
-3.83 0 l
1.92 3.31 l
o
np
230.74 346.92 m
1.91 -3.31 l
-3.82 0 l
1.91 3.31 l
o
np
231.33 346.92 m
1.92 -3.31 l
-3.83 0 l
1.91 3.31 l
o
np
231.93 347.24 m
1.91 -3.32 l
-3.83 0 l
1.92 3.32 l
o
np
232.52 347.24 m
1.92 -3.32 l
-3.83 0 l
1.91 3.32 l
o
np
233.12 347.55 m
1.91 -3.32 l
-3.83 0 l
1.92 3.32 l
o
np
233.71 347.55 m
1.91 -3.32 l
-3.82 0 l
1.91 3.32 l
o
np
234.30 347.86 m
1.92 -3.31 l
-3.83 0 l
1.91 3.31 l
o
np
234.90 347.86 m
1.91 -3.31 l
-3.83 0 l
1.92 3.31 l
o
np
235.49 348.18 m
1.92 -3.32 l
-3.83 0 l
1.91 3.32 l
o
np
236.09 348.18 m
1.91 -3.32 l
-3.83 0 l
1.92 3.32 l
o
np
236.68 348.49 m
1.91 -3.32 l
-3.82 0 l
1.91 3.32 l
o
np
237.27 348.80 m
1.92 -3.31 l
-3.83 0 l
1.91 3.31 l
o
np
237.87 348.80 m
1.91 -3.31 l
-3.83 0 l
1.92 3.31 l
o
np
238.46 349.12 m
1.92 -3.32 l
-3.83 0 l
1.91 3.32 l
o
np
239.06 349.12 m
1.91 -3.32 l
-3.83 0 l
1.92 3.32 l
o
np
239.65 349.43 m
1.91 -3.32 l
-3.83 0 l
1.92 3.32 l
o
np
240.24 349.43 m
1.92 -3.32 l
-3.83 0 l
1.91 3.32 l
o
np
240.84 349.74 m
1.91 -3.31 l
-3.83 0 l
1.92 3.31 l
o
np
241.43 349.74 m
1.91 -3.31 l
-3.82 0 l
1.91 3.31 l
o
np
242.02 350.06 m
1.92 -3.32 l
-3.83 0 l
1.91 3.32 l
o
np
242.62 350.06 m
1.91 -3.32 l
-3.83 0 l
1.92 3.32 l
o
np
243.21 350.37 m
1.92 -3.32 l
-3.83 0 l
1.91 3.32 l
o
np
243.81 350.37 m
1.91 -3.32 l
-3.83 0 l
1.92 3.32 l
o
np
244.40 350.68 m
1.91 -3.31 l
-3.82 0 l
1.91 3.31 l
o
np
244.99 350.68 m
1.92 -3.31 l
-3.83 0 l
1.91 3.31 l
o
np
245.59 350.99 m
1.91 -3.31 l
-3.83 0 l
1.92 3.31 l
o
np
246.18 350.99 m
1.92 -3.31 l
-3.83 0 l
1.91 3.31 l
o
np
246.78 351.31 m
1.91 -3.32 l
-3.83 0 l
1.92 3.32 l
o
np
247.37 351.31 m
1.91 -3.32 l
-3.82 0 l
1.91 3.32 l
o
np
247.96 351.62 m
1.92 -3.31 l
-3.83 0 l
1.91 3.31 l
o
np
248.56 351.62 m
1.91 -3.31 l
-3.83 0 l
1.92 3.31 l
o
np
249.15 351.93 m
1.92 -3.31 l
-3.83 0 l
1.91 3.31 l
o
np
249.75 351.93 m
1.91 -3.31 l
-3.83 0 l
1.92 3.31 l
o
np
250.34 352.25 m
1.91 -3.32 l
-3.83 0 l
1.92 3.32 l
o
np
250.93 352.25 m
1.92 -3.32 l
-3.83 0 l
1.91 3.32 l
o
np
251.53 352.56 m
1.91 -3.32 l
-3.83 0 l
1.92 3.32 l
o
np
252.12 352.56 m
1.91 -3.32 l
-3.82 0 l
1.91 3.32 l
o
np
252.71 352.87 m
1.92 -3.31 l
-3.83 0 l
1.91 3.31 l
o
np
253.31 352.87 m
1.91 -3.31 l
-3.83 0 l
1.92 3.31 l
o
np
253.90 353.19 m
1.92 -3.32 l
-3.83 0 l
1.91 3.32 l
o
np
254.50 353.19 m
1.91 -3.32 l
-3.83 0 l
1.92 3.32 l
o
np
255.09 353.50 m
1.91 -3.32 l
-3.82 0 l
1.91 3.32 l
o
np
255.68 353.50 m
1.92 -3.32 l
-3.83 0 l
1.91 3.32 l
o
np
256.28 353.50 m
1.91 -3.32 l
-3.83 0 l
1.92 3.32 l
o
np
256.87 353.81 m
1.92 -3.31 l
-3.83 0 l
1.91 3.31 l
o
np
257.47 353.81 m
1.91 -3.31 l
-3.83 0 l
1.92 3.31 l
o
np
258.06 354.13 m
1.91 -3.32 l
-3.82 0 l
1.91 3.32 l
o
np
258.65 354.13 m
1.92 -3.32 l
-3.83 0 l
1.91 3.32 l
o
np
259.25 354.44 m
1.91 -3.32 l
-3.83 0 l
1.92 3.32 l
o
np
259.84 354.44 m
1.92 -3.32 l
-3.83 0 l
1.91 3.32 l
o
np
260.43 354.75 m
1.92 -3.31 l
-3.83 0 l
1.91 3.31 l
o
np
261.03 354.75 m
1.91 -3.31 l
-3.83 0 l
1.92 3.31 l
o
np
261.62 355.07 m
1.92 -3.32 l
-3.83 0 l
1.91 3.32 l
o
np
262.22 355.07 m
1.91 -3.32 l
-3.83 0 l
1.92 3.32 l
o
np
262.81 355.38 m
1.91 -3.32 l
-3.82 0 l
1.91 3.32 l
o
np
263.40 355.38 m
1.92 -3.32 l
-3.83 0 l
1.91 3.32 l
o
np
264.00 355.38 m
1.91 -3.32 l
-3.83 0 l
1.92 3.32 l
o
np
264.59 355.69 m
1.92 -3.31 l
-3.83 0 l
1.91 3.31 l
o
np
265.19 355.69 m
1.91 -3.31 l
-3.83 0 l
1.92 3.31 l
o
np
265.78 356.00 m
1.91 -3.31 l
-3.82 0 l
1.91 3.31 l
o
np
266.37 356.00 m
1.92 -3.31 l
-3.83 0 l
1.91 3.31 l
o
np
266.97 356.32 m
1.91 -3.32 l
-3.83 0 l
1.92 3.32 l
o
np
267.56 356.32 m
1.92 -3.32 l
-3.83 0 l
1.91 3.32 l
o
np
268.16 356.63 m
1.91 -3.31 l
-3.83 0 l
1.92 3.31 l
o
np
268.75 356.63 m
1.91 -3.31 l
-3.82 0 l
1.91 3.31 l
o
np
269.34 356.63 m
1.92 -3.31 l
-3.83 0 l
1.91 3.31 l
o
np
269.94 356.94 m
1.91 -3.31 l
-3.83 0 l
1.92 3.31 l
o
np
270.53 356.94 m
1.92 -3.31 l
-3.83 0 l
1.91 3.31 l
o
np
271.12 357.26 m
1.92 -3.32 l
-3.83 0 l
1.91 3.32 l
o
np
271.72 357.26 m
1.91 -3.32 l
-3.83 0 l
1.92 3.32 l
o
np
272.31 357.57 m
1.92 -3.32 l
-3.83 0 l
1.91 3.32 l
o
np
272.91 357.57 m
1.91 -3.32 l
-3.83 0 l
1.92 3.32 l
o
np
273.50 357.57 m
1.91 -3.32 l
-3.82 0 l
1.91 3.32 l
o
np
274.09 357.88 m
1.92 -3.31 l
-3.83 0 l
1.91 3.31 l
o
np
274.69 357.88 m
1.91 -3.31 l
-3.83 0 l
1.92 3.31 l
o
np
275.28 358.20 m
1.92 -3.32 l
-3.83 0 l
1.91 3.32 l
o
np
275.88 358.20 m
1.91 -3.32 l
-3.83 0 l
1.92 3.32 l
o
np
276.47 358.51 m
1.91 -3.32 l
-3.82 0 l
1.91 3.32 l
o
np
277.06 358.51 m
1.92 -3.32 l
-3.83 0 l
1.91 3.32 l
o
np
277.66 358.51 m
1.91 -3.32 l
-3.83 0 l
1.92 3.32 l
o
np
278.25 358.82 m
1.92 -3.31 l
-3.83 0 l
1.91 3.31 l
o
np
278.85 358.82 m
1.91 -3.31 l
-3.83 0 l
1.92 3.31 l
o
np
279.44 359.14 m
1.91 -3.32 l
-3.83 0 l
1.92 3.32 l
o
np
280.03 359.14 m
1.92 -3.32 l
-3.83 0 l
1.91 3.32 l
o
np
280.63 359.14 m
1.91 -3.32 l
-3.83 0 l
1.92 3.32 l
o
np
281.22 359.45 m
1.91 -3.32 l
-3.82 0 l
1.91 3.32 l
o
np
281.81 359.45 m
1.92 -3.32 l
-3.83 0 l
1.91 3.32 l
o
np
282.41 359.76 m
1.91 -3.31 l
-3.83 0 l
1.92 3.31 l
o
np
283.00 359.76 m
1.92 -3.31 l
-3.83 0 l
1.91 3.31 l
o
np
283.60 360.08 m
1.91 -3.32 l
-3.83 0 l
1.92 3.32 l
o
np
284.19 360.08 m
1.91 -3.32 l
-3.82 0 l
1.91 3.32 l
o
np
284.78 360.08 m
1.92 -3.32 l
-3.83 0 l
1.91 3.32 l
o
np
285.38 360.39 m
1.91 -3.32 l
-3.83 0 l
1.92 3.32 l
o
np
285.97 360.39 m
1.92 -3.32 l
-3.83 0 l
1.91 3.32 l
o
np
286.57 360.70 m
1.91 -3.31 l
-3.83 0 l
1.92 3.31 l
o
np
287.16 360.70 m
1.91 -3.31 l
-3.82 0 l
1.91 3.31 l
o
np
287.75 360.70 m
1.92 -3.31 l
-3.83 0 l
1.91 3.31 l
o
np
288.35 361.01 m
1.91 -3.31 l
-3.83 0 l
1.92 3.31 l
o
np
288.94 361.01 m
1.92 -3.31 l
-3.83 0 l
1.91 3.31 l
o
np
289.54 361.33 m
1.91 -3.32 l
-3.83 0 l
1.92 3.32 l
o
np
290.13 361.33 m
1.91 -3.32 l
-3.83 0 l
1.92 3.32 l
o
np
290.72 361.33 m
1.92 -3.32 l
-3.83 0 l
1.91 3.32 l
o
np
291.32 361.64 m
1.91 -3.31 l
-3.83 0 l
1.92 3.31 l
o
np
291.91 361.64 m
1.91 -3.31 l
-3.82 0 l
1.91 3.31 l
o
np
292.50 361.64 m
1.92 -3.31 l
-3.83 0 l
1.91 3.31 l
o
np
293.10 361.95 m
1.91 -3.31 l
-3.83 0 l
1.92 3.31 l
o
np
293.69 361.95 m
1.92 -3.31 l
-3.83 0 l
1.91 3.31 l
o
np
294.29 362.27 m
1.91 -3.32 l
-3.83 0 l
1.92 3.32 l
o
np
294.88 362.27 m
1.91 -3.32 l
-3.82 0 l
1.91 3.32 l
o
np
295.47 362.27 m
1.92 -3.32 l
-3.83 0 l
1.91 3.32 l
o
np
296.07 362.58 m
1.91 -3.31 l
-3.83 0 l
1.92 3.31 l
o
np
296.66 362.58 m
1.92 -3.31 l
-3.83 0 l
1.91 3.31 l
o
np
297.26 362.89 m
1.91 -3.31 l
-3.83 0 l
1.92 3.31 l
o
np
297.85 362.89 m
1.91 -3.31 l
-3.82 0 l
1.91 3.31 l
o
np
298.44 362.89 m
1.92 -3.31 l
-3.83 0 l
1.91 3.31 l
o
np
299.04 363.21 m
1.91 -3.32 l
-3.83 0 l
1.92 3.32 l
o
np
299.63 363.21 m
1.92 -3.32 l
-3.83 0 l
1.91 3.32 l
o
np
300.22 363.21 m
1.92 -3.32 l
-3.83 0 l
1.91 3.32 l
o
np
300.82 363.52 m
1.91 -3.32 l
-3.83 0 l
1.92 3.32 l
o
np
301.41 363.52 m
1.92 -3.32 l
-3.83 0 l
1.91 3.32 l
o
np
302.01 363.83 m
1.91 -3.31 l
-3.83 0 l
1.92 3.31 l
o
np
302.60 363.83 m
1.91 -3.31 l
-3.82 0 l
1.91 3.31 l
o
np
303.19 363.83 m
1.92 -3.31 l
-3.83 0 l
1.91 3.31 l
o
np
303.79 364.15 m
1.91 -3.32 l
-3.83 0 l
1.92 3.32 l
o
np
304.38 364.15 m
1.92 -3.32 l
-3.83 0 l
1.91 3.32 l
o
np
304.98 364.15 m
1.91 -3.32 l
-3.83 0 l
1.92 3.32 l
o
np
305.57 364.46 m
1.91 -3.32 l
-3.82 0 l
1.91 3.32 l
o
np
306.16 364.46 m
1.92 -3.32 l
-3.83 0 l
1.91 3.32 l
o
np
306.76 364.77 m
1.91 -3.31 l
-3.83 0 l
1.92 3.31 l
o
np
307.35 364.77 m
1.92 -3.31 l
-3.83 0 l
1.91 3.31 l
o
np
307.95 364.77 m
1.91 -3.31 l
-3.83 0 l
1.92 3.31 l
o
np
308.54 365.09 m
1.91 -3.32 l
-3.82 0 l
1.91 3.32 l
o
np
309.13 365.09 m
1.92 -3.32 l
-3.83 0 l
1.91 3.32 l
o
np
309.73 365.40 m
1.91 -3.32 l
-3.83 0 l
1.92 3.32 l
o
np
310.32 365.40 m
1.92 -3.32 l
-3.83 0 l
1.91 3.32 l
o
np
310.91 365.40 m
1.92 -3.32 l
-3.83 0 l
1.91 3.32 l
o
np
311.51 365.71 m
1.91 -3.31 l
-3.83 0 l
1.92 3.31 l
o
np
312.10 365.71 m
1.92 -3.31 l
-3.83 0 l
1.91 3.31 l
o
np
312.70 365.71 m
1.91 -3.31 l
-3.83 0 l
1.92 3.31 l
o
np
313.29 366.03 m
1.91 -3.32 l
-3.82 0 l
1.91 3.32 l
o
np
313.88 366.03 m
1.92 -3.32 l
-3.83 0 l
1.91 3.32 l
o
np
314.48 366.03 m
1.91 -3.32 l
-3.83 0 l
1.92 3.32 l
o
np
315.07 366.34 m
1.92 -3.32 l
-3.83 0 l
1.91 3.32 l
o
np
315.67 366.34 m
1.91 -3.32 l
-3.83 0 l
1.92 3.32 l
o
np
316.26 366.65 m
1.91 -3.31 l
-3.82 0 l
1.91 3.31 l
o
np
316.85 366.65 m
1.92 -3.31 l
-3.83 0 l
1.91 3.31 l
o
np
317.45 366.65 m
1.91 -3.31 l
-3.83 0 l
1.92 3.31 l
o
np
318.04 366.96 m
1.92 -3.31 l
-3.83 0 l
1.91 3.31 l
o
np
318.64 366.96 m
1.91 -3.31 l
-3.83 0 l
1.92 3.31 l
o
np
319.23 366.96 m
1.91 -3.31 l
-3.83 0 l
1.92 3.31 l
o
np
319.82 367.28 m
1.92 -3.32 l
-3.83 0 l
1.91 3.32 l
o
np
320.42 367.28 m
1.91 -3.32 l
-3.83 0 l
1.92 3.32 l
o
np
321.01 367.28 m
1.91 -3.32 l
-3.82 0 l
1.91 3.32 l
o
np
321.60 367.59 m
1.92 -3.31 l
-3.83 0 l
1.91 3.31 l
o
np
322.20 367.59 m
1.91 -3.31 l
-3.83 0 l
1.92 3.31 l
o
np
322.79 367.90 m
1.92 -3.31 l
-3.83 0 l
1.91 3.31 l
o
np
323.39 367.90 m
1.91 -3.31 l
-3.83 0 l
1.92 3.31 l
o
np
323.98 367.90 m
1.91 -3.31 l
-3.82 0 l
1.91 3.31 l
o
np
324.57 368.22 m
1.92 -3.32 l
-3.83 0 l
1.91 3.32 l
o
np
325.17 368.22 m
1.91 -3.32 l
-3.83 0 l
1.92 3.32 l
o
np
325.76 368.22 m
1.92 -3.32 l
-3.83 0 l
1.91 3.32 l
o
np
326.36 368.53 m
1.91 -3.32 l
-3.83 0 l
1.92 3.32 l
o
np
326.95 368.53 m
1.91 -3.32 l
-3.82 0 l
1.91 3.32 l
o
np
327.54 368.53 m
1.92 -3.32 l
-3.83 0 l
1.91 3.32 l
o
np
328.14 368.84 m
1.91 -3.31 l
-3.83 0 l
1.92 3.31 l
o
np
328.73 368.84 m
1.92 -3.31 l
-3.83 0 l
1.91 3.31 l
o
np
329.33 369.16 m
1.91 -3.32 l
-3.83 0 l
1.92 3.32 l
o
np
329.92 369.16 m
1.91 -3.32 l
-3.83 0 l
1.92 3.32 l
o
np
330.51 369.16 m
1.92 -3.32 l
-3.83 0 l
1.91 3.32 l
o
np
331.11 369.47 m
1.91 -3.32 l
-3.83 0 l
1.92 3.32 l
o
np
331.70 369.47 m
1.91 -3.32 l
-3.82 0 l
1.91 3.32 l
o
np
332.29 369.47 m
1.92 -3.32 l
-3.83 0 l
1.91 3.32 l
o
np
332.89 369.78 m
1.91 -3.31 l
-3.83 0 l
1.92 3.31 l
o
np
333.48 369.78 m
1.92 -3.31 l
-3.83 0 l
1.91 3.31 l
o
np
334.08 369.78 m
1.91 -3.31 l
-3.83 0 l
1.92 3.31 l
o
np
334.67 370.10 m
1.91 -3.32 l
-3.82 0 l
1.91 3.32 l
o
np
335.26 370.10 m
1.92 -3.32 l
-3.83 0 l
1.91 3.32 l
o
np
335.86 370.41 m
1.91 -3.32 l
-3.83 0 l
1.92 3.32 l
o
np
336.45 370.41 m
1.92 -3.32 l
-3.83 0 l
1.91 3.32 l
o
np
337.05 370.41 m
1.91 -3.32 l
-3.83 0 l
1.92 3.32 l
o
np
337.64 370.72 m
1.91 -3.31 l
-3.82 0 l
1.91 3.31 l
o
np
338.23 370.72 m
1.92 -3.31 l
-3.83 0 l
1.91 3.31 l
o
np
338.83 370.72 m
1.91 -3.31 l
-3.83 0 l
1.92 3.31 l
o
np
339.42 371.04 m
1.92 -3.32 l
-3.83 0 l
1.91 3.32 l
o
np
340.02 371.04 m
1.91 -3.32 l
-3.83 0 l
1.92 3.32 l
o
np
340.61 371.04 m
1.91 -3.32 l
-3.83 0 l
1.92 3.32 l
o
np
341.20 371.35 m
1.92 -3.32 l
-3.83 0 l
1.91 3.32 l
o
np
341.80 371.35 m
1.91 -3.32 l
-3.83 0 l
1.92 3.32 l
o
np
342.39 371.35 m
1.91 -3.32 l
-3.82 0 l
1.91 3.32 l
o
np
342.98 371.66 m
1.92 -3.31 l
-3.83 0 l
1.91 3.31 l
o
np
343.58 371.66 m
1.91 -3.31 l
-3.83 0 l
1.92 3.31 l
o
np
344.17 371.97 m
1.92 -3.31 l
-3.83 0 l
1.91 3.31 l
o
np
344.77 371.97 m
1.91 -3.31 l
-3.83 0 l
1.92 3.31 l
o
np
345.36 371.97 m
1.91 -3.31 l
-3.82 0 l
1.91 3.31 l
o
np
345.95 372.29 m
1.92 -3.32 l
-3.83 0 l
1.91 3.32 l
o
np
346.55 372.29 m
1.91 -3.32 l
-3.83 0 l
1.92 3.32 l
o
np
347.14 372.29 m
1.92 -3.32 l
-3.83 0 l
1.91 3.32 l
o
np
347.74 372.60 m
1.91 -3.31 l
-3.83 0 l
1.92 3.31 l
o
np
348.33 372.60 m
1.91 -3.31 l
-3.82 0 l
1.91 3.31 l
o
np
348.92 372.60 m
1.92 -3.31 l
-3.83 0 l
1.91 3.31 l
o
np
349.52 372.91 m
1.91 -3.31 l
-3.83 0 l
1.92 3.31 l
o
np
350.11 372.91 m
1.92 -3.31 l
-3.83 0 l
1.91 3.31 l
o
np
350.70 373.23 m
1.92 -3.32 l
-3.83 0 l
1.91 3.32 l
o
np
351.30 373.23 m
1.91 -3.32 l
-3.83 0 l
1.92 3.32 l
o
np
351.89 373.23 m
1.92 -3.32 l
-3.83 0 l
1.91 3.32 l
o
np
352.49 373.54 m
1.91 -3.32 l
-3.83 0 l
1.92 3.32 l
o
np
353.08 373.54 m
1.91 -3.32 l
-3.82 0 l
1.91 3.32 l
o
np
353.67 373.54 m
1.92 -3.32 l
-3.83 0 l
1.91 3.32 l
o
np
354.27 373.85 m
1.91 -3.31 l
-3.83 0 l
1.92 3.31 l
o
np
354.86 373.85 m
1.92 -3.31 l
-3.83 0 l
1.91 3.31 l
o
np
355.46 373.85 m
1.91 -3.31 l
-3.83 0 l
1.92 3.31 l
o
np
356.05 374.17 m
1.91 -3.32 l
-3.82 0 l
1.91 3.32 l
o
np
356.64 374.17 m
1.92 -3.32 l
-3.83 0 l
1.91 3.32 l
o
np
357.24 374.48 m
1.91 -3.32 l
-3.83 0 l
1.92 3.32 l
o
np
357.83 374.48 m
1.92 -3.32 l
-3.83 0 l
1.91 3.32 l
o
np
358.43 374.48 m
1.91 -3.32 l
-3.83 0 l
1.92 3.32 l
o
np
359.02 374.79 m
1.91 -3.31 l
-3.82 0 l
1.91 3.31 l
o
np
359.61 374.79 m
1.92 -3.31 l
-3.83 0 l
1.91 3.31 l
o
np
360.21 374.79 m
1.91 -3.31 l
-3.83 0 l
1.92 3.31 l
o
np
360.80 375.11 m
1.92 -3.32 l
-3.83 0 l
1.91 3.32 l
o
np
361.39 375.11 m
1.92 -3.32 l
-3.83 0 l
1.91 3.32 l
o
np
361.99 375.42 m
1.91 -3.32 l
-3.83 0 l
1.92 3.32 l
o
np
362.58 375.42 m
1.92 -3.32 l
-3.83 0 l
1.91 3.32 l
o
np
363.18 375.42 m
1.91 -3.32 l
-3.83 0 l
1.92 3.32 l
o
np
363.77 375.73 m
1.91 -3.31 l
-3.82 0 l
1.91 3.31 l
o
np
364.36 375.73 m
1.92 -3.31 l
-3.83 0 l
1.91 3.31 l
o
np
364.96 375.73 m
1.91 -3.31 l
-3.83 0 l
1.92 3.31 l
o
np
365.55 376.05 m
1.92 -3.32 l
-3.83 0 l
1.91 3.32 l
o
np
366.15 376.05 m
1.91 -3.32 l
-3.83 0 l
1.92 3.32 l
o
np
366.74 376.36 m
1.91 -3.32 l
-3.82 0 l
1.91 3.32 l
o
np
367.33 376.36 m
1.92 -3.32 l
-3.83 0 l
1.91 3.32 l
o
np
367.93 376.36 m
1.91 -3.32 l
-3.83 0 l
1.92 3.32 l
o
np
368.52 376.67 m
1.92 -3.31 l
-3.83 0 l
1.91 3.31 l
o
np
369.12 376.67 m
1.91 -3.31 l
-3.83 0 l
1.92 3.31 l
o
np
369.71 376.67 m
1.91 -3.31 l
-3.83 0 l
1.92 3.31 l
o
np
370.30 376.98 m
1.92 -3.31 l
-3.83 0 l
1.91 3.31 l
o
np
370.90 376.98 m
1.91 -3.31 l
-3.83 0 l
1.92 3.31 l
o
np
371.49 376.98 m
1.91 -3.31 l
-3.82 0 l
1.91 3.31 l
o
np
372.08 377.30 m
1.92 -3.32 l
-3.83 0 l
1.91 3.32 l
o
np
372.68 377.30 m
1.91 -3.32 l
-3.83 0 l
1.92 3.32 l
o
np
373.27 377.30 m
1.92 -3.32 l
-3.83 0 l
1.91 3.32 l
o
np
373.87 377.61 m
1.91 -3.31 l
-3.83 0 l
1.92 3.31 l
o
np
374.46 377.61 m
1.91 -3.31 l
-3.82 0 l
1.91 3.31 l
o
np
375.05 377.61 m
1.92 -3.31 l
-3.83 0 l
1.91 3.31 l
o
np
375.65 377.92 m
1.91 -3.31 l
-3.83 0 l
1.92 3.31 l
o
np
376.24 377.92 m
1.92 -3.31 l
-3.83 0 l
1.91 3.31 l
o
np
376.54 377.92 m
1.91 -3.31 l
-3.83 0 l
1.92 3.31 l
o
/bg { 0 0 0 srgb } def
0 0 0 srgb
80.73 89.19 3.56 c p3
80.75 87.63 3.56 c p3
80.72 92.32 3.56 c p3
80.71 90.44 3.56 c p3
80.72 92.01 3.56 c p3
80.73 91.07 3.56 c p3
80.72 91.38 3.56 c p3
80.72 89.82 3.56 c p3
80.73 92.01 3.56 c p3
80.73 91.70 3.56 c p3
80.73 91.70 3.56 c p3
80.72 91.07 3.56 c p3
80.71 90.44 3.56 c p3
80.77 86.69 3.56 c p3
80.73 92.32 3.56 c p3
80.70 91.38 3.56 c p3
80.73 91.07 3.56 c p3
80.74 91.07 3.56 c p3
80.70 91.38 3.56 c p3
80.71 91.38 3.56 c p3
80.77 89.82 3.56 c p3
80.71 92.32 3.56 c p3
80.71 91.38 3.56 c p3
80.71 91.07 3.56 c p3
80.71 92.01 3.56 c p3
80.74 92.32 3.56 c p3
80.71 91.38 3.56 c p3
80.74 89.51 3.56 c p3
80.74 91.07 3.56 c p3
80.69 91.07 3.56 c p3
0.00 0.00 396.85 396.85 cl
0.00 0.00 396.85 396.85 cl
0.00 0.00 396.85 396.85 cl
0.00 0.00 396.85 396.85 cl
0.00 0.00 396.85 396.85 cl
0.00 0.00 396.85 396.85 cl
0.00 0.00 396.85 396.85 cl
0.00 0.00 396.85 396.85 cl
0.00 0.00 396.85 396.85 cl
0.00 0.00 396.85 396.85 cl
0.00 0.00 396.85 396.85 cl
0.00 0.00 396.85 396.85 cl
0.00 0.00 396.85 396.85 cl
0.8000 0.8000 0.8000 srgb
2.13 setlinewidth
[] 0 setdash
0 setlinecap
1 setlinejoin
10.00 setmiterlimit
np
65.06 46.92 m
0 344.45 l
o
0.00 0.00 396.85 396.85 cl
0.00 0.00 396.85 396.85 cl
0.00 0.00 396.85 396.85 cl
/Font1 findfont 18 s
0.3020 0.3020 0.3020 srgb
60.13 56.11 (0.00) 1 0 t
60.13 134.40 (0.25) 1 0 t
60.13 212.68 (0.50) 1 0 t
60.13 290.97 (0.75) 1 0 t
60.13 369.25 (1.00) 1 0 t
0.00 0.00 396.85 396.85 cl
0.00 0.00 396.85 396.85 cl
0.2000 0.2000 0.2000 srgb
1.07 setlinewidth
[] 0 setdash
0 setlinecap
1 setlinejoin
10.00 setmiterlimit
np
62.32 62.58 m
2.74 0 l
o
np
62.32 140.86 m
2.74 0 l
o
np
62.32 219.14 m
2.74 0 l
o
np
62.32 297.43 m
2.74 0 l
o
np
62.32 375.71 m
2.74 0 l
o
0.00 0.00 396.85 396.85 cl
0.00 0.00 396.85 396.85 cl
0.00 0.00 396.85 396.85 cl
0.00 0.00 396.85 396.85 cl
0.00 0.00 396.85 396.85 cl
0.00 0.00 396.85 396.85 cl
0.00 0.00 396.85 396.85 cl
0.8000 0.8000 0.8000 srgb
2.13 setlinewidth
[] 0 setdash
0 setlinecap
1 setlinejoin
10.00 setmiterlimit
np
65.06 46.92 m
326.31 0 l
o
0.00 0.00 396.85 396.85 cl
0.00 0.00 396.85 396.85 cl
0.00 0.00 396.85 396.85 cl
0.2000 0.2000 0.2000 srgb
1.07 setlinewidth
[] 0 setdash
0 setlinecap
1 setlinejoin
10.00 setmiterlimit
np
79.89 44.18 m
0 2.74 l
o
np
154.06 44.18 m
0 2.74 l
o
np
228.22 44.18 m
0 2.74 l
o
np
302.38 44.18 m
0 2.74 l
o
np
376.54 44.18 m
0 2.74 l
o
0.00 0.00 396.85 396.85 cl
0.00 0.00 396.85 396.85 cl
/Font1 findfont 18 s
0.3020 0.3020 0.3020 srgb
79.89 29.06 (0.00) .5 0 t
154.06 29.06 (0.25) .5 0 t
228.22 29.06 (0.50) .5 0 t
302.38 29.06 (0.75) .5 0 t
376.54 29.06 (1.00) .5 0 t
0.00 0.00 396.85 396.85 cl
0.00 0.00 396.85 396.85 cl
0.00 0.00 396.85 396.85 cl
0.00 0.00 396.85 396.85 cl
0.00 0.00 396.85 396.85 cl
0.00 0.00 396.85 396.85 cl
/Font1 findfont 18 s
0 0 0 srgb
228.22 9.44 (Link Density) .5 0 t
0.00 0.00 396.85 396.85 cl
0.00 0.00 396.85 396.85 cl
/Font1 findfont 18 s
0 0 0 srgb
18.40 152.63 (Netw) 90 ta
-0.180 (or) tb
0.270 (k Entrop) tb
-0.540 (y) tb gr
0.00 0.00 396.85 396.85 cl
0.00 0.00 396.85 396.85 cl
0.00 0.00 396.85 396.85 cl
0.00 0.00 396.85 396.85 cl
0.00 0.00 396.85 396.85 cl
0.00 0.00 396.85 396.85 cl
0.00 0.00 396.85 396.85 cl
0.00 0.00 396.85 396.85 cl
0.00 0.00 396.85 396.85 cl
0.00 0.00 396.85 396.85 cl
0.00 0.00 396.85 396.85 cl
0.00 0.00 396.85 396.85 cl
ep
%%Trailer
%%Pages: 1
%%EOF
