%!PS-Adobe-3.0 EPSF-3.0
%%DocumentNeededResources: font Helvetica
%%+ font Helvetica-Bold
%%+ font Helvetica-Oblique
%%+ font Helvetica-BoldOblique
%%+ font Symbol
%%Title: R Graphics Output
%%Creator: R Software
%%Pages: (atend)
%%BoundingBox: 0 0 397 397
%%EndComments
%%BeginProlog
/bp  { gs sRGB gs } def
% begin .ps.prolog
/gs  { gsave } bind def
/gr  { grestore } bind def
/ep  { showpage gr gr } bind def
/m   { moveto } bind def
/l  { rlineto } bind def
/np  { newpath } bind def
/cp  { closepath } bind def
/f   { fill } bind def
/o   { stroke } bind def
/c   { newpath 0 360 arc } bind def
/r   { 4 2 roll moveto 1 copy 3 -1 roll exch 0 exch rlineto 0 rlineto -1 mul 0 exch rlineto closepath } bind def
/p1  { stroke } bind def
/p2  { gsave bg fill grestore newpath } bind def
/p3  { gsave bg fill grestore stroke } bind def
/p6  { gsave bg eofill grestore newpath } bind def
/p7  { gsave bg eofill grestore stroke } bind def
/t   { 5 -2 roll moveto gsave rotate
       1 index stringwidth pop
       mul neg 0 rmoveto show grestore } bind def
/ta  { 4 -2 roll moveto gsave rotate show } bind def
/tb  { 2 -1 roll 0 rmoveto show } bind def
/cl  { grestore gsave newpath 3 index 3 index moveto 1 index
       4 -1 roll lineto  exch 1 index lineto lineto
       closepath clip newpath } bind def
/rgb { setrgbcolor } bind def
/s   { scalefont setfont } bind def
% end   .ps.prolog
/sRGB { [ /CIEBasedABC
          << /DecodeLMN
               [ { dup 0.03928 le
                        {12.92321 div}
                        {0.055 add 1.055 div 2.4 exp }
                     ifelse
                 } bind dup dup
               ]
             /MatrixLMN [0.412457 0.212673 0.019334
                         0.357576 0.715152 0.119192
                         0.180437 0.072175 0.950301]
             /WhitePoint [0.9505 1.0 1.0890]
           >>
         ] setcolorspace } bind def
/srgb { setcolor } bind def
%%IncludeResource: font Helvetica
/Helvetica findfont
dup length dict begin
  {1 index /FID ne {def} {pop pop} ifelse} forall
  /Encoding ISOLatin1Encoding def
  currentdict
  end
/Font1 exch definefont pop
%%IncludeResource: font Helvetica-Bold
/Helvetica-Bold findfont
dup length dict begin
  {1 index /FID ne {def} {pop pop} ifelse} forall
  /Encoding ISOLatin1Encoding def
  currentdict
  end
/Font2 exch definefont pop
%%IncludeResource: font Helvetica-Oblique
/Helvetica-Oblique findfont
dup length dict begin
  {1 index /FID ne {def} {pop pop} ifelse} forall
  /Encoding ISOLatin1Encoding def
  currentdict
  end
/Font3 exch definefont pop
%%IncludeResource: font Helvetica-BoldOblique
/Helvetica-BoldOblique findfont
dup length dict begin
  {1 index /FID ne {def} {pop pop} ifelse} forall
  /Encoding ISOLatin1Encoding def
  currentdict
  end
/Font4 exch definefont pop
%%IncludeResource: font Symbol
/Symbol findfont
dup length dict begin
  {1 index /FID ne {def} {pop pop} ifelse} forall
  currentdict
  end
/Font5 exch definefont pop
%%EndProlog
%%Page: 1 1
bp
0.00 0.00 396.85 396.85 cl
0.00 0.00 396.85 396.85 cl
0.00 0.00 396.85 396.85 cl
0.00 0.00 396.85 396.85 cl
0.00 0.00 396.85 396.85 cl
0.00 0.00 396.85 396.85 cl
0.00 0.00 396.85 396.85 cl
0.00 0.00 396.85 396.85 cl
0.00 0.00 396.85 396.85 cl
0.00 0.00 396.85 396.85 cl
/bg { 1 1 1 srgb } def
1 1 1 srgb
1.07 setlinewidth
[] 0 setdash
1 setlinecap
1 setlinejoin
10.00 setmiterlimit
0.00 0.00 396.85 396.85 r p3
0.00 0.00 396.85 396.85 cl
65.06 46.92 391.37 391.37 cl
/bg { 1 1 1 srgb } def
0.4980 0.4980 0.4980 srgb
1.07 setlinewidth
[] 0 setdash
1 setlinecap
1 setlinejoin
10.00 setmiterlimit
65.06 46.92 326.31 344.45 r p3
1 1 1 srgb
0.53 setlinewidth
[] 0 setdash
0 setlinecap
np
65.06 101.72 m
326.31 0 l
o
np
65.06 180.00 m
326.31 0 l
o
np
65.06 258.29 m
326.31 0 l
o
np
65.06 336.57 m
326.31 0 l
o
np
116.98 46.92 m
0 344.45 l
o
np
191.14 46.92 m
0 344.45 l
o
np
265.30 46.92 m
0 344.45 l
o
np
339.46 46.92 m
0 344.45 l
o
1.07 setlinewidth
[] 0 setdash
np
65.06 62.58 m
326.31 0 l
o
np
65.06 140.86 m
326.31 0 l
o
np
65.06 219.14 m
326.31 0 l
o
np
65.06 297.43 m
326.31 0 l
o
np
65.06 375.71 m
326.31 0 l
o
np
79.89 46.92 m
0 344.45 l
o
np
154.06 46.92 m
0 344.45 l
o
np
228.22 46.92 m
0 344.45 l
o
np
302.38 46.92 m
0 344.45 l
o
np
376.54 46.92 m
0 344.45 l
o
1 0 0 srgb
0.71 setlinewidth
[] 0 setdash
1 setlinecap
np
80.49 216.93 m
1.91 3.32 l
-3.83 0 l
1.92 -3.32 l
o
np
81.08 218.19 m
1.92 3.31 l
-3.83 0 l
1.91 -3.31 l
o
np
81.68 164.64 m
1.91 3.32 l
-3.83 0 l
1.92 -3.32 l
o
np
82.27 138.65 m
1.91 3.32 l
-3.82 0 l
1.91 -3.32 l
o
np
82.86 122.99 m
1.92 3.32 l
-3.83 0 l
1.91 -3.32 l
o
np
83.46 112.35 m
1.91 3.31 l
-3.83 0 l
1.92 -3.31 l
o
np
84.05 105.14 m
1.92 3.32 l
-3.83 0 l
1.91 -3.32 l
o
np
84.65 99.51 m
1.91 3.31 l
-3.83 0 l
1.92 -3.31 l
o
np
85.24 95.12 m
1.91 3.32 l
-3.82 0 l
1.91 -3.32 l
o
np
85.83 91.68 m
1.92 3.31 l
-3.83 0 l
1.91 -3.31 l
o
np
86.43 88.86 m
1.91 3.32 l
-3.83 0 l
1.92 -3.32 l
o
np
87.02 86.36 m
1.92 3.31 l
-3.83 0 l
1.91 -3.31 l
o
np
87.62 84.48 m
1.91 3.31 l
-3.83 0 l
1.92 -3.31 l
o
np
88.21 82.60 m
1.91 3.31 l
-3.82 0 l
1.91 -3.31 l
o
np
88.80 81.35 m
1.92 3.31 l
-3.83 0 l
1.91 -3.31 l
o
np
89.40 79.78 m
1.91 3.32 l
-3.83 0 l
1.92 -3.32 l
o
np
89.99 78.84 m
1.92 3.32 l
-3.83 0 l
1.91 -3.32 l
o
np
90.58 77.59 m
1.92 3.31 l
-3.83 0 l
1.91 -3.31 l
o
np
91.18 76.96 m
1.91 3.32 l
-3.83 0 l
1.92 -3.32 l
o
np
91.77 76.02 m
1.92 3.32 l
-3.83 0 l
1.91 -3.32 l
o
np
92.37 75.40 m
1.91 3.31 l
-3.83 0 l
1.92 -3.31 l
o
np
92.96 74.46 m
1.91 3.31 l
-3.82 0 l
1.91 -3.31 l
o
np
93.55 73.83 m
1.92 3.32 l
-3.83 0 l
1.91 -3.32 l
o
np
94.15 73.52 m
1.91 3.31 l
-3.83 0 l
1.92 -3.31 l
o
np
94.74 72.89 m
1.92 3.32 l
-3.83 0 l
1.91 -3.32 l
o
np
95.34 72.26 m
1.91 3.32 l
-3.83 0 l
1.92 -3.32 l
o
np
95.93 71.95 m
1.91 3.32 l
-3.82 0 l
1.91 -3.32 l
o
np
96.52 71.64 m
1.92 3.31 l
-3.83 0 l
1.91 -3.31 l
o
np
97.12 71.01 m
1.91 3.32 l
-3.83 0 l
1.92 -3.32 l
o
np
97.71 70.70 m
1.92 3.31 l
-3.83 0 l
1.91 -3.31 l
o
np
98.31 70.39 m
1.91 3.31 l
-3.83 0 l
1.92 -3.31 l
o
np
98.90 70.07 m
1.91 3.32 l
-3.83 0 l
1.92 -3.32 l
o
np
99.49 69.76 m
1.92 3.31 l
-3.83 0 l
1.91 -3.31 l
o
np
100.09 69.45 m
1.91 3.31 l
-3.83 0 l
1.92 -3.31 l
o
np
100.68 69.45 m
1.91 3.31 l
-3.82 0 l
1.91 -3.31 l
o
np
101.27 69.13 m
1.92 3.32 l
-3.83 0 l
1.91 -3.32 l
o
np
101.87 68.82 m
1.91 3.32 l
-3.83 0 l
1.92 -3.32 l
o
np
102.46 68.51 m
1.92 3.31 l
-3.83 0 l
1.91 -3.31 l
o
np
103.06 68.51 m
1.91 3.31 l
-3.83 0 l
1.92 -3.31 l
o
np
103.65 68.19 m
1.91 3.32 l
-3.82 0 l
1.91 -3.32 l
o
np
104.24 67.88 m
1.92 3.32 l
-3.83 0 l
1.91 -3.32 l
o
np
104.84 67.88 m
1.91 3.32 l
-3.83 0 l
1.92 -3.32 l
o
np
105.43 67.57 m
1.92 3.31 l
-3.83 0 l
1.91 -3.31 l
o
np
106.03 67.57 m
1.91 3.31 l
-3.83 0 l
1.92 -3.31 l
o
np
106.62 67.25 m
1.91 3.32 l
-3.82 0 l
1.91 -3.32 l
o
np
107.21 67.25 m
1.92 3.32 l
-3.83 0 l
1.91 -3.32 l
o
np
107.81 66.94 m
1.91 3.32 l
-3.83 0 l
1.92 -3.32 l
o
np
108.40 66.94 m
1.92 3.32 l
-3.83 0 l
1.91 -3.32 l
o
np
109.00 66.63 m
1.91 3.31 l
-3.83 0 l
1.92 -3.31 l
o
np
109.59 66.63 m
1.91 3.31 l
-3.83 0 l
1.92 -3.31 l
o
np
110.18 66.63 m
1.92 3.31 l
-3.83 0 l
1.91 -3.31 l
o
np
110.78 66.31 m
1.91 3.32 l
-3.83 0 l
1.92 -3.32 l
o
np
111.37 66.31 m
1.91 3.32 l
-3.82 0 l
1.91 -3.32 l
o
np
111.96 66.31 m
1.92 3.32 l
-3.83 0 l
1.91 -3.32 l
o
np
112.56 66.00 m
1.91 3.32 l
-3.83 0 l
1.92 -3.32 l
o
np
113.15 66.00 m
1.92 3.32 l
-3.83 0 l
1.91 -3.32 l
o
np
113.75 66.00 m
1.91 3.32 l
-3.83 0 l
1.92 -3.32 l
o
np
114.34 65.69 m
1.91 3.31 l
-3.82 0 l
1.91 -3.31 l
o
np
114.93 65.69 m
1.92 3.31 l
-3.83 0 l
1.91 -3.31 l
o
np
115.53 65.69 m
1.91 3.31 l
-3.83 0 l
1.92 -3.31 l
o
np
116.12 65.38 m
1.92 3.31 l
-3.83 0 l
1.91 -3.31 l
o
np
116.72 65.38 m
1.91 3.31 l
-3.83 0 l
1.92 -3.31 l
o
np
117.31 65.38 m
1.91 3.31 l
-3.82 0 l
1.91 -3.31 l
o
np
117.90 65.38 m
1.92 3.31 l
-3.83 0 l
1.91 -3.31 l
o
np
118.50 65.06 m
1.91 3.32 l
-3.83 0 l
1.92 -3.32 l
o
np
119.09 65.06 m
1.92 3.32 l
-3.83 0 l
1.91 -3.32 l
o
np
119.68 65.06 m
1.92 3.32 l
-3.83 0 l
1.91 -3.32 l
o
np
120.28 65.06 m
1.91 3.32 l
-3.83 0 l
1.92 -3.32 l
o
np
120.87 64.75 m
1.92 3.31 l
-3.83 0 l
1.91 -3.31 l
o
np
121.47 64.75 m
1.91 3.31 l
-3.83 0 l
1.92 -3.31 l
o
np
122.06 64.75 m
1.91 3.31 l
-3.82 0 l
1.91 -3.31 l
o
np
122.65 64.75 m
1.92 3.31 l
-3.83 0 l
1.91 -3.31 l
o
np
123.25 64.75 m
1.91 3.31 l
-3.83 0 l
1.92 -3.31 l
o
np
123.84 64.75 m
1.92 3.31 l
-3.83 0 l
1.91 -3.31 l
o
np
124.44 64.44 m
1.91 3.31 l
-3.83 0 l
1.92 -3.31 l
o
np
125.03 64.44 m
1.91 3.31 l
-3.82 0 l
1.91 -3.31 l
o
np
125.62 64.44 m
1.92 3.31 l
-3.83 0 l
1.91 -3.31 l
o
np
126.22 64.44 m
1.91 3.31 l
-3.83 0 l
1.92 -3.31 l
o
np
126.81 64.44 m
1.92 3.31 l
-3.83 0 l
1.91 -3.31 l
o
np
127.41 64.12 m
1.91 3.32 l
-3.83 0 l
1.92 -3.32 l
o
np
128.00 64.12 m
1.91 3.32 l
-3.82 0 l
1.91 -3.32 l
o
np
128.59 64.12 m
1.92 3.32 l
-3.83 0 l
1.91 -3.32 l
o
np
129.19 64.12 m
1.91 3.32 l
-3.83 0 l
1.92 -3.32 l
o
np
129.78 64.12 m
1.92 3.32 l
-3.83 0 l
1.91 -3.32 l
o
np
130.37 64.12 m
1.92 3.32 l
-3.83 0 l
1.91 -3.32 l
o
np
130.97 64.12 m
1.91 3.32 l
-3.83 0 l
1.92 -3.32 l
o
np
131.56 63.81 m
1.92 3.32 l
-3.83 0 l
1.91 -3.32 l
o
np
132.16 63.81 m
1.91 3.32 l
-3.83 0 l
1.92 -3.32 l
o
np
132.75 63.81 m
1.91 3.32 l
-3.82 0 l
1.91 -3.32 l
o
np
133.34 63.81 m
1.92 3.32 l
-3.83 0 l
1.91 -3.32 l
o
np
133.94 63.81 m
1.91 3.32 l
-3.83 0 l
1.92 -3.32 l
o
np
134.53 63.81 m
1.92 3.32 l
-3.83 0 l
1.91 -3.32 l
o
np
135.13 63.81 m
1.91 3.32 l
-3.83 0 l
1.92 -3.32 l
o
np
135.72 63.81 m
1.91 3.32 l
-3.82 0 l
1.91 -3.32 l
o
np
136.31 63.81 m
1.92 3.32 l
-3.83 0 l
1.91 -3.32 l
o
np
136.91 63.50 m
1.91 3.31 l
-3.83 0 l
1.92 -3.31 l
o
np
137.50 63.50 m
1.92 3.31 l
-3.83 0 l
1.91 -3.31 l
o
np
138.10 63.50 m
1.91 3.31 l
-3.83 0 l
1.92 -3.31 l
o
np
138.69 63.50 m
1.91 3.31 l
-3.83 0 l
1.92 -3.31 l
o
np
139.28 63.50 m
1.92 3.31 l
-3.83 0 l
1.91 -3.31 l
o
np
139.88 63.50 m
1.91 3.31 l
-3.83 0 l
1.92 -3.31 l
o
np
140.47 63.50 m
1.91 3.31 l
-3.82 0 l
1.91 -3.31 l
o
np
141.06 63.50 m
1.92 3.31 l
-3.83 0 l
1.91 -3.31 l
o
np
141.66 63.50 m
1.91 3.31 l
-3.83 0 l
1.92 -3.31 l
o
np
142.25 63.50 m
1.92 3.31 l
-3.83 0 l
1.91 -3.31 l
o
np
142.85 63.18 m
1.91 3.32 l
-3.83 0 l
1.92 -3.32 l
o
np
143.44 63.18 m
1.91 3.32 l
-3.82 0 l
1.91 -3.32 l
o
np
144.03 63.18 m
1.92 3.32 l
-3.83 0 l
1.91 -3.32 l
o
np
144.63 63.18 m
1.91 3.32 l
-3.83 0 l
1.92 -3.32 l
o
np
145.22 63.18 m
1.92 3.32 l
-3.83 0 l
1.91 -3.32 l
o
np
145.82 63.18 m
1.91 3.32 l
-3.83 0 l
1.92 -3.32 l
o
np
146.41 63.18 m
1.91 3.32 l
-3.82 0 l
1.91 -3.32 l
o
np
147.00 63.18 m
1.92 3.32 l
-3.83 0 l
1.91 -3.32 l
o
np
147.60 63.18 m
1.91 3.32 l
-3.83 0 l
1.92 -3.32 l
o
np
148.19 63.18 m
1.92 3.32 l
-3.83 0 l
1.91 -3.32 l
o
np
148.79 63.18 m
1.91 3.32 l
-3.83 0 l
1.92 -3.32 l
o
np
149.38 63.18 m
1.91 3.32 l
-3.83 0 l
1.92 -3.32 l
o
np
149.97 62.87 m
1.92 3.32 l
-3.83 0 l
1.91 -3.32 l
o
np
150.57 62.87 m
1.91 3.32 l
-3.83 0 l
1.92 -3.32 l
o
np
151.16 62.87 m
1.91 3.32 l
-3.82 0 l
1.91 -3.32 l
o
np
151.75 62.87 m
1.92 3.32 l
-3.83 0 l
1.91 -3.32 l
o
np
152.35 62.87 m
1.91 3.32 l
-3.83 0 l
1.92 -3.32 l
o
np
152.94 62.87 m
1.92 3.32 l
-3.83 0 l
1.91 -3.32 l
o
np
153.54 62.87 m
1.91 3.32 l
-3.83 0 l
1.92 -3.32 l
o
np
154.13 62.87 m
1.91 3.32 l
-3.82 0 l
1.91 -3.32 l
o
np
154.72 62.87 m
1.92 3.32 l
-3.83 0 l
1.91 -3.32 l
o
np
155.32 62.87 m
1.91 3.32 l
-3.83 0 l
1.92 -3.32 l
o
np
155.91 62.87 m
1.92 3.32 l
-3.83 0 l
1.91 -3.32 l
o
np
156.51 62.87 m
1.91 3.32 l
-3.83 0 l
1.92 -3.32 l
o
np
157.10 62.87 m
1.91 3.32 l
-3.82 0 l
1.91 -3.32 l
o
np
157.69 62.87 m
1.92 3.32 l
-3.83 0 l
1.91 -3.32 l
o
np
158.29 62.87 m
1.91 3.32 l
-3.83 0 l
1.92 -3.32 l
o
np
158.88 62.87 m
1.92 3.32 l
-3.83 0 l
1.91 -3.32 l
o
np
159.48 62.56 m
1.91 3.31 l
-3.83 0 l
1.92 -3.31 l
o
np
160.07 62.56 m
1.91 3.31 l
-3.83 0 l
1.92 -3.31 l
o
np
160.66 62.56 m
1.92 3.31 l
-3.83 0 l
1.91 -3.31 l
o
np
161.26 62.56 m
1.91 3.31 l
-3.83 0 l
1.92 -3.31 l
o
np
161.85 62.56 m
1.91 3.31 l
-3.82 0 l
1.91 -3.31 l
o
np
162.44 62.56 m
1.92 3.31 l
-3.83 0 l
1.91 -3.31 l
o
np
163.04 62.56 m
1.91 3.31 l
-3.83 0 l
1.92 -3.31 l
o
np
163.63 62.56 m
1.92 3.31 l
-3.83 0 l
1.91 -3.31 l
o
np
164.23 62.56 m
1.91 3.31 l
-3.83 0 l
1.92 -3.31 l
o
np
164.82 62.56 m
1.91 3.31 l
-3.82 0 l
1.91 -3.31 l
o
np
165.41 62.56 m
1.92 3.31 l
-3.83 0 l
1.91 -3.31 l
o
np
166.01 62.56 m
1.91 3.31 l
-3.83 0 l
1.92 -3.31 l
o
np
166.60 62.56 m
1.92 3.31 l
-3.83 0 l
1.91 -3.31 l
o
np
167.20 62.56 m
1.91 3.31 l
-3.83 0 l
1.92 -3.31 l
o
np
167.79 62.56 m
1.91 3.31 l
-3.82 0 l
1.91 -3.31 l
o
np
168.38 62.56 m
1.92 3.31 l
-3.83 0 l
1.91 -3.31 l
o
np
168.98 62.56 m
1.91 3.31 l
-3.83 0 l
1.92 -3.31 l
o
np
169.57 62.56 m
1.92 3.31 l
-3.83 0 l
1.91 -3.31 l
o
np
170.16 62.56 m
1.92 3.31 l
-3.83 0 l
1.91 -3.31 l
o
np
170.76 62.56 m
1.91 3.31 l
-3.83 0 l
1.92 -3.31 l
o
np
171.35 62.24 m
1.92 3.32 l
-3.83 0 l
1.91 -3.32 l
o
np
171.95 62.24 m
1.91 3.32 l
-3.83 0 l
1.92 -3.32 l
o
np
172.54 62.24 m
1.91 3.32 l
-3.82 0 l
1.91 -3.32 l
o
np
173.13 62.24 m
1.92 3.32 l
-3.83 0 l
1.91 -3.32 l
o
np
173.73 62.24 m
1.91 3.32 l
-3.83 0 l
1.92 -3.32 l
o
np
174.32 62.24 m
1.92 3.32 l
-3.83 0 l
1.91 -3.32 l
o
np
174.92 62.24 m
1.91 3.32 l
-3.83 0 l
1.92 -3.32 l
o
np
175.51 62.24 m
1.91 3.32 l
-3.82 0 l
1.91 -3.32 l
o
np
176.10 62.24 m
1.92 3.32 l
-3.83 0 l
1.91 -3.32 l
o
np
176.70 62.24 m
1.91 3.32 l
-3.83 0 l
1.92 -3.32 l
o
np
177.29 62.24 m
1.92 3.32 l
-3.83 0 l
1.91 -3.32 l
o
np
177.89 62.24 m
1.91 3.32 l
-3.83 0 l
1.92 -3.32 l
o
np
178.48 62.24 m
1.91 3.32 l
-3.82 0 l
1.91 -3.32 l
o
np
179.07 62.24 m
1.92 3.32 l
-3.83 0 l
1.91 -3.32 l
o
np
179.67 62.24 m
1.91 3.32 l
-3.83 0 l
1.92 -3.32 l
o
np
180.26 62.24 m
1.92 3.32 l
-3.83 0 l
1.91 -3.32 l
o
np
180.85 62.24 m
1.92 3.32 l
-3.83 0 l
1.91 -3.32 l
o
np
181.45 62.24 m
1.91 3.32 l
-3.83 0 l
1.92 -3.32 l
o
np
182.04 62.24 m
1.92 3.32 l
-3.83 0 l
1.91 -3.32 l
o
np
182.64 62.24 m
1.91 3.32 l
-3.83 0 l
1.92 -3.32 l
o
np
183.23 62.24 m
1.91 3.32 l
-3.82 0 l
1.91 -3.32 l
o
np
183.82 62.24 m
1.92 3.32 l
-3.83 0 l
1.91 -3.32 l
o
np
184.42 62.24 m
1.91 3.32 l
-3.83 0 l
1.92 -3.32 l
o
np
185.01 62.24 m
1.92 3.32 l
-3.83 0 l
1.91 -3.32 l
o
np
185.61 62.24 m
1.91 3.32 l
-3.83 0 l
1.92 -3.32 l
o
np
186.20 62.24 m
1.91 3.32 l
-3.82 0 l
1.91 -3.32 l
o
np
186.79 62.24 m
1.92 3.32 l
-3.83 0 l
1.91 -3.32 l
o
np
187.39 62.24 m
1.91 3.32 l
-3.83 0 l
1.92 -3.32 l
o
np
187.98 61.93 m
1.92 3.32 l
-3.83 0 l
1.91 -3.32 l
o
np
188.58 61.93 m
1.91 3.32 l
-3.83 0 l
1.92 -3.32 l
o
np
189.17 61.93 m
1.91 3.32 l
-3.83 0 l
1.92 -3.32 l
o
np
189.76 61.93 m
1.92 3.32 l
-3.83 0 l
1.91 -3.32 l
o
np
190.36 61.93 m
1.91 3.32 l
-3.83 0 l
1.92 -3.32 l
o
np
190.95 61.93 m
1.91 3.32 l
-3.82 0 l
1.91 -3.32 l
o
np
191.54 61.93 m
1.92 3.32 l
-3.83 0 l
1.91 -3.32 l
o
np
192.14 61.93 m
1.91 3.32 l
-3.83 0 l
1.92 -3.32 l
o
np
192.73 61.93 m
1.92 3.32 l
-3.83 0 l
1.91 -3.32 l
o
np
193.33 61.93 m
1.91 3.32 l
-3.83 0 l
1.92 -3.32 l
o
np
193.92 61.93 m
1.91 3.32 l
-3.82 0 l
1.91 -3.32 l
o
np
194.51 61.93 m
1.92 3.32 l
-3.83 0 l
1.91 -3.32 l
o
np
195.11 61.93 m
1.91 3.32 l
-3.83 0 l
1.92 -3.32 l
o
np
195.70 61.93 m
1.92 3.32 l
-3.83 0 l
1.91 -3.32 l
o
np
196.30 61.93 m
1.91 3.32 l
-3.83 0 l
1.92 -3.32 l
o
np
196.89 61.93 m
1.91 3.32 l
-3.82 0 l
1.91 -3.32 l
o
np
197.48 61.93 m
1.92 3.32 l
-3.83 0 l
1.91 -3.32 l
o
np
198.08 61.93 m
1.91 3.32 l
-3.83 0 l
1.92 -3.32 l
o
np
198.67 61.93 m
1.92 3.32 l
-3.83 0 l
1.91 -3.32 l
o
np
199.27 61.93 m
1.91 3.32 l
-3.83 0 l
1.92 -3.32 l
o
np
199.86 61.93 m
1.91 3.32 l
-3.83 0 l
1.92 -3.32 l
o
np
200.45 61.93 m
1.92 3.32 l
-3.83 0 l
1.91 -3.32 l
o
np
201.05 61.93 m
1.91 3.32 l
-3.83 0 l
1.92 -3.32 l
o
np
201.64 61.93 m
1.91 3.32 l
-3.82 0 l
1.91 -3.32 l
o
np
202.23 61.93 m
1.92 3.32 l
-3.83 0 l
1.91 -3.32 l
o
np
202.83 61.93 m
1.91 3.32 l
-3.83 0 l
1.92 -3.32 l
o
np
203.42 61.93 m
1.92 3.32 l
-3.83 0 l
1.91 -3.32 l
o
np
204.02 61.93 m
1.91 3.32 l
-3.83 0 l
1.92 -3.32 l
o
np
204.61 61.93 m
1.91 3.32 l
-3.82 0 l
1.91 -3.32 l
o
np
205.20 61.93 m
1.92 3.32 l
-3.83 0 l
1.91 -3.32 l
o
np
205.80 61.93 m
1.91 3.32 l
-3.83 0 l
1.92 -3.32 l
o
np
206.39 61.93 m
1.92 3.32 l
-3.83 0 l
1.91 -3.32 l
o
np
206.99 61.93 m
1.91 3.32 l
-3.83 0 l
1.92 -3.32 l
o
np
207.58 61.93 m
1.91 3.32 l
-3.82 0 l
1.91 -3.32 l
o
np
208.17 61.93 m
1.92 3.32 l
-3.83 0 l
1.91 -3.32 l
o
np
208.77 61.93 m
1.91 3.32 l
-3.83 0 l
1.92 -3.32 l
o
np
209.36 61.93 m
1.92 3.32 l
-3.83 0 l
1.91 -3.32 l
o
np
209.95 61.93 m
1.92 3.32 l
-3.83 0 l
1.91 -3.32 l
o
np
210.55 61.93 m
1.91 3.32 l
-3.83 0 l
1.92 -3.32 l
o
np
211.14 61.93 m
1.92 3.32 l
-3.83 0 l
1.91 -3.32 l
o
np
211.74 61.62 m
1.91 3.31 l
-3.83 0 l
1.92 -3.31 l
o
np
212.33 61.62 m
1.91 3.31 l
-3.82 0 l
1.91 -3.31 l
o
np
212.92 61.62 m
1.92 3.31 l
-3.83 0 l
1.91 -3.31 l
o
np
213.52 61.62 m
1.91 3.31 l
-3.83 0 l
1.92 -3.31 l
o
np
214.11 61.62 m
1.92 3.31 l
-3.83 0 l
1.91 -3.31 l
o
np
214.71 61.62 m
1.91 3.31 l
-3.83 0 l
1.92 -3.31 l
o
np
215.30 61.62 m
1.91 3.31 l
-3.82 0 l
1.91 -3.31 l
o
np
215.89 61.62 m
1.92 3.31 l
-3.83 0 l
1.91 -3.31 l
o
np
216.49 61.62 m
1.91 3.31 l
-3.83 0 l
1.92 -3.31 l
o
np
217.08 61.62 m
1.92 3.31 l
-3.83 0 l
1.91 -3.31 l
o
np
217.68 61.62 m
1.91 3.31 l
-3.83 0 l
1.92 -3.31 l
o
np
218.27 61.62 m
1.91 3.31 l
-3.82 0 l
1.91 -3.31 l
o
np
218.86 61.62 m
1.92 3.31 l
-3.83 0 l
1.91 -3.31 l
o
np
219.46 61.62 m
1.91 3.31 l
-3.83 0 l
1.92 -3.31 l
o
np
220.05 61.62 m
1.92 3.31 l
-3.83 0 l
1.91 -3.31 l
o
np
220.64 61.62 m
1.92 3.31 l
-3.83 0 l
1.91 -3.31 l
o
np
221.24 61.62 m
1.91 3.31 l
-3.83 0 l
1.92 -3.31 l
o
np
221.83 61.62 m
1.92 3.31 l
-3.83 0 l
1.91 -3.31 l
o
np
222.43 61.62 m
1.91 3.31 l
-3.83 0 l
1.92 -3.31 l
o
np
223.02 61.62 m
1.91 3.31 l
-3.82 0 l
1.91 -3.31 l
o
np
223.61 61.62 m
1.92 3.31 l
-3.83 0 l
1.91 -3.31 l
o
np
224.21 61.62 m
1.91 3.31 l
-3.83 0 l
1.92 -3.31 l
o
np
224.80 61.62 m
1.92 3.31 l
-3.83 0 l
1.91 -3.31 l
o
np
225.40 61.62 m
1.91 3.31 l
-3.83 0 l
1.92 -3.31 l
o
np
225.99 61.62 m
1.91 3.31 l
-3.82 0 l
1.91 -3.31 l
o
np
226.58 61.62 m
1.92 3.31 l
-3.83 0 l
1.91 -3.31 l
o
np
227.18 61.62 m
1.91 3.31 l
-3.83 0 l
1.92 -3.31 l
o
np
227.77 61.62 m
1.92 3.31 l
-3.83 0 l
1.91 -3.31 l
o
np
228.37 61.62 m
1.91 3.31 l
-3.83 0 l
1.92 -3.31 l
o
np
228.96 61.62 m
1.91 3.31 l
-3.83 0 l
1.92 -3.31 l
o
np
229.55 61.62 m
1.92 3.31 l
-3.83 0 l
1.91 -3.31 l
o
np
230.15 61.62 m
1.91 3.31 l
-3.83 0 l
1.92 -3.31 l
o
np
230.74 61.62 m
1.91 3.31 l
-3.82 0 l
1.91 -3.31 l
o
np
231.33 61.62 m
1.92 3.31 l
-3.83 0 l
1.91 -3.31 l
o
np
231.93 61.62 m
1.91 3.31 l
-3.83 0 l
1.92 -3.31 l
o
np
232.52 61.62 m
1.92 3.31 l
-3.83 0 l
1.91 -3.31 l
o
np
233.12 61.62 m
1.91 3.31 l
-3.83 0 l
1.92 -3.31 l
o
np
233.71 61.62 m
1.91 3.31 l
-3.82 0 l
1.91 -3.31 l
o
np
234.30 61.62 m
1.92 3.31 l
-3.83 0 l
1.91 -3.31 l
o
np
234.90 61.62 m
1.91 3.31 l
-3.83 0 l
1.92 -3.31 l
o
np
235.49 61.62 m
1.92 3.31 l
-3.83 0 l
1.91 -3.31 l
o
np
236.09 61.62 m
1.91 3.31 l
-3.83 0 l
1.92 -3.31 l
o
np
236.68 61.62 m
1.91 3.31 l
-3.82 0 l
1.91 -3.31 l
o
np
237.27 61.62 m
1.92 3.31 l
-3.83 0 l
1.91 -3.31 l
o
np
237.87 61.62 m
1.91 3.31 l
-3.83 0 l
1.92 -3.31 l
o
np
238.46 61.62 m
1.92 3.31 l
-3.83 0 l
1.91 -3.31 l
o
np
239.06 61.62 m
1.91 3.31 l
-3.83 0 l
1.92 -3.31 l
o
np
239.65 61.62 m
1.91 3.31 l
-3.83 0 l
1.92 -3.31 l
o
np
240.24 61.62 m
1.92 3.31 l
-3.83 0 l
1.91 -3.31 l
o
np
240.84 61.62 m
1.91 3.31 l
-3.83 0 l
1.92 -3.31 l
o
np
241.43 61.62 m
1.91 3.31 l
-3.82 0 l
1.91 -3.31 l
o
np
242.02 61.62 m
1.92 3.31 l
-3.83 0 l
1.91 -3.31 l
o
np
242.62 61.62 m
1.91 3.31 l
-3.83 0 l
1.92 -3.31 l
o
np
243.21 61.62 m
1.92 3.31 l
-3.83 0 l
1.91 -3.31 l
o
np
243.81 61.62 m
1.91 3.31 l
-3.83 0 l
1.92 -3.31 l
o
np
244.40 61.62 m
1.91 3.31 l
-3.82 0 l
1.91 -3.31 l
o
np
244.99 61.62 m
1.92 3.31 l
-3.83 0 l
1.91 -3.31 l
o
np
245.59 61.62 m
1.91 3.31 l
-3.83 0 l
1.92 -3.31 l
o
np
246.18 61.62 m
1.92 3.31 l
-3.83 0 l
1.91 -3.31 l
o
np
246.78 61.62 m
1.91 3.31 l
-3.83 0 l
1.92 -3.31 l
o
np
247.37 61.62 m
1.91 3.31 l
-3.82 0 l
1.91 -3.31 l
o
np
247.96 61.62 m
1.92 3.31 l
-3.83 0 l
1.91 -3.31 l
o
np
248.56 61.62 m
1.91 3.31 l
-3.83 0 l
1.92 -3.31 l
o
np
249.15 61.62 m
1.92 3.31 l
-3.83 0 l
1.91 -3.31 l
o
np
249.75 61.30 m
1.91 3.32 l
-3.83 0 l
1.92 -3.32 l
o
np
250.34 61.30 m
1.91 3.32 l
-3.83 0 l
1.92 -3.32 l
o
np
250.93 61.30 m
1.92 3.32 l
-3.83 0 l
1.91 -3.32 l
o
np
251.53 61.30 m
1.91 3.32 l
-3.83 0 l
1.92 -3.32 l
o
np
252.12 61.30 m
1.91 3.32 l
-3.82 0 l
1.91 -3.32 l
o
np
252.71 61.30 m
1.92 3.32 l
-3.83 0 l
1.91 -3.32 l
o
np
253.31 61.30 m
1.91 3.32 l
-3.83 0 l
1.92 -3.32 l
o
np
253.90 61.30 m
1.92 3.32 l
-3.83 0 l
1.91 -3.32 l
o
np
254.50 61.30 m
1.91 3.32 l
-3.83 0 l
1.92 -3.32 l
o
np
255.09 61.30 m
1.91 3.32 l
-3.82 0 l
1.91 -3.32 l
o
np
255.68 61.30 m
1.92 3.32 l
-3.83 0 l
1.91 -3.32 l
o
np
256.28 61.30 m
1.91 3.32 l
-3.83 0 l
1.92 -3.32 l
o
np
256.87 61.30 m
1.92 3.32 l
-3.83 0 l
1.91 -3.32 l
o
np
257.47 61.30 m
1.91 3.32 l
-3.83 0 l
1.92 -3.32 l
o
np
258.06 61.30 m
1.91 3.32 l
-3.82 0 l
1.91 -3.32 l
o
np
258.65 61.30 m
1.92 3.32 l
-3.83 0 l
1.91 -3.32 l
o
np
259.25 61.30 m
1.91 3.32 l
-3.83 0 l
1.92 -3.32 l
o
np
259.84 61.30 m
1.92 3.32 l
-3.83 0 l
1.91 -3.32 l
o
np
260.43 61.30 m
1.92 3.32 l
-3.83 0 l
1.91 -3.32 l
o
np
261.03 61.30 m
1.91 3.32 l
-3.83 0 l
1.92 -3.32 l
o
np
261.62 61.30 m
1.92 3.32 l
-3.83 0 l
1.91 -3.32 l
o
np
262.22 61.30 m
1.91 3.32 l
-3.83 0 l
1.92 -3.32 l
o
np
262.81 61.30 m
1.91 3.32 l
-3.82 0 l
1.91 -3.32 l
o
np
263.40 61.30 m
1.92 3.32 l
-3.83 0 l
1.91 -3.32 l
o
np
264.00 61.30 m
1.91 3.32 l
-3.83 0 l
1.92 -3.32 l
o
np
264.59 61.30 m
1.92 3.32 l
-3.83 0 l
1.91 -3.32 l
o
np
265.19 61.30 m
1.91 3.32 l
-3.83 0 l
1.92 -3.32 l
o
np
265.78 61.30 m
1.91 3.32 l
-3.82 0 l
1.91 -3.32 l
o
np
266.37 61.30 m
1.92 3.32 l
-3.83 0 l
1.91 -3.32 l
o
np
266.97 61.30 m
1.91 3.32 l
-3.83 0 l
1.92 -3.32 l
o
np
267.56 61.30 m
1.92 3.32 l
-3.83 0 l
1.91 -3.32 l
o
np
268.16 61.30 m
1.91 3.32 l
-3.83 0 l
1.92 -3.32 l
o
np
268.75 61.30 m
1.91 3.32 l
-3.82 0 l
1.91 -3.32 l
o
np
269.34 61.30 m
1.92 3.32 l
-3.83 0 l
1.91 -3.32 l
o
np
269.94 61.30 m
1.91 3.32 l
-3.83 0 l
1.92 -3.32 l
o
np
270.53 61.30 m
1.92 3.32 l
-3.83 0 l
1.91 -3.32 l
o
np
271.12 61.30 m
1.92 3.32 l
-3.83 0 l
1.91 -3.32 l
o
np
271.72 61.30 m
1.91 3.32 l
-3.83 0 l
1.92 -3.32 l
o
np
272.31 61.30 m
1.92 3.32 l
-3.83 0 l
1.91 -3.32 l
o
np
272.91 61.30 m
1.91 3.32 l
-3.83 0 l
1.92 -3.32 l
o
np
273.50 61.30 m
1.91 3.32 l
-3.82 0 l
1.91 -3.32 l
o
np
274.09 61.30 m
1.92 3.32 l
-3.83 0 l
1.91 -3.32 l
o
np
274.69 61.30 m
1.91 3.32 l
-3.83 0 l
1.92 -3.32 l
o
np
275.28 61.30 m
1.92 3.32 l
-3.83 0 l
1.91 -3.32 l
o
np
275.88 61.30 m
1.91 3.32 l
-3.83 0 l
1.92 -3.32 l
o
np
276.47 61.30 m
1.91 3.32 l
-3.82 0 l
1.91 -3.32 l
o
np
277.06 61.30 m
1.92 3.32 l
-3.83 0 l
1.91 -3.32 l
o
np
277.66 61.30 m
1.91 3.32 l
-3.83 0 l
1.92 -3.32 l
o
np
278.25 61.30 m
1.92 3.32 l
-3.83 0 l
1.91 -3.32 l
o
np
278.85 61.30 m
1.91 3.32 l
-3.83 0 l
1.92 -3.32 l
o
np
279.44 61.30 m
1.91 3.32 l
-3.83 0 l
1.92 -3.32 l
o
np
280.03 61.30 m
1.92 3.32 l
-3.83 0 l
1.91 -3.32 l
o
np
280.63 61.30 m
1.91 3.32 l
-3.83 0 l
1.92 -3.32 l
o
np
281.22 61.30 m
1.91 3.32 l
-3.82 0 l
1.91 -3.32 l
o
np
281.81 61.30 m
1.92 3.32 l
-3.83 0 l
1.91 -3.32 l
o
np
282.41 61.30 m
1.91 3.32 l
-3.83 0 l
1.92 -3.32 l
o
np
283.00 61.30 m
1.92 3.32 l
-3.83 0 l
1.91 -3.32 l
o
np
283.60 61.30 m
1.91 3.32 l
-3.83 0 l
1.92 -3.32 l
o
np
284.19 61.30 m
1.91 3.32 l
-3.82 0 l
1.91 -3.32 l
o
np
284.78 61.30 m
1.92 3.32 l
-3.83 0 l
1.91 -3.32 l
o
np
285.38 61.30 m
1.91 3.32 l
-3.83 0 l
1.92 -3.32 l
o
np
285.97 61.30 m
1.92 3.32 l
-3.83 0 l
1.91 -3.32 l
o
np
286.57 61.30 m
1.91 3.32 l
-3.83 0 l
1.92 -3.32 l
o
np
287.16 61.30 m
1.91 3.32 l
-3.82 0 l
1.91 -3.32 l
o
np
287.75 61.30 m
1.92 3.32 l
-3.83 0 l
1.91 -3.32 l
o
np
288.35 61.30 m
1.91 3.32 l
-3.83 0 l
1.92 -3.32 l
o
np
288.94 61.30 m
1.92 3.32 l
-3.83 0 l
1.91 -3.32 l
o
np
289.54 61.30 m
1.91 3.32 l
-3.83 0 l
1.92 -3.32 l
o
np
290.13 61.30 m
1.91 3.32 l
-3.83 0 l
1.92 -3.32 l
o
np
290.72 61.30 m
1.92 3.32 l
-3.83 0 l
1.91 -3.32 l
o
np
291.32 61.30 m
1.91 3.32 l
-3.83 0 l
1.92 -3.32 l
o
np
291.91 61.30 m
1.91 3.32 l
-3.82 0 l
1.91 -3.32 l
o
np
292.50 61.30 m
1.92 3.32 l
-3.83 0 l
1.91 -3.32 l
o
np
293.10 61.30 m
1.91 3.32 l
-3.83 0 l
1.92 -3.32 l
o
np
293.69 61.30 m
1.92 3.32 l
-3.83 0 l
1.91 -3.32 l
o
np
294.29 61.30 m
1.91 3.32 l
-3.83 0 l
1.92 -3.32 l
o
np
294.88 61.30 m
1.91 3.32 l
-3.82 0 l
1.91 -3.32 l
o
np
295.47 61.30 m
1.92 3.32 l
-3.83 0 l
1.91 -3.32 l
o
np
296.07 61.30 m
1.91 3.32 l
-3.83 0 l
1.92 -3.32 l
o
np
296.66 61.30 m
1.92 3.32 l
-3.83 0 l
1.91 -3.32 l
o
np
297.26 61.30 m
1.91 3.32 l
-3.83 0 l
1.92 -3.32 l
o
np
297.85 61.30 m
1.91 3.32 l
-3.82 0 l
1.91 -3.32 l
o
np
298.44 61.30 m
1.92 3.32 l
-3.83 0 l
1.91 -3.32 l
o
np
299.04 61.30 m
1.91 3.32 l
-3.83 0 l
1.92 -3.32 l
o
np
299.63 61.30 m
1.92 3.32 l
-3.83 0 l
1.91 -3.32 l
o
np
300.22 61.30 m
1.92 3.32 l
-3.83 0 l
1.91 -3.32 l
o
np
300.82 61.30 m
1.91 3.32 l
-3.83 0 l
1.92 -3.32 l
o
np
301.41 61.30 m
1.92 3.32 l
-3.83 0 l
1.91 -3.32 l
o
np
302.01 61.30 m
1.91 3.32 l
-3.83 0 l
1.92 -3.32 l
o
np
302.60 61.30 m
1.91 3.32 l
-3.82 0 l
1.91 -3.32 l
o
np
303.19 61.30 m
1.92 3.32 l
-3.83 0 l
1.91 -3.32 l
o
np
303.79 61.30 m
1.91 3.32 l
-3.83 0 l
1.92 -3.32 l
o
np
304.38 61.30 m
1.92 3.32 l
-3.83 0 l
1.91 -3.32 l
o
np
304.98 61.30 m
1.91 3.32 l
-3.83 0 l
1.92 -3.32 l
o
np
305.57 61.30 m
1.91 3.32 l
-3.82 0 l
1.91 -3.32 l
o
np
306.16 61.30 m
1.92 3.32 l
-3.83 0 l
1.91 -3.32 l
o
np
306.76 61.30 m
1.91 3.32 l
-3.83 0 l
1.92 -3.32 l
o
np
307.35 61.30 m
1.92 3.32 l
-3.83 0 l
1.91 -3.32 l
o
np
307.95 61.30 m
1.91 3.32 l
-3.83 0 l
1.92 -3.32 l
o
np
308.54 61.30 m
1.91 3.32 l
-3.82 0 l
1.91 -3.32 l
o
np
309.13 61.30 m
1.92 3.32 l
-3.83 0 l
1.91 -3.32 l
o
np
309.73 61.30 m
1.91 3.32 l
-3.83 0 l
1.92 -3.32 l
o
np
310.32 61.30 m
1.92 3.32 l
-3.83 0 l
1.91 -3.32 l
o
np
310.91 61.30 m
1.92 3.32 l
-3.83 0 l
1.91 -3.32 l
o
np
311.51 61.30 m
1.91 3.32 l
-3.83 0 l
1.92 -3.32 l
o
np
312.10 61.30 m
1.92 3.32 l
-3.83 0 l
1.91 -3.32 l
o
np
312.70 61.30 m
1.91 3.32 l
-3.83 0 l
1.92 -3.32 l
o
np
313.29 61.30 m
1.91 3.32 l
-3.82 0 l
1.91 -3.32 l
o
np
313.88 61.30 m
1.92 3.32 l
-3.83 0 l
1.91 -3.32 l
o
np
314.48 61.30 m
1.91 3.32 l
-3.83 0 l
1.92 -3.32 l
o
np
315.07 61.30 m
1.92 3.32 l
-3.83 0 l
1.91 -3.32 l
o
np
315.67 61.30 m
1.91 3.32 l
-3.83 0 l
1.92 -3.32 l
o
np
316.26 61.30 m
1.91 3.32 l
-3.82 0 l
1.91 -3.32 l
o
np
316.85 61.30 m
1.92 3.32 l
-3.83 0 l
1.91 -3.32 l
o
np
317.45 60.99 m
1.91 3.32 l
-3.83 0 l
1.92 -3.32 l
o
np
318.04 60.99 m
1.92 3.32 l
-3.83 0 l
1.91 -3.32 l
o
np
318.64 60.99 m
1.91 3.32 l
-3.83 0 l
1.92 -3.32 l
o
np
319.23 60.99 m
1.91 3.32 l
-3.83 0 l
1.92 -3.32 l
o
np
319.82 60.99 m
1.92 3.32 l
-3.83 0 l
1.91 -3.32 l
o
np
320.42 60.99 m
1.91 3.32 l
-3.83 0 l
1.92 -3.32 l
o
np
321.01 60.99 m
1.91 3.32 l
-3.82 0 l
1.91 -3.32 l
o
np
321.60 60.99 m
1.92 3.32 l
-3.83 0 l
1.91 -3.32 l
o
np
322.20 60.99 m
1.91 3.32 l
-3.83 0 l
1.92 -3.32 l
o
np
322.79 60.99 m
1.92 3.32 l
-3.83 0 l
1.91 -3.32 l
o
np
323.39 60.99 m
1.91 3.32 l
-3.83 0 l
1.92 -3.32 l
o
np
323.98 60.99 m
1.91 3.32 l
-3.82 0 l
1.91 -3.32 l
o
np
324.57 60.99 m
1.92 3.32 l
-3.83 0 l
1.91 -3.32 l
o
np
325.17 60.99 m
1.91 3.32 l
-3.83 0 l
1.92 -3.32 l
o
np
325.76 60.99 m
1.92 3.32 l
-3.83 0 l
1.91 -3.32 l
o
np
326.36 60.99 m
1.91 3.32 l
-3.83 0 l
1.92 -3.32 l
o
np
326.95 60.99 m
1.91 3.32 l
-3.82 0 l
1.91 -3.32 l
o
np
327.54 60.99 m
1.92 3.32 l
-3.83 0 l
1.91 -3.32 l
o
np
328.14 60.99 m
1.91 3.32 l
-3.83 0 l
1.92 -3.32 l
o
np
328.73 60.99 m
1.92 3.32 l
-3.83 0 l
1.91 -3.32 l
o
np
329.33 60.99 m
1.91 3.32 l
-3.83 0 l
1.92 -3.32 l
o
np
329.92 60.99 m
1.91 3.32 l
-3.83 0 l
1.92 -3.32 l
o
np
330.51 60.99 m
1.92 3.32 l
-3.83 0 l
1.91 -3.32 l
o
np
331.11 60.99 m
1.91 3.32 l
-3.83 0 l
1.92 -3.32 l
o
np
331.70 60.99 m
1.91 3.32 l
-3.82 0 l
1.91 -3.32 l
o
np
332.29 60.99 m
1.92 3.32 l
-3.83 0 l
1.91 -3.32 l
o
np
332.89 60.99 m
1.91 3.32 l
-3.83 0 l
1.92 -3.32 l
o
np
333.48 60.99 m
1.92 3.32 l
-3.83 0 l
1.91 -3.32 l
o
np
334.08 60.99 m
1.91 3.32 l
-3.83 0 l
1.92 -3.32 l
o
np
334.67 60.99 m
1.91 3.32 l
-3.82 0 l
1.91 -3.32 l
o
np
335.26 60.99 m
1.92 3.32 l
-3.83 0 l
1.91 -3.32 l
o
np
335.86 60.99 m
1.91 3.32 l
-3.83 0 l
1.92 -3.32 l
o
np
336.45 60.99 m
1.92 3.32 l
-3.83 0 l
1.91 -3.32 l
o
np
337.05 60.99 m
1.91 3.32 l
-3.83 0 l
1.92 -3.32 l
o
np
337.64 60.99 m
1.91 3.32 l
-3.82 0 l
1.91 -3.32 l
o
np
338.23 60.99 m
1.92 3.32 l
-3.83 0 l
1.91 -3.32 l
o
np
338.83 60.99 m
1.91 3.32 l
-3.83 0 l
1.92 -3.32 l
o
np
339.42 60.99 m
1.92 3.32 l
-3.83 0 l
1.91 -3.32 l
o
np
340.02 60.99 m
1.91 3.32 l
-3.83 0 l
1.92 -3.32 l
o
np
340.61 60.99 m
1.91 3.32 l
-3.83 0 l
1.92 -3.32 l
o
np
341.20 60.99 m
1.92 3.32 l
-3.83 0 l
1.91 -3.32 l
o
np
341.80 60.99 m
1.91 3.32 l
-3.83 0 l
1.92 -3.32 l
o
np
342.39 60.99 m
1.91 3.32 l
-3.82 0 l
1.91 -3.32 l
o
np
342.98 60.99 m
1.92 3.32 l
-3.83 0 l
1.91 -3.32 l
o
np
343.58 60.99 m
1.91 3.32 l
-3.83 0 l
1.92 -3.32 l
o
np
344.17 60.99 m
1.92 3.32 l
-3.83 0 l
1.91 -3.32 l
o
np
344.77 60.99 m
1.91 3.32 l
-3.83 0 l
1.92 -3.32 l
o
np
345.36 60.99 m
1.91 3.32 l
-3.82 0 l
1.91 -3.32 l
o
np
345.95 60.99 m
1.92 3.32 l
-3.83 0 l
1.91 -3.32 l
o
np
346.55 60.99 m
1.91 3.32 l
-3.83 0 l
1.92 -3.32 l
o
np
347.14 60.99 m
1.92 3.32 l
-3.83 0 l
1.91 -3.32 l
o
np
347.74 60.99 m
1.91 3.32 l
-3.83 0 l
1.92 -3.32 l
o
np
348.33 60.99 m
1.91 3.32 l
-3.82 0 l
1.91 -3.32 l
o
np
348.92 60.99 m
1.92 3.32 l
-3.83 0 l
1.91 -3.32 l
o
np
349.52 60.99 m
1.91 3.32 l
-3.83 0 l
1.92 -3.32 l
o
np
350.11 60.99 m
1.92 3.32 l
-3.83 0 l
1.91 -3.32 l
o
np
350.70 60.99 m
1.92 3.32 l
-3.83 0 l
1.91 -3.32 l
o
np
351.30 60.99 m
1.91 3.32 l
-3.83 0 l
1.92 -3.32 l
o
np
351.89 60.99 m
1.92 3.32 l
-3.83 0 l
1.91 -3.32 l
o
np
352.49 60.99 m
1.91 3.32 l
-3.83 0 l
1.92 -3.32 l
o
np
353.08 60.99 m
1.91 3.32 l
-3.82 0 l
1.91 -3.32 l
o
np
353.67 60.99 m
1.92 3.32 l
-3.83 0 l
1.91 -3.32 l
o
np
354.27 60.99 m
1.91 3.32 l
-3.83 0 l
1.92 -3.32 l
o
np
354.86 60.99 m
1.92 3.32 l
-3.83 0 l
1.91 -3.32 l
o
np
355.46 60.99 m
1.91 3.32 l
-3.83 0 l
1.92 -3.32 l
o
np
356.05 60.99 m
1.91 3.32 l
-3.82 0 l
1.91 -3.32 l
o
np
356.64 60.99 m
1.92 3.32 l
-3.83 0 l
1.91 -3.32 l
o
np
357.24 60.99 m
1.91 3.32 l
-3.83 0 l
1.92 -3.32 l
o
np
357.83 60.99 m
1.92 3.32 l
-3.83 0 l
1.91 -3.32 l
o
np
358.43 60.99 m
1.91 3.32 l
-3.83 0 l
1.92 -3.32 l
o
np
359.02 60.99 m
1.91 3.32 l
-3.82 0 l
1.91 -3.32 l
o
np
359.61 60.99 m
1.92 3.32 l
-3.83 0 l
1.91 -3.32 l
o
np
360.21 60.99 m
1.91 3.32 l
-3.83 0 l
1.92 -3.32 l
o
np
360.80 60.99 m
1.92 3.32 l
-3.83 0 l
1.91 -3.32 l
o
np
361.39 60.99 m
1.92 3.32 l
-3.83 0 l
1.91 -3.32 l
o
np
361.99 60.99 m
1.91 3.32 l
-3.83 0 l
1.92 -3.32 l
o
np
362.58 60.99 m
1.92 3.32 l
-3.83 0 l
1.91 -3.32 l
o
np
363.18 60.99 m
1.91 3.32 l
-3.83 0 l
1.92 -3.32 l
o
np
363.77 60.99 m
1.91 3.32 l
-3.82 0 l
1.91 -3.32 l
o
np
364.36 60.99 m
1.92 3.32 l
-3.83 0 l
1.91 -3.32 l
o
np
364.96 60.99 m
1.91 3.32 l
-3.83 0 l
1.92 -3.32 l
o
np
365.55 60.99 m
1.92 3.32 l
-3.83 0 l
1.91 -3.32 l
o
np
366.15 60.99 m
1.91 3.32 l
-3.83 0 l
1.92 -3.32 l
o
np
366.74 60.99 m
1.91 3.32 l
-3.82 0 l
1.91 -3.32 l
o
np
367.33 60.99 m
1.92 3.32 l
-3.83 0 l
1.91 -3.32 l
o
np
367.93 60.99 m
1.91 3.32 l
-3.83 0 l
1.92 -3.32 l
o
np
368.52 60.99 m
1.92 3.32 l
-3.83 0 l
1.91 -3.32 l
o
np
369.12 60.99 m
1.91 3.32 l
-3.83 0 l
1.92 -3.32 l
o
np
369.71 60.99 m
1.91 3.32 l
-3.83 0 l
1.92 -3.32 l
o
np
370.30 60.99 m
1.92 3.32 l
-3.83 0 l
1.91 -3.32 l
o
np
370.90 60.99 m
1.91 3.32 l
-3.83 0 l
1.92 -3.32 l
o
np
371.49 60.99 m
1.91 3.32 l
-3.82 0 l
1.91 -3.32 l
o
np
372.08 60.99 m
1.92 3.32 l
-3.83 0 l
1.91 -3.32 l
o
np
372.68 60.99 m
1.91 3.32 l
-3.83 0 l
1.92 -3.32 l
o
np
373.27 60.99 m
1.92 3.32 l
-3.83 0 l
1.91 -3.32 l
o
np
373.87 60.99 m
1.91 3.32 l
-3.83 0 l
1.92 -3.32 l
o
np
374.46 60.99 m
1.91 3.32 l
-3.82 0 l
1.91 -3.32 l
o
np
375.05 60.99 m
1.92 3.32 l
-3.83 0 l
1.91 -3.32 l
o
np
375.65 60.99 m
1.91 3.32 l
-3.83 0 l
1.92 -3.32 l
o
np
376.24 60.68 m
1.92 3.31 l
-3.83 0 l
1.91 -3.31 l
o
np
376.54 60.68 m
1.91 3.31 l
-3.83 0 l
1.92 -3.31 l
o
0 0 1 srgb
np
80.49 303.40 m
1.91 -3.32 l
-3.83 0 l
1.92 3.32 l
o
np
81.08 341.60 m
1.92 -3.32 l
-3.83 0 l
1.91 3.32 l
o
np
81.68 347.86 m
1.91 -3.31 l
-3.83 0 l
1.92 3.31 l
o
np
82.27 346.92 m
1.91 -3.31 l
-3.82 0 l
1.91 3.31 l
o
np
82.86 350.37 m
1.92 -3.32 l
-3.83 0 l
1.91 3.32 l
o
np
83.46 351.31 m
1.91 -3.32 l
-3.83 0 l
1.92 3.32 l
o
np
84.05 350.99 m
1.92 -3.31 l
-3.83 0 l
1.91 3.31 l
o
np
84.65 349.74 m
1.91 -3.31 l
-3.83 0 l
1.92 3.31 l
o
np
85.24 348.80 m
1.91 -3.31 l
-3.82 0 l
1.91 3.31 l
o
np
85.83 350.06 m
1.92 -3.32 l
-3.83 0 l
1.91 3.32 l
o
np
86.43 350.06 m
1.91 -3.32 l
-3.83 0 l
1.92 3.32 l
o
np
87.02 347.86 m
1.92 -3.31 l
-3.83 0 l
1.91 3.31 l
o
np
87.62 347.24 m
1.91 -3.32 l
-3.83 0 l
1.92 3.32 l
o
np
88.21 347.55 m
1.91 -3.32 l
-3.82 0 l
1.91 3.32 l
o
np
88.80 347.24 m
1.92 -3.32 l
-3.83 0 l
1.91 3.32 l
o
np
89.40 346.61 m
1.91 -3.31 l
-3.83 0 l
1.92 3.31 l
o
np
89.99 345.67 m
1.92 -3.31 l
-3.83 0 l
1.91 3.31 l
o
np
90.58 345.36 m
1.92 -3.32 l
-3.83 0 l
1.91 3.32 l
o
np
91.18 344.42 m
1.91 -3.32 l
-3.83 0 l
1.92 3.32 l
o
np
91.77 343.48 m
1.92 -3.32 l
-3.83 0 l
1.91 3.32 l
o
np
92.37 342.54 m
1.91 -3.32 l
-3.83 0 l
1.92 3.32 l
o
np
92.96 341.91 m
1.91 -3.31 l
-3.82 0 l
1.91 3.31 l
o
np
93.55 342.54 m
1.92 -3.32 l
-3.83 0 l
1.91 3.32 l
o
np
94.15 340.03 m
1.91 -3.31 l
-3.83 0 l
1.92 3.31 l
o
np
94.74 340.66 m
1.92 -3.31 l
-3.83 0 l
1.91 3.31 l
o
np
95.34 340.03 m
1.91 -3.31 l
-3.83 0 l
1.92 3.31 l
o
np
95.93 339.41 m
1.91 -3.32 l
-3.82 0 l
1.91 3.32 l
o
np
96.52 338.47 m
1.92 -3.32 l
-3.83 0 l
1.91 3.32 l
o
np
97.12 337.53 m
1.91 -3.32 l
-3.83 0 l
1.92 3.32 l
o
np
97.71 337.53 m
1.92 -3.32 l
-3.83 0 l
1.91 3.32 l
o
np
98.31 336.59 m
1.91 -3.32 l
-3.83 0 l
1.92 3.32 l
o
np
98.90 335.65 m
1.91 -3.31 l
-3.83 0 l
1.92 3.31 l
o
np
99.49 335.65 m
1.92 -3.31 l
-3.83 0 l
1.91 3.31 l
o
np
100.09 335.02 m
1.91 -3.31 l
-3.83 0 l
1.92 3.31 l
o
np
100.68 334.08 m
1.91 -3.31 l
-3.82 0 l
1.91 3.31 l
o
np
101.27 333.46 m
1.92 -3.32 l
-3.83 0 l
1.91 3.32 l
o
np
101.87 333.15 m
1.91 -3.32 l
-3.83 0 l
1.92 3.32 l
o
np
102.46 332.21 m
1.92 -3.32 l
-3.83 0 l
1.91 3.32 l
o
np
103.06 331.89 m
1.91 -3.31 l
-3.83 0 l
1.92 3.31 l
o
np
103.65 330.64 m
1.91 -3.32 l
-3.82 0 l
1.91 3.32 l
o
np
104.24 330.64 m
1.92 -3.32 l
-3.83 0 l
1.91 3.32 l
o
np
104.84 329.39 m
1.91 -3.32 l
-3.83 0 l
1.92 3.32 l
o
np
105.43 329.39 m
1.92 -3.32 l
-3.83 0 l
1.91 3.32 l
o
np
106.03 328.76 m
1.91 -3.31 l
-3.83 0 l
1.92 3.31 l
o
np
106.62 327.82 m
1.91 -3.31 l
-3.82 0 l
1.91 3.31 l
o
np
107.21 327.51 m
1.92 -3.32 l
-3.83 0 l
1.91 3.32 l
o
np
107.81 327.20 m
1.91 -3.32 l
-3.83 0 l
1.92 3.32 l
o
np
108.40 326.26 m
1.92 -3.32 l
-3.83 0 l
1.91 3.32 l
o
np
109.00 325.63 m
1.91 -3.32 l
-3.83 0 l
1.92 3.32 l
o
np
109.59 325.32 m
1.91 -3.32 l
-3.83 0 l
1.92 3.32 l
o
np
110.18 325.00 m
1.92 -3.31 l
-3.83 0 l
1.91 3.31 l
o
np
110.78 324.06 m
1.91 -3.31 l
-3.83 0 l
1.92 3.31 l
o
np
111.37 323.13 m
1.91 -3.32 l
-3.82 0 l
1.91 3.32 l
o
np
111.96 322.50 m
1.92 -3.32 l
-3.83 0 l
1.91 3.32 l
o
np
112.56 321.87 m
1.91 -3.31 l
-3.83 0 l
1.92 3.31 l
o
np
113.15 321.56 m
1.92 -3.32 l
-3.83 0 l
1.91 3.32 l
o
np
113.75 320.93 m
1.91 -3.31 l
-3.83 0 l
1.92 3.31 l
o
np
114.34 320.31 m
1.91 -3.32 l
-3.82 0 l
1.91 3.32 l
o
np
114.93 319.99 m
1.92 -3.31 l
-3.83 0 l
1.91 3.31 l
o
np
115.53 319.05 m
1.91 -3.31 l
-3.83 0 l
1.92 3.31 l
o
np
116.12 318.43 m
1.92 -3.32 l
-3.83 0 l
1.91 3.32 l
o
np
116.72 317.80 m
1.91 -3.31 l
-3.83 0 l
1.92 3.31 l
o
np
117.31 317.18 m
1.91 -3.32 l
-3.82 0 l
1.91 3.32 l
o
np
117.90 316.86 m
1.92 -3.31 l
-3.83 0 l
1.91 3.31 l
o
np
118.50 315.92 m
1.91 -3.31 l
-3.83 0 l
1.92 3.31 l
o
np
119.09 315.61 m
1.92 -3.32 l
-3.83 0 l
1.91 3.32 l
o
np
119.68 314.98 m
1.92 -3.31 l
-3.83 0 l
1.91 3.31 l
o
np
120.28 314.36 m
1.91 -3.32 l
-3.83 0 l
1.92 3.32 l
o
np
120.87 313.73 m
1.92 -3.31 l
-3.83 0 l
1.91 3.31 l
o
np
121.47 312.79 m
1.91 -3.31 l
-3.83 0 l
1.92 3.31 l
o
np
122.06 312.48 m
1.91 -3.32 l
-3.82 0 l
1.91 3.32 l
o
np
122.65 312.17 m
1.92 -3.32 l
-3.83 0 l
1.91 3.32 l
o
np
123.25 311.85 m
1.91 -3.31 l
-3.83 0 l
1.92 3.31 l
o
np
123.84 310.91 m
1.92 -3.31 l
-3.83 0 l
1.91 3.31 l
o
np
124.44 309.97 m
1.91 -3.31 l
-3.83 0 l
1.92 3.31 l
o
np
125.03 309.66 m
1.91 -3.32 l
-3.82 0 l
1.91 3.32 l
o
np
125.62 309.03 m
1.92 -3.31 l
-3.83 0 l
1.91 3.31 l
o
np
126.22 308.41 m
1.91 -3.32 l
-3.83 0 l
1.92 3.32 l
o
np
126.81 307.78 m
1.92 -3.31 l
-3.83 0 l
1.91 3.31 l
o
np
127.41 307.47 m
1.91 -3.32 l
-3.83 0 l
1.92 3.32 l
o
np
128.00 306.53 m
1.91 -3.32 l
-3.82 0 l
1.91 3.32 l
o
np
128.59 305.90 m
1.92 -3.31 l
-3.83 0 l
1.91 3.31 l
o
np
129.19 305.59 m
1.91 -3.32 l
-3.83 0 l
1.92 3.32 l
o
np
129.78 304.65 m
1.92 -3.32 l
-3.83 0 l
1.91 3.32 l
o
np
130.37 304.65 m
1.92 -3.32 l
-3.83 0 l
1.91 3.32 l
o
np
130.97 303.71 m
1.91 -3.31 l
-3.83 0 l
1.92 3.31 l
o
np
131.56 303.08 m
1.92 -3.31 l
-3.83 0 l
1.91 3.31 l
o
np
132.16 302.46 m
1.91 -3.32 l
-3.83 0 l
1.92 3.32 l
o
np
132.75 302.14 m
1.91 -3.31 l
-3.82 0 l
1.91 3.31 l
o
np
133.34 301.21 m
1.92 -3.32 l
-3.83 0 l
1.91 3.32 l
o
np
133.94 300.89 m
1.91 -3.31 l
-3.83 0 l
1.92 3.31 l
o
np
134.53 300.27 m
1.92 -3.32 l
-3.83 0 l
1.91 3.32 l
o
np
135.13 299.64 m
1.91 -3.32 l
-3.83 0 l
1.92 3.32 l
o
np
135.72 298.70 m
1.91 -3.32 l
-3.82 0 l
1.91 3.32 l
o
np
136.31 298.70 m
1.92 -3.32 l
-3.83 0 l
1.91 3.32 l
o
np
136.91 298.07 m
1.91 -3.31 l
-3.83 0 l
1.92 3.31 l
o
np
137.50 297.13 m
1.92 -3.31 l
-3.83 0 l
1.91 3.31 l
o
np
138.10 296.82 m
1.91 -3.31 l
-3.83 0 l
1.92 3.31 l
o
np
138.69 296.20 m
1.91 -3.32 l
-3.83 0 l
1.92 3.32 l
o
np
139.28 295.88 m
1.92 -3.31 l
-3.83 0 l
1.91 3.31 l
o
np
139.88 294.63 m
1.91 -3.32 l
-3.83 0 l
1.92 3.32 l
o
np
140.47 294.63 m
1.91 -3.32 l
-3.82 0 l
1.91 3.32 l
o
np
141.06 293.69 m
1.92 -3.32 l
-3.83 0 l
1.91 3.32 l
o
np
141.66 293.38 m
1.91 -3.32 l
-3.83 0 l
1.92 3.32 l
o
np
142.25 292.75 m
1.92 -3.31 l
-3.83 0 l
1.91 3.31 l
o
np
142.85 292.12 m
1.91 -3.31 l
-3.83 0 l
1.92 3.31 l
o
np
143.44 291.81 m
1.91 -3.31 l
-3.82 0 l
1.91 3.31 l
o
np
144.03 290.87 m
1.92 -3.31 l
-3.83 0 l
1.91 3.31 l
o
np
144.63 290.56 m
1.91 -3.32 l
-3.83 0 l
1.92 3.32 l
o
np
145.22 289.62 m
1.92 -3.32 l
-3.83 0 l
1.91 3.32 l
o
np
145.82 289.31 m
1.91 -3.32 l
-3.83 0 l
1.92 3.32 l
o
np
146.41 288.68 m
1.91 -3.32 l
-3.82 0 l
1.91 3.32 l
o
np
147.00 287.74 m
1.92 -3.31 l
-3.83 0 l
1.91 3.31 l
o
np
147.60 287.43 m
1.91 -3.32 l
-3.83 0 l
1.92 3.32 l
o
np
148.19 287.11 m
1.92 -3.31 l
-3.83 0 l
1.91 3.31 l
o
np
148.79 286.49 m
1.91 -3.32 l
-3.83 0 l
1.92 3.32 l
o
np
149.38 285.55 m
1.91 -3.32 l
-3.83 0 l
1.92 3.32 l
o
np
149.97 285.24 m
1.92 -3.32 l
-3.83 0 l
1.91 3.32 l
o
np
150.57 284.61 m
1.91 -3.32 l
-3.83 0 l
1.92 3.32 l
o
np
151.16 283.98 m
1.91 -3.31 l
-3.82 0 l
1.91 3.31 l
o
np
151.75 283.36 m
1.92 -3.32 l
-3.83 0 l
1.91 3.32 l
o
np
152.35 282.73 m
1.91 -3.32 l
-3.83 0 l
1.92 3.32 l
o
np
152.94 281.79 m
1.92 -3.31 l
-3.83 0 l
1.91 3.31 l
o
np
153.54 281.79 m
1.91 -3.31 l
-3.83 0 l
1.92 3.31 l
o
np
154.13 280.85 m
1.91 -3.31 l
-3.82 0 l
1.91 3.31 l
o
np
154.72 280.54 m
1.92 -3.32 l
-3.83 0 l
1.91 3.32 l
o
np
155.32 279.91 m
1.91 -3.31 l
-3.83 0 l
1.92 3.31 l
o
np
155.91 278.97 m
1.92 -3.31 l
-3.83 0 l
1.91 3.31 l
o
np
156.51 278.66 m
1.91 -3.32 l
-3.83 0 l
1.92 3.32 l
o
np
157.10 278.03 m
1.91 -3.31 l
-3.82 0 l
1.91 3.31 l
o
np
157.69 277.41 m
1.92 -3.32 l
-3.83 0 l
1.91 3.32 l
o
np
158.29 277.09 m
1.91 -3.31 l
-3.83 0 l
1.92 3.31 l
o
np
158.88 276.47 m
1.92 -3.32 l
-3.83 0 l
1.91 3.32 l
o
np
159.48 275.84 m
1.91 -3.31 l
-3.83 0 l
1.92 3.31 l
o
np
160.07 275.21 m
1.91 -3.31 l
-3.83 0 l
1.92 3.31 l
o
np
160.66 274.28 m
1.92 -3.32 l
-3.83 0 l
1.91 3.32 l
o
np
161.26 274.28 m
1.91 -3.32 l
-3.83 0 l
1.92 3.32 l
o
np
161.85 273.34 m
1.91 -3.32 l
-3.82 0 l
1.91 3.32 l
o
np
162.44 272.71 m
1.92 -3.32 l
-3.83 0 l
1.91 3.32 l
o
np
163.04 272.08 m
1.91 -3.31 l
-3.83 0 l
1.92 3.31 l
o
np
163.63 271.77 m
1.92 -3.32 l
-3.83 0 l
1.91 3.32 l
o
np
164.23 271.46 m
1.91 -3.32 l
-3.83 0 l
1.92 3.32 l
o
np
164.82 270.52 m
1.91 -3.32 l
-3.82 0 l
1.91 3.32 l
o
np
165.41 269.89 m
1.92 -3.31 l
-3.83 0 l
1.91 3.31 l
o
np
166.01 268.95 m
1.91 -3.31 l
-3.83 0 l
1.92 3.31 l
o
np
166.60 268.95 m
1.92 -3.31 l
-3.83 0 l
1.91 3.31 l
o
np
167.20 268.01 m
1.91 -3.31 l
-3.83 0 l
1.92 3.31 l
o
np
167.79 267.70 m
1.91 -3.32 l
-3.82 0 l
1.91 3.32 l
o
np
168.38 266.76 m
1.92 -3.32 l
-3.83 0 l
1.91 3.32 l
o
np
168.98 266.45 m
1.91 -3.32 l
-3.83 0 l
1.92 3.32 l
o
np
169.57 265.82 m
1.92 -3.31 l
-3.83 0 l
1.91 3.31 l
o
np
170.16 265.19 m
1.92 -3.31 l
-3.83 0 l
1.91 3.31 l
o
np
170.76 264.57 m
1.91 -3.32 l
-3.83 0 l
1.92 3.32 l
o
np
171.35 264.26 m
1.92 -3.32 l
-3.83 0 l
1.91 3.32 l
o
np
171.95 263.63 m
1.91 -3.32 l
-3.83 0 l
1.92 3.32 l
o
np
172.54 263.00 m
1.91 -3.31 l
-3.82 0 l
1.91 3.31 l
o
np
173.13 262.38 m
1.92 -3.32 l
-3.83 0 l
1.91 3.32 l
o
np
173.73 261.44 m
1.91 -3.32 l
-3.83 0 l
1.92 3.32 l
o
np
174.32 261.12 m
1.92 -3.31 l
-3.83 0 l
1.91 3.31 l
o
np
174.92 260.50 m
1.91 -3.32 l
-3.83 0 l
1.92 3.32 l
o
np
175.51 259.87 m
1.91 -3.31 l
-3.82 0 l
1.91 3.31 l
o
np
176.10 259.24 m
1.92 -3.31 l
-3.83 0 l
1.91 3.31 l
o
np
176.70 258.62 m
1.91 -3.32 l
-3.83 0 l
1.92 3.32 l
o
np
177.29 257.99 m
1.92 -3.31 l
-3.83 0 l
1.91 3.31 l
o
np
177.89 257.68 m
1.91 -3.32 l
-3.83 0 l
1.92 3.32 l
o
np
178.48 257.05 m
1.91 -3.31 l
-3.82 0 l
1.91 3.31 l
o
np
179.07 256.11 m
1.92 -3.31 l
-3.83 0 l
1.91 3.31 l
o
np
179.67 255.80 m
1.91 -3.32 l
-3.83 0 l
1.92 3.32 l
o
np
180.26 254.86 m
1.92 -3.31 l
-3.83 0 l
1.91 3.31 l
o
np
180.85 254.55 m
1.92 -3.32 l
-3.83 0 l
1.91 3.32 l
o
np
181.45 253.92 m
1.91 -3.31 l
-3.83 0 l
1.92 3.31 l
o
np
182.04 253.61 m
1.92 -3.32 l
-3.83 0 l
1.91 3.32 l
o
np
182.64 252.67 m
1.91 -3.32 l
-3.83 0 l
1.92 3.32 l
o
np
183.23 252.04 m
1.91 -3.31 l
-3.82 0 l
1.91 3.31 l
o
np
183.82 251.42 m
1.92 -3.32 l
-3.83 0 l
1.91 3.32 l
o
np
184.42 251.10 m
1.91 -3.31 l
-3.83 0 l
1.92 3.31 l
o
np
185.01 250.48 m
1.92 -3.32 l
-3.83 0 l
1.91 3.32 l
o
np
185.61 249.85 m
1.91 -3.31 l
-3.83 0 l
1.92 3.31 l
o
np
186.20 249.22 m
1.91 -3.31 l
-3.82 0 l
1.91 3.31 l
o
np
186.79 248.60 m
1.92 -3.32 l
-3.83 0 l
1.91 3.32 l
o
np
187.39 247.97 m
1.91 -3.31 l
-3.83 0 l
1.92 3.31 l
o
np
187.98 247.66 m
1.92 -3.32 l
-3.83 0 l
1.91 3.32 l
o
np
188.58 246.72 m
1.91 -3.32 l
-3.83 0 l
1.92 3.32 l
o
np
189.17 246.09 m
1.91 -3.31 l
-3.83 0 l
1.92 3.31 l
o
np
189.76 245.78 m
1.92 -3.32 l
-3.83 0 l
1.91 3.32 l
o
np
190.36 245.15 m
1.91 -3.31 l
-3.83 0 l
1.92 3.31 l
o
np
190.95 244.53 m
1.91 -3.32 l
-3.82 0 l
1.91 3.32 l
o
np
191.54 243.90 m
1.92 -3.31 l
-3.83 0 l
1.91 3.31 l
o
np
192.14 243.27 m
1.91 -3.31 l
-3.83 0 l
1.92 3.31 l
o
np
192.73 242.65 m
1.92 -3.32 l
-3.83 0 l
1.91 3.32 l
o
np
193.33 242.02 m
1.91 -3.31 l
-3.83 0 l
1.92 3.31 l
o
np
193.92 241.40 m
1.91 -3.32 l
-3.82 0 l
1.91 3.32 l
o
np
194.51 240.77 m
1.92 -3.32 l
-3.83 0 l
1.91 3.32 l
o
np
195.11 240.14 m
1.91 -3.31 l
-3.83 0 l
1.92 3.31 l
o
np
195.70 239.52 m
1.92 -3.32 l
-3.83 0 l
1.91 3.32 l
o
np
196.30 238.89 m
1.91 -3.31 l
-3.83 0 l
1.92 3.31 l
o
np
196.89 238.58 m
1.91 -3.32 l
-3.82 0 l
1.91 3.32 l
o
np
197.48 237.64 m
1.92 -3.32 l
-3.83 0 l
1.91 3.32 l
o
np
198.08 237.01 m
1.91 -3.31 l
-3.83 0 l
1.92 3.31 l
o
np
198.67 236.39 m
1.92 -3.32 l
-3.83 0 l
1.91 3.32 l
o
np
199.27 236.07 m
1.91 -3.31 l
-3.83 0 l
1.92 3.31 l
o
np
199.86 235.45 m
1.91 -3.32 l
-3.83 0 l
1.92 3.32 l
o
np
200.45 234.51 m
1.92 -3.32 l
-3.83 0 l
1.91 3.32 l
o
np
201.05 234.19 m
1.91 -3.31 l
-3.83 0 l
1.92 3.31 l
o
np
201.64 233.57 m
1.91 -3.32 l
-3.82 0 l
1.91 3.32 l
o
np
202.23 232.94 m
1.92 -3.31 l
-3.83 0 l
1.91 3.31 l
o
np
202.83 232.31 m
1.91 -3.31 l
-3.83 0 l
1.92 3.31 l
o
np
203.42 231.69 m
1.92 -3.32 l
-3.83 0 l
1.91 3.32 l
o
np
204.02 231.06 m
1.91 -3.31 l
-3.83 0 l
1.92 3.31 l
o
np
204.61 230.44 m
1.91 -3.32 l
-3.82 0 l
1.91 3.32 l
o
np
205.20 229.81 m
1.92 -3.32 l
-3.83 0 l
1.91 3.32 l
o
np
205.80 229.18 m
1.91 -3.31 l
-3.83 0 l
1.92 3.31 l
o
np
206.39 228.56 m
1.92 -3.32 l
-3.83 0 l
1.91 3.32 l
o
np
206.99 227.93 m
1.91 -3.31 l
-3.83 0 l
1.92 3.31 l
o
np
207.58 227.62 m
1.91 -3.32 l
-3.82 0 l
1.91 3.32 l
o
np
208.17 226.68 m
1.92 -3.32 l
-3.83 0 l
1.91 3.32 l
o
np
208.77 226.05 m
1.91 -3.31 l
-3.83 0 l
1.92 3.31 l
o
np
209.36 225.43 m
1.92 -3.32 l
-3.83 0 l
1.91 3.32 l
o
np
209.95 225.11 m
1.92 -3.31 l
-3.83 0 l
1.91 3.31 l
o
np
210.55 224.49 m
1.91 -3.32 l
-3.83 0 l
1.92 3.32 l
o
np
211.14 223.86 m
1.92 -3.32 l
-3.83 0 l
1.91 3.32 l
o
np
211.74 223.23 m
1.91 -3.31 l
-3.83 0 l
1.92 3.31 l
o
np
212.33 222.61 m
1.91 -3.32 l
-3.82 0 l
1.91 3.32 l
o
np
212.92 221.98 m
1.92 -3.31 l
-3.83 0 l
1.91 3.31 l
o
np
213.52 221.36 m
1.91 -3.32 l
-3.83 0 l
1.92 3.32 l
o
np
214.11 220.73 m
1.92 -3.32 l
-3.83 0 l
1.91 3.32 l
o
np
214.71 220.10 m
1.91 -3.31 l
-3.83 0 l
1.92 3.31 l
o
np
215.30 219.48 m
1.91 -3.32 l
-3.82 0 l
1.91 3.32 l
o
np
215.89 218.85 m
1.92 -3.32 l
-3.83 0 l
1.91 3.32 l
o
np
216.49 218.22 m
1.91 -3.31 l
-3.83 0 l
1.92 3.31 l
o
np
217.08 217.60 m
1.92 -3.32 l
-3.83 0 l
1.91 3.32 l
o
np
217.68 216.97 m
1.91 -3.31 l
-3.83 0 l
1.92 3.31 l
o
np
218.27 216.34 m
1.91 -3.31 l
-3.82 0 l
1.91 3.31 l
o
np
218.86 215.72 m
1.92 -3.32 l
-3.83 0 l
1.91 3.32 l
o
np
219.46 215.09 m
1.91 -3.31 l
-3.83 0 l
1.92 3.31 l
o
np
220.05 214.47 m
1.92 -3.32 l
-3.83 0 l
1.91 3.32 l
o
np
220.64 213.84 m
1.92 -3.32 l
-3.83 0 l
1.91 3.32 l
o
np
221.24 213.21 m
1.91 -3.31 l
-3.83 0 l
1.92 3.31 l
o
np
221.83 212.59 m
1.92 -3.32 l
-3.83 0 l
1.91 3.32 l
o
np
222.43 211.96 m
1.91 -3.31 l
-3.83 0 l
1.92 3.31 l
o
np
223.02 211.65 m
1.91 -3.32 l
-3.82 0 l
1.91 3.32 l
o
np
223.61 211.02 m
1.92 -3.31 l
-3.83 0 l
1.91 3.31 l
o
np
224.21 210.08 m
1.91 -3.31 l
-3.83 0 l
1.92 3.31 l
o
np
224.80 209.46 m
1.92 -3.32 l
-3.83 0 l
1.91 3.32 l
o
np
225.40 209.14 m
1.91 -3.31 l
-3.83 0 l
1.92 3.31 l
o
np
225.99 208.20 m
1.91 -3.31 l
-3.82 0 l
1.91 3.31 l
o
np
226.58 207.58 m
1.92 -3.32 l
-3.83 0 l
1.91 3.32 l
o
np
227.18 207.26 m
1.91 -3.31 l
-3.83 0 l
1.92 3.31 l
o
np
227.77 206.32 m
1.92 -3.31 l
-3.83 0 l
1.91 3.31 l
o
np
228.37 205.70 m
1.91 -3.32 l
-3.83 0 l
1.92 3.32 l
o
np
228.96 205.39 m
1.91 -3.32 l
-3.83 0 l
1.92 3.32 l
o
np
229.55 204.45 m
1.92 -3.32 l
-3.83 0 l
1.91 3.32 l
o
np
230.15 203.82 m
1.91 -3.32 l
-3.83 0 l
1.92 3.32 l
o
np
230.74 203.51 m
1.91 -3.32 l
-3.82 0 l
1.91 3.32 l
o
np
231.33 202.57 m
1.92 -3.32 l
-3.83 0 l
1.91 3.32 l
o
np
231.93 201.94 m
1.91 -3.31 l
-3.83 0 l
1.92 3.31 l
o
np
232.52 201.31 m
1.92 -3.31 l
-3.83 0 l
1.91 3.31 l
o
np
233.12 200.69 m
1.91 -3.32 l
-3.83 0 l
1.92 3.32 l
o
np
233.71 200.06 m
1.91 -3.31 l
-3.82 0 l
1.91 3.31 l
o
np
234.30 199.44 m
1.92 -3.32 l
-3.83 0 l
1.91 3.32 l
o
np
234.90 198.81 m
1.91 -3.32 l
-3.83 0 l
1.92 3.32 l
o
np
235.49 198.18 m
1.92 -3.31 l
-3.83 0 l
1.91 3.31 l
o
np
236.09 197.56 m
1.91 -3.32 l
-3.83 0 l
1.92 3.32 l
o
np
236.68 196.93 m
1.91 -3.32 l
-3.82 0 l
1.91 3.32 l
o
np
237.27 196.30 m
1.92 -3.31 l
-3.83 0 l
1.91 3.31 l
o
np
237.87 195.68 m
1.91 -3.32 l
-3.83 0 l
1.92 3.32 l
o
np
238.46 195.05 m
1.92 -3.31 l
-3.83 0 l
1.91 3.31 l
o
np
239.06 194.43 m
1.91 -3.32 l
-3.83 0 l
1.92 3.32 l
o
np
239.65 193.80 m
1.91 -3.32 l
-3.83 0 l
1.92 3.32 l
o
np
240.24 193.17 m
1.92 -3.31 l
-3.83 0 l
1.91 3.31 l
o
np
240.84 192.55 m
1.91 -3.32 l
-3.83 0 l
1.92 3.32 l
o
np
241.43 191.61 m
1.91 -3.32 l
-3.82 0 l
1.91 3.32 l
o
np
242.02 191.29 m
1.92 -3.31 l
-3.83 0 l
1.91 3.31 l
o
np
242.62 190.67 m
1.91 -3.32 l
-3.83 0 l
1.92 3.32 l
o
np
243.21 190.04 m
1.92 -3.31 l
-3.83 0 l
1.91 3.31 l
o
np
243.81 189.42 m
1.91 -3.32 l
-3.83 0 l
1.92 3.32 l
o
np
244.40 188.48 m
1.91 -3.32 l
-3.82 0 l
1.91 3.32 l
o
np
244.99 187.85 m
1.92 -3.32 l
-3.83 0 l
1.91 3.32 l
o
np
245.59 187.22 m
1.91 -3.31 l
-3.83 0 l
1.92 3.31 l
o
np
246.18 186.60 m
1.92 -3.32 l
-3.83 0 l
1.91 3.32 l
o
np
246.78 185.97 m
1.91 -3.31 l
-3.83 0 l
1.92 3.31 l
o
np
247.37 185.34 m
1.91 -3.31 l
-3.82 0 l
1.91 3.31 l
o
np
247.96 184.72 m
1.92 -3.32 l
-3.83 0 l
1.91 3.32 l
o
np
248.56 184.09 m
1.91 -3.31 l
-3.83 0 l
1.92 3.31 l
o
np
249.15 183.47 m
1.92 -3.32 l
-3.83 0 l
1.91 3.32 l
o
np
249.75 182.84 m
1.91 -3.32 l
-3.83 0 l
1.92 3.32 l
o
np
250.34 181.90 m
1.91 -3.32 l
-3.83 0 l
1.92 3.32 l
o
np
250.93 181.27 m
1.92 -3.31 l
-3.83 0 l
1.91 3.31 l
o
np
251.53 180.96 m
1.91 -3.32 l
-3.83 0 l
1.92 3.32 l
o
np
252.12 180.33 m
1.91 -3.31 l
-3.82 0 l
1.91 3.31 l
o
np
252.71 179.71 m
1.92 -3.32 l
-3.83 0 l
1.91 3.32 l
o
np
253.31 179.08 m
1.91 -3.31 l
-3.83 0 l
1.92 3.31 l
o
np
253.90 178.14 m
1.92 -3.31 l
-3.83 0 l
1.91 3.31 l
o
np
254.50 177.52 m
1.91 -3.32 l
-3.83 0 l
1.92 3.32 l
o
np
255.09 176.89 m
1.91 -3.32 l
-3.82 0 l
1.91 3.32 l
o
np
255.68 176.26 m
1.92 -3.31 l
-3.83 0 l
1.91 3.31 l
o
np
256.28 175.64 m
1.91 -3.32 l
-3.83 0 l
1.92 3.32 l
o
np
256.87 175.01 m
1.92 -3.31 l
-3.83 0 l
1.91 3.31 l
o
np
257.47 174.38 m
1.91 -3.31 l
-3.83 0 l
1.92 3.31 l
o
np
258.06 173.76 m
1.91 -3.32 l
-3.82 0 l
1.91 3.32 l
o
np
258.65 172.82 m
1.92 -3.32 l
-3.83 0 l
1.91 3.32 l
o
np
259.25 172.19 m
1.91 -3.31 l
-3.83 0 l
1.92 3.31 l
o
np
259.84 171.57 m
1.92 -3.32 l
-3.83 0 l
1.91 3.32 l
o
np
260.43 170.94 m
1.92 -3.32 l
-3.83 0 l
1.91 3.32 l
o
np
261.03 170.31 m
1.91 -3.31 l
-3.83 0 l
1.92 3.31 l
o
np
261.62 169.69 m
1.92 -3.32 l
-3.83 0 l
1.91 3.32 l
o
np
262.22 169.06 m
1.91 -3.31 l
-3.83 0 l
1.92 3.31 l
o
np
262.81 168.43 m
1.91 -3.31 l
-3.82 0 l
1.91 3.31 l
o
np
263.40 167.81 m
1.92 -3.32 l
-3.83 0 l
1.91 3.32 l
o
np
264.00 167.18 m
1.91 -3.31 l
-3.83 0 l
1.92 3.31 l
o
np
264.59 166.24 m
1.92 -3.31 l
-3.83 0 l
1.91 3.31 l
o
np
265.19 165.93 m
1.91 -3.32 l
-3.83 0 l
1.92 3.32 l
o
np
265.78 164.99 m
1.91 -3.32 l
-3.82 0 l
1.91 3.32 l
o
np
266.37 164.68 m
1.92 -3.32 l
-3.83 0 l
1.91 3.32 l
o
np
266.97 163.74 m
1.91 -3.32 l
-3.83 0 l
1.92 3.32 l
o
np
267.56 163.42 m
1.92 -3.31 l
-3.83 0 l
1.91 3.31 l
o
np
268.16 162.49 m
1.91 -3.32 l
-3.83 0 l
1.92 3.32 l
o
np
268.75 162.17 m
1.91 -3.31 l
-3.82 0 l
1.91 3.31 l
o
np
269.34 161.23 m
1.92 -3.31 l
-3.83 0 l
1.91 3.31 l
o
np
269.94 160.61 m
1.91 -3.32 l
-3.83 0 l
1.92 3.32 l
o
np
270.53 159.98 m
1.92 -3.32 l
-3.83 0 l
1.91 3.32 l
o
np
271.12 159.67 m
1.92 -3.32 l
-3.83 0 l
1.91 3.32 l
o
np
271.72 158.73 m
1.91 -3.32 l
-3.83 0 l
1.92 3.32 l
o
np
272.31 158.10 m
1.92 -3.31 l
-3.83 0 l
1.91 3.31 l
o
np
272.91 157.47 m
1.91 -3.31 l
-3.83 0 l
1.92 3.31 l
o
np
273.50 156.85 m
1.91 -3.32 l
-3.82 0 l
1.91 3.32 l
o
np
274.09 156.22 m
1.92 -3.31 l
-3.83 0 l
1.91 3.31 l
o
np
274.69 155.28 m
1.91 -3.31 l
-3.83 0 l
1.92 3.31 l
o
np
275.28 154.66 m
1.92 -3.32 l
-3.83 0 l
1.91 3.32 l
o
np
275.88 154.34 m
1.91 -3.31 l
-3.83 0 l
1.92 3.31 l
o
np
276.47 153.72 m
1.91 -3.32 l
-3.82 0 l
1.91 3.32 l
o
np
277.06 153.09 m
1.92 -3.31 l
-3.83 0 l
1.91 3.31 l
o
np
277.66 152.15 m
1.91 -3.31 l
-3.83 0 l
1.92 3.31 l
o
np
278.25 151.53 m
1.92 -3.32 l
-3.83 0 l
1.91 3.32 l
o
np
278.85 150.90 m
1.91 -3.32 l
-3.83 0 l
1.92 3.32 l
o
np
279.44 150.27 m
1.91 -3.31 l
-3.83 0 l
1.92 3.31 l
o
np
280.03 149.65 m
1.92 -3.32 l
-3.83 0 l
1.91 3.32 l
o
np
280.63 149.02 m
1.91 -3.32 l
-3.83 0 l
1.92 3.32 l
o
np
281.22 148.39 m
1.91 -3.31 l
-3.82 0 l
1.91 3.31 l
o
np
281.81 147.77 m
1.92 -3.32 l
-3.83 0 l
1.91 3.32 l
o
np
282.41 147.14 m
1.91 -3.31 l
-3.83 0 l
1.92 3.31 l
o
np
283.00 146.52 m
1.92 -3.32 l
-3.83 0 l
1.91 3.32 l
o
np
283.60 145.89 m
1.91 -3.32 l
-3.83 0 l
1.92 3.32 l
o
np
284.19 145.26 m
1.91 -3.31 l
-3.82 0 l
1.91 3.31 l
o
np
284.78 144.95 m
1.92 -3.32 l
-3.83 0 l
1.91 3.32 l
o
np
285.38 144.01 m
1.91 -3.32 l
-3.83 0 l
1.92 3.32 l
o
np
285.97 143.38 m
1.92 -3.31 l
-3.83 0 l
1.91 3.31 l
o
np
286.57 143.07 m
1.91 -3.31 l
-3.83 0 l
1.92 3.31 l
o
np
287.16 142.13 m
1.91 -3.31 l
-3.82 0 l
1.91 3.31 l
o
np
287.75 141.50 m
1.92 -3.31 l
-3.83 0 l
1.91 3.31 l
o
np
288.35 140.88 m
1.91 -3.32 l
-3.83 0 l
1.92 3.32 l
o
np
288.94 140.25 m
1.92 -3.31 l
-3.83 0 l
1.91 3.31 l
o
np
289.54 139.63 m
1.91 -3.32 l
-3.83 0 l
1.92 3.32 l
o
np
290.13 139.00 m
1.91 -3.32 l
-3.83 0 l
1.92 3.32 l
o
np
290.72 138.37 m
1.92 -3.31 l
-3.83 0 l
1.91 3.31 l
o
np
291.32 137.75 m
1.91 -3.32 l
-3.83 0 l
1.92 3.32 l
o
np
291.91 137.12 m
1.91 -3.31 l
-3.82 0 l
1.91 3.31 l
o
np
292.50 136.49 m
1.92 -3.31 l
-3.83 0 l
1.91 3.31 l
o
np
293.10 135.87 m
1.91 -3.32 l
-3.83 0 l
1.92 3.32 l
o
np
293.69 135.24 m
1.92 -3.31 l
-3.83 0 l
1.91 3.31 l
o
np
294.29 134.62 m
1.91 -3.32 l
-3.83 0 l
1.92 3.32 l
o
np
294.88 133.99 m
1.91 -3.32 l
-3.82 0 l
1.91 3.32 l
o
np
295.47 133.36 m
1.92 -3.31 l
-3.83 0 l
1.91 3.31 l
o
np
296.07 132.74 m
1.91 -3.32 l
-3.83 0 l
1.92 3.32 l
o
np
296.66 132.11 m
1.92 -3.31 l
-3.83 0 l
1.91 3.31 l
o
np
297.26 131.48 m
1.91 -3.31 l
-3.83 0 l
1.92 3.31 l
o
np
297.85 130.54 m
1.91 -3.31 l
-3.82 0 l
1.91 3.31 l
o
np
298.44 130.23 m
1.92 -3.31 l
-3.83 0 l
1.91 3.31 l
o
np
299.04 129.61 m
1.91 -3.32 l
-3.83 0 l
1.92 3.32 l
o
np
299.63 128.98 m
1.92 -3.32 l
-3.83 0 l
1.91 3.32 l
o
np
300.22 128.35 m
1.92 -3.31 l
-3.83 0 l
1.91 3.31 l
o
np
300.82 128.04 m
1.91 -3.32 l
-3.83 0 l
1.92 3.32 l
o
np
301.41 127.41 m
1.92 -3.31 l
-3.83 0 l
1.91 3.31 l
o
np
302.01 126.47 m
1.91 -3.31 l
-3.83 0 l
1.92 3.31 l
o
np
302.60 125.85 m
1.91 -3.32 l
-3.82 0 l
1.91 3.32 l
o
np
303.19 125.53 m
1.92 -3.31 l
-3.83 0 l
1.91 3.31 l
o
np
303.79 124.91 m
1.91 -3.32 l
-3.83 0 l
1.92 3.32 l
o
np
304.38 124.28 m
1.92 -3.31 l
-3.83 0 l
1.91 3.31 l
o
np
304.98 123.66 m
1.91 -3.32 l
-3.83 0 l
1.92 3.32 l
o
np
305.57 123.03 m
1.91 -3.32 l
-3.82 0 l
1.91 3.32 l
o
np
306.16 122.40 m
1.92 -3.31 l
-3.83 0 l
1.91 3.31 l
o
np
306.76 121.78 m
1.91 -3.32 l
-3.83 0 l
1.92 3.32 l
o
np
307.35 121.46 m
1.92 -3.31 l
-3.83 0 l
1.91 3.31 l
o
np
307.95 120.84 m
1.91 -3.32 l
-3.83 0 l
1.92 3.32 l
o
np
308.54 120.21 m
1.91 -3.31 l
-3.82 0 l
1.91 3.31 l
o
np
309.13 119.27 m
1.92 -3.31 l
-3.83 0 l
1.91 3.31 l
o
np
309.73 118.96 m
1.91 -3.32 l
-3.83 0 l
1.92 3.32 l
o
np
310.32 118.33 m
1.92 -3.31 l
-3.83 0 l
1.91 3.31 l
o
np
310.91 117.71 m
1.92 -3.32 l
-3.83 0 l
1.91 3.32 l
o
np
311.51 117.08 m
1.91 -3.32 l
-3.83 0 l
1.92 3.32 l
o
np
312.10 116.45 m
1.92 -3.31 l
-3.83 0 l
1.91 3.31 l
o
np
312.70 115.83 m
1.91 -3.32 l
-3.83 0 l
1.92 3.32 l
o
np
313.29 115.51 m
1.91 -3.31 l
-3.82 0 l
1.91 3.31 l
o
np
313.88 114.89 m
1.92 -3.32 l
-3.83 0 l
1.91 3.32 l
o
np
314.48 114.26 m
1.91 -3.31 l
-3.83 0 l
1.92 3.31 l
o
np
315.07 113.64 m
1.92 -3.32 l
-3.83 0 l
1.91 3.32 l
o
np
315.67 113.01 m
1.91 -3.32 l
-3.83 0 l
1.92 3.32 l
o
np
316.26 112.70 m
1.91 -3.32 l
-3.82 0 l
1.91 3.32 l
o
np
316.85 112.07 m
1.92 -3.32 l
-3.83 0 l
1.91 3.32 l
o
np
317.45 111.44 m
1.91 -3.31 l
-3.83 0 l
1.92 3.31 l
o
np
318.04 110.82 m
1.92 -3.32 l
-3.83 0 l
1.91 3.32 l
o
np
318.64 110.50 m
1.91 -3.31 l
-3.83 0 l
1.92 3.31 l
o
np
319.23 109.88 m
1.91 -3.32 l
-3.83 0 l
1.92 3.32 l
o
np
319.82 109.25 m
1.92 -3.31 l
-3.83 0 l
1.91 3.31 l
o
np
320.42 108.94 m
1.91 -3.32 l
-3.83 0 l
1.92 3.32 l
o
np
321.01 108.31 m
1.91 -3.31 l
-3.82 0 l
1.91 3.31 l
o
np
321.60 107.69 m
1.92 -3.32 l
-3.83 0 l
1.91 3.32 l
o
np
322.20 107.06 m
1.91 -3.32 l
-3.83 0 l
1.92 3.32 l
o
np
322.79 106.75 m
1.92 -3.32 l
-3.83 0 l
1.91 3.32 l
o
np
323.39 106.12 m
1.91 -3.32 l
-3.83 0 l
1.92 3.32 l
o
np
323.98 105.49 m
1.91 -3.31 l
-3.82 0 l
1.91 3.31 l
o
np
324.57 105.18 m
1.92 -3.31 l
-3.83 0 l
1.91 3.31 l
o
np
325.17 104.55 m
1.91 -3.31 l
-3.83 0 l
1.92 3.31 l
o
np
325.76 103.93 m
1.92 -3.32 l
-3.83 0 l
1.91 3.32 l
o
np
326.36 103.62 m
1.91 -3.32 l
-3.83 0 l
1.92 3.32 l
o
np
326.95 102.99 m
1.91 -3.32 l
-3.82 0 l
1.91 3.32 l
o
np
327.54 102.36 m
1.92 -3.31 l
-3.83 0 l
1.91 3.31 l
o
np
328.14 102.05 m
1.91 -3.32 l
-3.83 0 l
1.92 3.32 l
o
np
328.73 101.42 m
1.92 -3.31 l
-3.83 0 l
1.91 3.31 l
o
np
329.33 101.11 m
1.91 -3.32 l
-3.83 0 l
1.92 3.32 l
o
np
329.92 100.48 m
1.91 -3.31 l
-3.83 0 l
1.92 3.31 l
o
np
330.51 99.86 m
1.92 -3.32 l
-3.83 0 l
1.91 3.32 l
o
np
331.11 99.23 m
1.91 -3.31 l
-3.83 0 l
1.92 3.31 l
o
np
331.70 98.92 m
1.91 -3.32 l
-3.82 0 l
1.91 3.32 l
o
np
332.29 98.60 m
1.92 -3.31 l
-3.83 0 l
1.91 3.31 l
o
np
332.89 97.98 m
1.91 -3.32 l
-3.83 0 l
1.92 3.32 l
o
np
333.48 97.67 m
1.92 -3.32 l
-3.83 0 l
1.91 3.32 l
o
np
334.08 97.04 m
1.91 -3.32 l
-3.83 0 l
1.92 3.32 l
o
np
334.67 96.41 m
1.91 -3.31 l
-3.82 0 l
1.91 3.31 l
o
np
335.26 96.10 m
1.92 -3.32 l
-3.83 0 l
1.91 3.32 l
o
np
335.86 95.79 m
1.91 -3.32 l
-3.83 0 l
1.92 3.32 l
o
np
336.45 95.16 m
1.92 -3.32 l
-3.83 0 l
1.91 3.32 l
o
np
337.05 94.53 m
1.91 -3.31 l
-3.83 0 l
1.92 3.31 l
o
np
337.64 94.22 m
1.91 -3.31 l
-3.82 0 l
1.91 3.31 l
o
np
338.23 93.59 m
1.92 -3.31 l
-3.83 0 l
1.91 3.31 l
o
np
338.83 93.28 m
1.91 -3.31 l
-3.83 0 l
1.92 3.31 l
o
np
339.42 92.66 m
1.92 -3.32 l
-3.83 0 l
1.91 3.32 l
o
np
340.02 92.34 m
1.91 -3.31 l
-3.83 0 l
1.92 3.31 l
o
np
340.61 91.72 m
1.91 -3.32 l
-3.83 0 l
1.92 3.32 l
o
np
341.20 91.09 m
1.92 -3.32 l
-3.83 0 l
1.91 3.32 l
o
np
341.80 90.78 m
1.91 -3.32 l
-3.83 0 l
1.92 3.32 l
o
np
342.39 90.46 m
1.91 -3.31 l
-3.82 0 l
1.91 3.31 l
o
np
342.98 89.84 m
1.92 -3.32 l
-3.83 0 l
1.91 3.32 l
o
np
343.58 89.52 m
1.91 -3.31 l
-3.83 0 l
1.92 3.31 l
o
np
344.17 88.90 m
1.92 -3.32 l
-3.83 0 l
1.91 3.32 l
o
np
344.77 88.58 m
1.91 -3.31 l
-3.83 0 l
1.92 3.31 l
o
np
345.36 87.96 m
1.91 -3.32 l
-3.82 0 l
1.91 3.32 l
o
np
345.95 87.65 m
1.92 -3.32 l
-3.83 0 l
1.91 3.32 l
o
np
346.55 87.02 m
1.91 -3.32 l
-3.83 0 l
1.92 3.32 l
o
np
347.14 86.71 m
1.92 -3.32 l
-3.83 0 l
1.91 3.32 l
o
np
347.74 86.39 m
1.91 -3.31 l
-3.83 0 l
1.92 3.31 l
o
np
348.33 85.77 m
1.91 -3.32 l
-3.82 0 l
1.91 3.32 l
o
np
348.92 85.14 m
1.92 -3.32 l
-3.83 0 l
1.91 3.32 l
o
np
349.52 84.83 m
1.91 -3.32 l
-3.83 0 l
1.92 3.32 l
o
np
350.11 84.20 m
1.92 -3.31 l
-3.83 0 l
1.91 3.31 l
o
np
350.70 83.89 m
1.92 -3.32 l
-3.83 0 l
1.91 3.32 l
o
np
351.30 83.57 m
1.91 -3.31 l
-3.83 0 l
1.92 3.31 l
o
np
351.89 82.95 m
1.92 -3.32 l
-3.83 0 l
1.91 3.32 l
o
np
352.49 82.63 m
1.91 -3.31 l
-3.83 0 l
1.92 3.31 l
o
np
353.08 82.01 m
1.91 -3.32 l
-3.82 0 l
1.91 3.32 l
o
np
353.67 81.70 m
1.92 -3.32 l
-3.83 0 l
1.91 3.32 l
o
np
354.27 81.07 m
1.91 -3.32 l
-3.83 0 l
1.92 3.32 l
o
np
354.86 80.76 m
1.92 -3.32 l
-3.83 0 l
1.91 3.32 l
o
np
355.46 80.13 m
1.91 -3.32 l
-3.83 0 l
1.92 3.32 l
o
np
356.05 79.82 m
1.91 -3.32 l
-3.82 0 l
1.91 3.32 l
o
np
356.64 79.19 m
1.92 -3.32 l
-3.83 0 l
1.91 3.32 l
o
np
357.24 78.56 m
1.91 -3.31 l
-3.83 0 l
1.92 3.31 l
o
np
357.83 78.25 m
1.92 -3.31 l
-3.83 0 l
1.91 3.31 l
o
np
358.43 77.94 m
1.91 -3.32 l
-3.83 0 l
1.92 3.32 l
o
np
359.02 77.31 m
1.91 -3.31 l
-3.82 0 l
1.91 3.31 l
o
np
359.61 76.69 m
1.92 -3.32 l
-3.83 0 l
1.91 3.32 l
o
np
360.21 76.37 m
1.91 -3.31 l
-3.83 0 l
1.92 3.31 l
o
np
360.80 76.06 m
1.92 -3.32 l
-3.83 0 l
1.91 3.32 l
o
np
361.39 75.43 m
1.92 -3.31 l
-3.83 0 l
1.91 3.31 l
o
np
361.99 75.12 m
1.91 -3.32 l
-3.83 0 l
1.92 3.32 l
o
np
362.58 74.49 m
1.92 -3.31 l
-3.83 0 l
1.91 3.31 l
o
np
363.18 74.18 m
1.91 -3.32 l
-3.83 0 l
1.92 3.32 l
o
np
363.77 73.55 m
1.91 -3.31 l
-3.82 0 l
1.91 3.31 l
o
np
364.36 73.24 m
1.92 -3.31 l
-3.83 0 l
1.91 3.31 l
o
np
364.96 72.61 m
1.91 -3.31 l
-3.83 0 l
1.92 3.31 l
o
np
365.55 71.99 m
1.92 -3.32 l
-3.83 0 l
1.91 3.32 l
o
np
366.15 71.67 m
1.91 -3.31 l
-3.83 0 l
1.92 3.31 l
o
np
366.74 71.36 m
1.91 -3.31 l
-3.82 0 l
1.91 3.31 l
o
np
367.33 70.74 m
1.92 -3.32 l
-3.83 0 l
1.91 3.32 l
o
np
367.93 70.42 m
1.91 -3.31 l
-3.83 0 l
1.92 3.31 l
o
np
368.52 70.11 m
1.92 -3.32 l
-3.83 0 l
1.91 3.32 l
o
np
369.12 69.80 m
1.91 -3.32 l
-3.83 0 l
1.92 3.32 l
o
np
369.71 69.17 m
1.91 -3.32 l
-3.83 0 l
1.92 3.32 l
o
np
370.30 68.86 m
1.92 -3.32 l
-3.83 0 l
1.91 3.32 l
o
np
370.90 68.54 m
1.91 -3.31 l
-3.83 0 l
1.92 3.31 l
o
np
371.49 68.23 m
1.91 -3.32 l
-3.82 0 l
1.91 3.32 l
o
np
372.08 67.60 m
1.92 -3.31 l
-3.83 0 l
1.91 3.31 l
o
np
372.68 67.29 m
1.91 -3.31 l
-3.83 0 l
1.92 3.31 l
o
np
373.27 66.98 m
1.92 -3.32 l
-3.83 0 l
1.91 3.32 l
o
np
373.87 66.66 m
1.91 -3.31 l
-3.83 0 l
1.92 3.31 l
o
np
374.46 66.35 m
1.91 -3.31 l
-3.82 0 l
1.91 3.31 l
o
np
375.05 66.04 m
1.92 -3.32 l
-3.83 0 l
1.91 3.32 l
o
np
375.65 65.73 m
1.91 -3.32 l
-3.83 0 l
1.92 3.32 l
o
np
376.24 65.41 m
1.92 -3.31 l
-3.83 0 l
1.91 3.31 l
o
np
376.54 65.10 m
1.91 -3.32 l
-3.83 0 l
1.92 3.32 l
o
/bg { 0 0 0 srgb } def
0 0 0 srgb
80.73 306.20 3.56 c p3
80.75 285.84 3.56 c p3
80.72 341.90 3.56 c p3
80.71 326.24 3.56 c p3
80.72 338.76 3.56 c p3
80.73 334.07 3.56 c p3
80.72 331.56 3.56 c p3
80.72 327.49 3.56 c p3
80.73 334.38 3.56 c p3
80.73 332.50 3.56 c p3
80.73 323.42 3.56 c p3
80.72 334.69 3.56 c p3
80.71 328.74 3.56 c p3
80.77 271.75 3.56 c p3
80.73 341.90 3.56 c p3
80.70 337.82 3.56 c p3
80.73 329.06 3.56 c p3
80.74 323.11 3.56 c p3
80.70 339.70 3.56 c p3
80.71 338.14 3.56 c p3
80.77 295.86 3.56 c p3
80.71 340.33 3.56 c p3
80.71 346.59 3.56 c p3
80.71 337.20 3.56 c p3
80.71 340.96 3.56 c p3
80.74 335.32 3.56 c p3
80.71 333.13 3.56 c p3
80.74 311.83 3.56 c p3
80.74 319.35 3.56 c p3
80.69 342.83 3.56 c p3
0.00 0.00 396.85 396.85 cl
0.00 0.00 396.85 396.85 cl
0.00 0.00 396.85 396.85 cl
0.00 0.00 396.85 396.85 cl
0.00 0.00 396.85 396.85 cl
0.00 0.00 396.85 396.85 cl
0.00 0.00 396.85 396.85 cl
0.00 0.00 396.85 396.85 cl
0.00 0.00 396.85 396.85 cl
0.00 0.00 396.85 396.85 cl
0.00 0.00 396.85 396.85 cl
0.00 0.00 396.85 396.85 cl
0.00 0.00 396.85 396.85 cl
0.8000 0.8000 0.8000 srgb
2.13 setlinewidth
[] 0 setdash
0 setlinecap
1 setlinejoin
10.00 setmiterlimit
np
65.06 46.92 m
0 344.45 l
o
0.00 0.00 396.85 396.85 cl
0.00 0.00 396.85 396.85 cl
0.00 0.00 396.85 396.85 cl
/Font1 findfont 18 s
0.3020 0.3020 0.3020 srgb
60.13 56.11 (0.00) 1 0 t
60.13 134.40 (0.25) 1 0 t
60.13 212.68 (0.50) 1 0 t
60.13 290.97 (0.75) 1 0 t
60.13 369.25 (1.00) 1 0 t
0.00 0.00 396.85 396.85 cl
0.00 0.00 396.85 396.85 cl
0.2000 0.2000 0.2000 srgb
1.07 setlinewidth
[] 0 setdash
0 setlinecap
1 setlinejoin
10.00 setmiterlimit
np
62.32 62.58 m
2.74 0 l
o
np
62.32 140.86 m
2.74 0 l
o
np
62.32 219.14 m
2.74 0 l
o
np
62.32 297.43 m
2.74 0 l
o
np
62.32 375.71 m
2.74 0 l
o
0.00 0.00 396.85 396.85 cl
0.00 0.00 396.85 396.85 cl
0.00 0.00 396.85 396.85 cl
0.00 0.00 396.85 396.85 cl
0.00 0.00 396.85 396.85 cl
0.00 0.00 396.85 396.85 cl
0.00 0.00 396.85 396.85 cl
0.8000 0.8000 0.8000 srgb
2.13 setlinewidth
[] 0 setdash
0 setlinecap
1 setlinejoin
10.00 setmiterlimit
np
65.06 46.92 m
326.31 0 l
o
0.00 0.00 396.85 396.85 cl
0.00 0.00 396.85 396.85 cl
0.00 0.00 396.85 396.85 cl
0.2000 0.2000 0.2000 srgb
1.07 setlinewidth
[] 0 setdash
0 setlinecap
1 setlinejoin
10.00 setmiterlimit
np
79.89 44.18 m
0 2.74 l
o
np
154.06 44.18 m
0 2.74 l
o
np
228.22 44.18 m
0 2.74 l
o
np
302.38 44.18 m
0 2.74 l
o
np
376.54 44.18 m
0 2.74 l
o
0.00 0.00 396.85 396.85 cl
0.00 0.00 396.85 396.85 cl
/Font1 findfont 18 s
0.3020 0.3020 0.3020 srgb
79.89 29.06 (0.00) .5 0 t
154.06 29.06 (0.25) .5 0 t
228.22 29.06 (0.50) .5 0 t
302.38 29.06 (0.75) .5 0 t
376.54 29.06 (1.00) .5 0 t
0.00 0.00 396.85 396.85 cl
0.00 0.00 396.85 396.85 cl
0.00 0.00 396.85 396.85 cl
0.00 0.00 396.85 396.85 cl
0.00 0.00 396.85 396.85 cl
0.00 0.00 396.85 396.85 cl
/Font1 findfont 18 s
0 0 0 srgb
228.22 9.44 (Link Density) .5 0 t
0.00 0.00 396.85 396.85 cl
0.00 0.00 396.85 396.85 cl
/Font1 findfont 18 s
0 0 0 srgb
18.40 109.11 (Fisher Inf) 90 ta
-0.540 (or) tb
0.450 (mation Measure) tb gr
0.00 0.00 396.85 396.85 cl
0.00 0.00 396.85 396.85 cl
0.00 0.00 396.85 396.85 cl
0.00 0.00 396.85 396.85 cl
0.00 0.00 396.85 396.85 cl
0.00 0.00 396.85 396.85 cl
0.00 0.00 396.85 396.85 cl
0.00 0.00 396.85 396.85 cl
0.00 0.00 396.85 396.85 cl
0.00 0.00 396.85 396.85 cl
0.00 0.00 396.85 396.85 cl
0.00 0.00 396.85 396.85 cl
ep
%%Trailer
%%Pages: 1
%%EOF
