%!PS-Adobe-3.0 EPSF-3.0
%%DocumentNeededResources: font Helvetica
%%+ font Helvetica-Bold
%%+ font Helvetica-Oblique
%%+ font Helvetica-BoldOblique
%%+ font Symbol
%%Title: R Graphics Output
%%Creator: R Software
%%Pages: (atend)
%%BoundingBox: 0 0 397 397
%%EndComments
%%BeginProlog
/bp  { gs sRGB gs } def
% begin .ps.prolog
/gs  { gsave } bind def
/gr  { grestore } bind def
/ep  { showpage gr gr } bind def
/m   { moveto } bind def
/l  { rlineto } bind def
/np  { newpath } bind def
/cp  { closepath } bind def
/f   { fill } bind def
/o   { stroke } bind def
/c   { newpath 0 360 arc } bind def
/r   { 4 2 roll moveto 1 copy 3 -1 roll exch 0 exch rlineto 0 rlineto -1 mul 0 exch rlineto closepath } bind def
/p1  { stroke } bind def
/p2  { gsave bg fill grestore newpath } bind def
/p3  { gsave bg fill grestore stroke } bind def
/p6  { gsave bg eofill grestore newpath } bind def
/p7  { gsave bg eofill grestore stroke } bind def
/t   { 5 -2 roll moveto gsave rotate
       1 index stringwidth pop
       mul neg 0 rmoveto show grestore } bind def
/ta  { 4 -2 roll moveto gsave rotate show } bind def
/tb  { 2 -1 roll 0 rmoveto show } bind def
/cl  { grestore gsave newpath 3 index 3 index moveto 1 index
       4 -1 roll lineto  exch 1 index lineto lineto
       closepath clip newpath } bind def
/rgb { setrgbcolor } bind def
/s   { scalefont setfont } bind def
% end   .ps.prolog
/sRGB { [ /CIEBasedABC
          << /DecodeLMN
               [ { dup 0.03928 le
                        {12.92321 div}
                        {0.055 add 1.055 div 2.4 exp }
                     ifelse
                 } bind dup dup
               ]
             /MatrixLMN [0.412457 0.212673 0.019334
                         0.357576 0.715152 0.119192
                         0.180437 0.072175 0.950301]
             /WhitePoint [0.9505 1.0 1.0890]
           >>
         ] setcolorspace } bind def
/srgb { setcolor } bind def
%%IncludeResource: font Helvetica
/Helvetica findfont
dup length dict begin
  {1 index /FID ne {def} {pop pop} ifelse} forall
  /Encoding ISOLatin1Encoding def
  currentdict
  end
/Font1 exch definefont pop
%%IncludeResource: font Helvetica-Bold
/Helvetica-Bold findfont
dup length dict begin
  {1 index /FID ne {def} {pop pop} ifelse} forall
  /Encoding ISOLatin1Encoding def
  currentdict
  end
/Font2 exch definefont pop
%%IncludeResource: font Helvetica-Oblique
/Helvetica-Oblique findfont
dup length dict begin
  {1 index /FID ne {def} {pop pop} ifelse} forall
  /Encoding ISOLatin1Encoding def
  currentdict
  end
/Font3 exch definefont pop
%%IncludeResource: font Helvetica-BoldOblique
/Helvetica-BoldOblique findfont
dup length dict begin
  {1 index /FID ne {def} {pop pop} ifelse} forall
  /Encoding ISOLatin1Encoding def
  currentdict
  end
/Font4 exch definefont pop
%%IncludeResource: font Symbol
/Symbol findfont
dup length dict begin
  {1 index /FID ne {def} {pop pop} ifelse} forall
  currentdict
  end
/Font5 exch definefont pop
%%EndProlog
%%Page: 1 1
bp
0.00 0.00 396.85 396.85 cl
0.00 0.00 396.85 396.85 cl
0.00 0.00 396.85 396.85 cl
0.00 0.00 396.85 396.85 cl
0.00 0.00 396.85 396.85 cl
0.00 0.00 396.85 396.85 cl
0.00 0.00 396.85 396.85 cl
0.00 0.00 396.85 396.85 cl
0.00 0.00 396.85 396.85 cl
0.00 0.00 396.85 396.85 cl
/bg { 1 1 1 srgb } def
1 1 1 srgb
1.07 setlinewidth
[] 0 setdash
1 setlinecap
1 setlinejoin
10.00 setmiterlimit
0.00 0.00 396.85 396.85 r p3
0.00 0.00 396.85 396.85 cl
65.06 46.92 391.37 391.37 cl
/bg { 1 1 1 srgb } def
0.4980 0.4980 0.4980 srgb
1.07 setlinewidth
[] 0 setdash
1 setlinecap
1 setlinejoin
10.00 setmiterlimit
65.06 46.92 326.31 344.45 r p3
1 1 1 srgb
0.53 setlinewidth
[] 0 setdash
0 setlinecap
np
65.06 101.72 m
326.31 0 l
o
np
65.06 180.00 m
326.31 0 l
o
np
65.06 258.29 m
326.31 0 l
o
np
65.06 336.57 m
326.31 0 l
o
np
116.98 46.92 m
0 344.45 l
o
np
191.14 46.92 m
0 344.45 l
o
np
265.30 46.92 m
0 344.45 l
o
np
339.46 46.92 m
0 344.45 l
o
1.07 setlinewidth
[] 0 setdash
np
65.06 62.58 m
326.31 0 l
o
np
65.06 140.86 m
326.31 0 l
o
np
65.06 219.14 m
326.31 0 l
o
np
65.06 297.43 m
326.31 0 l
o
np
65.06 375.71 m
326.31 0 l
o
np
79.89 46.92 m
0 344.45 l
o
np
154.06 46.92 m
0 344.45 l
o
np
228.22 46.92 m
0 344.45 l
o
np
302.38 46.92 m
0 344.45 l
o
np
376.54 46.92 m
0 344.45 l
o
1 0 0 srgb
0.71 setlinewidth
[] 0 setdash
1 setlinecap
np
109.56 216.93 m
1.91 3.32 l
-3.82 0 l
1.91 -3.32 l
o
np
139.52 218.19 m
1.91 3.31 l
-3.82 0 l
1.91 -3.31 l
o
np
156.73 164.64 m
1.91 3.32 l
-3.83 0 l
1.92 -3.32 l
o
np
169.18 138.65 m
1.92 3.32 l
-3.83 0 l
1.91 -3.32 l
o
np
178.68 122.99 m
1.91 3.32 l
-3.83 0 l
1.92 -3.32 l
o
np
186.69 112.35 m
1.91 3.31 l
-3.83 0 l
1.92 -3.31 l
o
np
193.21 105.14 m
1.92 3.32 l
-3.83 0 l
1.91 -3.32 l
o
np
198.85 99.51 m
1.91 3.31 l
-3.83 0 l
1.92 -3.31 l
o
np
203.89 95.12 m
1.92 3.32 l
-3.83 0 l
1.91 -3.32 l
o
np
208.64 91.68 m
1.91 3.31 l
-3.83 0 l
1.92 -3.31 l
o
np
212.79 88.86 m
1.92 3.32 l
-3.83 0 l
1.91 -3.32 l
o
np
216.35 86.36 m
1.92 3.31 l
-3.83 0 l
1.91 -3.31 l
o
np
219.91 84.48 m
1.91 3.31 l
-3.82 0 l
1.91 -3.31 l
o
np
222.88 82.60 m
1.91 3.31 l
-3.83 0 l
1.92 -3.31 l
o
np
225.84 81.35 m
1.92 3.31 l
-3.83 0 l
1.91 -3.31 l
o
np
228.81 79.78 m
1.91 3.32 l
-3.82 0 l
1.91 -3.32 l
o
np
231.48 78.84 m
1.91 3.32 l
-3.82 0 l
1.91 -3.32 l
o
np
233.85 77.59 m
1.92 3.31 l
-3.83 0 l
1.91 -3.31 l
o
np
236.23 76.96 m
1.91 3.32 l
-3.83 0 l
1.92 -3.32 l
o
np
238.30 76.02 m
1.92 3.32 l
-3.83 0 l
1.91 -3.32 l
o
np
240.38 75.40 m
1.91 3.31 l
-3.82 0 l
1.91 -3.31 l
o
np
242.46 74.46 m
1.91 3.31 l
-3.83 0 l
1.92 -3.31 l
o
np
244.24 73.83 m
1.91 3.32 l
-3.83 0 l
1.92 -3.32 l
o
np
246.02 73.52 m
1.91 3.31 l
-3.83 0 l
1.92 -3.31 l
o
np
247.80 72.89 m
1.91 3.32 l
-3.83 0 l
1.92 -3.32 l
o
np
249.58 72.26 m
1.91 3.32 l
-3.83 0 l
1.92 -3.32 l
o
np
251.36 71.95 m
1.91 3.32 l
-3.83 0 l
1.92 -3.32 l
o
np
252.84 71.64 m
1.91 3.31 l
-3.83 0 l
1.92 -3.31 l
o
np
254.32 71.01 m
1.92 3.32 l
-3.83 0 l
1.91 -3.32 l
o
np
255.80 70.70 m
1.92 3.31 l
-3.83 0 l
1.91 -3.31 l
o
np
257.29 70.39 m
1.91 3.31 l
-3.83 0 l
1.92 -3.31 l
o
np
258.47 70.07 m
1.92 3.32 l
-3.83 0 l
1.91 -3.32 l
o
np
259.96 69.76 m
1.91 3.31 l
-3.83 0 l
1.92 -3.31 l
o
np
261.14 69.45 m
1.92 3.31 l
-3.83 0 l
1.91 -3.31 l
o
np
262.33 69.45 m
1.92 3.31 l
-3.83 0 l
1.91 -3.31 l
o
np
263.52 69.13 m
1.91 3.32 l
-3.83 0 l
1.92 -3.32 l
o
np
264.70 68.82 m
1.92 3.32 l
-3.83 0 l
1.91 -3.32 l
o
np
265.89 68.51 m
1.91 3.31 l
-3.82 0 l
1.91 -3.31 l
o
np
267.08 68.51 m
1.91 3.31 l
-3.83 0 l
1.92 -3.31 l
o
np
267.97 68.19 m
1.91 3.32 l
-3.83 0 l
1.92 -3.32 l
o
np
269.15 67.88 m
1.92 3.32 l
-3.83 0 l
1.91 -3.32 l
o
np
270.34 67.88 m
1.91 3.32 l
-3.82 0 l
1.91 -3.32 l
o
np
271.23 67.57 m
1.91 3.31 l
-3.82 0 l
1.91 -3.31 l
o
np
272.12 67.57 m
1.91 3.31 l
-3.82 0 l
1.91 -3.31 l
o
np
273.31 67.25 m
1.91 3.32 l
-3.83 0 l
1.92 -3.32 l
o
np
274.20 67.25 m
1.91 3.32 l
-3.83 0 l
1.92 -3.32 l
o
np
275.09 66.94 m
1.91 3.32 l
-3.83 0 l
1.92 -3.32 l
o
np
275.98 66.94 m
1.91 3.32 l
-3.83 0 l
1.92 -3.32 l
o
np
276.87 66.63 m
1.91 3.31 l
-3.83 0 l
1.92 -3.31 l
o
np
277.76 66.63 m
1.91 3.31 l
-3.83 0 l
1.92 -3.31 l
o
np
278.65 66.63 m
1.91 3.31 l
-3.83 0 l
1.92 -3.31 l
o
np
279.24 66.31 m
1.91 3.32 l
-3.82 0 l
1.91 -3.32 l
o
np
280.13 66.31 m
1.91 3.32 l
-3.82 0 l
1.91 -3.32 l
o
np
281.02 66.31 m
1.91 3.32 l
-3.82 0 l
1.91 -3.32 l
o
np
281.91 66.00 m
1.91 3.32 l
-3.82 0 l
1.91 -3.32 l
o
np
282.50 66.00 m
1.92 3.32 l
-3.83 0 l
1.91 -3.32 l
o
np
283.39 66.00 m
1.92 3.32 l
-3.83 0 l
1.91 -3.32 l
o
np
283.99 65.69 m
1.91 3.31 l
-3.83 0 l
1.92 -3.31 l
o
np
284.88 65.69 m
1.91 3.31 l
-3.83 0 l
1.92 -3.31 l
o
np
285.47 65.69 m
1.91 3.31 l
-3.83 0 l
1.92 -3.31 l
o
np
286.36 65.38 m
1.91 3.31 l
-3.83 0 l
1.92 -3.31 l
o
np
286.95 65.38 m
1.92 3.31 l
-3.83 0 l
1.91 -3.31 l
o
np
287.55 65.38 m
1.91 3.31 l
-3.83 0 l
1.92 -3.31 l
o
np
288.44 65.38 m
1.91 3.31 l
-3.83 0 l
1.92 -3.31 l
o
np
289.03 65.06 m
1.91 3.32 l
-3.83 0 l
1.92 -3.32 l
o
np
289.62 65.06 m
1.92 3.32 l
-3.83 0 l
1.91 -3.32 l
o
np
290.22 65.06 m
1.91 3.32 l
-3.83 0 l
1.92 -3.32 l
o
np
290.81 65.06 m
1.91 3.32 l
-3.83 0 l
1.92 -3.32 l
o
np
291.40 64.75 m
1.92 3.31 l
-3.83 0 l
1.91 -3.31 l
o
np
292.00 64.75 m
1.91 3.31 l
-3.83 0 l
1.92 -3.31 l
o
np
292.89 64.75 m
1.91 3.31 l
-3.83 0 l
1.92 -3.31 l
o
np
293.48 64.75 m
1.91 3.31 l
-3.83 0 l
1.92 -3.31 l
o
np
294.07 64.75 m
1.92 3.31 l
-3.83 0 l
1.91 -3.31 l
o
np
294.67 64.75 m
1.91 3.31 l
-3.83 0 l
1.92 -3.31 l
o
np
294.96 64.44 m
1.92 3.31 l
-3.83 0 l
1.91 -3.31 l
o
np
295.55 64.44 m
1.92 3.31 l
-3.83 0 l
1.91 -3.31 l
o
np
296.15 64.44 m
1.91 3.31 l
-3.83 0 l
1.92 -3.31 l
o
np
296.74 64.44 m
1.92 3.31 l
-3.83 0 l
1.91 -3.31 l
o
np
297.33 64.44 m
1.92 3.31 l
-3.83 0 l
1.91 -3.31 l
o
np
297.93 64.12 m
1.91 3.32 l
-3.83 0 l
1.92 -3.32 l
o
np
298.52 64.12 m
1.92 3.32 l
-3.83 0 l
1.91 -3.32 l
o
np
298.82 64.12 m
1.91 3.32 l
-3.83 0 l
1.92 -3.32 l
o
np
299.41 64.12 m
1.92 3.32 l
-3.83 0 l
1.91 -3.32 l
o
np
300.00 64.12 m
1.92 3.32 l
-3.83 0 l
1.91 -3.32 l
o
np
300.60 64.12 m
1.91 3.32 l
-3.83 0 l
1.92 -3.32 l
o
np
300.89 64.12 m
1.92 3.32 l
-3.83 0 l
1.91 -3.32 l
o
np
301.49 63.81 m
1.91 3.32 l
-3.83 0 l
1.92 -3.32 l
o
np
302.08 63.81 m
1.92 3.32 l
-3.83 0 l
1.91 -3.32 l
o
np
302.38 63.81 m
1.91 3.32 l
-3.83 0 l
1.92 -3.32 l
o
np
302.97 63.81 m
1.92 3.32 l
-3.83 0 l
1.91 -3.32 l
o
np
303.27 63.81 m
1.91 3.32 l
-3.83 0 l
1.92 -3.32 l
o
np
303.86 63.81 m
1.92 3.32 l
-3.83 0 l
1.91 -3.32 l
o
np
304.45 63.81 m
1.92 3.32 l
-3.83 0 l
1.91 -3.32 l
o
np
304.75 63.81 m
1.92 3.32 l
-3.83 0 l
1.91 -3.32 l
o
np
305.34 63.81 m
1.92 3.32 l
-3.83 0 l
1.91 -3.32 l
o
np
305.64 63.50 m
1.92 3.31 l
-3.83 0 l
1.91 -3.31 l
o
np
306.23 63.50 m
1.92 3.31 l
-3.83 0 l
1.91 -3.31 l
o
np
306.53 63.50 m
1.91 3.31 l
-3.82 0 l
1.91 -3.31 l
o
np
307.12 63.50 m
1.92 3.31 l
-3.83 0 l
1.91 -3.31 l
o
np
307.42 63.50 m
1.91 3.31 l
-3.82 0 l
1.91 -3.31 l
o
np
308.01 63.50 m
1.92 3.31 l
-3.83 0 l
1.91 -3.31 l
o
np
308.31 63.50 m
1.91 3.31 l
-3.82 0 l
1.91 -3.31 l
o
np
308.61 63.50 m
1.91 3.31 l
-3.83 0 l
1.92 -3.31 l
o
np
309.20 63.50 m
1.91 3.31 l
-3.82 0 l
1.91 -3.31 l
o
np
309.50 63.50 m
1.91 3.31 l
-3.83 0 l
1.92 -3.31 l
o
np
310.09 63.18 m
1.91 3.32 l
-3.82 0 l
1.91 -3.32 l
o
np
310.39 63.18 m
1.91 3.32 l
-3.83 0 l
1.92 -3.32 l
o
np
310.68 63.18 m
1.92 3.32 l
-3.83 0 l
1.91 -3.32 l
o
np
311.28 63.18 m
1.91 3.32 l
-3.83 0 l
1.92 -3.32 l
o
np
311.57 63.18 m
1.92 3.32 l
-3.83 0 l
1.91 -3.32 l
o
np
311.87 63.18 m
1.91 3.32 l
-3.82 0 l
1.91 -3.32 l
o
np
312.46 63.18 m
1.92 3.32 l
-3.83 0 l
1.91 -3.32 l
o
np
312.76 63.18 m
1.91 3.32 l
-3.82 0 l
1.91 -3.32 l
o
np
313.06 63.18 m
1.91 3.32 l
-3.83 0 l
1.92 -3.32 l
o
np
313.35 63.18 m
1.92 3.32 l
-3.83 0 l
1.91 -3.32 l
o
np
313.95 63.18 m
1.91 3.32 l
-3.83 0 l
1.92 -3.32 l
o
np
314.24 63.18 m
1.92 3.32 l
-3.83 0 l
1.91 -3.32 l
o
np
314.54 62.87 m
1.91 3.32 l
-3.82 0 l
1.91 -3.32 l
o
np
314.84 62.87 m
1.91 3.32 l
-3.83 0 l
1.92 -3.32 l
o
np
315.43 62.87 m
1.91 3.32 l
-3.82 0 l
1.91 -3.32 l
o
np
315.73 62.87 m
1.91 3.32 l
-3.83 0 l
1.92 -3.32 l
o
np
316.02 62.87 m
1.92 3.32 l
-3.83 0 l
1.91 -3.32 l
o
np
316.32 62.87 m
1.91 3.32 l
-3.82 0 l
1.91 -3.32 l
o
np
316.62 62.87 m
1.91 3.32 l
-3.83 0 l
1.92 -3.32 l
o
np
316.91 62.87 m
1.92 3.32 l
-3.83 0 l
1.91 -3.32 l
o
np
317.51 62.87 m
1.91 3.32 l
-3.83 0 l
1.92 -3.32 l
o
np
317.80 62.87 m
1.92 3.32 l
-3.83 0 l
1.91 -3.32 l
o
np
318.10 62.87 m
1.91 3.32 l
-3.82 0 l
1.91 -3.32 l
o
np
318.40 62.87 m
1.91 3.32 l
-3.83 0 l
1.92 -3.32 l
o
np
318.69 62.87 m
1.92 3.32 l
-3.83 0 l
1.91 -3.32 l
o
np
318.99 62.87 m
1.91 3.32 l
-3.82 0 l
1.91 -3.32 l
o
np
319.29 62.87 m
1.91 3.32 l
-3.83 0 l
1.92 -3.32 l
o
np
319.58 62.87 m
1.92 3.32 l
-3.83 0 l
1.91 -3.32 l
o
np
319.88 62.56 m
1.91 3.31 l
-3.82 0 l
1.91 -3.31 l
o
np
320.47 62.56 m
1.92 3.31 l
-3.83 0 l
1.91 -3.31 l
o
np
320.77 62.56 m
1.91 3.31 l
-3.82 0 l
1.91 -3.31 l
o
np
321.07 62.56 m
1.91 3.31 l
-3.83 0 l
1.92 -3.31 l
o
np
321.36 62.56 m
1.92 3.31 l
-3.83 0 l
1.91 -3.31 l
o
np
321.66 62.56 m
1.91 3.31 l
-3.82 0 l
1.91 -3.31 l
o
np
321.96 62.56 m
1.91 3.31 l
-3.83 0 l
1.92 -3.31 l
o
np
322.25 62.56 m
1.92 3.31 l
-3.83 0 l
1.91 -3.31 l
o
np
322.55 62.56 m
1.91 3.31 l
-3.82 0 l
1.91 -3.31 l
o
np
322.85 62.56 m
1.91 3.31 l
-3.83 0 l
1.92 -3.31 l
o
np
323.14 62.56 m
1.92 3.31 l
-3.83 0 l
1.91 -3.31 l
o
np
323.44 62.56 m
1.91 3.31 l
-3.82 0 l
1.91 -3.31 l
o
np
323.74 62.56 m
1.91 3.31 l
-3.83 0 l
1.92 -3.31 l
o
np
324.03 62.56 m
1.92 3.31 l
-3.83 0 l
1.91 -3.31 l
o
np
324.33 62.56 m
1.91 3.31 l
-3.82 0 l
1.91 -3.31 l
o
np
324.63 62.56 m
1.91 3.31 l
-3.83 0 l
1.92 -3.31 l
o
np
324.92 62.56 m
1.92 3.31 l
-3.83 0 l
1.91 -3.31 l
o
np
325.22 62.56 m
1.91 3.31 l
-3.82 0 l
1.91 -3.31 l
o
np
325.52 62.56 m
1.91 3.31 l
-3.83 0 l
1.92 -3.31 l
o
np
325.81 62.56 m
1.92 3.31 l
-3.83 0 l
1.91 -3.31 l
o
np
326.11 62.24 m
1.91 3.32 l
-3.82 0 l
1.91 -3.32 l
o
np
326.41 62.24 m
1.91 3.32 l
-3.83 0 l
1.92 -3.32 l
o
np
326.70 62.24 m
1.92 3.32 l
-3.83 0 l
1.91 -3.32 l
o
np
326.70 62.24 m
1.92 3.32 l
-3.83 0 l
1.91 -3.32 l
o
np
327.00 62.24 m
1.91 3.32 l
-3.82 0 l
1.91 -3.32 l
o
np
327.30 62.24 m
1.91 3.32 l
-3.83 0 l
1.92 -3.32 l
o
np
327.59 62.24 m
1.92 3.32 l
-3.83 0 l
1.91 -3.32 l
o
np
327.89 62.24 m
1.91 3.32 l
-3.83 0 l
1.92 -3.32 l
o
np
328.19 62.24 m
1.91 3.32 l
-3.83 0 l
1.92 -3.32 l
o
np
328.48 62.24 m
1.92 3.32 l
-3.83 0 l
1.91 -3.32 l
o
np
328.78 62.24 m
1.91 3.32 l
-3.83 0 l
1.92 -3.32 l
o
np
329.08 62.24 m
1.91 3.32 l
-3.83 0 l
1.92 -3.32 l
o
np
329.37 62.24 m
1.92 3.32 l
-3.83 0 l
1.91 -3.32 l
o
np
329.37 62.24 m
1.92 3.32 l
-3.83 0 l
1.91 -3.32 l
o
np
329.67 62.24 m
1.91 3.32 l
-3.83 0 l
1.92 -3.32 l
o
np
329.97 62.24 m
1.91 3.32 l
-3.83 0 l
1.92 -3.32 l
o
np
330.26 62.24 m
1.92 3.32 l
-3.83 0 l
1.91 -3.32 l
o
np
330.56 62.24 m
1.91 3.32 l
-3.83 0 l
1.92 -3.32 l
o
np
330.86 62.24 m
1.91 3.32 l
-3.83 0 l
1.92 -3.32 l
o
np
330.86 62.24 m
1.91 3.32 l
-3.83 0 l
1.92 -3.32 l
o
np
331.15 62.24 m
1.92 3.32 l
-3.83 0 l
1.91 -3.32 l
o
np
331.45 62.24 m
1.91 3.32 l
-3.83 0 l
1.92 -3.32 l
o
np
331.75 62.24 m
1.91 3.32 l
-3.83 0 l
1.92 -3.32 l
o
np
332.04 62.24 m
1.92 3.32 l
-3.83 0 l
1.91 -3.32 l
o
np
332.34 62.24 m
1.91 3.32 l
-3.83 0 l
1.92 -3.32 l
o
np
332.34 62.24 m
1.91 3.32 l
-3.83 0 l
1.92 -3.32 l
o
np
332.64 62.24 m
1.91 3.32 l
-3.83 0 l
1.92 -3.32 l
o
np
332.93 62.24 m
1.92 3.32 l
-3.83 0 l
1.91 -3.32 l
o
np
333.23 61.93 m
1.91 3.32 l
-3.83 0 l
1.92 -3.32 l
o
np
333.53 61.93 m
1.91 3.32 l
-3.83 0 l
1.92 -3.32 l
o
np
333.53 61.93 m
1.91 3.32 l
-3.83 0 l
1.92 -3.32 l
o
np
333.82 61.93 m
1.92 3.32 l
-3.83 0 l
1.91 -3.32 l
o
np
334.12 61.93 m
1.91 3.32 l
-3.83 0 l
1.92 -3.32 l
o
np
334.42 61.93 m
1.91 3.32 l
-3.83 0 l
1.92 -3.32 l
o
np
334.71 61.93 m
1.92 3.32 l
-3.83 0 l
1.91 -3.32 l
o
np
334.71 61.93 m
1.92 3.32 l
-3.83 0 l
1.91 -3.32 l
o
np
335.01 61.93 m
1.91 3.32 l
-3.83 0 l
1.92 -3.32 l
o
np
335.31 61.93 m
1.91 3.32 l
-3.83 0 l
1.92 -3.32 l
o
np
335.60 61.93 m
1.92 3.32 l
-3.83 0 l
1.91 -3.32 l
o
np
335.60 61.93 m
1.92 3.32 l
-3.83 0 l
1.91 -3.32 l
o
np
335.90 61.93 m
1.91 3.32 l
-3.83 0 l
1.92 -3.32 l
o
np
336.20 61.93 m
1.91 3.32 l
-3.83 0 l
1.92 -3.32 l
o
np
336.49 61.93 m
1.92 3.32 l
-3.83 0 l
1.91 -3.32 l
o
np
336.49 61.93 m
1.92 3.32 l
-3.83 0 l
1.91 -3.32 l
o
np
336.79 61.93 m
1.91 3.32 l
-3.83 0 l
1.92 -3.32 l
o
np
337.09 61.93 m
1.91 3.32 l
-3.83 0 l
1.92 -3.32 l
o
np
337.09 61.93 m
1.91 3.32 l
-3.83 0 l
1.92 -3.32 l
o
np
337.38 61.93 m
1.92 3.32 l
-3.83 0 l
1.91 -3.32 l
o
np
337.68 61.93 m
1.91 3.32 l
-3.83 0 l
1.92 -3.32 l
o
np
337.98 61.93 m
1.91 3.32 l
-3.83 0 l
1.92 -3.32 l
o
np
337.98 61.93 m
1.91 3.32 l
-3.83 0 l
1.92 -3.32 l
o
np
338.27 61.93 m
1.92 3.32 l
-3.83 0 l
1.91 -3.32 l
o
np
338.57 61.93 m
1.91 3.32 l
-3.83 0 l
1.92 -3.32 l
o
np
338.57 61.93 m
1.91 3.32 l
-3.83 0 l
1.92 -3.32 l
o
np
338.86 61.93 m
1.92 3.32 l
-3.83 0 l
1.91 -3.32 l
o
np
339.16 61.93 m
1.92 3.32 l
-3.83 0 l
1.91 -3.32 l
o
np
339.46 61.93 m
1.91 3.32 l
-3.83 0 l
1.92 -3.32 l
o
np
339.46 61.93 m
1.91 3.32 l
-3.83 0 l
1.92 -3.32 l
o
np
339.75 61.93 m
1.92 3.32 l
-3.83 0 l
1.91 -3.32 l
o
np
340.05 61.93 m
1.92 3.32 l
-3.83 0 l
1.91 -3.32 l
o
np
340.05 61.93 m
1.92 3.32 l
-3.83 0 l
1.91 -3.32 l
o
np
340.35 61.93 m
1.91 3.32 l
-3.83 0 l
1.92 -3.32 l
o
np
340.64 61.93 m
1.92 3.32 l
-3.83 0 l
1.91 -3.32 l
o
np
340.64 61.93 m
1.92 3.32 l
-3.83 0 l
1.91 -3.32 l
o
np
340.94 61.93 m
1.92 3.32 l
-3.83 0 l
1.91 -3.32 l
o
np
341.24 61.93 m
1.91 3.32 l
-3.83 0 l
1.92 -3.32 l
o
np
341.24 61.93 m
1.91 3.32 l
-3.83 0 l
1.92 -3.32 l
o
np
341.53 61.93 m
1.92 3.32 l
-3.83 0 l
1.91 -3.32 l
o
np
341.83 61.62 m
1.92 3.31 l
-3.83 0 l
1.91 -3.31 l
o
np
341.83 61.62 m
1.92 3.31 l
-3.83 0 l
1.91 -3.31 l
o
np
342.13 61.62 m
1.91 3.31 l
-3.83 0 l
1.92 -3.31 l
o
np
342.42 61.62 m
1.92 3.31 l
-3.83 0 l
1.91 -3.31 l
o
np
342.42 61.62 m
1.92 3.31 l
-3.83 0 l
1.91 -3.31 l
o
np
342.72 61.62 m
1.92 3.31 l
-3.83 0 l
1.91 -3.31 l
o
np
342.72 61.62 m
1.92 3.31 l
-3.83 0 l
1.91 -3.31 l
o
np
343.02 61.62 m
1.91 3.31 l
-3.83 0 l
1.92 -3.31 l
o
np
343.31 61.62 m
1.92 3.31 l
-3.83 0 l
1.91 -3.31 l
o
np
343.31 61.62 m
1.92 3.31 l
-3.83 0 l
1.91 -3.31 l
o
np
343.61 61.62 m
1.92 3.31 l
-3.83 0 l
1.91 -3.31 l
o
np
343.91 61.62 m
1.91 3.31 l
-3.83 0 l
1.92 -3.31 l
o
np
343.91 61.62 m
1.91 3.31 l
-3.83 0 l
1.92 -3.31 l
o
np
344.20 61.62 m
1.92 3.31 l
-3.83 0 l
1.91 -3.31 l
o
np
344.20 61.62 m
1.92 3.31 l
-3.83 0 l
1.91 -3.31 l
o
np
344.50 61.62 m
1.92 3.31 l
-3.83 0 l
1.91 -3.31 l
o
np
344.80 61.62 m
1.91 3.31 l
-3.83 0 l
1.92 -3.31 l
o
np
344.80 61.62 m
1.91 3.31 l
-3.83 0 l
1.92 -3.31 l
o
np
345.09 61.62 m
1.92 3.31 l
-3.83 0 l
1.91 -3.31 l
o
np
345.09 61.62 m
1.92 3.31 l
-3.83 0 l
1.91 -3.31 l
o
np
345.39 61.62 m
1.92 3.31 l
-3.83 0 l
1.91 -3.31 l
o
np
345.69 61.62 m
1.91 3.31 l
-3.83 0 l
1.92 -3.31 l
o
np
345.69 61.62 m
1.91 3.31 l
-3.83 0 l
1.92 -3.31 l
o
np
345.98 61.62 m
1.92 3.31 l
-3.83 0 l
1.91 -3.31 l
o
np
345.98 61.62 m
1.92 3.31 l
-3.83 0 l
1.91 -3.31 l
o
np
346.28 61.62 m
1.92 3.31 l
-3.83 0 l
1.91 -3.31 l
o
np
346.58 61.62 m
1.91 3.31 l
-3.83 0 l
1.92 -3.31 l
o
np
346.58 61.62 m
1.91 3.31 l
-3.83 0 l
1.92 -3.31 l
o
np
346.87 61.62 m
1.92 3.31 l
-3.83 0 l
1.91 -3.31 l
o
np
346.87 61.62 m
1.92 3.31 l
-3.83 0 l
1.91 -3.31 l
o
np
347.17 61.62 m
1.92 3.31 l
-3.83 0 l
1.91 -3.31 l
o
np
347.47 61.62 m
1.91 3.31 l
-3.83 0 l
1.92 -3.31 l
o
np
347.47 61.62 m
1.91 3.31 l
-3.83 0 l
1.92 -3.31 l
o
np
347.76 61.62 m
1.92 3.31 l
-3.83 0 l
1.91 -3.31 l
o
np
347.76 61.62 m
1.92 3.31 l
-3.83 0 l
1.91 -3.31 l
o
np
348.06 61.62 m
1.92 3.31 l
-3.83 0 l
1.91 -3.31 l
o
np
348.06 61.62 m
1.92 3.31 l
-3.83 0 l
1.91 -3.31 l
o
np
348.36 61.62 m
1.91 3.31 l
-3.83 0 l
1.92 -3.31 l
o
np
348.36 61.62 m
1.91 3.31 l
-3.83 0 l
1.92 -3.31 l
o
np
348.65 61.62 m
1.92 3.31 l
-3.83 0 l
1.91 -3.31 l
o
np
348.95 61.62 m
1.92 3.31 l
-3.83 0 l
1.91 -3.31 l
o
np
348.95 61.62 m
1.92 3.31 l
-3.83 0 l
1.91 -3.31 l
o
np
349.25 61.62 m
1.91 3.31 l
-3.83 0 l
1.92 -3.31 l
o
np
349.25 61.62 m
1.91 3.31 l
-3.83 0 l
1.92 -3.31 l
o
np
349.54 61.62 m
1.92 3.31 l
-3.83 0 l
1.91 -3.31 l
o
np
349.54 61.62 m
1.92 3.31 l
-3.83 0 l
1.91 -3.31 l
o
np
349.84 61.62 m
1.91 3.31 l
-3.82 0 l
1.91 -3.31 l
o
np
349.84 61.62 m
1.91 3.31 l
-3.82 0 l
1.91 -3.31 l
o
np
350.14 61.62 m
1.91 3.31 l
-3.83 0 l
1.92 -3.31 l
o
np
350.14 61.62 m
1.91 3.31 l
-3.83 0 l
1.92 -3.31 l
o
np
350.43 61.62 m
1.92 3.31 l
-3.83 0 l
1.91 -3.31 l
o
np
350.73 61.62 m
1.91 3.31 l
-3.82 0 l
1.91 -3.31 l
o
np
350.73 61.62 m
1.91 3.31 l
-3.82 0 l
1.91 -3.31 l
o
np
351.03 61.62 m
1.91 3.31 l
-3.83 0 l
1.92 -3.31 l
o
np
351.03 61.62 m
1.91 3.31 l
-3.83 0 l
1.92 -3.31 l
o
np
351.32 61.62 m
1.92 3.31 l
-3.83 0 l
1.91 -3.31 l
o
np
351.32 61.62 m
1.92 3.31 l
-3.83 0 l
1.91 -3.31 l
o
np
351.62 61.62 m
1.91 3.31 l
-3.82 0 l
1.91 -3.31 l
o
np
351.62 61.62 m
1.91 3.31 l
-3.82 0 l
1.91 -3.31 l
o
np
351.92 61.62 m
1.91 3.31 l
-3.83 0 l
1.92 -3.31 l
o
np
351.92 61.62 m
1.91 3.31 l
-3.83 0 l
1.92 -3.31 l
o
np
352.21 61.62 m
1.92 3.31 l
-3.83 0 l
1.91 -3.31 l
o
np
352.21 61.62 m
1.92 3.31 l
-3.83 0 l
1.91 -3.31 l
o
np
352.51 61.62 m
1.91 3.31 l
-3.82 0 l
1.91 -3.31 l
o
np
352.51 61.30 m
1.91 3.32 l
-3.82 0 l
1.91 -3.32 l
o
np
352.81 61.30 m
1.91 3.32 l
-3.83 0 l
1.92 -3.32 l
o
np
352.81 61.30 m
1.91 3.32 l
-3.83 0 l
1.92 -3.32 l
o
np
353.10 61.30 m
1.92 3.32 l
-3.83 0 l
1.91 -3.32 l
o
np
353.10 61.30 m
1.92 3.32 l
-3.83 0 l
1.91 -3.32 l
o
np
353.40 61.30 m
1.91 3.32 l
-3.82 0 l
1.91 -3.32 l
o
np
353.40 61.30 m
1.91 3.32 l
-3.82 0 l
1.91 -3.32 l
o
np
353.70 61.30 m
1.91 3.32 l
-3.83 0 l
1.92 -3.32 l
o
np
353.70 61.30 m
1.91 3.32 l
-3.83 0 l
1.92 -3.32 l
o
np
353.99 61.30 m
1.92 3.32 l
-3.83 0 l
1.91 -3.32 l
o
np
353.99 61.30 m
1.92 3.32 l
-3.83 0 l
1.91 -3.32 l
o
np
354.29 61.30 m
1.91 3.32 l
-3.82 0 l
1.91 -3.32 l
o
np
354.29 61.30 m
1.91 3.32 l
-3.82 0 l
1.91 -3.32 l
o
np
354.59 61.30 m
1.91 3.32 l
-3.83 0 l
1.92 -3.32 l
o
np
354.59 61.30 m
1.91 3.32 l
-3.83 0 l
1.92 -3.32 l
o
np
354.88 61.30 m
1.92 3.32 l
-3.83 0 l
1.91 -3.32 l
o
np
354.88 61.30 m
1.92 3.32 l
-3.83 0 l
1.91 -3.32 l
o
np
355.18 61.30 m
1.91 3.32 l
-3.82 0 l
1.91 -3.32 l
o
np
355.18 61.30 m
1.91 3.32 l
-3.82 0 l
1.91 -3.32 l
o
np
355.48 61.30 m
1.91 3.32 l
-3.83 0 l
1.92 -3.32 l
o
np
355.48 61.30 m
1.91 3.32 l
-3.83 0 l
1.92 -3.32 l
o
np
355.77 61.30 m
1.92 3.32 l
-3.83 0 l
1.91 -3.32 l
o
np
355.77 61.30 m
1.92 3.32 l
-3.83 0 l
1.91 -3.32 l
o
np
355.77 61.30 m
1.92 3.32 l
-3.83 0 l
1.91 -3.32 l
o
np
356.07 61.30 m
1.91 3.32 l
-3.82 0 l
1.91 -3.32 l
o
np
356.07 61.30 m
1.91 3.32 l
-3.82 0 l
1.91 -3.32 l
o
np
356.37 61.30 m
1.91 3.32 l
-3.83 0 l
1.92 -3.32 l
o
np
356.37 61.30 m
1.91 3.32 l
-3.83 0 l
1.92 -3.32 l
o
np
356.66 61.30 m
1.92 3.32 l
-3.83 0 l
1.91 -3.32 l
o
np
356.66 61.30 m
1.92 3.32 l
-3.83 0 l
1.91 -3.32 l
o
np
356.96 61.30 m
1.91 3.32 l
-3.82 0 l
1.91 -3.32 l
o
np
356.96 61.30 m
1.91 3.32 l
-3.82 0 l
1.91 -3.32 l
o
np
357.26 61.30 m
1.91 3.32 l
-3.83 0 l
1.92 -3.32 l
o
np
357.26 61.30 m
1.91 3.32 l
-3.83 0 l
1.92 -3.32 l
o
np
357.55 61.30 m
1.92 3.32 l
-3.83 0 l
1.91 -3.32 l
o
np
357.55 61.30 m
1.92 3.32 l
-3.83 0 l
1.91 -3.32 l
o
np
357.55 61.30 m
1.92 3.32 l
-3.83 0 l
1.91 -3.32 l
o
np
357.85 61.30 m
1.91 3.32 l
-3.82 0 l
1.91 -3.32 l
o
np
357.85 61.30 m
1.91 3.32 l
-3.82 0 l
1.91 -3.32 l
o
np
358.15 61.30 m
1.91 3.32 l
-3.83 0 l
1.92 -3.32 l
o
np
358.15 61.30 m
1.91 3.32 l
-3.83 0 l
1.92 -3.32 l
o
np
358.44 61.30 m
1.92 3.32 l
-3.83 0 l
1.91 -3.32 l
o
np
358.44 61.30 m
1.92 3.32 l
-3.83 0 l
1.91 -3.32 l
o
np
358.74 61.30 m
1.91 3.32 l
-3.82 0 l
1.91 -3.32 l
o
np
358.74 61.30 m
1.91 3.32 l
-3.82 0 l
1.91 -3.32 l
o
np
358.74 61.30 m
1.91 3.32 l
-3.82 0 l
1.91 -3.32 l
o
np
359.04 61.30 m
1.91 3.32 l
-3.83 0 l
1.92 -3.32 l
o
np
359.04 61.30 m
1.91 3.32 l
-3.83 0 l
1.92 -3.32 l
o
np
359.33 61.30 m
1.92 3.32 l
-3.83 0 l
1.91 -3.32 l
o
np
359.33 61.30 m
1.92 3.32 l
-3.83 0 l
1.91 -3.32 l
o
np
359.63 61.30 m
1.91 3.32 l
-3.82 0 l
1.91 -3.32 l
o
np
359.63 61.30 m
1.91 3.32 l
-3.82 0 l
1.91 -3.32 l
o
np
359.63 61.30 m
1.91 3.32 l
-3.82 0 l
1.91 -3.32 l
o
np
359.93 61.30 m
1.91 3.32 l
-3.83 0 l
1.92 -3.32 l
o
np
359.93 61.30 m
1.91 3.32 l
-3.83 0 l
1.92 -3.32 l
o
np
360.22 61.30 m
1.92 3.32 l
-3.83 0 l
1.91 -3.32 l
o
np
360.22 61.30 m
1.92 3.32 l
-3.83 0 l
1.91 -3.32 l
o
np
360.52 61.30 m
1.91 3.32 l
-3.82 0 l
1.91 -3.32 l
o
np
360.52 61.30 m
1.91 3.32 l
-3.82 0 l
1.91 -3.32 l
o
np
360.52 61.30 m
1.91 3.32 l
-3.82 0 l
1.91 -3.32 l
o
np
360.82 61.30 m
1.91 3.32 l
-3.83 0 l
1.92 -3.32 l
o
np
360.82 61.30 m
1.91 3.32 l
-3.83 0 l
1.92 -3.32 l
o
np
361.11 61.30 m
1.92 3.32 l
-3.83 0 l
1.91 -3.32 l
o
np
361.11 61.30 m
1.92 3.32 l
-3.83 0 l
1.91 -3.32 l
o
np
361.41 61.30 m
1.91 3.32 l
-3.82 0 l
1.91 -3.32 l
o
np
361.41 61.30 m
1.91 3.32 l
-3.82 0 l
1.91 -3.32 l
o
np
361.41 61.30 m
1.91 3.32 l
-3.82 0 l
1.91 -3.32 l
o
np
361.71 61.30 m
1.91 3.32 l
-3.83 0 l
1.92 -3.32 l
o
np
361.71 61.30 m
1.91 3.32 l
-3.83 0 l
1.92 -3.32 l
o
np
362.00 61.30 m
1.92 3.32 l
-3.83 0 l
1.91 -3.32 l
o
np
362.00 61.30 m
1.92 3.32 l
-3.83 0 l
1.91 -3.32 l
o
np
362.00 61.30 m
1.92 3.32 l
-3.83 0 l
1.91 -3.32 l
o
np
362.30 61.30 m
1.91 3.32 l
-3.82 0 l
1.91 -3.32 l
o
np
362.30 61.30 m
1.91 3.32 l
-3.82 0 l
1.91 -3.32 l
o
np
362.60 61.30 m
1.91 3.32 l
-3.83 0 l
1.92 -3.32 l
o
np
362.60 61.30 m
1.91 3.32 l
-3.83 0 l
1.92 -3.32 l
o
np
362.60 61.30 m
1.91 3.32 l
-3.83 0 l
1.92 -3.32 l
o
np
362.89 61.30 m
1.92 3.32 l
-3.83 0 l
1.91 -3.32 l
o
np
362.89 61.30 m
1.92 3.32 l
-3.83 0 l
1.91 -3.32 l
o
np
363.19 61.30 m
1.91 3.32 l
-3.82 0 l
1.91 -3.32 l
o
np
363.19 61.30 m
1.91 3.32 l
-3.82 0 l
1.91 -3.32 l
o
np
363.19 61.30 m
1.91 3.32 l
-3.82 0 l
1.91 -3.32 l
o
np
363.49 61.30 m
1.91 3.32 l
-3.83 0 l
1.92 -3.32 l
o
np
363.49 61.30 m
1.91 3.32 l
-3.83 0 l
1.92 -3.32 l
o
np
363.78 61.30 m
1.92 3.32 l
-3.83 0 l
1.91 -3.32 l
o
np
363.78 61.30 m
1.92 3.32 l
-3.83 0 l
1.91 -3.32 l
o
np
363.78 61.30 m
1.92 3.32 l
-3.83 0 l
1.91 -3.32 l
o
np
364.08 61.30 m
1.91 3.32 l
-3.82 0 l
1.91 -3.32 l
o
np
364.08 61.30 m
1.91 3.32 l
-3.82 0 l
1.91 -3.32 l
o
np
364.08 61.30 m
1.91 3.32 l
-3.82 0 l
1.91 -3.32 l
o
np
364.38 61.30 m
1.91 3.32 l
-3.83 0 l
1.92 -3.32 l
o
np
364.38 61.30 m
1.91 3.32 l
-3.83 0 l
1.92 -3.32 l
o
np
364.67 61.30 m
1.92 3.32 l
-3.83 0 l
1.91 -3.32 l
o
np
364.67 61.30 m
1.92 3.32 l
-3.83 0 l
1.91 -3.32 l
o
np
364.67 61.30 m
1.92 3.32 l
-3.83 0 l
1.91 -3.32 l
o
np
364.97 61.30 m
1.91 3.32 l
-3.82 0 l
1.91 -3.32 l
o
np
364.97 61.30 m
1.91 3.32 l
-3.82 0 l
1.91 -3.32 l
o
np
365.27 61.30 m
1.91 3.32 l
-3.83 0 l
1.92 -3.32 l
o
np
365.27 61.30 m
1.91 3.32 l
-3.83 0 l
1.92 -3.32 l
o
np
365.27 61.30 m
1.91 3.32 l
-3.83 0 l
1.92 -3.32 l
o
np
365.56 61.30 m
1.92 3.32 l
-3.83 0 l
1.91 -3.32 l
o
np
365.56 61.30 m
1.92 3.32 l
-3.83 0 l
1.91 -3.32 l
o
np
365.56 61.30 m
1.92 3.32 l
-3.83 0 l
1.91 -3.32 l
o
np
365.86 61.30 m
1.91 3.32 l
-3.82 0 l
1.91 -3.32 l
o
np
365.86 61.30 m
1.91 3.32 l
-3.82 0 l
1.91 -3.32 l
o
np
366.16 61.30 m
1.91 3.32 l
-3.83 0 l
1.92 -3.32 l
o
np
366.16 61.30 m
1.91 3.32 l
-3.83 0 l
1.92 -3.32 l
o
np
366.16 61.30 m
1.91 3.32 l
-3.83 0 l
1.92 -3.32 l
o
np
366.45 61.30 m
1.92 3.32 l
-3.83 0 l
1.91 -3.32 l
o
np
366.45 61.30 m
1.92 3.32 l
-3.83 0 l
1.91 -3.32 l
o
np
366.45 61.30 m
1.92 3.32 l
-3.83 0 l
1.91 -3.32 l
o
np
366.75 61.30 m
1.91 3.32 l
-3.82 0 l
1.91 -3.32 l
o
np
366.75 61.30 m
1.91 3.32 l
-3.82 0 l
1.91 -3.32 l
o
np
366.75 61.30 m
1.91 3.32 l
-3.82 0 l
1.91 -3.32 l
o
np
367.05 60.99 m
1.91 3.32 l
-3.83 0 l
1.92 -3.32 l
o
np
367.05 60.99 m
1.91 3.32 l
-3.83 0 l
1.92 -3.32 l
o
np
367.34 60.99 m
1.92 3.32 l
-3.83 0 l
1.91 -3.32 l
o
np
367.34 60.99 m
1.92 3.32 l
-3.83 0 l
1.91 -3.32 l
o
np
367.34 60.99 m
1.92 3.32 l
-3.83 0 l
1.91 -3.32 l
o
np
367.64 60.99 m
1.91 3.32 l
-3.82 0 l
1.91 -3.32 l
o
np
367.64 60.99 m
1.91 3.32 l
-3.82 0 l
1.91 -3.32 l
o
np
367.64 60.99 m
1.91 3.32 l
-3.82 0 l
1.91 -3.32 l
o
np
367.94 60.99 m
1.91 3.32 l
-3.83 0 l
1.92 -3.32 l
o
np
367.94 60.99 m
1.91 3.32 l
-3.83 0 l
1.92 -3.32 l
o
np
367.94 60.99 m
1.91 3.32 l
-3.83 0 l
1.92 -3.32 l
o
np
368.23 60.99 m
1.92 3.32 l
-3.83 0 l
1.91 -3.32 l
o
np
368.23 60.99 m
1.92 3.32 l
-3.83 0 l
1.91 -3.32 l
o
np
368.23 60.99 m
1.92 3.32 l
-3.83 0 l
1.91 -3.32 l
o
np
368.53 60.99 m
1.91 3.32 l
-3.82 0 l
1.91 -3.32 l
o
np
368.53 60.99 m
1.91 3.32 l
-3.82 0 l
1.91 -3.32 l
o
np
368.83 60.99 m
1.91 3.32 l
-3.83 0 l
1.92 -3.32 l
o
np
368.83 60.99 m
1.91 3.32 l
-3.83 0 l
1.92 -3.32 l
o
np
368.83 60.99 m
1.91 3.32 l
-3.83 0 l
1.92 -3.32 l
o
np
369.12 60.99 m
1.92 3.32 l
-3.83 0 l
1.91 -3.32 l
o
np
369.12 60.99 m
1.92 3.32 l
-3.83 0 l
1.91 -3.32 l
o
np
369.12 60.99 m
1.92 3.32 l
-3.83 0 l
1.91 -3.32 l
o
np
369.42 60.99 m
1.91 3.32 l
-3.82 0 l
1.91 -3.32 l
o
np
369.42 60.99 m
1.91 3.32 l
-3.82 0 l
1.91 -3.32 l
o
np
369.42 60.99 m
1.91 3.32 l
-3.82 0 l
1.91 -3.32 l
o
np
369.72 60.99 m
1.91 3.32 l
-3.83 0 l
1.92 -3.32 l
o
np
369.72 60.99 m
1.91 3.32 l
-3.83 0 l
1.92 -3.32 l
o
np
369.72 60.99 m
1.91 3.32 l
-3.83 0 l
1.92 -3.32 l
o
np
370.01 60.99 m
1.92 3.32 l
-3.83 0 l
1.91 -3.32 l
o
np
370.01 60.99 m
1.92 3.32 l
-3.83 0 l
1.91 -3.32 l
o
np
370.01 60.99 m
1.92 3.32 l
-3.83 0 l
1.91 -3.32 l
o
np
370.31 60.99 m
1.91 3.32 l
-3.82 0 l
1.91 -3.32 l
o
np
370.31 60.99 m
1.91 3.32 l
-3.82 0 l
1.91 -3.32 l
o
np
370.31 60.99 m
1.91 3.32 l
-3.82 0 l
1.91 -3.32 l
o
np
370.61 60.99 m
1.91 3.32 l
-3.83 0 l
1.92 -3.32 l
o
np
370.61 60.99 m
1.91 3.32 l
-3.83 0 l
1.92 -3.32 l
o
np
370.61 60.99 m
1.91 3.32 l
-3.83 0 l
1.92 -3.32 l
o
np
370.90 60.99 m
1.92 3.32 l
-3.83 0 l
1.91 -3.32 l
o
np
370.90 60.99 m
1.92 3.32 l
-3.83 0 l
1.91 -3.32 l
o
np
370.90 60.99 m
1.92 3.32 l
-3.83 0 l
1.91 -3.32 l
o
np
371.20 60.99 m
1.91 3.32 l
-3.83 0 l
1.92 -3.32 l
o
np
371.20 60.99 m
1.91 3.32 l
-3.83 0 l
1.92 -3.32 l
o
np
371.20 60.99 m
1.91 3.32 l
-3.83 0 l
1.92 -3.32 l
o
np
371.50 60.99 m
1.91 3.32 l
-3.83 0 l
1.92 -3.32 l
o
np
371.50 60.99 m
1.91 3.32 l
-3.83 0 l
1.92 -3.32 l
o
np
371.50 60.99 m
1.91 3.32 l
-3.83 0 l
1.92 -3.32 l
o
np
371.79 60.99 m
1.92 3.32 l
-3.83 0 l
1.91 -3.32 l
o
np
371.79 60.99 m
1.92 3.32 l
-3.83 0 l
1.91 -3.32 l
o
np
371.79 60.99 m
1.92 3.32 l
-3.83 0 l
1.91 -3.32 l
o
np
372.09 60.99 m
1.91 3.32 l
-3.83 0 l
1.92 -3.32 l
o
np
372.09 60.99 m
1.91 3.32 l
-3.83 0 l
1.92 -3.32 l
o
np
372.09 60.99 m
1.91 3.32 l
-3.83 0 l
1.92 -3.32 l
o
np
372.39 60.99 m
1.91 3.32 l
-3.83 0 l
1.92 -3.32 l
o
np
372.39 60.99 m
1.91 3.32 l
-3.83 0 l
1.92 -3.32 l
o
np
372.39 60.99 m
1.91 3.32 l
-3.83 0 l
1.92 -3.32 l
o
np
372.39 60.99 m
1.91 3.32 l
-3.83 0 l
1.92 -3.32 l
o
np
372.68 60.99 m
1.92 3.32 l
-3.83 0 l
1.91 -3.32 l
o
np
372.68 60.99 m
1.92 3.32 l
-3.83 0 l
1.91 -3.32 l
o
np
372.68 60.99 m
1.92 3.32 l
-3.83 0 l
1.91 -3.32 l
o
np
372.98 60.99 m
1.91 3.32 l
-3.83 0 l
1.92 -3.32 l
o
np
372.98 60.99 m
1.91 3.32 l
-3.83 0 l
1.92 -3.32 l
o
np
372.98 60.99 m
1.91 3.32 l
-3.83 0 l
1.92 -3.32 l
o
np
373.28 60.99 m
1.91 3.32 l
-3.83 0 l
1.92 -3.32 l
o
np
373.28 60.99 m
1.91 3.32 l
-3.83 0 l
1.92 -3.32 l
o
np
373.28 60.99 m
1.91 3.32 l
-3.83 0 l
1.92 -3.32 l
o
np
373.57 60.99 m
1.92 3.32 l
-3.83 0 l
1.91 -3.32 l
o
np
373.57 60.99 m
1.92 3.32 l
-3.83 0 l
1.91 -3.32 l
o
np
373.57 60.99 m
1.92 3.32 l
-3.83 0 l
1.91 -3.32 l
o
np
373.87 60.99 m
1.91 3.32 l
-3.83 0 l
1.92 -3.32 l
o
np
373.87 60.99 m
1.91 3.32 l
-3.83 0 l
1.92 -3.32 l
o
np
373.87 60.99 m
1.91 3.32 l
-3.83 0 l
1.92 -3.32 l
o
np
373.87 60.99 m
1.91 3.32 l
-3.83 0 l
1.92 -3.32 l
o
np
374.17 60.99 m
1.91 3.32 l
-3.83 0 l
1.92 -3.32 l
o
np
374.17 60.99 m
1.91 3.32 l
-3.83 0 l
1.92 -3.32 l
o
np
374.17 60.99 m
1.91 3.32 l
-3.83 0 l
1.92 -3.32 l
o
np
374.46 60.99 m
1.92 3.32 l
-3.83 0 l
1.91 -3.32 l
o
np
374.46 60.99 m
1.92 3.32 l
-3.83 0 l
1.91 -3.32 l
o
np
374.46 60.99 m
1.92 3.32 l
-3.83 0 l
1.91 -3.32 l
o
np
374.76 60.99 m
1.91 3.32 l
-3.83 0 l
1.92 -3.32 l
o
np
374.76 60.99 m
1.91 3.32 l
-3.83 0 l
1.92 -3.32 l
o
np
374.76 60.99 m
1.91 3.32 l
-3.83 0 l
1.92 -3.32 l
o
np
375.06 60.99 m
1.91 3.32 l
-3.83 0 l
1.92 -3.32 l
o
np
375.06 60.99 m
1.91 3.32 l
-3.83 0 l
1.92 -3.32 l
o
np
375.06 60.99 m
1.91 3.32 l
-3.83 0 l
1.92 -3.32 l
o
np
375.06 60.99 m
1.91 3.32 l
-3.83 0 l
1.92 -3.32 l
o
np
375.35 60.99 m
1.92 3.32 l
-3.83 0 l
1.91 -3.32 l
o
np
375.35 60.99 m
1.92 3.32 l
-3.83 0 l
1.91 -3.32 l
o
np
375.35 60.99 m
1.92 3.32 l
-3.83 0 l
1.91 -3.32 l
o
np
375.65 60.99 m
1.91 3.32 l
-3.83 0 l
1.92 -3.32 l
o
np
375.65 60.99 m
1.91 3.32 l
-3.83 0 l
1.92 -3.32 l
o
np
375.65 60.99 m
1.91 3.32 l
-3.83 0 l
1.92 -3.32 l
o
np
375.95 60.99 m
1.91 3.32 l
-3.83 0 l
1.92 -3.32 l
o
np
375.95 60.99 m
1.91 3.32 l
-3.83 0 l
1.92 -3.32 l
o
np
375.95 60.99 m
1.91 3.32 l
-3.83 0 l
1.92 -3.32 l
o
np
375.95 60.99 m
1.91 3.32 l
-3.83 0 l
1.92 -3.32 l
o
np
376.24 60.99 m
1.92 3.32 l
-3.83 0 l
1.91 -3.32 l
o
np
376.24 60.99 m
1.92 3.32 l
-3.83 0 l
1.91 -3.32 l
o
np
376.24 60.99 m
1.92 3.32 l
-3.83 0 l
1.91 -3.32 l
o
np
376.54 60.99 m
1.91 3.32 l
-3.83 0 l
1.92 -3.32 l
o
np
376.54 60.68 m
1.91 3.31 l
-3.83 0 l
1.92 -3.31 l
o
np
376.54 60.68 m
1.91 3.31 l
-3.83 0 l
1.92 -3.31 l
o
0 0 1 srgb
np
105.41 303.40 m
1.91 -3.32 l
-3.83 0 l
1.92 3.32 l
o
np
133.29 341.60 m
1.91 -3.32 l
-3.82 0 l
1.91 3.32 l
o
np
153.17 347.86 m
1.91 -3.31 l
-3.83 0 l
1.92 3.31 l
o
np
166.22 346.92 m
1.91 -3.31 l
-3.83 0 l
1.92 3.31 l
o
np
176.60 350.37 m
1.91 -3.32 l
-3.82 0 l
1.91 3.32 l
o
np
184.61 351.31 m
1.91 -3.32 l
-3.82 0 l
1.91 3.32 l
o
np
191.73 350.99 m
1.91 -3.31 l
-3.82 0 l
1.91 3.31 l
o
np
197.66 349.74 m
1.92 -3.31 l
-3.83 0 l
1.91 3.31 l
o
np
202.71 348.80 m
1.91 -3.31 l
-3.83 0 l
1.92 3.31 l
o
np
207.45 350.06 m
1.92 -3.32 l
-3.83 0 l
1.91 3.32 l
o
np
211.60 350.06 m
1.92 -3.32 l
-3.83 0 l
1.91 3.32 l
o
np
215.46 347.86 m
1.92 -3.31 l
-3.83 0 l
1.91 3.31 l
o
np
219.02 347.24 m
1.92 -3.32 l
-3.83 0 l
1.91 3.32 l
o
np
222.28 347.55 m
1.92 -3.32 l
-3.83 0 l
1.91 3.32 l
o
np
225.25 347.24 m
1.91 -3.32 l
-3.82 0 l
1.91 3.32 l
o
np
227.92 346.61 m
1.91 -3.31 l
-3.82 0 l
1.91 3.31 l
o
np
230.59 345.67 m
1.91 -3.31 l
-3.82 0 l
1.91 3.31 l
o
np
233.26 345.36 m
1.91 -3.32 l
-3.82 0 l
1.91 3.32 l
o
np
235.63 344.42 m
1.92 -3.32 l
-3.83 0 l
1.91 3.32 l
o
np
237.71 343.48 m
1.91 -3.32 l
-3.82 0 l
1.91 3.32 l
o
np
239.79 342.54 m
1.91 -3.32 l
-3.83 0 l
1.92 3.32 l
o
np
241.86 341.91 m
1.92 -3.31 l
-3.83 0 l
1.91 3.31 l
o
np
243.94 342.54 m
1.91 -3.32 l
-3.83 0 l
1.92 3.32 l
o
np
245.72 340.03 m
1.91 -3.31 l
-3.83 0 l
1.92 3.31 l
o
np
247.50 340.66 m
1.91 -3.31 l
-3.83 0 l
1.92 3.31 l
o
np
249.28 340.03 m
1.91 -3.31 l
-3.83 0 l
1.92 3.31 l
o
np
250.76 339.41 m
1.92 -3.32 l
-3.83 0 l
1.91 3.32 l
o
np
252.54 338.47 m
1.92 -3.32 l
-3.83 0 l
1.91 3.32 l
o
np
254.02 337.53 m
1.92 -3.32 l
-3.83 0 l
1.91 3.32 l
o
np
255.51 337.53 m
1.91 -3.32 l
-3.83 0 l
1.92 3.32 l
o
np
256.69 336.59 m
1.92 -3.32 l
-3.83 0 l
1.91 3.32 l
o
np
258.18 335.65 m
1.91 -3.31 l
-3.83 0 l
1.92 3.31 l
o
np
259.66 335.65 m
1.92 -3.31 l
-3.83 0 l
1.91 3.31 l
o
np
260.85 335.02 m
1.91 -3.31 l
-3.83 0 l
1.92 3.31 l
o
np
262.03 334.08 m
1.92 -3.31 l
-3.83 0 l
1.91 3.31 l
o
np
263.22 333.46 m
1.91 -3.32 l
-3.82 0 l
1.91 3.32 l
o
np
264.41 333.15 m
1.91 -3.32 l
-3.83 0 l
1.92 3.32 l
o
np
265.59 332.21 m
1.92 -3.32 l
-3.83 0 l
1.91 3.32 l
o
np
266.78 331.89 m
1.91 -3.31 l
-3.82 0 l
1.91 3.31 l
o
np
267.97 330.64 m
1.91 -3.32 l
-3.83 0 l
1.92 3.32 l
o
np
268.86 330.64 m
1.91 -3.32 l
-3.83 0 l
1.92 3.32 l
o
np
270.04 329.39 m
1.92 -3.32 l
-3.83 0 l
1.91 3.32 l
o
np
270.93 329.39 m
1.92 -3.32 l
-3.83 0 l
1.91 3.32 l
o
np
271.82 328.76 m
1.92 -3.31 l
-3.83 0 l
1.91 3.31 l
o
np
273.01 327.82 m
1.91 -3.31 l
-3.82 0 l
1.91 3.31 l
o
np
273.90 327.51 m
1.91 -3.32 l
-3.82 0 l
1.91 3.32 l
o
np
274.79 327.20 m
1.91 -3.32 l
-3.82 0 l
1.91 3.32 l
o
np
275.68 326.26 m
1.91 -3.32 l
-3.82 0 l
1.91 3.32 l
o
np
276.57 325.63 m
1.91 -3.32 l
-3.82 0 l
1.91 3.32 l
o
np
277.46 325.32 m
1.91 -3.32 l
-3.82 0 l
1.91 3.32 l
o
np
278.35 325.00 m
1.91 -3.31 l
-3.82 0 l
1.91 3.31 l
o
np
279.24 324.06 m
1.91 -3.31 l
-3.82 0 l
1.91 3.31 l
o
np
280.13 323.13 m
1.91 -3.32 l
-3.82 0 l
1.91 3.32 l
o
np
280.72 322.50 m
1.92 -3.32 l
-3.83 0 l
1.91 3.32 l
o
np
281.61 321.87 m
1.92 -3.31 l
-3.83 0 l
1.91 3.31 l
o
np
282.50 321.56 m
1.92 -3.32 l
-3.83 0 l
1.91 3.32 l
o
np
283.10 320.93 m
1.91 -3.31 l
-3.83 0 l
1.92 3.31 l
o
np
283.99 320.31 m
1.91 -3.32 l
-3.83 0 l
1.92 3.32 l
o
np
284.58 319.99 m
1.91 -3.31 l
-3.83 0 l
1.92 3.31 l
o
np
285.47 319.05 m
1.91 -3.31 l
-3.83 0 l
1.92 3.31 l
o
np
286.06 318.43 m
1.92 -3.32 l
-3.83 0 l
1.91 3.32 l
o
np
286.66 317.80 m
1.91 -3.31 l
-3.83 0 l
1.92 3.31 l
o
np
287.55 317.18 m
1.91 -3.32 l
-3.83 0 l
1.92 3.32 l
o
np
288.14 316.86 m
1.91 -3.31 l
-3.83 0 l
1.92 3.31 l
o
np
288.73 315.92 m
1.92 -3.31 l
-3.83 0 l
1.91 3.31 l
o
np
289.33 315.61 m
1.91 -3.32 l
-3.83 0 l
1.92 3.32 l
o
np
290.22 314.98 m
1.91 -3.31 l
-3.83 0 l
1.92 3.31 l
o
np
290.81 314.36 m
1.91 -3.32 l
-3.83 0 l
1.92 3.32 l
o
np
291.40 313.73 m
1.92 -3.31 l
-3.83 0 l
1.91 3.31 l
o
np
292.00 312.79 m
1.91 -3.31 l
-3.83 0 l
1.92 3.31 l
o
np
292.59 312.48 m
1.91 -3.32 l
-3.83 0 l
1.92 3.32 l
o
np
293.18 312.17 m
1.92 -3.32 l
-3.83 0 l
1.91 3.32 l
o
np
293.78 311.85 m
1.91 -3.31 l
-3.83 0 l
1.92 3.31 l
o
np
294.37 310.91 m
1.91 -3.31 l
-3.83 0 l
1.92 3.31 l
o
np
294.96 309.97 m
1.92 -3.31 l
-3.83 0 l
1.91 3.31 l
o
np
295.55 309.66 m
1.92 -3.32 l
-3.83 0 l
1.91 3.32 l
o
np
296.15 309.03 m
1.91 -3.31 l
-3.83 0 l
1.92 3.31 l
o
np
296.74 308.41 m
1.92 -3.32 l
-3.83 0 l
1.91 3.32 l
o
np
297.33 307.78 m
1.92 -3.31 l
-3.83 0 l
1.91 3.31 l
o
np
297.63 307.47 m
1.92 -3.32 l
-3.83 0 l
1.91 3.32 l
o
np
298.22 306.53 m
1.92 -3.32 l
-3.83 0 l
1.91 3.32 l
o
np
298.82 305.90 m
1.91 -3.31 l
-3.83 0 l
1.92 3.31 l
o
np
299.41 305.59 m
1.92 -3.32 l
-3.83 0 l
1.91 3.32 l
o
np
299.71 304.65 m
1.91 -3.32 l
-3.83 0 l
1.92 3.32 l
o
np
300.30 304.65 m
1.92 -3.32 l
-3.83 0 l
1.91 3.32 l
o
np
300.89 303.71 m
1.92 -3.31 l
-3.83 0 l
1.91 3.31 l
o
np
301.49 303.08 m
1.91 -3.31 l
-3.83 0 l
1.92 3.31 l
o
np
301.78 302.46 m
1.92 -3.32 l
-3.83 0 l
1.91 3.32 l
o
np
302.38 302.14 m
1.91 -3.31 l
-3.83 0 l
1.92 3.31 l
o
np
302.67 301.21 m
1.92 -3.32 l
-3.83 0 l
1.91 3.32 l
o
np
303.27 300.89 m
1.91 -3.31 l
-3.83 0 l
1.92 3.31 l
o
np
303.86 300.27 m
1.92 -3.32 l
-3.83 0 l
1.91 3.32 l
o
np
304.16 299.64 m
1.91 -3.32 l
-3.83 0 l
1.92 3.32 l
o
np
304.75 298.70 m
1.92 -3.32 l
-3.83 0 l
1.91 3.32 l
o
np
305.05 298.70 m
1.91 -3.32 l
-3.83 0 l
1.92 3.32 l
o
np
305.64 298.07 m
1.92 -3.31 l
-3.83 0 l
1.91 3.31 l
o
np
305.94 297.13 m
1.91 -3.31 l
-3.83 0 l
1.92 3.31 l
o
np
306.53 296.82 m
1.91 -3.31 l
-3.82 0 l
1.91 3.31 l
o
np
306.83 296.20 m
1.91 -3.32 l
-3.83 0 l
1.92 3.32 l
o
np
307.42 295.88 m
1.91 -3.31 l
-3.82 0 l
1.91 3.31 l
o
np
307.72 294.63 m
1.91 -3.32 l
-3.83 0 l
1.92 3.32 l
o
np
308.31 294.63 m
1.91 -3.32 l
-3.82 0 l
1.91 3.32 l
o
np
308.61 293.69 m
1.91 -3.32 l
-3.83 0 l
1.92 3.32 l
o
np
308.90 293.38 m
1.92 -3.32 l
-3.83 0 l
1.91 3.32 l
o
np
309.50 292.75 m
1.91 -3.31 l
-3.83 0 l
1.92 3.31 l
o
np
309.79 292.12 m
1.92 -3.31 l
-3.83 0 l
1.91 3.31 l
o
np
310.39 291.81 m
1.91 -3.31 l
-3.83 0 l
1.92 3.31 l
o
np
310.68 290.87 m
1.92 -3.31 l
-3.83 0 l
1.91 3.31 l
o
np
310.98 290.56 m
1.91 -3.32 l
-3.82 0 l
1.91 3.32 l
o
np
311.28 289.62 m
1.91 -3.32 l
-3.83 0 l
1.92 3.32 l
o
np
311.87 289.31 m
1.91 -3.32 l
-3.82 0 l
1.91 3.32 l
o
np
312.17 288.68 m
1.91 -3.32 l
-3.83 0 l
1.92 3.32 l
o
np
312.46 287.74 m
1.92 -3.31 l
-3.83 0 l
1.91 3.31 l
o
np
313.06 287.43 m
1.91 -3.32 l
-3.83 0 l
1.92 3.32 l
o
np
313.35 287.11 m
1.92 -3.31 l
-3.83 0 l
1.91 3.31 l
o
np
313.65 286.49 m
1.91 -3.32 l
-3.82 0 l
1.91 3.32 l
o
np
313.95 285.55 m
1.91 -3.32 l
-3.83 0 l
1.92 3.32 l
o
np
314.54 285.24 m
1.91 -3.32 l
-3.82 0 l
1.91 3.32 l
o
np
314.84 284.61 m
1.91 -3.32 l
-3.83 0 l
1.92 3.32 l
o
np
315.13 283.98 m
1.92 -3.31 l
-3.83 0 l
1.91 3.31 l
o
np
315.43 283.36 m
1.91 -3.32 l
-3.82 0 l
1.91 3.32 l
o
np
315.73 282.73 m
1.91 -3.32 l
-3.83 0 l
1.92 3.32 l
o
np
316.32 281.79 m
1.91 -3.31 l
-3.82 0 l
1.91 3.31 l
o
np
316.62 281.79 m
1.91 -3.31 l
-3.83 0 l
1.92 3.31 l
o
np
316.91 280.85 m
1.92 -3.31 l
-3.83 0 l
1.91 3.31 l
o
np
317.21 280.54 m
1.91 -3.32 l
-3.82 0 l
1.91 3.32 l
o
np
317.51 279.91 m
1.91 -3.31 l
-3.83 0 l
1.92 3.31 l
o
np
317.80 278.97 m
1.92 -3.31 l
-3.83 0 l
1.91 3.31 l
o
np
318.40 278.66 m
1.91 -3.32 l
-3.83 0 l
1.92 3.32 l
o
np
318.69 278.03 m
1.92 -3.31 l
-3.83 0 l
1.91 3.31 l
o
np
318.99 277.41 m
1.91 -3.32 l
-3.82 0 l
1.91 3.32 l
o
np
319.29 277.09 m
1.91 -3.31 l
-3.83 0 l
1.92 3.31 l
o
np
319.58 276.47 m
1.92 -3.32 l
-3.83 0 l
1.91 3.32 l
o
np
319.88 275.84 m
1.91 -3.31 l
-3.82 0 l
1.91 3.31 l
o
np
320.18 275.21 m
1.91 -3.31 l
-3.83 0 l
1.92 3.31 l
o
np
320.47 274.28 m
1.92 -3.32 l
-3.83 0 l
1.91 3.32 l
o
np
320.77 274.28 m
1.91 -3.32 l
-3.82 0 l
1.91 3.32 l
o
np
321.07 273.34 m
1.91 -3.32 l
-3.83 0 l
1.92 3.32 l
o
np
321.36 272.71 m
1.92 -3.32 l
-3.83 0 l
1.91 3.32 l
o
np
321.66 272.08 m
1.91 -3.31 l
-3.82 0 l
1.91 3.31 l
o
np
321.96 271.77 m
1.91 -3.32 l
-3.83 0 l
1.92 3.32 l
o
np
322.25 271.46 m
1.92 -3.32 l
-3.83 0 l
1.91 3.32 l
o
np
322.55 270.52 m
1.91 -3.32 l
-3.82 0 l
1.91 3.32 l
o
np
322.85 269.89 m
1.91 -3.31 l
-3.83 0 l
1.92 3.31 l
o
np
323.14 268.95 m
1.92 -3.31 l
-3.83 0 l
1.91 3.31 l
o
np
323.44 268.95 m
1.91 -3.31 l
-3.82 0 l
1.91 3.31 l
o
np
323.74 268.01 m
1.91 -3.31 l
-3.83 0 l
1.92 3.31 l
o
np
324.03 267.70 m
1.92 -3.32 l
-3.83 0 l
1.91 3.32 l
o
np
324.33 266.76 m
1.91 -3.32 l
-3.82 0 l
1.91 3.32 l
o
np
324.63 266.45 m
1.91 -3.32 l
-3.83 0 l
1.92 3.32 l
o
np
324.92 265.82 m
1.92 -3.31 l
-3.83 0 l
1.91 3.31 l
o
np
325.22 265.19 m
1.91 -3.31 l
-3.82 0 l
1.91 3.31 l
o
np
325.52 264.57 m
1.91 -3.32 l
-3.83 0 l
1.92 3.32 l
o
np
325.81 264.26 m
1.92 -3.32 l
-3.83 0 l
1.91 3.32 l
o
np
326.11 263.63 m
1.91 -3.32 l
-3.82 0 l
1.91 3.32 l
o
np
326.41 263.00 m
1.91 -3.31 l
-3.83 0 l
1.92 3.31 l
o
np
326.70 262.38 m
1.92 -3.32 l
-3.83 0 l
1.91 3.32 l
o
np
327.00 261.44 m
1.91 -3.32 l
-3.82 0 l
1.91 3.32 l
o
np
327.30 261.12 m
1.91 -3.31 l
-3.83 0 l
1.92 3.31 l
o
np
327.59 260.50 m
1.92 -3.32 l
-3.83 0 l
1.91 3.32 l
o
np
327.59 259.87 m
1.92 -3.31 l
-3.83 0 l
1.91 3.31 l
o
np
327.89 259.24 m
1.91 -3.31 l
-3.83 0 l
1.92 3.31 l
o
np
328.19 258.62 m
1.91 -3.32 l
-3.83 0 l
1.92 3.32 l
o
np
328.48 257.99 m
1.92 -3.31 l
-3.83 0 l
1.91 3.31 l
o
np
328.78 257.68 m
1.91 -3.32 l
-3.83 0 l
1.92 3.32 l
o
np
329.08 257.05 m
1.91 -3.31 l
-3.83 0 l
1.92 3.31 l
o
np
329.37 256.11 m
1.92 -3.31 l
-3.83 0 l
1.91 3.31 l
o
np
329.67 255.80 m
1.91 -3.32 l
-3.83 0 l
1.92 3.32 l
o
np
329.67 254.86 m
1.91 -3.31 l
-3.83 0 l
1.92 3.31 l
o
np
329.97 254.55 m
1.91 -3.32 l
-3.83 0 l
1.92 3.32 l
o
np
330.26 253.92 m
1.92 -3.31 l
-3.83 0 l
1.91 3.31 l
o
np
330.56 253.61 m
1.91 -3.32 l
-3.83 0 l
1.92 3.32 l
o
np
330.86 252.67 m
1.91 -3.32 l
-3.83 0 l
1.92 3.32 l
o
np
331.15 252.04 m
1.92 -3.31 l
-3.83 0 l
1.91 3.31 l
o
np
331.15 251.42 m
1.92 -3.32 l
-3.83 0 l
1.91 3.32 l
o
np
331.45 251.10 m
1.91 -3.31 l
-3.83 0 l
1.92 3.31 l
o
np
331.75 250.48 m
1.91 -3.32 l
-3.83 0 l
1.92 3.32 l
o
np
332.04 249.85 m
1.92 -3.31 l
-3.83 0 l
1.91 3.31 l
o
np
332.34 249.22 m
1.91 -3.31 l
-3.83 0 l
1.92 3.31 l
o
np
332.64 248.60 m
1.91 -3.32 l
-3.83 0 l
1.92 3.32 l
o
np
332.64 247.97 m
1.91 -3.31 l
-3.83 0 l
1.92 3.31 l
o
np
332.93 247.66 m
1.92 -3.32 l
-3.83 0 l
1.91 3.32 l
o
np
333.23 246.72 m
1.91 -3.32 l
-3.83 0 l
1.92 3.32 l
o
np
333.53 246.09 m
1.91 -3.31 l
-3.83 0 l
1.92 3.31 l
o
np
333.53 245.78 m
1.91 -3.32 l
-3.83 0 l
1.92 3.32 l
o
np
333.82 245.15 m
1.92 -3.31 l
-3.83 0 l
1.91 3.31 l
o
np
334.12 244.53 m
1.91 -3.32 l
-3.83 0 l
1.92 3.32 l
o
np
334.42 243.90 m
1.91 -3.31 l
-3.83 0 l
1.92 3.31 l
o
np
334.42 243.27 m
1.91 -3.31 l
-3.83 0 l
1.92 3.31 l
o
np
334.71 242.65 m
1.92 -3.32 l
-3.83 0 l
1.91 3.32 l
o
np
335.01 242.02 m
1.91 -3.31 l
-3.83 0 l
1.92 3.31 l
o
np
335.31 241.40 m
1.91 -3.32 l
-3.83 0 l
1.92 3.32 l
o
np
335.31 240.77 m
1.91 -3.32 l
-3.83 0 l
1.92 3.32 l
o
np
335.60 240.14 m
1.92 -3.31 l
-3.83 0 l
1.91 3.31 l
o
np
335.90 239.52 m
1.91 -3.32 l
-3.83 0 l
1.92 3.32 l
o
np
336.20 238.89 m
1.91 -3.31 l
-3.83 0 l
1.92 3.31 l
o
np
336.20 238.58 m
1.91 -3.32 l
-3.83 0 l
1.92 3.32 l
o
np
336.49 237.64 m
1.92 -3.32 l
-3.83 0 l
1.91 3.32 l
o
np
336.79 237.01 m
1.91 -3.31 l
-3.83 0 l
1.92 3.31 l
o
np
337.09 236.39 m
1.91 -3.32 l
-3.83 0 l
1.92 3.32 l
o
np
337.09 236.07 m
1.91 -3.31 l
-3.83 0 l
1.92 3.31 l
o
np
337.38 235.45 m
1.92 -3.32 l
-3.83 0 l
1.91 3.32 l
o
np
337.68 234.51 m
1.91 -3.32 l
-3.83 0 l
1.92 3.32 l
o
np
337.68 234.19 m
1.91 -3.31 l
-3.83 0 l
1.92 3.31 l
o
np
337.98 233.57 m
1.91 -3.32 l
-3.83 0 l
1.92 3.32 l
o
np
338.27 232.94 m
1.92 -3.31 l
-3.83 0 l
1.91 3.31 l
o
np
338.27 232.31 m
1.92 -3.31 l
-3.83 0 l
1.91 3.31 l
o
np
338.57 231.69 m
1.91 -3.32 l
-3.83 0 l
1.92 3.32 l
o
np
338.86 231.06 m
1.92 -3.31 l
-3.83 0 l
1.91 3.31 l
o
np
339.16 230.44 m
1.92 -3.32 l
-3.83 0 l
1.91 3.32 l
o
np
339.16 229.81 m
1.92 -3.32 l
-3.83 0 l
1.91 3.32 l
o
np
339.46 229.18 m
1.91 -3.31 l
-3.83 0 l
1.92 3.31 l
o
np
339.75 228.56 m
1.92 -3.32 l
-3.83 0 l
1.91 3.32 l
o
np
339.75 227.93 m
1.92 -3.31 l
-3.83 0 l
1.91 3.31 l
o
np
340.05 227.62 m
1.92 -3.32 l
-3.83 0 l
1.91 3.32 l
o
np
340.35 226.68 m
1.91 -3.32 l
-3.83 0 l
1.92 3.32 l
o
np
340.35 226.05 m
1.91 -3.31 l
-3.83 0 l
1.92 3.31 l
o
np
340.64 225.43 m
1.92 -3.32 l
-3.83 0 l
1.91 3.32 l
o
np
340.94 225.11 m
1.92 -3.31 l
-3.83 0 l
1.91 3.31 l
o
np
340.94 224.49 m
1.92 -3.32 l
-3.83 0 l
1.91 3.32 l
o
np
341.24 223.86 m
1.91 -3.32 l
-3.83 0 l
1.92 3.32 l
o
np
341.24 223.23 m
1.91 -3.31 l
-3.83 0 l
1.92 3.31 l
o
np
341.53 222.61 m
1.92 -3.32 l
-3.83 0 l
1.91 3.32 l
o
np
341.83 221.98 m
1.92 -3.31 l
-3.83 0 l
1.91 3.31 l
o
np
341.83 221.36 m
1.92 -3.32 l
-3.83 0 l
1.91 3.32 l
o
np
342.13 220.73 m
1.91 -3.32 l
-3.83 0 l
1.92 3.32 l
o
np
342.42 220.10 m
1.92 -3.31 l
-3.83 0 l
1.91 3.31 l
o
np
342.42 219.48 m
1.92 -3.32 l
-3.83 0 l
1.91 3.32 l
o
np
342.72 218.85 m
1.92 -3.32 l
-3.83 0 l
1.91 3.32 l
o
np
342.72 218.22 m
1.92 -3.31 l
-3.83 0 l
1.91 3.31 l
o
np
343.02 217.60 m
1.91 -3.32 l
-3.83 0 l
1.92 3.32 l
o
np
343.31 216.97 m
1.92 -3.31 l
-3.83 0 l
1.91 3.31 l
o
np
343.31 216.34 m
1.92 -3.31 l
-3.83 0 l
1.91 3.31 l
o
np
343.61 215.72 m
1.92 -3.32 l
-3.83 0 l
1.91 3.32 l
o
np
343.91 215.09 m
1.91 -3.31 l
-3.83 0 l
1.92 3.31 l
o
np
343.91 214.47 m
1.91 -3.32 l
-3.83 0 l
1.92 3.32 l
o
np
344.20 213.84 m
1.92 -3.32 l
-3.83 0 l
1.91 3.32 l
o
np
344.20 213.21 m
1.92 -3.31 l
-3.83 0 l
1.91 3.31 l
o
np
344.50 212.59 m
1.92 -3.32 l
-3.83 0 l
1.91 3.32 l
o
np
344.80 211.96 m
1.91 -3.31 l
-3.83 0 l
1.92 3.31 l
o
np
344.80 211.65 m
1.91 -3.32 l
-3.83 0 l
1.92 3.32 l
o
np
345.09 211.02 m
1.92 -3.31 l
-3.83 0 l
1.91 3.31 l
o
np
345.09 210.08 m
1.92 -3.31 l
-3.83 0 l
1.91 3.31 l
o
np
345.39 209.46 m
1.92 -3.32 l
-3.83 0 l
1.91 3.32 l
o
np
345.39 209.14 m
1.92 -3.31 l
-3.83 0 l
1.91 3.31 l
o
np
345.69 208.20 m
1.91 -3.31 l
-3.83 0 l
1.92 3.31 l
o
np
345.98 207.58 m
1.92 -3.32 l
-3.83 0 l
1.91 3.32 l
o
np
345.98 207.26 m
1.92 -3.31 l
-3.83 0 l
1.91 3.31 l
o
np
346.28 206.32 m
1.92 -3.31 l
-3.83 0 l
1.91 3.31 l
o
np
346.28 205.70 m
1.92 -3.32 l
-3.83 0 l
1.91 3.32 l
o
np
346.58 205.39 m
1.91 -3.32 l
-3.83 0 l
1.92 3.32 l
o
np
346.58 204.45 m
1.91 -3.32 l
-3.83 0 l
1.92 3.32 l
o
np
346.87 203.82 m
1.92 -3.32 l
-3.83 0 l
1.91 3.32 l
o
np
347.17 203.51 m
1.92 -3.32 l
-3.83 0 l
1.91 3.32 l
o
np
347.17 202.57 m
1.92 -3.32 l
-3.83 0 l
1.91 3.32 l
o
np
347.47 201.94 m
1.91 -3.31 l
-3.83 0 l
1.92 3.31 l
o
np
347.47 201.31 m
1.91 -3.31 l
-3.83 0 l
1.92 3.31 l
o
np
347.76 200.69 m
1.92 -3.32 l
-3.83 0 l
1.91 3.32 l
o
np
347.76 200.06 m
1.92 -3.31 l
-3.83 0 l
1.91 3.31 l
o
np
348.06 199.44 m
1.92 -3.32 l
-3.83 0 l
1.91 3.32 l
o
np
348.06 198.81 m
1.92 -3.32 l
-3.83 0 l
1.91 3.32 l
o
np
348.36 198.18 m
1.91 -3.31 l
-3.83 0 l
1.92 3.31 l
o
np
348.36 197.56 m
1.91 -3.32 l
-3.83 0 l
1.92 3.32 l
o
np
348.65 196.93 m
1.92 -3.32 l
-3.83 0 l
1.91 3.32 l
o
np
348.95 196.30 m
1.92 -3.31 l
-3.83 0 l
1.91 3.31 l
o
np
348.95 195.68 m
1.92 -3.32 l
-3.83 0 l
1.91 3.32 l
o
np
349.25 195.05 m
1.91 -3.31 l
-3.83 0 l
1.92 3.31 l
o
np
349.25 194.43 m
1.91 -3.32 l
-3.83 0 l
1.92 3.32 l
o
np
349.54 193.80 m
1.92 -3.32 l
-3.83 0 l
1.91 3.32 l
o
np
349.54 193.17 m
1.92 -3.31 l
-3.83 0 l
1.91 3.31 l
o
np
349.84 192.55 m
1.91 -3.32 l
-3.82 0 l
1.91 3.32 l
o
np
349.84 191.61 m
1.91 -3.32 l
-3.82 0 l
1.91 3.32 l
o
np
350.14 191.29 m
1.91 -3.31 l
-3.83 0 l
1.92 3.31 l
o
np
350.14 190.67 m
1.91 -3.32 l
-3.83 0 l
1.92 3.32 l
o
np
350.43 190.04 m
1.92 -3.31 l
-3.83 0 l
1.91 3.31 l
o
np
350.43 189.42 m
1.92 -3.32 l
-3.83 0 l
1.91 3.32 l
o
np
350.73 188.48 m
1.91 -3.32 l
-3.82 0 l
1.91 3.32 l
o
np
350.73 187.85 m
1.91 -3.32 l
-3.82 0 l
1.91 3.32 l
o
np
351.03 187.22 m
1.91 -3.31 l
-3.83 0 l
1.92 3.31 l
o
np
351.03 186.60 m
1.91 -3.32 l
-3.83 0 l
1.92 3.32 l
o
np
351.32 185.97 m
1.92 -3.31 l
-3.83 0 l
1.91 3.31 l
o
np
351.32 185.34 m
1.92 -3.31 l
-3.83 0 l
1.91 3.31 l
o
np
351.62 184.72 m
1.91 -3.32 l
-3.82 0 l
1.91 3.32 l
o
np
351.62 184.09 m
1.91 -3.31 l
-3.82 0 l
1.91 3.31 l
o
np
351.92 183.47 m
1.91 -3.32 l
-3.83 0 l
1.92 3.32 l
o
np
351.92 182.84 m
1.91 -3.32 l
-3.83 0 l
1.92 3.32 l
o
np
352.21 181.90 m
1.92 -3.32 l
-3.83 0 l
1.91 3.32 l
o
np
352.21 181.27 m
1.92 -3.31 l
-3.83 0 l
1.91 3.31 l
o
np
352.51 180.96 m
1.91 -3.32 l
-3.82 0 l
1.91 3.32 l
o
np
352.51 180.33 m
1.91 -3.31 l
-3.82 0 l
1.91 3.31 l
o
np
352.81 179.71 m
1.91 -3.32 l
-3.83 0 l
1.92 3.32 l
o
np
352.81 179.08 m
1.91 -3.31 l
-3.83 0 l
1.92 3.31 l
o
np
353.10 178.14 m
1.92 -3.31 l
-3.83 0 l
1.91 3.31 l
o
np
353.10 177.52 m
1.92 -3.32 l
-3.83 0 l
1.91 3.32 l
o
np
353.40 176.89 m
1.91 -3.32 l
-3.82 0 l
1.91 3.32 l
o
np
353.40 176.26 m
1.91 -3.31 l
-3.82 0 l
1.91 3.31 l
o
np
353.40 175.64 m
1.91 -3.32 l
-3.82 0 l
1.91 3.32 l
o
np
353.70 175.01 m
1.91 -3.31 l
-3.83 0 l
1.92 3.31 l
o
np
353.70 174.38 m
1.91 -3.31 l
-3.83 0 l
1.92 3.31 l
o
np
353.99 173.76 m
1.92 -3.32 l
-3.83 0 l
1.91 3.32 l
o
np
353.99 172.82 m
1.92 -3.32 l
-3.83 0 l
1.91 3.32 l
o
np
354.29 172.19 m
1.91 -3.31 l
-3.82 0 l
1.91 3.31 l
o
np
354.29 171.57 m
1.91 -3.32 l
-3.82 0 l
1.91 3.32 l
o
np
354.59 170.94 m
1.91 -3.32 l
-3.83 0 l
1.92 3.32 l
o
np
354.59 170.31 m
1.91 -3.31 l
-3.83 0 l
1.92 3.31 l
o
np
354.88 169.69 m
1.92 -3.32 l
-3.83 0 l
1.91 3.32 l
o
np
354.88 169.06 m
1.92 -3.31 l
-3.83 0 l
1.91 3.31 l
o
np
355.18 168.43 m
1.91 -3.31 l
-3.82 0 l
1.91 3.31 l
o
np
355.18 167.81 m
1.91 -3.32 l
-3.82 0 l
1.91 3.32 l
o
np
355.18 167.18 m
1.91 -3.31 l
-3.82 0 l
1.91 3.31 l
o
np
355.48 166.24 m
1.91 -3.31 l
-3.83 0 l
1.92 3.31 l
o
np
355.48 165.93 m
1.91 -3.32 l
-3.83 0 l
1.92 3.32 l
o
np
355.77 164.99 m
1.92 -3.32 l
-3.83 0 l
1.91 3.32 l
o
np
355.77 164.68 m
1.92 -3.32 l
-3.83 0 l
1.91 3.32 l
o
np
356.07 163.74 m
1.91 -3.32 l
-3.82 0 l
1.91 3.32 l
o
np
356.07 163.42 m
1.91 -3.31 l
-3.82 0 l
1.91 3.31 l
o
np
356.37 162.49 m
1.91 -3.32 l
-3.83 0 l
1.92 3.32 l
o
np
356.37 162.17 m
1.91 -3.31 l
-3.83 0 l
1.92 3.31 l
o
np
356.37 161.23 m
1.91 -3.31 l
-3.83 0 l
1.92 3.31 l
o
np
356.66 160.61 m
1.92 -3.32 l
-3.83 0 l
1.91 3.32 l
o
np
356.66 159.98 m
1.92 -3.32 l
-3.83 0 l
1.91 3.32 l
o
np
356.96 159.67 m
1.91 -3.32 l
-3.82 0 l
1.91 3.32 l
o
np
356.96 158.73 m
1.91 -3.32 l
-3.82 0 l
1.91 3.32 l
o
np
357.26 158.10 m
1.91 -3.31 l
-3.83 0 l
1.92 3.31 l
o
np
357.26 157.47 m
1.91 -3.31 l
-3.83 0 l
1.92 3.31 l
o
np
357.26 156.85 m
1.91 -3.32 l
-3.83 0 l
1.92 3.32 l
o
np
357.55 156.22 m
1.92 -3.31 l
-3.83 0 l
1.91 3.31 l
o
np
357.55 155.28 m
1.92 -3.31 l
-3.83 0 l
1.91 3.31 l
o
np
357.85 154.66 m
1.91 -3.32 l
-3.82 0 l
1.91 3.32 l
o
np
357.85 154.34 m
1.91 -3.31 l
-3.82 0 l
1.91 3.31 l
o
np
358.15 153.72 m
1.91 -3.32 l
-3.83 0 l
1.92 3.32 l
o
np
358.15 153.09 m
1.91 -3.31 l
-3.83 0 l
1.92 3.31 l
o
np
358.15 152.15 m
1.91 -3.31 l
-3.83 0 l
1.92 3.31 l
o
np
358.44 151.53 m
1.92 -3.32 l
-3.83 0 l
1.91 3.32 l
o
np
358.44 150.90 m
1.92 -3.32 l
-3.83 0 l
1.91 3.32 l
o
np
358.74 150.27 m
1.91 -3.31 l
-3.82 0 l
1.91 3.31 l
o
np
358.74 149.65 m
1.91 -3.32 l
-3.82 0 l
1.91 3.32 l
o
np
358.74 149.02 m
1.91 -3.32 l
-3.82 0 l
1.91 3.32 l
o
np
359.04 148.39 m
1.91 -3.31 l
-3.83 0 l
1.92 3.31 l
o
np
359.04 147.77 m
1.91 -3.32 l
-3.83 0 l
1.92 3.32 l
o
np
359.33 147.14 m
1.92 -3.31 l
-3.83 0 l
1.91 3.31 l
o
np
359.33 146.52 m
1.92 -3.32 l
-3.83 0 l
1.91 3.32 l
o
np
359.63 145.89 m
1.91 -3.32 l
-3.82 0 l
1.91 3.32 l
o
np
359.63 145.26 m
1.91 -3.31 l
-3.82 0 l
1.91 3.31 l
o
np
359.63 144.95 m
1.91 -3.32 l
-3.82 0 l
1.91 3.32 l
o
np
359.93 144.01 m
1.91 -3.32 l
-3.83 0 l
1.92 3.32 l
o
np
359.93 143.38 m
1.91 -3.31 l
-3.83 0 l
1.92 3.31 l
o
np
360.22 143.07 m
1.92 -3.31 l
-3.83 0 l
1.91 3.31 l
o
np
360.22 142.13 m
1.92 -3.31 l
-3.83 0 l
1.91 3.31 l
o
np
360.22 141.50 m
1.92 -3.31 l
-3.83 0 l
1.91 3.31 l
o
np
360.52 140.88 m
1.91 -3.32 l
-3.82 0 l
1.91 3.32 l
o
np
360.52 140.25 m
1.91 -3.31 l
-3.82 0 l
1.91 3.31 l
o
np
360.82 139.63 m
1.91 -3.32 l
-3.83 0 l
1.92 3.32 l
o
np
360.82 139.00 m
1.91 -3.32 l
-3.83 0 l
1.92 3.32 l
o
np
360.82 138.37 m
1.91 -3.31 l
-3.83 0 l
1.92 3.31 l
o
np
361.11 137.75 m
1.92 -3.32 l
-3.83 0 l
1.91 3.32 l
o
np
361.11 137.12 m
1.92 -3.31 l
-3.83 0 l
1.91 3.31 l
o
np
361.11 136.49 m
1.92 -3.31 l
-3.83 0 l
1.91 3.31 l
o
np
361.41 135.87 m
1.91 -3.32 l
-3.82 0 l
1.91 3.32 l
o
np
361.41 135.24 m
1.91 -3.31 l
-3.82 0 l
1.91 3.31 l
o
np
361.71 134.62 m
1.91 -3.32 l
-3.83 0 l
1.92 3.32 l
o
np
361.71 133.99 m
1.91 -3.32 l
-3.83 0 l
1.92 3.32 l
o
np
361.71 133.36 m
1.91 -3.31 l
-3.83 0 l
1.92 3.31 l
o
np
362.00 132.74 m
1.92 -3.32 l
-3.83 0 l
1.91 3.32 l
o
np
362.00 132.11 m
1.92 -3.31 l
-3.83 0 l
1.91 3.31 l
o
np
362.30 131.48 m
1.91 -3.31 l
-3.82 0 l
1.91 3.31 l
o
np
362.30 130.54 m
1.91 -3.31 l
-3.82 0 l
1.91 3.31 l
o
np
362.30 130.23 m
1.91 -3.31 l
-3.82 0 l
1.91 3.31 l
o
np
362.60 129.61 m
1.91 -3.32 l
-3.83 0 l
1.92 3.32 l
o
np
362.60 128.98 m
1.91 -3.32 l
-3.83 0 l
1.92 3.32 l
o
np
362.60 128.35 m
1.91 -3.31 l
-3.83 0 l
1.92 3.31 l
o
np
362.89 128.04 m
1.92 -3.32 l
-3.83 0 l
1.91 3.32 l
o
np
362.89 127.41 m
1.92 -3.31 l
-3.83 0 l
1.91 3.31 l
o
np
363.19 126.47 m
1.91 -3.31 l
-3.82 0 l
1.91 3.31 l
o
np
363.19 125.85 m
1.91 -3.32 l
-3.82 0 l
1.91 3.32 l
o
np
363.19 125.53 m
1.91 -3.31 l
-3.82 0 l
1.91 3.31 l
o
np
363.49 124.91 m
1.91 -3.32 l
-3.83 0 l
1.92 3.32 l
o
np
363.49 124.28 m
1.91 -3.31 l
-3.83 0 l
1.92 3.31 l
o
np
363.49 123.66 m
1.91 -3.32 l
-3.83 0 l
1.92 3.32 l
o
np
363.78 123.03 m
1.92 -3.32 l
-3.83 0 l
1.91 3.32 l
o
np
363.78 122.40 m
1.92 -3.31 l
-3.83 0 l
1.91 3.31 l
o
np
364.08 121.78 m
1.91 -3.32 l
-3.82 0 l
1.91 3.32 l
o
np
364.08 121.46 m
1.91 -3.31 l
-3.82 0 l
1.91 3.31 l
o
np
364.08 120.84 m
1.91 -3.32 l
-3.82 0 l
1.91 3.32 l
o
np
364.38 120.21 m
1.91 -3.31 l
-3.83 0 l
1.92 3.31 l
o
np
364.38 119.27 m
1.91 -3.31 l
-3.83 0 l
1.92 3.31 l
o
np
364.67 118.96 m
1.92 -3.32 l
-3.83 0 l
1.91 3.32 l
o
np
364.67 118.33 m
1.92 -3.31 l
-3.83 0 l
1.91 3.31 l
o
np
364.67 117.71 m
1.92 -3.32 l
-3.83 0 l
1.91 3.32 l
o
np
364.97 117.08 m
1.91 -3.32 l
-3.82 0 l
1.91 3.32 l
o
np
364.97 116.45 m
1.91 -3.31 l
-3.82 0 l
1.91 3.31 l
o
np
364.97 115.83 m
1.91 -3.32 l
-3.82 0 l
1.91 3.32 l
o
np
365.27 115.51 m
1.91 -3.31 l
-3.83 0 l
1.92 3.31 l
o
np
365.27 114.89 m
1.91 -3.32 l
-3.83 0 l
1.92 3.32 l
o
np
365.27 114.26 m
1.91 -3.31 l
-3.83 0 l
1.92 3.31 l
o
np
365.56 113.64 m
1.92 -3.32 l
-3.83 0 l
1.91 3.32 l
o
np
365.56 113.01 m
1.92 -3.32 l
-3.83 0 l
1.91 3.32 l
o
np
365.86 112.70 m
1.91 -3.32 l
-3.82 0 l
1.91 3.32 l
o
np
365.86 112.07 m
1.91 -3.32 l
-3.82 0 l
1.91 3.32 l
o
np
365.86 111.44 m
1.91 -3.31 l
-3.82 0 l
1.91 3.31 l
o
np
366.16 110.82 m
1.91 -3.32 l
-3.83 0 l
1.92 3.32 l
o
np
366.16 110.50 m
1.91 -3.31 l
-3.83 0 l
1.92 3.31 l
o
np
366.16 109.88 m
1.91 -3.32 l
-3.83 0 l
1.92 3.32 l
o
np
366.45 109.25 m
1.92 -3.31 l
-3.83 0 l
1.91 3.31 l
o
np
366.45 108.94 m
1.92 -3.32 l
-3.83 0 l
1.91 3.32 l
o
np
366.45 108.31 m
1.92 -3.31 l
-3.83 0 l
1.91 3.31 l
o
np
366.75 107.69 m
1.91 -3.32 l
-3.82 0 l
1.91 3.32 l
o
np
366.75 107.06 m
1.91 -3.32 l
-3.82 0 l
1.91 3.32 l
o
np
367.05 106.75 m
1.91 -3.32 l
-3.83 0 l
1.92 3.32 l
o
np
367.05 106.12 m
1.91 -3.32 l
-3.83 0 l
1.92 3.32 l
o
np
367.05 105.49 m
1.91 -3.31 l
-3.83 0 l
1.92 3.31 l
o
np
367.34 105.18 m
1.92 -3.31 l
-3.83 0 l
1.91 3.31 l
o
np
367.34 104.55 m
1.92 -3.31 l
-3.83 0 l
1.91 3.31 l
o
np
367.34 103.93 m
1.92 -3.32 l
-3.83 0 l
1.91 3.32 l
o
np
367.64 103.62 m
1.91 -3.32 l
-3.82 0 l
1.91 3.32 l
o
np
367.64 102.99 m
1.91 -3.32 l
-3.82 0 l
1.91 3.32 l
o
np
367.64 102.36 m
1.91 -3.31 l
-3.82 0 l
1.91 3.31 l
o
np
367.94 102.05 m
1.91 -3.32 l
-3.83 0 l
1.92 3.32 l
o
np
367.94 101.42 m
1.91 -3.31 l
-3.83 0 l
1.92 3.31 l
o
np
368.23 101.11 m
1.92 -3.32 l
-3.83 0 l
1.91 3.32 l
o
np
368.23 100.48 m
1.92 -3.31 l
-3.83 0 l
1.91 3.31 l
o
np
368.23 99.86 m
1.92 -3.32 l
-3.83 0 l
1.91 3.32 l
o
np
368.53 99.23 m
1.91 -3.31 l
-3.82 0 l
1.91 3.31 l
o
np
368.53 98.92 m
1.91 -3.32 l
-3.82 0 l
1.91 3.32 l
o
np
368.53 98.60 m
1.91 -3.31 l
-3.82 0 l
1.91 3.31 l
o
np
368.83 97.98 m
1.91 -3.32 l
-3.83 0 l
1.92 3.32 l
o
np
368.83 97.67 m
1.91 -3.32 l
-3.83 0 l
1.92 3.32 l
o
np
368.83 97.04 m
1.91 -3.32 l
-3.83 0 l
1.92 3.32 l
o
np
369.12 96.41 m
1.92 -3.31 l
-3.83 0 l
1.91 3.31 l
o
np
369.12 96.10 m
1.92 -3.32 l
-3.83 0 l
1.91 3.32 l
o
np
369.42 95.79 m
1.91 -3.32 l
-3.82 0 l
1.91 3.32 l
o
np
369.42 95.16 m
1.91 -3.32 l
-3.82 0 l
1.91 3.32 l
o
np
369.42 94.53 m
1.91 -3.31 l
-3.82 0 l
1.91 3.31 l
o
np
369.72 94.22 m
1.91 -3.31 l
-3.83 0 l
1.92 3.31 l
o
np
369.72 93.59 m
1.91 -3.31 l
-3.83 0 l
1.92 3.31 l
o
np
369.72 93.28 m
1.91 -3.31 l
-3.83 0 l
1.92 3.31 l
o
np
370.01 92.66 m
1.92 -3.32 l
-3.83 0 l
1.91 3.32 l
o
np
370.01 92.34 m
1.92 -3.31 l
-3.83 0 l
1.91 3.31 l
o
np
370.01 91.72 m
1.92 -3.32 l
-3.83 0 l
1.91 3.32 l
o
np
370.31 91.09 m
1.91 -3.32 l
-3.82 0 l
1.91 3.32 l
o
np
370.31 90.78 m
1.91 -3.32 l
-3.82 0 l
1.91 3.32 l
o
np
370.31 90.46 m
1.91 -3.31 l
-3.82 0 l
1.91 3.31 l
o
np
370.61 89.84 m
1.91 -3.32 l
-3.83 0 l
1.92 3.32 l
o
np
370.61 89.52 m
1.91 -3.31 l
-3.83 0 l
1.92 3.31 l
o
np
370.90 88.90 m
1.92 -3.32 l
-3.83 0 l
1.91 3.32 l
o
np
370.90 88.58 m
1.92 -3.31 l
-3.83 0 l
1.91 3.31 l
o
np
370.90 87.96 m
1.92 -3.32 l
-3.83 0 l
1.91 3.32 l
o
np
371.20 87.65 m
1.91 -3.32 l
-3.83 0 l
1.92 3.32 l
o
np
371.20 87.02 m
1.91 -3.32 l
-3.83 0 l
1.92 3.32 l
o
np
371.20 86.71 m
1.91 -3.32 l
-3.83 0 l
1.92 3.32 l
o
np
371.50 86.39 m
1.91 -3.31 l
-3.83 0 l
1.92 3.31 l
o
np
371.50 85.77 m
1.91 -3.32 l
-3.83 0 l
1.92 3.32 l
o
np
371.50 85.14 m
1.91 -3.32 l
-3.83 0 l
1.92 3.32 l
o
np
371.79 84.83 m
1.92 -3.32 l
-3.83 0 l
1.91 3.32 l
o
np
371.79 84.20 m
1.92 -3.31 l
-3.83 0 l
1.91 3.31 l
o
np
372.09 83.89 m
1.91 -3.32 l
-3.83 0 l
1.92 3.32 l
o
np
372.09 83.57 m
1.91 -3.31 l
-3.83 0 l
1.92 3.31 l
o
np
372.09 82.95 m
1.91 -3.32 l
-3.83 0 l
1.92 3.32 l
o
np
372.39 82.63 m
1.91 -3.31 l
-3.83 0 l
1.92 3.31 l
o
np
372.39 82.01 m
1.91 -3.32 l
-3.83 0 l
1.92 3.32 l
o
np
372.39 81.70 m
1.91 -3.32 l
-3.83 0 l
1.92 3.32 l
o
np
372.68 81.07 m
1.92 -3.32 l
-3.83 0 l
1.91 3.32 l
o
np
372.68 80.76 m
1.92 -3.32 l
-3.83 0 l
1.91 3.32 l
o
np
372.68 80.13 m
1.92 -3.32 l
-3.83 0 l
1.91 3.32 l
o
np
372.98 79.82 m
1.91 -3.32 l
-3.83 0 l
1.92 3.32 l
o
np
372.98 79.19 m
1.91 -3.32 l
-3.83 0 l
1.92 3.32 l
o
np
373.28 78.56 m
1.91 -3.31 l
-3.83 0 l
1.92 3.31 l
o
np
373.28 78.25 m
1.91 -3.31 l
-3.83 0 l
1.92 3.31 l
o
np
373.28 77.94 m
1.91 -3.32 l
-3.83 0 l
1.92 3.32 l
o
np
373.57 77.31 m
1.92 -3.31 l
-3.83 0 l
1.91 3.31 l
o
np
373.57 76.69 m
1.92 -3.32 l
-3.83 0 l
1.91 3.32 l
o
np
373.57 76.37 m
1.92 -3.31 l
-3.83 0 l
1.91 3.31 l
o
np
373.87 76.06 m
1.91 -3.32 l
-3.83 0 l
1.92 3.32 l
o
np
373.87 75.43 m
1.91 -3.31 l
-3.83 0 l
1.92 3.31 l
o
np
374.17 75.12 m
1.91 -3.32 l
-3.83 0 l
1.92 3.32 l
o
np
374.17 74.49 m
1.91 -3.31 l
-3.83 0 l
1.92 3.31 l
o
np
374.17 74.18 m
1.91 -3.32 l
-3.83 0 l
1.92 3.32 l
o
np
374.46 73.55 m
1.92 -3.31 l
-3.83 0 l
1.91 3.31 l
o
np
374.46 73.24 m
1.92 -3.31 l
-3.83 0 l
1.91 3.31 l
o
np
374.46 72.61 m
1.92 -3.31 l
-3.83 0 l
1.91 3.31 l
o
np
374.76 71.99 m
1.91 -3.32 l
-3.83 0 l
1.92 3.32 l
o
np
374.76 71.67 m
1.91 -3.31 l
-3.83 0 l
1.92 3.31 l
o
np
375.06 71.36 m
1.91 -3.31 l
-3.83 0 l
1.92 3.31 l
o
np
375.06 70.74 m
1.91 -3.32 l
-3.83 0 l
1.92 3.32 l
o
np
375.06 70.42 m
1.91 -3.31 l
-3.83 0 l
1.92 3.31 l
o
np
375.35 70.11 m
1.92 -3.32 l
-3.83 0 l
1.91 3.32 l
o
np
375.35 69.80 m
1.92 -3.32 l
-3.83 0 l
1.91 3.32 l
o
np
375.35 69.17 m
1.92 -3.32 l
-3.83 0 l
1.91 3.32 l
o
np
375.65 68.86 m
1.91 -3.32 l
-3.83 0 l
1.92 3.32 l
o
np
375.65 68.54 m
1.91 -3.31 l
-3.83 0 l
1.92 3.31 l
o
np
375.65 68.23 m
1.91 -3.32 l
-3.83 0 l
1.92 3.32 l
o
np
375.95 67.60 m
1.91 -3.31 l
-3.83 0 l
1.92 3.31 l
o
np
375.95 67.29 m
1.91 -3.31 l
-3.83 0 l
1.92 3.31 l
o
np
375.95 66.98 m
1.91 -3.32 l
-3.83 0 l
1.92 3.32 l
o
np
376.24 66.66 m
1.92 -3.31 l
-3.83 0 l
1.91 3.31 l
o
np
376.24 66.35 m
1.92 -3.31 l
-3.83 0 l
1.91 3.31 l
o
np
376.24 66.04 m
1.92 -3.32 l
-3.83 0 l
1.91 3.32 l
o
np
376.54 65.73 m
1.91 -3.32 l
-3.83 0 l
1.92 3.32 l
o
np
376.54 65.41 m
1.91 -3.31 l
-3.83 0 l
1.92 3.31 l
o
np
376.54 65.10 m
1.91 -3.32 l
-3.83 0 l
1.92 3.32 l
o
/bg { 0 0 0 srgb } def
0 0 0 srgb
105.11 306.20 3.56 c p3
103.63 285.84 3.56 c p3
108.08 341.90 3.56 c p3
106.30 326.24 3.56 c p3
107.78 338.76 3.56 c p3
106.89 334.07 3.56 c p3
107.19 331.56 3.56 c p3
105.70 327.49 3.56 c p3
107.78 334.38 3.56 c p3
107.48 332.50 3.56 c p3
107.48 323.42 3.56 c p3
106.89 334.69 3.56 c p3
106.30 328.74 3.56 c p3
102.74 271.75 3.56 c p3
108.08 341.90 3.56 c p3
107.19 337.82 3.56 c p3
106.89 329.06 3.56 c p3
106.89 323.11 3.56 c p3
107.19 339.70 3.56 c p3
107.19 338.14 3.56 c p3
105.70 295.86 3.56 c p3
108.08 340.33 3.56 c p3
107.19 346.59 3.56 c p3
106.89 337.20 3.56 c p3
107.78 340.96 3.56 c p3
108.08 335.32 3.56 c p3
107.19 333.13 3.56 c p3
105.41 311.83 3.56 c p3
106.89 319.35 3.56 c p3
106.89 342.83 3.56 c p3
0.00 0.00 396.85 396.85 cl
0.00 0.00 396.85 396.85 cl
0.00 0.00 396.85 396.85 cl
0.00 0.00 396.85 396.85 cl
0.00 0.00 396.85 396.85 cl
0.00 0.00 396.85 396.85 cl
0.00 0.00 396.85 396.85 cl
0.00 0.00 396.85 396.85 cl
0.00 0.00 396.85 396.85 cl
0.00 0.00 396.85 396.85 cl
0.00 0.00 396.85 396.85 cl
0.00 0.00 396.85 396.85 cl
0.00 0.00 396.85 396.85 cl
0.8000 0.8000 0.8000 srgb
2.13 setlinewidth
[] 0 setdash
0 setlinecap
1 setlinejoin
10.00 setmiterlimit
np
65.06 46.92 m
0 344.45 l
o
0.00 0.00 396.85 396.85 cl
0.00 0.00 396.85 396.85 cl
0.00 0.00 396.85 396.85 cl
/Font1 findfont 18 s
0.3020 0.3020 0.3020 srgb
60.13 56.11 (0.00) 1 0 t
60.13 134.40 (0.25) 1 0 t
60.13 212.68 (0.50) 1 0 t
60.13 290.97 (0.75) 1 0 t
60.13 369.25 (1.00) 1 0 t
0.00 0.00 396.85 396.85 cl
0.00 0.00 396.85 396.85 cl
0.2000 0.2000 0.2000 srgb
1.07 setlinewidth
[] 0 setdash
0 setlinecap
1 setlinejoin
10.00 setmiterlimit
np
62.32 62.58 m
2.74 0 l
o
np
62.32 140.86 m
2.74 0 l
o
np
62.32 219.14 m
2.74 0 l
o
np
62.32 297.43 m
2.74 0 l
o
np
62.32 375.71 m
2.74 0 l
o
0.00 0.00 396.85 396.85 cl
0.00 0.00 396.85 396.85 cl
0.00 0.00 396.85 396.85 cl
0.00 0.00 396.85 396.85 cl
0.00 0.00 396.85 396.85 cl
0.00 0.00 396.85 396.85 cl
0.00 0.00 396.85 396.85 cl
0.8000 0.8000 0.8000 srgb
2.13 setlinewidth
[] 0 setdash
0 setlinecap
1 setlinejoin
10.00 setmiterlimit
np
65.06 46.92 m
326.31 0 l
o
0.00 0.00 396.85 396.85 cl
0.00 0.00 396.85 396.85 cl
0.00 0.00 396.85 396.85 cl
0.2000 0.2000 0.2000 srgb
1.07 setlinewidth
[] 0 setdash
0 setlinecap
1 setlinejoin
10.00 setmiterlimit
np
79.89 44.18 m
0 2.74 l
o
np
154.06 44.18 m
0 2.74 l
o
np
228.22 44.18 m
0 2.74 l
o
np
302.38 44.18 m
0 2.74 l
o
np
376.54 44.18 m
0 2.74 l
o
0.00 0.00 396.85 396.85 cl
0.00 0.00 396.85 396.85 cl
/Font1 findfont 18 s
0.3020 0.3020 0.3020 srgb
79.89 29.06 (0.00) .5 0 t
154.06 29.06 (0.25) .5 0 t
228.22 29.06 (0.50) .5 0 t
302.38 29.06 (0.75) .5 0 t
376.54 29.06 (1.00) .5 0 t
0.00 0.00 396.85 396.85 cl
0.00 0.00 396.85 396.85 cl
0.00 0.00 396.85 396.85 cl
0.00 0.00 396.85 396.85 cl
0.00 0.00 396.85 396.85 cl
0.00 0.00 396.85 396.85 cl
/Font1 findfont 18 s
0 0 0 srgb
161.70 9.44 (Netw) 0 ta
-0.180 (or) tb
0.270 (k Entrop) tb
-0.540 (y) tb gr
0.00 0.00 396.85 396.85 cl
0.00 0.00 396.85 396.85 cl
/Font1 findfont 18 s
0 0 0 srgb
18.40 109.11 (Fisher Inf) 90 ta
-0.540 (or) tb
0.450 (mation Measure) tb gr
0.00 0.00 396.85 396.85 cl
0.00 0.00 396.85 396.85 cl
0.00 0.00 396.85 396.85 cl
0.00 0.00 396.85 396.85 cl
0.00 0.00 396.85 396.85 cl
0.00 0.00 396.85 396.85 cl
0.00 0.00 396.85 396.85 cl
0.00 0.00 396.85 396.85 cl
0.00 0.00 396.85 396.85 cl
0.00 0.00 396.85 396.85 cl
0.00 0.00 396.85 396.85 cl
0.00 0.00 396.85 396.85 cl
ep
%%Trailer
%%Pages: 1
%%EOF
