1000,0.43,0.78,0.07203203,1
1000,0.394,0.794,0.06106306,1.1
1000,0.318,0.828,0.0387047,1.2
1000,0.257,0.857,0.02514915,1.3
1000,0.21,0.861,0.01612412,1.4
1000,0.173,0.871,0.01173774,1.5
1000,0.152,0.871,0.009463463,1.6
1000,0.123,0.895,0.005967968,1.7
1000,0.105,0.875,0.004988989,1.8
1000,0.089,0.843,0.003975976,1.9
1000,0.079,0.887,0.003557558,2
1000,0.066,0.867,0.003119119,2.1
1000,0.059,0.89,0.002286286,2.2
1000,0.051,0.893,0.002176176,2.3
1000,0.046,0.893,0.001883884,2.4
1000,0.043,0.866,0.002068068,2.5
1000,0.039,0.907,0.001617618,2.6
1000,0.031,0.872,0.0015996,2.7
1000,0.031,0.909,0.001459459,2.8
1000,0.03,0.911,0.001483483,2.9
1000,0.022,0.905,0.001353353,3
1000,0.021,0.918,0.001311311,3.1
1000,0.017,0.924,0.001225225,3.2
1000,0.017,0.924,0.001229229,3.3
1000,0.013,0.941,0.001167167,3.4
1000,0.016,0.932,0.001203203,3.5
1000,0.013,0.94,0.001155155,3.6
1000,0.014,0.924,0.001203203,3.7
1000,0.012,0.942,0.001157157,3.8
1000,0.009,0.958,0.001103103,3.9
1000,0.009,0.955,0.001107107,4
1000,0.006,0.969,0.001067067,4.1
1000,0.007,0.966,0.001079079,4.2
1000,0.009,0.961,0.001099099,4.3
1000,0.008,0.958,0.001095095,4.4
1000,0.008,0.955,0.001099099,4.5
1000,0.005,0.975,0.001053053,4.6
1000,0.005,0.971,0.001061061,4.7
1000,0.005,0.975,0.001049049,4.8
1000,0.004,0.979,0.001041041,4.9
1000,0.004,0.973,0.001057057,5
1000,0.421,0.77,0.07104304,1
1000,0.366,0.806,0.04783383,1.1
1000,0.314,0.828,0.03714915,1.2
1000,0.26,0.848,0.0250971,1.3
1000,0.214,0.866,0.01695295,1.4
1000,0.168,0.873,0.01065866,1.5
1000,0.158,0.884,0.009517518,1.6
1000,0.122,0.867,0.006764765,1.7
1000,0.104,0.884,0.005147147,1.8
1000,0.099,0.851,0.004554555,1.9
1000,0.08,0.91,0.003163163,2
1000,0.057,0.821,0.002482482,2.1
1000,0.061,0.909,0.002424424,2.2
1000,0.051,0.827,0.002182182,2.3
1000,0.045,0.881,0.001925926,2.4
1000,0.041,0.901,0.001725726,2.5
1000,0.038,0.887,0.001631632,2.6
1000,0.03,0.878,0.001581582,2.7
1000,0.029,0.899,0.001475475,2.8
1000,0.03,0.913,0.001489489,2.9
1000,0.022,0.895,0.001379379,3
1000,0.021,0.922,0.001309309,3.1
1000,0.02,0.921,0.001273273,3.2
1000,0.017,0.922,0.001239239,3.3
1000,0.016,0.939,0.001203203,3.4
1000,0.014,0.942,0.001187187,3.5
1000,0.01,0.951,0.001127127,3.6
1000,0.014,0.936,0.001167167,3.7
1000,0.012,0.942,0.001163163,3.8
1000,0.011,0.947,0.001135135,3.9
1000,0.011,0.947,0.001119119,4
1000,0.008,0.961,0.001087087,4.1
1000,0.006,0.968,0.001067067,4.2
1000,0.008,0.96,0.001089089,4.3
1000,0.006,0.97,0.001079079,4.4
1000,0.004,0.975,0.001047047,4.5
1000,0.005,0.974,0.001053053,4.6
1000,0.005,0.974,0.001053053,4.7
1000,0.005,0.971,0.001057057,4.8
1000,0.004,0.98,0.001041041,4.9
1000,0.003,0.98,0.001037037,5
1000,0.422,0.783,0.06898098,1
1000,0.362,0.805,0.04967568,1.1
1000,0.315,0.822,0.03802002,1.2
1000,0.265,0.848,0.02597598,1.3
1000,0.215,0.866,0.01784785,1.4
1000,0.179,0.871,0.01337137,1.5
1000,0.133,0.863,0.007691692,1.6
1000,0.131,0.864,0.007323323,1.7
1000,0.109,0.877,0.005347347,1.8
1000,0.096,0.895,0.004732733,1.9
1000,0.074,0.818,0.003459459,2
1000,0.065,0.881,0.002850851,2.1
1000,0.057,0.897,0.002478478,2.2
1000,0.05,0.904,0.002136136,2.3
1000,0.049,0.898,0.001995996,2.4
1000,0.041,0.893,0.001763764,2.5
1000,0.039,0.894,0.001807808,2.6
1000,0.031,0.886,0.001743744,2.7
1000,0.03,0.902,0.001441441,2.8
1000,0.024,0.919,0.001337337,2.9
1000,0.027,0.9,0.001543544,3
1000,0.02,0.915,0.001309309,3.1
1000,0.019,0.931,0.001249249,3.2
1000,0.017,0.934,0.001207207,3.3
1000,0.017,0.934,0.001233233,3.4
1000,0.013,0.942,0.001147147,3.5
1000,0.014,0.938,0.001183183,3.6
1000,0.015,0.938,0.001199199,3.7
1000,0.011,0.946,0.001153153,3.8
1000,0.009,0.955,0.001109109,3.9
1000,0.008,0.96,0.001097097,4
1000,0.009,0.959,0.001111111,4.1
1000,0.009,0.957,0.001103103,4.2
1000,0.009,0.957,0.001107107,4.3
1000,0.007,0.964,0.001075075,4.4
1000,0.006,0.971,0.001059059,4.5
1000,0.004,0.978,0.001041041,4.6
1000,0.005,0.975,0.001051051,4.7
1000,0.004,0.976,0.001047047,4.8
1000,0.003,0.983,0.001033033,4.9
1000,0.005,0.973,0.001055055,5
1000,0.423,0.776,0.06976577,1
1000,0.375,0.798,0.05434635,1.1
1000,0.304,0.829,0.03428629,1.2
1000,0.254,0.846,0.0247007,1.3
1000,0.211,0.864,0.01647047,1.4
1000,0.186,0.863,0.01342342,1.5
1000,0.138,0.879,0.007841842,1.6
1000,0.132,0.871,0.007255255,1.7
1000,0.108,0.853,0.005335335,1.8
1000,0.093,0.894,0.004184184,1.9
1000,0.072,0.895,0.002860861,2
1000,0.068,0.903,0.002812813,2.1
1000,0.061,0.899,0.002386386,2.2
1000,0.052,0.889,0.00217017,2.3
1000,0.043,0.866,0.001985986,2.4
1000,0.043,0.893,0.001801802,2.5
1000,0.035,0.836,0.001803804,2.6
1000,0.028,0.876,0.001551552,2.7
1000,0.029,0.899,0.001485485,2.8
1000,0.023,0.901,0.001377377,2.9
1000,0.024,0.911,0.001335335,3
1000,0.018,0.923,0.001211211,3.1
1000,0.021,0.925,0.001307307,3.2
1000,0.019,0.922,0.001245245,3.3
1000,0.017,0.929,0.001209209,3.4
1000,0.016,0.926,0.001229229,3.5
1000,0.015,0.917,0.001229229,3.6
1000,0.012,0.943,0.001153153,3.7
1000,0.01,0.948,0.001139139,3.8
1000,0.009,0.956,0.001105105,3.9
1000,0.01,0.953,0.001117117,4
1000,0.009,0.953,0.001107107,4.1
1000,0.008,0.957,0.001099099,4.2
1000,0.006,0.967,0.001071071,4.3
1000,0.008,0.96,0.001085085,4.4
1000,0.005,0.973,0.001053053,4.5
1000,0.006,0.968,0.001067067,4.6
1000,0.006,0.97,0.001065065,4.7
1000,0.005,0.973,0.001053053,4.8
1000,0.005,0.972,0.001057057,4.9
1000,0.005,0.974,0.001055055,5
1000,0.432,0.772,0.07289489,1
1000,0.365,0.803,0.05106707,1.1
1000,0.312,0.829,0.03688088,1.2
1000,0.246,0.854,0.02192392,1.3
1000,0.223,0.858,0.01906106,1.4
1000,0.179,0.875,0.01239039,1.5
1000,0.148,0.882,0.008890891,1.6
1000,0.128,0.862,0.006742743,1.7
1000,0.1,0.86,0.004864865,1.8
1000,0.089,0.845,0.004134134,1.9
1000,0.077,0.84,0.003333333,2
1000,0.06,0.89,0.002442442,2.1
1000,0.059,0.893,0.002358358,2.2
1000,0.055,0.9,0.002216216,2.3
1000,0.044,0.845,0.002044044,2.4
1000,0.045,0.891,0.001913914,2.5
1000,0.038,0.89,0.001751752,2.6
1000,0.036,0.851,0.001857858,2.7
1000,0.03,0.911,0.001495495,2.8
1000,0.028,0.907,0.001413413,2.9
1000,0.023,0.913,0.001393393,3
1000,0.02,0.926,0.001331331,3.1
1000,0.021,0.918,0.001285285,3.2
1000,0.015,0.925,0.001247247,3.3
1000,0.016,0.929,0.001225225,3.4
1000,0.014,0.936,0.001165165,3.5
1000,0.014,0.938,0.001177177,3.6
1000,0.012,0.946,0.001155155,3.7
1000,0.012,0.942,0.001149149,3.8
1000,0.009,0.956,0.001117117,3.9
1000,0.009,0.955,0.001099099,4
1000,0.011,0.948,0.001133133,4.1
1000,0.009,0.957,0.001099099,4.2
1000,0.009,0.953,0.001113113,4.3
1000,0.006,0.968,0.001065065,4.4
1000,0.005,0.971,0.001061061,4.5
1000,0.005,0.97,0.001063063,4.6
1000,0.004,0.976,0.001047047,4.7
1000,0.003,0.98,0.001035035,4.8
1000,0.005,0.975,0.001047047,4.9
1000,0.004,0.977,0.001045045,5
1000,0.447,0.758,0.08135536,1
1000,0.359,0.803,0.05105706,1.1
1000,0.302,0.83,0.03421622,1.2
1000,0.276,0.842,0.03019019,1.3
1000,0.214,0.862,0.01778779,1.4
1000,0.176,0.865,0.01158959,1.5
1000,0.145,0.869,0.0084004,1.6
1000,0.12,0.848,0.006426426,1.7
1000,0.11,0.851,0.005521522,1.8
1000,0.089,0.832,0.004172172,1.9
1000,0.082,0.886,0.003381381,2
1000,0.07,0.885,0.002894895,2.1
1000,0.057,0.861,0.002338338,2.2
1000,0.049,0.914,0.0021001,2.3
1000,0.045,0.905,0.001923924,2.4
1000,0.036,0.873,0.00177978,2.5
1000,0.037,0.91,0.00163964,2.6
1000,0.037,0.912,0.00163964,2.7
1000,0.031,0.896,0.001565566,2.8
1000,0.03,0.901,0.001491491,2.9
1000,0.023,0.916,0.001299299,3
1000,0.023,0.91,0.001327327,3.1
1000,0.018,0.927,0.001237237,3.2
1000,0.019,0.922,0.001265265,3.3
1000,0.02,0.92,0.001281281,3.4
1000,0.014,0.938,0.001185185,3.5
1000,0.012,0.945,0.001139139,3.6
1000,0.013,0.943,0.001163163,3.7
1000,0.012,0.944,0.001145145,3.8
1000,0.011,0.947,0.001127127,3.9
1000,0.008,0.956,0.001109109,4
1000,0.007,0.961,0.001085085,4.1
1000,0.008,0.96,0.001097097,4.2
1000,0.006,0.967,0.001071071,4.3
1000,0.006,0.968,0.001079079,4.4
1000,0.007,0.963,0.001085085,4.5
1000,0.006,0.966,0.001073073,4.6
1000,0.005,0.973,0.001057057,4.7
1000,0.007,0.965,0.001075075,4.8
1000,0.005,0.972,0.001063063,4.9
1000,0.003,0.979,0.001039039,5
1000,0.431,0.776,0.07269069,1
1000,0.365,0.808,0.04952953,1.1
1000,0.314,0.819,0.0403984,1.2
1000,0.267,0.849,0.02678278,1.3
1000,0.224,0.861,0.01895495,1.4
1000,0.177,0.879,0.01306106,1.5
1000,0.146,0.867,0.0081001,1.6
1000,0.124,0.859,0.006926927,1.7
1000,0.11,0.872,0.005701702,1.8
1000,0.092,0.882,0.004384384,1.9
1000,0.079,0.834,0.003607608,2
1000,0.071,0.884,0.003123123,2.1
1000,0.064,0.83,0.002970971,2.2
1000,0.046,0.903,0.001871872,2.3
1000,0.043,0.888,0.001801802,2.4
1000,0.045,0.878,0.001913914,2.5
1000,0.036,0.896,0.00167968,2.6
1000,0.032,0.892,0.00156957,2.7
1000,0.025,0.859,0.001555556,2.8
1000,0.028,0.919,0.001431431,2.9
1000,0.026,0.914,0.001395395,3
1000,0.02,0.924,0.001249249,3.1
1000,0.021,0.914,0.001349349,3.2
1000,0.016,0.932,0.001201201,3.3
1000,0.017,0.921,0.001245245,3.4
1000,0.013,0.941,0.001197197,3.5
1000,0.014,0.937,0.001183183,3.6
1000,0.012,0.941,0.001145145,3.7
1000,0.013,0.939,0.001169169,3.8
1000,0.011,0.947,0.001139139,3.9
1000,0.009,0.957,0.001117117,4
1000,0.007,0.962,0.001083083,4.1
1000,0.008,0.962,0.001093093,4.2
1000,0.009,0.957,0.001097097,4.3
1000,0.006,0.966,0.001071071,4.4
1000,0.005,0.974,0.001053053,4.5
1000,0.005,0.974,0.001057057,4.6
1000,0.006,0.968,0.001071071,4.7
1000,0.007,0.964,0.001075075,4.8
1000,0.005,0.975,0.001049049,4.9
1000,0.004,0.979,0.001041041,5
1000,0.421,0.768,0.07294895,1
1000,0.367,0.796,0.0545025,1.1
1000,0.319,0.827,0.03985986,1.2
1000,0.252,0.855,0.02266266,1.3
1000,0.212,0.86,0.01722523,1.4
1000,0.181,0.867,0.01264865,1.5
1000,0.153,0.859,0.008612613,1.6
1000,0.125,0.865,0.006770771,1.7
1000,0.111,0.875,0.005571572,1.8
1000,0.093,0.847,0.004538539,1.9
1000,0.072,0.888,0.003109109,2
1000,0.072,0.887,0.003109109,2.1
1000,0.059,0.897,0.002306306,2.2
1000,0.054,0.9,0.002226226,2.3
1000,0.049,0.895,0.00192993,2.4
1000,0.044,0.91,0.001893894,2.5
1000,0.036,0.889,0.0017998,2.6
1000,0.032,0.905,0.001497497,2.7
1000,0.03,0.897,0.001525526,2.8
1000,0.027,0.891,0.001481481,2.9
1000,0.025,0.904,0.001391391,3
1000,0.02,0.921,0.001259259,3.1
1000,0.019,0.927,0.001277277,3.2
1000,0.015,0.938,0.001207207,3.3
1000,0.015,0.938,0.001189189,3.4
1000,0.014,0.939,0.001173173,3.5
1000,0.01,0.95,0.001129129,3.6
1000,0.012,0.944,0.001143143,3.7
1000,0.011,0.947,0.001133133,3.8
1000,0.009,0.954,0.001107107,3.9
1000,0.011,0.947,0.001123123,4
1000,0.009,0.954,0.001109109,4.1
1000,0.009,0.958,0.001099099,4.2
1000,0.007,0.964,0.001083083,4.3
1000,0.006,0.965,0.001077077,4.4
1000,0.007,0.965,0.001079079,4.5
1000,0.007,0.965,0.001079079,4.6
1000,0.006,0.968,0.001065065,4.7
1000,0.005,0.974,0.001051051,4.8
1000,0.004,0.975,0.001057057,4.9
1000,0.005,0.973,0.001055055,5
1000,0.443,0.768,0.07765365,1
1000,0.369,0.794,0.05527528,1.1
1000,0.318,0.828,0.03806006,1.2
1000,0.268,0.846,0.02754154,1.3
1000,0.205,0.867,0.01565165,1.4
1000,0.185,0.879,0.01352352,1.5
1000,0.153,0.875,0.00986987,1.6
1000,0.129,0.872,0.006928929,1.7
1000,0.11,0.862,0.005299299,1.8
1000,0.102,0.854,0.004906907,1.9
1000,0.081,0.875,0.003807808,2
1000,0.072,0.886,0.003049049,2.1
1000,0.063,0.88,0.002488488,2.2
1000,0.049,0.903,0.00203003,2.3
1000,0.047,0.877,0.00219019,2.4
1000,0.042,0.883,0.001881882,2.5
1000,0.04,0.903,0.001757758,2.6
1000,0.031,0.893,0.001555556,2.7
1000,0.031,0.905,0.001503504,2.8
1000,0.026,0.915,0.001399399,2.9
1000,0.024,0.872,0.001449449,3
1000,0.02,0.922,0.001287287,3.1
1000,0.021,0.919,0.001283283,3.2
1000,0.016,0.936,0.001205205,3.3
1000,0.017,0.931,0.001227227,3.4
1000,0.018,0.933,0.001233233,3.5
1000,0.011,0.949,0.001127127,3.6
1000,0.013,0.94,0.001167167,3.7
1000,0.011,0.93,0.001173173,3.8
1000,0.008,0.957,0.001095095,3.9
1000,0.01,0.95,0.001121121,4
1000,0.009,0.953,0.001105105,4.1
1000,0.006,0.967,0.001071071,4.2
1000,0.008,0.961,0.001091091,4.3
1000,0.007,0.962,0.001083083,4.4
1000,0.005,0.97,0.001061061,4.5
1000,0.006,0.969,0.001061061,4.6
1000,0.006,0.971,0.001063063,4.7
1000,0.005,0.971,0.001057057,4.8
1000,0.003,0.979,0.001039039,4.9
1000,0.004,0.979,0.001039039,5
1000,0.444,0.76,0.0802963,1
1000,0.367,0.809,0.05114114,1.1
1000,0.311,0.829,0.03685085,1.2
1000,0.258,0.855,0.02458258,1.3
1000,0.206,0.863,0.01699099,1.4
1000,0.187,0.877,0.01324324,1.5
1000,0.151,0.863,0.009633634,1.6
1000,0.115,0.848,0.005583584,1.7
1000,0.112,0.874,0.005429429,1.8
1000,0.089,0.865,0.004382382,1.9
1000,0.079,0.855,0.003573574,2
1000,0.064,0.868,0.002526527,2.1
1000,0.059,0.82,0.002928929,2.2
1000,0.049,0.896,0.002184184,2.3
1000,0.047,0.894,0.001993994,2.4
1000,0.039,0.869,0.001827828,2.5
1000,0.035,0.894,0.001581582,2.6
1000,0.036,0.845,0.001813814,2.7
1000,0.029,0.882,0.001621622,2.8
1000,0.028,0.91,0.001477477,2.9
1000,0.02,0.926,0.001257257,3
1000,0.023,0.918,0.001331331,3.1
1000,0.019,0.918,0.001241241,3.2
1000,0.019,0.927,0.001261261,3.3
1000,0.014,0.928,0.001195195,3.4
1000,0.015,0.933,0.001199199,3.5
1000,0.012,0.943,0.001131131,3.6
1000,0.011,0.947,0.001127127,3.7
1000,0.011,0.951,0.001143143,3.8
1000,0.01,0.951,0.001121121,3.9
1000,0.01,0.954,0.001113113,4
1000,0.008,0.96,0.001089089,4.1
1000,0.006,0.966,0.001073073,4.2
1000,0.006,0.968,0.001067067,4.3
1000,0.008,0.963,0.001093093,4.4
1000,0.006,0.967,0.001067067,4.5
1000,0.006,0.969,0.001065065,4.6
1000,0.006,0.968,0.001063063,4.7
1000,0.004,0.976,0.001045045,4.8
1000,0.004,0.979,0.001041041,4.9
1000,0.004,0.977,0.001045045,5
1000,0.432,0.767,0.07352753,1
1000,0.378,0.806,0.05317518,1.1
1000,0.307,0.836,0.0343984,1.2
1000,0.25,0.849,0.02510511,1.3
1000,0.227,0.859,0.02005405,1.4
1000,0.168,0.879,0.01133333,1.5
1000,0.142,0.872,0.008128128,1.6
1000,0.13,0.877,0.007089089,1.7
1000,0.11,0.88,0.005703704,1.8
1000,0.09,0.847,0.004228228,1.9
1000,0.082,0.882,0.003351351,2
1000,0.073,0.869,0.003139139,2.1
1000,0.059,0.82,0.002574575,2.2
1000,0.055,0.878,0.002538539,2.3
1000,0.052,0.9,0.002086086,2.4
1000,0.041,0.819,0.002056056,2.5
1000,0.031,0.885,0.001583584,2.6
1000,0.032,0.884,0.001583584,2.7
1000,0.032,0.91,0.001523524,2.8
1000,0.029,0.905,0.001445445,2.9
1000,0.027,0.913,0.001401401,3
1000,0.021,0.926,0.001263263,3.1
1000,0.017,0.932,0.001235235,3.2
1000,0.017,0.93,0.001233233,3.3
1000,0.018,0.929,0.001281281,3.4
1000,0.011,0.949,0.001133133,3.5
1000,0.013,0.943,0.001155155,3.6
1000,0.013,0.942,0.001171171,3.7
1000,0.012,0.948,0.001145145,3.8
1000,0.013,0.946,0.001161161,3.9
1000,0.009,0.953,0.001113113,4
1000,0.01,0.953,0.001123123,4.1
1000,0.008,0.96,0.001099099,4.2
1000,0.007,0.966,0.001073073,4.3
1000,0.006,0.968,0.001065065,4.4
1000,0.005,0.972,0.001055055,4.5
1000,0.005,0.973,0.001057057,4.6
1000,0.006,0.969,0.001067067,4.7
1000,0.005,0.972,0.001061061,4.8
1000,0.005,0.97,0.001059059,4.9
1000,0.004,0.975,0.001051051,5
1000,0.434,0.775,0.07406006,1
1000,0.366,0.796,0.05442042,1.1
1000,0.316,0.829,0.03849049,1.2
1000,0.251,0.847,0.02316517,1.3
1000,0.211,0.871,0.0172032,1.4
1000,0.168,0.878,0.01092893,1.5
1000,0.143,0.872,0.00814014,1.6
1000,0.127,0.87,0.007169169,1.7
1000,0.115,0.869,0.006014014,1.8
1000,0.093,0.849,0.004178178,1.9
1000,0.086,0.882,0.003971972,2
1000,0.069,0.898,0.002658659,2.1
1000,0.06,0.893,0.002546547,2.2
1000,0.052,0.892,0.002336336,2.3
1000,0.044,0.857,0.001955956,2.4
1000,0.039,0.896,0.001641642,2.5
1000,0.037,0.835,0.001905906,2.6
1000,0.033,0.891,0.001597598,2.7
1000,0.032,0.904,0.001465465,2.8
1000,0.025,0.893,0.001419419,2.9
1000,0.025,0.908,0.001403403,3
1000,0.022,0.922,0.001337337,3.1
1000,0.017,0.929,0.001243243,3.2
1000,0.016,0.933,0.001205205,3.3
1000,0.014,0.936,0.001185185,3.4
1000,0.014,0.934,0.001171171,3.5
1000,0.015,0.936,0.001185185,3.6
1000,0.013,0.933,0.001179179,3.7
1000,0.01,0.955,0.001121121,3.8
1000,0.007,0.961,0.001089089,3.9
1000,0.009,0.954,0.001109109,4
1000,0.01,0.953,0.001115115,4.1
1000,0.007,0.964,0.001089089,4.2
1000,0.008,0.955,0.001103103,4.3
1000,0.006,0.967,0.001073073,4.4
1000,0.007,0.964,0.001091091,4.5
1000,0.005,0.97,0.001063063,4.6
1000,0.005,0.972,0.001053053,4.7
1000,0.006,0.966,0.001071071,4.8
1000,0.003,0.982,0.001035035,4.9
1000,0.005,0.969,0.001069069,5
1000,0.442,0.77,0.07715115,1
1000,0.387,0.789,0.06030831,1.1
1000,0.317,0.818,0.03947347,1.2
1000,0.259,0.85,0.02621822,1.3
1000,0.216,0.868,0.01706306,1.4
1000,0.174,0.875,0.01218819,1.5
1000,0.151,0.875,0.008932933,1.6
1000,0.122,0.871,0.006362362,1.7
1000,0.098,0.89,0.004356356,1.8
1000,0.101,0.894,0.004722723,1.9
1000,0.08,0.863,0.003625626,2
1000,0.068,0.898,0.002692693,2.1
1000,0.057,0.875,0.002384384,2.2
1000,0.051,0.898,0.002078078,2.3
1000,0.048,0.887,0.002152152,2.4
1000,0.041,0.854,0.001951952,2.5
1000,0.037,0.868,0.001741742,2.6
1000,0.033,0.9,0.001625626,2.7
1000,0.029,0.906,0.001485485,2.8
1000,0.025,0.912,0.001415415,2.9
1000,0.024,0.914,0.001341341,3
1000,0.021,0.92,0.001257257,3.1
1000,0.02,0.917,0.001245245,3.2
1000,0.019,0.921,0.001249249,3.3
1000,0.015,0.929,0.001193193,3.4
1000,0.014,0.944,0.001169169,3.5
1000,0.016,0.931,0.001231231,3.6
1000,0.01,0.953,0.001121121,3.7
1000,0.012,0.944,0.001143143,3.8
1000,0.011,0.946,0.001141141,3.9
1000,0.009,0.954,0.001115115,4
1000,0.008,0.959,0.001093093,4.1
1000,0.008,0.96,0.001091091,4.2
1000,0.006,0.967,0.001071071,4.3
1000,0.006,0.97,0.001061061,4.4
1000,0.006,0.969,0.001063063,4.5
1000,0.005,0.972,0.001057057,4.6
1000,0.006,0.967,0.001065065,4.7
1000,0.004,0.977,0.001043043,4.8
1000,0.004,0.98,0.001039039,4.9
1000,0.004,0.975,0.001049049,5
1000,0.458,0.753,0.08826627,1
1000,0.383,0.79,0.0591972,1.1
1000,0.307,0.825,0.03602603,1.2
1000,0.269,0.844,0.02864264,1.3
1000,0.225,0.871,0.0182042,1.4
1000,0.186,0.873,0.01335335,1.5
1000,0.155,0.881,0.009127127,1.6
1000,0.125,0.88,0.007111111,1.7
1000,0.104,0.862,0.005083083,1.8
1000,0.097,0.892,0.004418418,1.9
1000,0.08,0.87,0.00353954,2
1000,0.067,0.847,0.003049049,2.1
1000,0.059,0.871,0.002684685,2.2
1000,0.053,0.845,0.002312312,2.3
1000,0.049,0.814,0.002296296,2.4
1000,0.042,0.906,0.00188989,2.5
1000,0.033,0.898,0.001631632,2.6
1000,0.033,0.91,0.001525526,2.7
1000,0.031,0.889,0.001643644,2.8
1000,0.03,0.885,0.001515516,2.9
1000,0.024,0.918,0.001329329,3
1000,0.02,0.924,0.001285285,3.1
1000,0.021,0.924,0.001287287,3.2
1000,0.016,0.932,0.001195195,3.3
1000,0.017,0.925,0.001233233,3.4
1000,0.015,0.935,0.001181181,3.5
1000,0.012,0.944,0.001153153,3.6
1000,0.01,0.949,0.001123123,3.7
1000,0.012,0.941,0.001147147,3.8
1000,0.009,0.956,0.001119119,3.9
1000,0.011,0.945,0.001127127,4
1000,0.01,0.95,0.001115115,4.1
1000,0.009,0.951,0.001121121,4.2
1000,0.008,0.957,0.001091091,4.3
1000,0.005,0.971,0.001059059,4.4
1000,0.006,0.969,0.001065065,4.5
1000,0.006,0.969,0.001065065,4.6
1000,0.006,0.97,0.001069069,4.7
1000,0.006,0.969,0.001071071,4.8
1000,0.005,0.972,0.001063063,4.9
1000,0.004,0.978,0.001041041,5
1000,0.433,0.772,0.07151552,1
1000,0.38,0.794,0.05631832,1.1
1000,0.315,0.832,0.03679279,1.2
1000,0.257,0.846,0.02436436,1.3
1000,0.222,0.862,0.01784585,1.4
1000,0.192,0.872,0.01354955,1.5
1000,0.146,0.865,0.008756757,1.6
1000,0.124,0.871,0.006878879,1.7
1000,0.093,0.874,0.004570571,1.8
1000,0.087,0.875,0.003601602,1.9
1000,0.076,0.863,0.003487487,2
1000,0.069,0.787,0.003295295,2.1
1000,0.056,0.799,0.002604605,2.2
1000,0.049,0.908,0.002064064,2.3
1000,0.047,0.873,0.002018018,2.4
1000,0.036,0.907,0.001625626,2.5
1000,0.033,0.888,0.001615616,2.6
1000,0.029,0.901,0.001521522,2.7
1000,0.031,0.9,0.001487487,2.8
1000,0.026,0.915,0.001371371,2.9
1000,0.025,0.923,0.001355355,3
1000,0.021,0.914,0.001311311,3.1
1000,0.02,0.917,0.001257257,3.2
1000,0.017,0.93,0.001213213,3.3
1000,0.014,0.938,0.001191191,3.4
1000,0.013,0.94,0.001169169,3.5
1000,0.012,0.946,0.001149149,3.6
1000,0.011,0.951,0.001145145,3.7
1000,0.011,0.948,0.001133133,3.8
1000,0.012,0.948,0.001143143,3.9
1000,0.011,0.948,0.001121121,4
1000,0.009,0.954,0.001099099,4.1
1000,0.008,0.957,0.001091091,4.2
1000,0.008,0.957,0.001097097,4.3
1000,0.008,0.961,0.001093093,4.4
1000,0.005,0.972,0.001057057,4.5
1000,0.006,0.968,0.001063063,4.6
1000,0.004,0.975,0.001047047,4.7
1000,0.005,0.971,0.001057057,4.8
1000,0.004,0.979,0.001039039,4.9
1000,0.003,0.983,0.001033033,5
1000,0.445,0.769,0.0771952,1
1000,0.384,0.796,0.05854454,1.1
1000,0.321,0.824,0.03883684,1.2
1000,0.261,0.856,0.0248028,1.3
1000,0.225,0.863,0.01924324,1.4
1000,0.179,0.874,0.01273273,1.5
1000,0.157,0.875,0.00983984,1.6
1000,0.118,0.867,0.006398398,1.7
1000,0.102,0.853,0.004972973,1.8
1000,0.092,0.855,0.004254254,1.9
1000,0.079,0.876,0.003573574,2
1000,0.064,0.844,0.002912913,2.1
1000,0.059,0.84,0.002562563,2.2
1000,0.055,0.901,0.002218218,2.3
1000,0.045,0.818,0.002218218,2.4
1000,0.041,0.907,0.001785786,2.5
1000,0.038,0.861,0.00180981,2.6
1000,0.031,0.906,0.001469469,2.7
1000,0.03,0.903,0.001561562,2.8
1000,0.029,0.9,0.001563564,2.9
1000,0.021,0.92,0.001291291,3
1000,0.022,0.916,0.001325325,3.1
1000,0.016,0.928,0.001199199,3.2
1000,0.017,0.931,0.001241241,3.3
1000,0.018,0.932,0.001243243,3.4
1000,0.015,0.937,0.001227227,3.5
1000,0.013,0.932,0.001175175,3.6
1000,0.012,0.95,0.001147147,3.7
1000,0.012,0.943,0.001161161,3.8
1000,0.01,0.951,0.001141141,3.9
1000,0.009,0.958,0.001107107,4
1000,0.009,0.957,0.001101101,4.1
1000,0.006,0.968,0.001071071,4.2
1000,0.006,0.966,0.001067067,4.3
1000,0.007,0.963,0.001077077,4.4
1000,0.005,0.97,0.001061061,4.5
1000,0.006,0.971,0.001063063,4.6
1000,0.007,0.964,0.001085085,4.7
1000,0.005,0.97,0.001061061,4.8
1000,0.004,0.978,0.001045045,4.9
1000,0.004,0.979,0.001039039,5
1000,0.427,0.774,0.07097297,1
1000,0.37,0.801,0.05162763,1.1
1000,0.319,0.825,0.03863664,1.2
1000,0.258,0.852,0.02581181,1.3
1000,0.216,0.865,0.01727127,1.4
1000,0.184,0.872,0.01344144,1.5
1000,0.147,0.862,0.008770771,1.6
1000,0.122,0.876,0.006640641,1.7
1000,0.102,0.885,0.005155155,1.8
1000,0.092,0.891,0.00414014,1.9
1000,0.075,0.885,0.003197197,2
1000,0.068,0.883,0.002728729,2.1
1000,0.066,0.902,0.002618619,2.2
1000,0.059,0.885,0.002550551,2.3
1000,0.046,0.858,0.002022022,2.4
1000,0.036,0.894,0.001611612,2.5
1000,0.038,0.873,0.00173974,2.6
1000,0.033,0.912,0.001507508,2.7
1000,0.029,0.9,0.001437437,2.8
1000,0.026,0.872,0.001463463,2.9
1000,0.022,0.917,0.001297297,3
1000,0.021,0.919,0.001331331,3.1
1000,0.02,0.926,0.001269269,3.2
1000,0.019,0.927,0.001253253,3.3
1000,0.017,0.933,0.001231231,3.4
1000,0.015,0.937,0.001181181,3.5
1000,0.014,0.938,0.001161161,3.6
1000,0.013,0.938,0.001175175,3.7
1000,0.013,0.943,0.001145145,3.8
1000,0.012,0.944,0.001143143,3.9
1000,0.01,0.953,0.001137137,4
1000,0.008,0.956,0.001101101,4.1
1000,0.007,0.962,0.001093093,4.2
1000,0.007,0.964,0.001075075,4.3
1000,0.006,0.968,0.001073073,4.4
1000,0.006,0.969,0.001061061,4.5
1000,0.006,0.966,0.001067067,4.6
1000,0.004,0.979,0.001045045,4.7
1000,0.005,0.971,0.001067067,4.8
1000,0.004,0.979,0.001039039,4.9
1000,0.004,0.978,0.001043043,5
1000,0.426,0.776,0.07164765,1
1000,0.372,0.797,0.05419219,1.1
1000,0.318,0.829,0.03842242,1.2
1000,0.256,0.843,0.0248048,1.3
1000,0.218,0.866,0.0172032,1.4
1000,0.171,0.883,0.01046046,1.5
1000,0.148,0.871,0.009335335,1.6
1000,0.134,0.883,0.006906907,1.7
1000,0.108,0.877,0.005059059,1.8
1000,0.095,0.847,0.004582583,1.9
1000,0.076,0.855,0.003527528,2
1000,0.064,0.875,0.002466466,2.1
1000,0.062,0.855,0.002788789,2.2
1000,0.056,0.896,0.002284284,2.3
1000,0.048,0.865,0.00216016,2.4
1000,0.039,0.898,0.001793794,2.5
1000,0.037,0.895,0.001651652,2.6
1000,0.033,0.9,0.001535536,2.7
1000,0.028,0.874,0.001537538,2.8
1000,0.027,0.908,0.001437437,2.9
1000,0.022,0.909,0.001307307,3
1000,0.023,0.923,0.001345345,3.1
1000,0.017,0.93,0.001217217,3.2
1000,0.018,0.925,0.001235235,3.3
1000,0.016,0.933,0.001189189,3.4
1000,0.013,0.945,0.001167167,3.5
1000,0.015,0.932,0.001187187,3.6
1000,0.011,0.948,0.001127127,3.7
1000,0.011,0.948,0.001133133,3.8
1000,0.009,0.946,0.001125125,3.9
1000,0.01,0.944,0.001135135,4
1000,0.009,0.957,0.001119119,4.1
1000,0.008,0.96,0.001085085,4.2
1000,0.007,0.96,0.001085085,4.3
1000,0.007,0.964,0.001075075,4.4
1000,0.006,0.968,0.001067067,4.5
1000,0.005,0.973,0.001057057,4.6
1000,0.005,0.972,0.001055055,4.7
1000,0.005,0.97,0.001063063,4.8
1000,0.005,0.974,0.001051051,4.9
1000,0.004,0.98,0.001039039,5
1000,0.436,0.766,0.07622422,1
1000,0.37,0.794,0.05628629,1.1
1000,0.319,0.827,0.03913313,1.2
1000,0.254,0.855,0.02376376,1.3
1000,0.21,0.867,0.0164004,1.4
1000,0.174,0.877,0.01228829,1.5
1000,0.144,0.873,0.009039039,1.6
1000,0.132,0.891,0.007347347,1.7
1000,0.107,0.862,0.005143143,1.8
1000,0.093,0.859,0.004342342,1.9
1000,0.078,0.812,0.003591592,2
1000,0.067,0.868,0.002908909,2.1
1000,0.061,0.9,0.002674675,2.2
1000,0.054,0.904,0.002136136,2.3
1000,0.049,0.886,0.002146146,2.4
1000,0.044,0.835,0.002094094,2.5
1000,0.036,0.892,0.001651652,2.6
1000,0.033,0.911,0.001591592,2.7
1000,0.029,0.909,0.001433433,2.8
1000,0.023,0.901,0.001425425,2.9
1000,0.026,0.914,0.001393393,3
1000,0.024,0.917,0.001319319,3.1
1000,0.015,0.931,0.001213213,3.2
1000,0.017,0.935,0.001219219,3.3
1000,0.019,0.92,0.001281281,3.4
1000,0.015,0.938,0.001195195,3.5
1000,0.012,0.94,0.001145145,3.6
1000,0.011,0.949,0.001119119,3.7
1000,0.01,0.942,0.001133133,3.8
1000,0.008,0.955,0.001103103,3.9
1000,0.009,0.957,0.001109109,4
1000,0.009,0.956,0.001105105,4.1
1000,0.007,0.964,0.001085085,4.2
1000,0.008,0.958,0.001099099,4.3
1000,0.005,0.972,0.001055055,4.4
1000,0.007,0.961,0.001083083,4.5
1000,0.005,0.97,0.001059059,4.6
1000,0.005,0.972,0.001059059,4.7
1000,0.005,0.972,0.001053053,4.8
1000,0.005,0.975,0.001051051,4.9
1000,0.004,0.976,0.001047047,5
1000,0.429,0.778,0.0691992,1
1000,0.373,0.802,0.05261862,1.1
1000,0.312,0.829,0.0366046,1.2
1000,0.267,0.852,0.02721722,1.3
1000,0.221,0.853,0.0187988,1.4
1000,0.175,0.874,0.01210611,1.5
1000,0.17,0.869,0.01123524,1.6
1000,0.133,0.871,0.007373373,1.7
1000,0.111,0.857,0.005563564,1.8
1000,0.084,0.834,0.003877878,1.9
1000,0.082,0.862,0.003827828,2
1000,0.071,0.907,0.003003003,2.1
1000,0.062,0.92,0.002392392,2.2
1000,0.051,0.9,0.0022002,2.3
1000,0.045,0.906,0.001861862,2.4
1000,0.039,0.866,0.001865866,2.5
1000,0.044,0.883,0.001953954,2.6
1000,0.033,0.89,0.001535536,2.7
1000,0.03,0.906,0.001475475,2.8
1000,0.027,0.911,0.001413413,2.9
1000,0.026,0.917,0.001403403,3
1000,0.021,0.922,0.001301301,3.1
1000,0.018,0.92,0.001251251,3.2
1000,0.016,0.931,0.001197197,3.3
1000,0.018,0.922,0.001281281,3.4
1000,0.014,0.938,0.001189189,3.5
1000,0.015,0.938,0.001197197,3.6
1000,0.015,0.921,0.001229229,3.7
1000,0.012,0.944,0.001139139,3.8
1000,0.009,0.952,0.001109109,3.9
1000,0.009,0.954,0.001101101,4
1000,0.009,0.953,0.001099099,4.1
1000,0.009,0.96,0.001107107,4.2
1000,0.006,0.967,0.001073073,4.3
1000,0.005,0.975,0.001053053,4.4
1000,0.006,0.97,0.001065065,4.5
1000,0.006,0.97,0.001061061,4.6
1000,0.006,0.966,0.001069069,4.7
1000,0.006,0.969,0.001063063,4.8
1000,0.005,0.972,0.001055055,4.9
1000,0.004,0.974,0.001053053,5
1000,0.432,0.767,0.07705105,1
1000,0.363,0.806,0.05107708,1.1
1000,0.303,0.834,0.03441842,1.2
1000,0.272,0.845,0.02872272,1.3
1000,0.235,0.867,0.02015015,1.4
1000,0.163,0.879,0.009541542,1.5
1000,0.151,0.883,0.008818819,1.6
1000,0.121,0.861,0.006626627,1.7
1000,0.104,0.853,0.005211211,1.8
1000,0.093,0.843,0.004094094,1.9
1000,0.082,0.878,0.00364965,2
1000,0.069,0.889,0.002738739,2.1
1000,0.056,0.868,0.002376376,2.2
1000,0.054,0.899,0.00229029,2.3
1000,0.046,0.916,0.00194995,2.4
1000,0.047,0.891,0.001977978,2.5
1000,0.036,0.898,0.001561562,2.6
1000,0.032,0.918,0.001505506,2.7
1000,0.031,0.895,0.001513514,2.8
1000,0.025,0.897,0.001413413,2.9
1000,0.026,0.887,0.001461461,3
1000,0.022,0.916,0.001323323,3.1
1000,0.02,0.919,0.001299299,3.2
1000,0.016,0.935,0.001215215,3.3
1000,0.013,0.94,0.001171171,3.4
1000,0.013,0.946,0.001153153,3.5
1000,0.013,0.94,0.001173173,3.6
1000,0.012,0.947,0.001141141,3.7
1000,0.011,0.945,0.001149149,3.8
1000,0.011,0.95,0.001137137,3.9
1000,0.009,0.957,0.001111111,4
1000,0.008,0.958,0.001097097,4.1
1000,0.009,0.957,0.001099099,4.2
1000,0.006,0.967,0.001071071,4.3
1000,0.006,0.966,0.001071071,4.4
1000,0.005,0.972,0.001055055,4.5
1000,0.005,0.969,0.001063063,4.6
1000,0.005,0.975,0.001049049,4.7
1000,0.006,0.97,0.001067067,4.8
1000,0.005,0.975,0.001049049,4.9
1000,0.005,0.974,0.001051051,5
1000,0.429,0.764,0.07642042,1
1000,0.358,0.806,0.04886687,1.1
1000,0.312,0.826,0.03717918,1.2
1000,0.265,0.847,0.02604404,1.3
1000,0.222,0.875,0.01731732,1.4
1000,0.183,0.872,0.01298899,1.5
1000,0.142,0.864,0.008174174,1.6
1000,0.129,0.853,0.007137137,1.7
1000,0.102,0.837,0.005071071,1.8
1000,0.088,0.852,0.003941942,1.9
1000,0.079,0.892,0.003713714,2
1000,0.063,0.828,0.002900901,2.1
1000,0.056,0.815,0.002706707,2.2
1000,0.052,0.864,0.002272272,2.3
1000,0.049,0.911,0.00197998,2.4
1000,0.04,0.895,0.001727728,2.5
1000,0.038,0.889,0.001837838,2.6
1000,0.034,0.908,0.001561562,2.7
1000,0.027,0.912,0.001365365,2.8
1000,0.025,0.912,0.001375375,2.9
1000,0.028,0.909,0.001447447,3
1000,0.023,0.9,0.001433433,3.1
1000,0.022,0.923,0.001313313,3.2
1000,0.015,0.935,0.001207207,3.3
1000,0.015,0.918,0.001245245,3.4
1000,0.015,0.926,0.001217217,3.5
1000,0.012,0.949,0.001159159,3.6
1000,0.011,0.95,0.001149149,3.7
1000,0.011,0.945,0.001135135,3.8
1000,0.009,0.957,0.001103103,3.9
1000,0.01,0.951,0.001123123,4
1000,0.008,0.962,0.001089089,4.1
1000,0.008,0.96,0.001091091,4.2
1000,0.007,0.965,0.001077077,4.3
1000,0.007,0.963,0.001081081,4.4
1000,0.006,0.971,0.001063063,4.5
1000,0.005,0.974,0.001049049,4.6
1000,0.005,0.97,0.001061061,4.7
1000,0.004,0.977,0.001047047,4.8
1000,0.004,0.976,0.001047047,4.9
1000,0.004,0.976,0.001047047,5
1000,0.438,0.772,0.07462663,1
1000,0.365,0.804,0.05142943,1.1
1000,0.294,0.827,0.03398799,1.2
1000,0.254,0.86,0.02276877,1.3
1000,0.233,0.87,0.01926927,1.4
1000,0.176,0.872,0.01262262,1.5
1000,0.151,0.881,0.00965966,1.6
1000,0.124,0.872,0.006276276,1.7
1000,0.101,0.894,0.005063063,1.8
1000,0.09,0.863,0.004094094,1.9
1000,0.077,0.87,0.003447447,2
1000,0.071,0.885,0.002880881,2.1
1000,0.062,0.895,0.002412412,2.2
1000,0.056,0.892,0.002264264,2.3
1000,0.046,0.911,0.001955956,2.4
1000,0.04,0.905,0.001723724,2.5
1000,0.038,0.913,0.00173974,2.6
1000,0.031,0.907,0.001583584,2.7
1000,0.031,0.906,0.001485485,2.8
1000,0.028,0.909,0.001473473,2.9
1000,0.025,0.915,0.001385385,3
1000,0.022,0.912,0.001325325,3.1
1000,0.019,0.928,0.001255255,3.2
1000,0.018,0.927,0.001251251,3.3
1000,0.019,0.922,0.001267267,3.4
1000,0.014,0.938,0.001173173,3.5
1000,0.013,0.939,0.001145145,3.6
1000,0.012,0.943,0.001165165,3.7
1000,0.009,0.954,0.001109109,3.8
1000,0.008,0.961,0.001093093,3.9
1000,0.007,0.962,0.001083083,4
1000,0.007,0.961,0.001091091,4.1
1000,0.008,0.961,0.001089089,4.2
1000,0.006,0.969,0.001071071,4.3
1000,0.007,0.965,0.001075075,4.4
1000,0.007,0.961,0.001089089,4.5
1000,0.006,0.969,0.001065065,4.6
1000,0.005,0.973,0.001057057,4.7
1000,0.004,0.976,0.001047047,4.8
1000,0.003,0.98,0.001037037,4.9
1000,0.003,0.983,0.001033033,5
1000,0.453,0.752,0.0846967,1
1000,0.372,0.799,0.05319119,1.1
1000,0.312,0.826,0.03711712,1.2
1000,0.269,0.847,0.02670871,1.3
1000,0.223,0.858,0.01915716,1.4
1000,0.178,0.872,0.01265265,1.5
1000,0.164,0.87,0.01085485,1.6
1000,0.133,0.862,0.007565566,1.7
1000,0.113,0.879,0.005697698,1.8
1000,0.092,0.852,0.004484484,1.9
1000,0.079,0.909,0.003187187,2
1000,0.067,0.878,0.003005005,2.1
1000,0.069,0.862,0.003019019,2.2
1000,0.049,0.798,0.002396396,2.3
1000,0.046,0.881,0.002024024,2.4
1000,0.043,0.888,0.001867868,2.5
1000,0.034,0.881,0.00164965,2.6
1000,0.035,0.904,0.001625626,2.7
1000,0.029,0.903,0.001459459,2.8
1000,0.028,0.911,0.001421421,2.9
1000,0.024,0.909,0.001353353,3
1000,0.021,0.921,0.001269269,3.1
1000,0.019,0.925,0.001249249,3.2
1000,0.016,0.927,0.001255255,3.3
1000,0.016,0.931,0.001217217,3.4
1000,0.014,0.935,0.001181181,3.5
1000,0.012,0.948,0.001149149,3.6
1000,0.011,0.946,0.001135135,3.7
1000,0.014,0.942,0.001167167,3.8
1000,0.01,0.95,0.001129129,3.9
1000,0.008,0.958,0.001103103,4
1000,0.009,0.956,0.001099099,4.1
1000,0.009,0.954,0.001119119,4.2
1000,0.006,0.97,0.001063063,4.3
1000,0.007,0.961,0.001091091,4.4
1000,0.008,0.963,0.001087087,4.5
1000,0.005,0.972,0.001059059,4.6
1000,0.005,0.974,0.001049049,4.7
1000,0.004,0.977,0.001043043,4.8
1000,0.005,0.974,0.001049049,4.9
1000,0.004,0.977,0.001049049,5
1000,0.437,0.772,0.07458859,1
1000,0.378,0.795,0.05547748,1.1
1000,0.315,0.825,0.03815616,1.2
1000,0.265,0.847,0.02734535,1.3
1000,0.21,0.871,0.0173013,1.4
1000,0.177,0.879,0.01237437,1.5
1000,0.154,0.876,0.009607608,1.6
1000,0.135,0.887,0.007757758,1.7
1000,0.105,0.873,0.005115115,1.8
1000,0.088,0.9,0.0037998,1.9
1000,0.084,0.881,0.004096096,2
1000,0.069,0.9,0.002802803,2.1
1000,0.063,0.894,0.002804805,2.2
1000,0.048,0.837,0.002184184,2.3
1000,0.045,0.863,0.002086086,2.4
1000,0.04,0.839,0.001937938,2.5
1000,0.036,0.908,0.001567568,2.6
1000,0.032,0.906,0.001565566,2.7
1000,0.032,0.896,0.001601602,2.8
1000,0.028,0.908,0.001413413,2.9
1000,0.025,0.906,0.001385385,3
1000,0.021,0.919,0.001291291,3.1
1000,0.021,0.923,0.001293293,3.2
1000,0.017,0.925,0.001261261,3.3
1000,0.015,0.937,0.001205205,3.4
1000,0.014,0.937,0.001175175,3.5
1000,0.012,0.946,0.001141141,3.6
1000,0.013,0.942,0.001157157,3.7
1000,0.013,0.947,0.001169169,3.8
1000,0.009,0.952,0.001127127,3.9
1000,0.009,0.955,0.001105105,4
1000,0.007,0.965,0.001079079,4.1
1000,0.009,0.954,0.001109109,4.2
1000,0.006,0.969,0.001073073,4.3
1000,0.007,0.967,0.001073073,4.4
1000,0.006,0.969,0.001065065,4.5
1000,0.007,0.965,0.001075075,4.6
1000,0.005,0.972,0.001063063,4.7
1000,0.006,0.967,0.001069069,4.8
1000,0.004,0.977,0.001045045,4.9
1000,0.004,0.976,0.001047047,5
1000,0.415,0.782,0.06649449,1
1000,0.376,0.804,0.0531011,1.1
1000,0.308,0.83,0.03772573,1.2
1000,0.258,0.85,0.02600801,1.3
1000,0.213,0.858,0.01681682,1.4
1000,0.17,0.863,0.01072272,1.5
1000,0.142,0.882,0.008212212,1.6
1000,0.127,0.864,0.006454454,1.7
1000,0.108,0.881,0.005705706,1.8
1000,0.092,0.844,0.004288288,1.9
1000,0.079,0.843,0.00364965,2
1000,0.07,0.859,0.003293293,2.1
1000,0.066,0.869,0.002816817,2.2
1000,0.051,0.885,0.002156156,2.3
1000,0.045,0.904,0.001853854,2.4
1000,0.04,0.843,0.001917918,2.5
1000,0.03,0.901,0.001427427,2.6
1000,0.038,0.913,0.001633634,2.7
1000,0.032,0.908,0.00151952,2.8
1000,0.026,0.917,0.001365365,2.9
1000,0.022,0.924,0.001323323,3
1000,0.024,0.909,0.001319319,3.1
1000,0.022,0.922,0.001293293,3.2
1000,0.019,0.929,0.001247247,3.3
1000,0.016,0.935,0.001217217,3.4
1000,0.014,0.933,0.001175175,3.5
1000,0.013,0.945,0.001173173,3.6
1000,0.014,0.945,0.001185185,3.7
1000,0.013,0.941,0.001157157,3.8
1000,0.011,0.95,0.001123123,3.9
1000,0.01,0.95,0.001123123,4
1000,0.009,0.955,0.001105105,4.1
1000,0.008,0.958,0.001095095,4.2
1000,0.007,0.965,0.001075075,4.3
1000,0.006,0.968,0.001063063,4.4
1000,0.005,0.972,0.001063063,4.5
1000,0.006,0.971,0.001065065,4.6
1000,0.006,0.969,0.001065065,4.7
1000,0.007,0.964,0.001083083,4.8
1000,0.004,0.976,0.001045045,4.9
1000,0.002,0.986,0.001025025,5
1000,0.426,0.778,0.07061862,1
1000,0.356,0.811,0.04537137,1.1
1000,0.308,0.825,0.03607207,1.2
1000,0.256,0.852,0.02545546,1.3
1000,0.213,0.864,0.01783183,1.4
1000,0.181,0.877,0.01215015,1.5
1000,0.15,0.865,0.008706707,1.6
1000,0.116,0.872,0.00614014,1.7
1000,0.108,0.854,0.00556957,1.8
1000,0.091,0.862,0.004666667,1.9
1000,0.076,0.896,0.003225225,2
1000,0.068,0.817,0.003277277,2.1
1000,0.06,0.891,0.002432432,2.2
1000,0.051,0.87,0.002236236,2.3
1000,0.043,0.81,0.002148148,2.4
1000,0.04,0.872,0.001733734,2.5
1000,0.033,0.871,0.001667668,2.6
1000,0.033,0.894,0.001573574,2.7
1000,0.034,0.903,0.001491491,2.8
1000,0.027,0.914,0.001427427,2.9
1000,0.023,0.917,0.001311311,3
1000,0.023,0.918,0.001359359,3.1
1000,0.019,0.927,0.001273273,3.2
1000,0.019,0.923,0.001237237,3.3
1000,0.016,0.928,0.001211211,3.4
1000,0.014,0.936,0.001171171,3.5
1000,0.014,0.943,0.001189189,3.6
1000,0.011,0.949,0.001127127,3.7
1000,0.012,0.946,0.001151151,3.8
1000,0.012,0.947,0.001159159,3.9
1000,0.009,0.952,0.001117117,4
1000,0.008,0.959,0.001097097,4.1
1000,0.008,0.96,0.001095095,4.2
1000,0.006,0.967,0.001067067,4.3
1000,0.009,0.955,0.001109109,4.4
1000,0.008,0.96,0.001087087,4.5
1000,0.005,0.976,0.001051051,4.6
1000,0.005,0.972,0.001057057,4.7
1000,0.005,0.967,0.001063063,4.8
1000,0.004,0.978,0.001043043,4.9
1000,0.004,0.978,0.001045045,5
1000,0.437,0.768,0.07578378,1
1000,0.378,0.8,0.05504505,1.1
1000,0.312,0.826,0.03663664,1.2
1000,0.265,0.85,0.02697297,1.3
1000,0.213,0.868,0.01687287,1.4
1000,0.18,0.874,0.01304905,1.5
1000,0.148,0.872,0.008520521,1.6
1000,0.122,0.873,0.006228228,1.7
1000,0.107,0.857,0.005677678,1.8
1000,0.088,0.879,0.004074074,1.9
1000,0.083,0.865,0.003995996,2
1000,0.068,0.832,0.002998999,2.1
1000,0.06,0.89,0.00238038,2.2
1000,0.057,0.896,0.00243043,2.3
1000,0.047,0.827,0.002242242,2.4
1000,0.041,0.907,0.00174975,2.5
1000,0.039,0.897,0.001763764,2.6
1000,0.035,0.904,0.00158959,2.7
1000,0.031,0.898,0.001503504,2.8
1000,0.027,0.911,0.001457457,2.9
1000,0.025,0.916,0.001337337,3
1000,0.022,0.918,0.001325325,3.1
1000,0.018,0.922,0.001291291,3.2
1000,0.018,0.929,0.001245245,3.3
1000,0.017,0.925,0.001235235,3.4
1000,0.015,0.932,0.001223223,3.5
1000,0.011,0.949,0.001129129,3.6
1000,0.013,0.943,0.001159159,3.7
1000,0.01,0.952,0.001117117,3.8
1000,0.01,0.944,0.001131131,3.9
1000,0.01,0.952,0.001113113,4
1000,0.008,0.961,0.001085085,4.1
1000,0.006,0.97,0.001069069,4.2
1000,0.007,0.965,0.001083083,4.3
1000,0.005,0.974,0.001055055,4.4
1000,0.006,0.964,0.001073073,4.5
1000,0.005,0.973,0.001051051,4.6
1000,0.006,0.968,0.001071071,4.7
1000,0.004,0.975,0.001049049,4.8
1000,0.004,0.975,0.001047047,4.9
1000,0.005,0.973,0.001051051,5
1000,0.442,0.764,0.07831632,1
1000,0.361,0.795,0.05138138,1.1
1000,0.303,0.83,0.03638238,1.2
1000,0.266,0.846,0.02698699,1.3
1000,0.22,0.871,0.01834635,1.4
1000,0.186,0.864,0.01232232,1.5
1000,0.149,0.871,0.009469469,1.6
1000,0.123,0.868,0.006790791,1.7
1000,0.101,0.886,0.004774775,1.8
1000,0.085,0.827,0.003895896,1.9
1000,0.077,0.887,0.003333333,2
1000,0.069,0.887,0.003175175,2.1
1000,0.06,0.9,0.002474474,2.2
1000,0.051,0.868,0.002164164,2.3
1000,0.044,0.899,0.001845846,2.4
1000,0.043,0.89,0.0018999,2.5
1000,0.037,0.869,0.001905906,2.6
1000,0.033,0.907,0.001555556,2.7
1000,0.03,0.855,0.00164965,2.8
1000,0.029,0.91,0.001425425,2.9
1000,0.022,0.918,0.001317317,3
1000,0.021,0.912,0.001287287,3.1
1000,0.02,0.919,0.001249249,3.2
1000,0.019,0.925,0.001319319,3.3
1000,0.018,0.924,0.001251251,3.4
1000,0.013,0.939,0.001155155,3.5
1000,0.012,0.949,0.001153153,3.6
1000,0.013,0.938,0.001169169,3.7
1000,0.012,0.94,0.001157157,3.8
1000,0.01,0.951,0.001117117,3.9
1000,0.011,0.948,0.001127127,4
1000,0.008,0.959,0.001099099,4.1
1000,0.008,0.96,0.001093093,4.2
1000,0.005,0.972,0.001059059,4.3
1000,0.008,0.959,0.001089089,4.4
1000,0.007,0.966,0.001075075,4.5
1000,0.004,0.975,0.001047047,4.6
1000,0.005,0.972,0.001053053,4.7
1000,0.005,0.97,0.001057057,4.8
1000,0.004,0.979,0.001043043,4.9
1000,0.004,0.98,0.001039039,5
1000,0.43,0.773,0.07291892,1
1000,0.378,0.786,0.05812212,1.1
1000,0.31,0.829,0.03727327,1.2
1000,0.255,0.848,0.0251031,1.3
1000,0.209,0.871,0.01660861,1.4
1000,0.178,0.881,0.01167968,1.5
1000,0.14,0.867,0.008056056,1.6
1000,0.133,0.868,0.00766967,1.7
1000,0.112,0.882,0.005437437,1.8
1000,0.088,0.827,0.00395996,1.9
1000,0.077,0.836,0.003853854,2
1000,0.067,0.846,0.002994995,2.1
1000,0.06,0.859,0.002660661,2.2
1000,0.056,0.861,0.002512513,2.3
1000,0.05,0.901,0.001883884,2.4
1000,0.036,0.901,0.001723724,2.5
1000,0.037,0.912,0.001645646,2.6
1000,0.036,0.885,0.00184985,2.7
1000,0.032,0.878,0.001581582,2.8
1000,0.026,0.897,0.001431431,2.9
1000,0.025,0.912,0.001353353,3
1000,0.021,0.921,0.001281281,3.1
1000,0.018,0.926,0.001249249,3.2
1000,0.016,0.929,0.001211211,3.3
1000,0.017,0.93,0.001227227,3.4
1000,0.016,0.932,0.001205205,3.5
1000,0.013,0.941,0.001155155,3.6
1000,0.011,0.948,0.001129129,3.7
1000,0.011,0.941,0.001159159,3.8
1000,0.011,0.947,0.001135135,3.9
1000,0.008,0.96,0.001089089,4
1000,0.008,0.957,0.001097097,4.1
1000,0.007,0.962,0.001083083,4.2
1000,0.008,0.958,0.001087087,4.3
1000,0.006,0.972,0.001063063,4.4
1000,0.006,0.962,0.001083083,4.5
1000,0.005,0.969,0.001061061,4.6
1000,0.006,0.967,0.001069069,4.7
1000,0.005,0.973,0.001053053,4.8
1000,0.005,0.975,0.001051051,4.9
1000,0.003,0.983,0.001031031,5
