Barabasi-Albert,1000,0.073,0.997,0,0.002
Barabasi-Albert,1000,0.073,0.998,0.01,0.002
Barabasi-Albert,1000,0.074,0.997,0.02,0.002
Barabasi-Albert,1000,0.073,0.998,0.03,0.002
Barabasi-Albert,1000,0.073,0.997,0.04,0.002
Barabasi-Albert,1000,0.074,0.998,0.05,0.002
Barabasi-Albert,1000,0.074,0.997,0.06,0.002
Barabasi-Albert,1000,0.072,0.997,0.07,0.002
Barabasi-Albert,1000,0.073,0.998,0.08,0.002
Barabasi-Albert,1000,0.073,0.999,0.09,0.002
Barabasi-Albert,1000,0.072,0.997,0.1,0.002
Barabasi-Albert,1000,0.073,0.997,0.11,0.002
Barabasi-Albert,1000,0.073,0.999,0.12,0.002
Barabasi-Albert,1000,0.072,0.998,0.13,0.002
Barabasi-Albert,1000,0.073,0.998,0.14,0.002
Barabasi-Albert,1000,0.072,0.998,0.15,0.002
Barabasi-Albert,1000,0.073,0.998,0.16,0.002
Barabasi-Albert,1000,0.072,0.998,0.17,0.002
Barabasi-Albert,1000,0.072,0.997,0.18,0.002
Barabasi-Albert,1000,0.071,0.997,0.19,0.002
Barabasi-Albert,1000,0.072,0.997,0.2,0.002
Barabasi-Albert,1000,0.072,0.997,0.21,0.002
Barabasi-Albert,1000,0.071,0.999,0.22,0.002
Barabasi-Albert,1000,0.073,0.997,0.23,0.002
Barabasi-Albert,1000,0.072,0.998,0.24,0.002
Barabasi-Albert,1000,0.072,0.998,0.25,0.002
Barabasi-Albert,1000,0.072,0.998,0.26,0.002
Barabasi-Albert,1000,0.071,0.997,0.27,0.002
Barabasi-Albert,1000,0.071,0.997,0.28,0.002
Barabasi-Albert,1000,0.071,0.997,0.29,0.002
Barabasi-Albert,1000,0.072,0.998,0.3,0.002
Barabasi-Albert,1000,0.072,0.997,0.31,0.002
Barabasi-Albert,1000,0.072,0.998,0.32,0.002
Barabasi-Albert,1000,0.071,0.996,0.33,0.002
Barabasi-Albert,1000,0.071,0.995,0.34,0.002
Barabasi-Albert,1000,0.07,0.996,0.35,0.002
Barabasi-Albert,1000,0.071,0.997,0.36,0.002
Barabasi-Albert,1000,0.071,0.999,0.37,0.002
Barabasi-Albert,1000,0.071,0.996,0.38,0.002
Barabasi-Albert,1000,0.071,0.996,0.39,0.002
Barabasi-Albert,1000,0.069,0.996,0.4,0.002
Barabasi-Albert,1000,0.071,0.998,0.41,0.002
Barabasi-Albert,1000,0.072,0.997,0.42,0.002
Barabasi-Albert,1000,0.071,0.995,0.43,0.002
Barabasi-Albert,1000,0.07,0.996,0.44,0.002
Barabasi-Albert,1000,0.071,0.997,0.45,0.002
Barabasi-Albert,1000,0.07,0.998,0.46,0.002
Barabasi-Albert,1000,0.07,0.996,0.47,0.002
Barabasi-Albert,1000,0.069,0.996,0.48,0.002
Barabasi-Albert,1000,0.071,0.997,0.49,0.002
Barabasi-Albert,1000,0.069,0.997,0.5,0.002
Barabasi-Albert,1000,0.069,0.997,0.51,0.002
Barabasi-Albert,1000,0.069,0.994,0.52,0.002
Barabasi-Albert,1000,0.07,0.997,0.53,0.002
Barabasi-Albert,1000,0.068,0.995,0.54,0.002
Barabasi-Albert,1000,0.07,0.997,0.55,0.002
Barabasi-Albert,1000,0.069,0.998,0.56,0.002
Barabasi-Albert,1000,0.069,0.997,0.57,0.002
Barabasi-Albert,1000,0.069,0.999,0.58,0.002
Barabasi-Albert,1000,0.069,0.997,0.59,0.002
Barabasi-Albert,1000,0.069,0.999,0.6,0.002
Barabasi-Albert,1000,0.07,0.996,0.61,0.002
Barabasi-Albert,1000,0.069,0.996,0.62,0.002
Barabasi-Albert,1000,0.07,0.995,0.63,0.002
Barabasi-Albert,1000,0.069,0.996,0.64,0.002
Barabasi-Albert,1000,0.069,0.997,0.65,0.002
Barabasi-Albert,1000,0.069,0.995,0.66,0.002
Barabasi-Albert,1000,0.067,0.995,0.67,0.002
Barabasi-Albert,1000,0.068,0.997,0.68,0.002
Barabasi-Albert,1000,0.066,0.995,0.69,0.002
Barabasi-Albert,1000,0.067,0.997,0.7,0.002
Barabasi-Albert,1000,0.067,0.998,0.71,0.002
Barabasi-Albert,1000,0.068,0.997,0.72,0.002
Barabasi-Albert,1000,0.069,0.996,0.73,0.002
Barabasi-Albert,1000,0.066,0.997,0.74,0.002
Barabasi-Albert,1000,0.067,0.997,0.75,0.002
Barabasi-Albert,1000,0.067,0.998,0.76,0.002
Barabasi-Albert,1000,0.068,0.998,0.77,0.002
Barabasi-Albert,1000,0.067,0.997,0.78,0.002
Barabasi-Albert,1000,0.066,0.997,0.79,0.002
Barabasi-Albert,1000,0.068,0.997,0.8,0.002
Barabasi-Albert,1000,0.067,0.996,0.81,0.002
Barabasi-Albert,1000,0.066,0.994,0.82,0.002
Barabasi-Albert,1000,0.067,0.998,0.83,0.002
Barabasi-Albert,1000,0.066,0.998,0.84,0.002
Barabasi-Albert,1000,0.065,0.996,0.85,0.002
Barabasi-Albert,1000,0.067,0.995,0.86,0.002
Barabasi-Albert,1000,0.065,0.995,0.87,0.002
Barabasi-Albert,1000,0.063,0.989,0.88,0.002
Barabasi-Albert,1000,0.064,0.999,0.89,0.002
Barabasi-Albert,1000,0.064,0.994,0.9,0.002
Barabasi-Albert,1000,0.064,0.995,0.91,0.002
Barabasi-Albert,1000,0.065,0.99,0.92,0.002
Barabasi-Albert,1000,0.065,0.991,0.93,0.002
Barabasi-Albert,1000,0.065,0.995,0.94,0.002
Barabasi-Albert,1000,0.066,0.998,0.95,0.002
Barabasi-Albert,1000,0.063,0.997,0.96,0.002
Barabasi-Albert,1000,0.063,0.988,0.97,0.002
Barabasi-Albert,1000,0.064,0.992,0.98,0.002
Barabasi-Albert,1000,0.063,0.992,0.99,0.002
Barabasi-Albert,1000,0.063,0.993,1,0.002
Barabasi-Albert,1000,0.062,0.98,1.01,0.002
Barabasi-Albert,1000,0.064,0.99,1.02,0.002
Barabasi-Albert,1000,0.061,0.994,1.03,0.002
Barabasi-Albert,1000,0.062,0.993,1.04,0.002
Barabasi-Albert,1000,0.063,0.995,1.05,0.002
Barabasi-Albert,1000,0.06,0.994,1.06,0.002
Barabasi-Albert,1000,0.061,0.997,1.07,0.002
Barabasi-Albert,1000,0.06,0.992,1.08,0.002
Barabasi-Albert,1000,0.061,0.991,1.09,0.002
Barabasi-Albert,1000,0.061,0.996,1.1,0.002
Barabasi-Albert,1000,0.061,0.992,1.11,0.002
Barabasi-Albert,1000,0.061,0.995,1.12,0.002
Barabasi-Albert,1000,0.058,0.98,1.13,0.002
Barabasi-Albert,1000,0.058,0.98,1.14,0.002
Barabasi-Albert,1000,0.061,0.992,1.15,0.002
Barabasi-Albert,1000,0.058,0.972,1.16,0.002
Barabasi-Albert,1000,0.058,0.99,1.17,0.002
Barabasi-Albert,1000,0.06,0.99,1.18,0.002
Barabasi-Albert,1000,0.056,0.978,1.19,0.002
Barabasi-Albert,1000,0.058,0.995,1.2,0.002
Barabasi-Albert,1000,0.056,0.988,1.21,0.002
Barabasi-Albert,1000,0.056,0.986,1.22,0.002
Barabasi-Albert,1000,0.056,0.995,1.23,0.002
Barabasi-Albert,1000,0.056,0.982,1.24,0.002
Barabasi-Albert,1000,0.055,0.996,1.25,0.002
Barabasi-Albert,1000,0.055,0.98,1.26,0.002
Barabasi-Albert,1000,0.051,0.975,1.27,0.002
Barabasi-Albert,1000,0.052,0.987,1.28,0.002
Barabasi-Albert,1000,0.054,0.992,1.29,0.002
Barabasi-Albert,1000,0.051,0.996,1.3,0.002
Barabasi-Albert,1000,0.051,0.976,1.31,0.002
Barabasi-Albert,1000,0.046,0.926,1.32,0.002
Barabasi-Albert,1000,0.051,0.937,1.33,0.002
Barabasi-Albert,1000,0.049,0.982,1.34,0.002
Barabasi-Albert,1000,0.051,0.984,1.35,0.002
Barabasi-Albert,1000,0.041,0.843,1.36,0.002
Barabasi-Albert,1000,0.033,0.994,1.37,0.002
Barabasi-Albert,1000,0.042,0.956,1.38,0.002
Barabasi-Albert,1000,0.029,0.997,1.39,0.002
Barabasi-Albert,1000,0.032,0.987,1.4,0.002
Barabasi-Albert,1000,0.037,0.995,1.41,0.002
Barabasi-Albert,1000,0.037,0.902,1.42,0.002
Barabasi-Albert,1000,0.037,0.838,1.43,0.002
Barabasi-Albert,1000,0.037,0.991,1.44,0.002
Barabasi-Albert,1000,0.019,0.648,1.45,0.002
Barabasi-Albert,1000,0.028,0.858,1.46,0.002
Barabasi-Albert,1000,0.04,0.921,1.47,0.002
Barabasi-Albert,1000,0.028,0.777,1.48,0.002
Barabasi-Albert,1000,0.022,0.984,1.49,0.002
Barabasi-Albert,1000,0.02,0.677,1.5,0.002
Barabasi-Albert,1000,0.016,0.622,1.51,0.002
Barabasi-Albert,1000,0.015,0.997,1.52,0.002
Barabasi-Albert,1000,0.016,0.996,1.53,0.002
Barabasi-Albert,1000,0.019,0.995,1.54,0.002
Barabasi-Albert,1000,0.01,0.575,1.55,0.002
Barabasi-Albert,1000,0.018,0.999,1.56,0.002
Barabasi-Albert,1000,0.017,0.998,1.57,0.002
Barabasi-Albert,1000,0.013,0.997,1.58,0.002
Barabasi-Albert,1000,0.013,0.999,1.59,0.002
Barabasi-Albert,1000,0.011,0.576,1.6,0.002
Barabasi-Albert,1000,0.013,0.636,1.61,0.002
Barabasi-Albert,1000,0.009,0.999,1.62,0.002
Barabasi-Albert,1000,0.007,0.552,1.63,0.002
Barabasi-Albert,1000,0.013,0.659,1.64,0.002
Barabasi-Albert,1000,0.013,0.617,1.65,0.002
Barabasi-Albert,1000,0.007,0.999,1.66,0.002
Barabasi-Albert,1000,0.009,0.563,1.67,0.002
Barabasi-Albert,1000,0.008,0.999,1.68,0.002
Barabasi-Albert,1000,0.006,0.999,1.69,0.002
Barabasi-Albert,1000,0.007,0.555,1.7,0.002
Barabasi-Albert,1000,0.01,0.997,1.71,0.002
Barabasi-Albert,1000,0.007,0.552,1.72,0.002
Barabasi-Albert,1000,0.008,0.995,1.73,0.002
Barabasi-Albert,1000,0.006,0.54,1.74,0.002
Barabasi-Albert,1000,0.009,0.992,1.75,0.002
Barabasi-Albert,1000,0.007,0.998,1.76,0.002
Barabasi-Albert,1000,0.007,0.971,1.77,0.002
Barabasi-Albert,1000,0.007,0.893,1.78,0.002
Barabasi-Albert,1000,0.006,0.999,1.79,0.002
Barabasi-Albert,1000,0.008,0.958,1.8,0.002
Barabasi-Albert,1000,0.004,0.998,1.81,0.002
Barabasi-Albert,1000,0.004,0.996,1.82,0.002
Barabasi-Albert,1000,0.003,0.999,1.83,0.002
Barabasi-Albert,1000,0.003,0.999,1.84,0.002
Barabasi-Albert,1000,0.005,0.578,1.85,0.002
Barabasi-Albert,1000,0.005,0.993,1.86,0.002
Barabasi-Albert,1000,0.004,0.997,1.87,0.002
Barabasi-Albert,1000,0.004,0.525,1.88,0.002
Barabasi-Albert,1000,0.004,0.992,1.89,0.002
Barabasi-Albert,1000,0.004,0.995,1.9,0.002
Barabasi-Albert,1000,0.005,0.997,1.91,0.002
Barabasi-Albert,1000,0.004,0.525,1.92,0.002
Barabasi-Albert,1000,0.004,0.998,1.93,0.002
Barabasi-Albert,1000,0.003,0.999,1.94,0.002
Barabasi-Albert,1000,0.002,0.999,1.95,0.002
Barabasi-Albert,1000,0.004,0.998,1.96,0.002
Barabasi-Albert,1000,0.002,0.999,1.97,0.002
Barabasi-Albert,1000,0.002,0.999,1.98,0.002
Barabasi-Albert,1000,0.003,0.998,1.99,0.002
Barabasi-Albert,1000,0.003,0.994,2,0.002
Barabasi-Albert,1000,0.002,0.999,2.01,0.002
Barabasi-Albert,1000,0.003,0.514,2.02,0.002
Barabasi-Albert,1000,0.002,0.51,2.03,0.002
Barabasi-Albert,1000,0.003,0.999,2.04,0.002
Barabasi-Albert,1000,0.002,0.51,2.05,0.002
Barabasi-Albert,1000,0.002,0.507,2.06,0.002
Barabasi-Albert,1000,0.002,0.999,2.07,0.002
Barabasi-Albert,1000,0.002,0.998,2.08,0.002
Barabasi-Albert,1000,0.002,0.503,2.09,0.002
Barabasi-Albert,1000,0.002,0.998,2.1,0.002
Barabasi-Albert,1000,0.003,0.999,2.11,0.002
Barabasi-Albert,1000,0.001,0.999,2.12,0.002
Barabasi-Albert,1000,0.004,0.997,2.13,0.002
Barabasi-Albert,1000,0.002,0.517,2.14,0.002
Barabasi-Albert,1000,0.002,0.999,2.15,0.002
Barabasi-Albert,1000,0.002,0.999,2.16,0.002
Barabasi-Albert,1000,0.002,0.506,2.17,0.002
Barabasi-Albert,1000,0.002,0.999,2.18,0.002
Barabasi-Albert,1000,0.002,0.998,2.19,0.002
Barabasi-Albert,1000,0.003,0.998,2.2,0.002
Barabasi-Albert,1000,0.002,0.999,2.21,0.002
Barabasi-Albert,1000,0.002,0.506,2.22,0.002
Barabasi-Albert,1000,0.003,0.998,2.23,0.002
Barabasi-Albert,1000,0.002,0.999,2.24,0.002
Barabasi-Albert,1000,0.001,0.999,2.25,0.002
Barabasi-Albert,1000,0.002,0.507,2.26,0.002
Barabasi-Albert,1000,0.002,0.508,2.27,0.002
Barabasi-Albert,1000,0.001,0.5,2.28,0.002
Barabasi-Albert,1000,0.002,0.998,2.29,0.002
Barabasi-Albert,1000,0.001,0.501,2.3,0.002
Barabasi-Albert,1000,0.002,0.507,2.31,0.002
Barabasi-Albert,1000,0.002,0.504,2.32,0.002
Barabasi-Albert,1000,0.001,0.997,2.33,0.002
Barabasi-Albert,1000,0.002,0.507,2.34,0.002
Barabasi-Albert,1000,0.002,0.999,2.35,0.002
Barabasi-Albert,1000,0.001,0.502,2.36,0.002
Barabasi-Albert,1000,0.002,0.506,2.37,0.002
Barabasi-Albert,1000,0.001,0.999,2.38,0.002
Barabasi-Albert,1000,0.002,0.997,2.39,0.002
Barabasi-Albert,1000,0.001,0.503,2.4,0.002
Barabasi-Albert,1000,0.002,0.995,2.41,0.002
Barabasi-Albert,1000,0.001,0.999,2.42,0.002
Barabasi-Albert,1000,0.001,0.993,2.43,0.002
Barabasi-Albert,1000,0.002,0.998,2.44,0.002
Barabasi-Albert,1000,0.001,0.503,2.45,0.002
Barabasi-Albert,1000,0.002,0.996,2.46,0.002
Barabasi-Albert,1000,0.001,0.999,2.47,0.002
Barabasi-Albert,1000,0.001,0.502,2.48,0.002
Barabasi-Albert,1000,0.001,0.999,2.49,0.002
Barabasi-Albert,1000,0.001,0.999,2.5,0.002
Barabasi-Albert,1000,0.002,0.504,2.51,0.002
Barabasi-Albert,1000,0.001,0.999,2.52,0.002
Barabasi-Albert,1000,0.001,0.502,2.53,0.002
Barabasi-Albert,1000,0.001,0.502,2.54,0.002
Barabasi-Albert,1000,0.001,0.502,2.55,0.002
Barabasi-Albert,1000,0.002,0.504,2.56,0.002
Barabasi-Albert,1000,0.001,0.999,2.57,0.002
Barabasi-Albert,1000,0.002,0.998,2.58,0.002
Barabasi-Albert,1000,0.002,0.999,2.59,0.002
Barabasi-Albert,1000,0.001,0.502,2.6,0.002
Barabasi-Albert,1000,0.002,0.51,2.61,0.002
Barabasi-Albert,1000,0.001,0.999,2.62,0.002
Barabasi-Albert,1000,0.001,0.999,2.63,0.002
Barabasi-Albert,1000,0.001,0.999,2.64,0.002
Barabasi-Albert,1000,0.001,0.997,2.65,0.002
Barabasi-Albert,1000,0.001,0.999,2.66,0.002
Barabasi-Albert,1000,0.001,0.502,2.67,0.002
Barabasi-Albert,1000,0.002,0.503,2.68,0.002
Barabasi-Albert,1000,0.001,0.5,2.69,0.002
Barabasi-Albert,1000,0.001,0.999,2.7,0.002
Barabasi-Albert,1000,0.002,0.999,2.71,0.002
Barabasi-Albert,1000,0.001,0.997,2.72,0.002
Barabasi-Albert,1000,0.001,0.501,2.73,0.002
Barabasi-Albert,1000,0.001,0.999,2.74,0.002
Barabasi-Albert,1000,0.001,0.999,2.75,0.002
Barabasi-Albert,1000,0.002,0.505,2.76,0.002
Barabasi-Albert,1000,0.001,0.5,2.77,0.002
Barabasi-Albert,1000,0.001,0.999,2.78,0.002
Barabasi-Albert,1000,0.001,0.5,2.79,0.002
Barabasi-Albert,1000,0.001,0.999,2.8,0.002
Barabasi-Albert,1000,0.001,0.5,2.81,0.002
Barabasi-Albert,1000,0.001,0.5,2.82,0.002
Barabasi-Albert,1000,0.001,0.999,2.83,0.002
Barabasi-Albert,1000,0.001,0.999,2.84,0.002
Barabasi-Albert,1000,0.001,0.999,2.85,0.002
Barabasi-Albert,1000,0.001,0.999,2.86,0.002
Barabasi-Albert,1000,0.001,0.999,2.87,0.002
Barabasi-Albert,1000,0.001,0.999,2.88,0.002
Barabasi-Albert,1000,0.001,0.998,2.89,0.002
Barabasi-Albert,1000,0.001,0.5,2.9,0.002
Barabasi-Albert,1000,0.001,0.998,2.91,0.002
Barabasi-Albert,1000,0.002,0.999,2.92,0.002
Barabasi-Albert,1000,0.001,0.501,2.93,0.002
Barabasi-Albert,1000,0.001,0.501,2.94,0.002
Barabasi-Albert,1000,0.001,0.999,2.95,0.002
Barabasi-Albert,1000,0.001,0.999,2.96,0.002
Barabasi-Albert,1000,0.001,0.5,2.97,0.002
Barabasi-Albert,1000,0.001,0.999,2.98,0.002
Barabasi-Albert,1000,0.002,0.505,2.99,0.002
Barabasi-Albert,1000,0.001,0.5,3,0.002
